digraph BitonicSort_7004 {
node0 [label="KeySource_6381", push="48", pop="0", peek="0", pushType="int", popType="void", peekType="void", codeSize="30 b", stackSize="32 b", work="112"];
node1 [label="WEIGHTED_ROUND_ROBIN_Splitter_6849", push="48", pop="48", peek="0", pushType="int", popType="int", peekType="void", codeSize="78 b", stackSize="160 b", work="0"];
node0 -> node1;
node2 [label="WEIGHTED_ROUND_ROBIN_Splitter_6850", push="12", pop="12", peek="0", pushType="int", popType="int", peekType="void", codeSize="42 b", stackSize="96 b", work="0"];
node1 -> node2;
node3 [label="CompareExchange_6382", push="6", pop="6", peek="6", pushType="int", popType="int", peekType="int", codeSize="24 b", stackSize="128 b", work="14"];
node2 -> node3;
node4 [label="CompareExchange_6383", push="6", pop="6", peek="6", pushType="int", popType="int", peekType="int", codeSize="24 b", stackSize="128 b", work="14"];
node2 -> node4;
node5 [label="WEIGHTED_ROUND_ROBIN_Joiner_6851", push="12", pop="12", peek="0", pushType="int", popType="int", peekType="void", codeSize="42 b", stackSize="96 b", work="0"];
node3 -> node5;
node4 -> node5;
node6 [label="WEIGHTED_ROUND_ROBIN_Splitter_6852", push="12", pop="12", peek="0", pushType="int", popType="int", peekType="void", codeSize="42 b", stackSize="96 b", work="0"];
node1 -> node6;
node7 [label="CompareExchange_6384", push="6", pop="6", peek="6", pushType="int", popType="int", peekType="int", codeSize="24 b", stackSize="128 b", work="14"];
node6 -> node7;
node8 [label="CompareExchange_6385", push="6", pop="6", peek="6", pushType="int", popType="int", peekType="int", codeSize="24 b", stackSize="128 b", work="14"];
node6 -> node8;
node9 [label="WEIGHTED_ROUND_ROBIN_Joiner_6853", push="12", pop="12", peek="0", pushType="int", popType="int", peekType="void", codeSize="42 b", stackSize="96 b", work="0"];
node7 -> node9;
node8 -> node9;
node10 [label="WEIGHTED_ROUND_ROBIN_Splitter_6854", push="12", pop="12", peek="0", pushType="int", popType="int", peekType="void", codeSize="42 b", stackSize="96 b", work="0"];
node1 -> node10;
node11 [label="CompareExchange_6386", push="6", pop="6", peek="6", pushType="int", popType="int", peekType="int", codeSize="24 b", stackSize="128 b", work="14"];
node10 -> node11;
node12 [label="CompareExchange_6387", push="6", pop="6", peek="6", pushType="int", popType="int", peekType="int", codeSize="24 b", stackSize="128 b", work="14"];
node10 -> node12;
node13 [label="WEIGHTED_ROUND_ROBIN_Joiner_6855", push="12", pop="12", peek="0", pushType="int", popType="int", peekType="void", codeSize="42 b", stackSize="96 b", work="0"];
node11 -> node13;
node12 -> node13;
node14 [label="WEIGHTED_ROUND_ROBIN_Splitter_6856", push="12", pop="12", peek="0", pushType="int", popType="int", peekType="void", codeSize="42 b", stackSize="96 b", work="0"];
node1 -> node14;
node15 [label="CompareExchange_6388", push="6", pop="6", peek="6", pushType="int", popType="int", peekType="int", codeSize="24 b", stackSize="128 b", work="14"];
node14 -> node15;
node16 [label="CompareExchange_6389", push="6", pop="6", peek="6", pushType="int", popType="int", peekType="int", codeSize="24 b", stackSize="128 b", work="14"];
node14 -> node16;
node17 [label="WEIGHTED_ROUND_ROBIN_Joiner_6857", push="12", pop="12", peek="0", pushType="int", popType="int", peekType="void", codeSize="42 b", stackSize="96 b", work="0"];
node15 -> node17;
node16 -> node17;
node18 [label="WEIGHTED_ROUND_ROBIN_Joiner_6858", push="48", pop="48", peek="0", pushType="int", popType="int", peekType="void", codeSize="78 b", stackSize="160 b", work="0"];
node5 -> node18;
node9 -> node18;
node13 -> node18;
node17 -> node18;
node19 [label="WEIGHTED_ROUND_ROBIN_Splitter_6735", push="48", pop="48", peek="0", pushType="int", popType="int", peekType="void", codeSize="78 b", stackSize="160 b", work="0"];
node18 -> node19;
node20 [label="Pre_CollapsedDataParallel_1_6684", push="12", pop="12", peek="12", pushType="int", popType="int", peekType="int", codeSize="50 b", stackSize="96 b", work="47"];
node19 -> node20;
node21 [label="WEIGHTED_ROUND_ROBIN_Splitter_6892", push="12", pop="12", peek="0", pushType="int", popType="int", peekType="void", codeSize="42 b", stackSize="96 b", work="0"];
node20 -> node21;
node22 [label="CompareExchange_6894", push="6", pop="6", peek="6", pushType="int", popType="int", peekType="int", codeSize="24 b", stackSize="128 b", work="14"];
node21 -> node22;
node23 [label="CompareExchange_6895", push="6", pop="6", peek="6", pushType="int", popType="int", peekType="int", codeSize="24 b", stackSize="128 b", work="14"];
node21 -> node23;
node24 [label="WEIGHTED_ROUND_ROBIN_Joiner_6893", push="12", pop="12", peek="0", pushType="int", popType="int", peekType="void", codeSize="42 b", stackSize="96 b", work="0"];
node22 -> node24;
node23 -> node24;
node25 [label="Post_CollapsedDataParallel_2_6685", push="12", pop="12", peek="12", pushType="int", popType="int", peekType="int", codeSize="54 b", stackSize="96 b", work="51"];
node24 -> node25;
node26 [label="Pre_CollapsedDataParallel_1_6687", push="12", pop="12", peek="12", pushType="int", popType="int", peekType="int", codeSize="50 b", stackSize="96 b", work="47"];
node19 -> node26;
node27 [label="WEIGHTED_ROUND_ROBIN_Splitter_6896", push="12", pop="12", peek="0", pushType="int", popType="int", peekType="void", codeSize="42 b", stackSize="96 b", work="0"];
node26 -> node27;
node28 [label="CompareExchange_6898", push="6", pop="6", peek="6", pushType="int", popType="int", peekType="int", codeSize="24 b", stackSize="128 b", work="14"];
node27 -> node28;
node29 [label="CompareExchange_6899", push="6", pop="6", peek="6", pushType="int", popType="int", peekType="int", codeSize="24 b", stackSize="128 b", work="14"];
node27 -> node29;
node30 [label="WEIGHTED_ROUND_ROBIN_Joiner_6897", push="12", pop="12", peek="0", pushType="int", popType="int", peekType="void", codeSize="42 b", stackSize="96 b", work="0"];
node28 -> node30;
node29 -> node30;
node31 [label="Post_CollapsedDataParallel_2_6688", push="12", pop="12", peek="12", pushType="int", popType="int", peekType="int", codeSize="54 b", stackSize="96 b", work="51"];
node30 -> node31;
node32 [label="Pre_CollapsedDataParallel_1_6690", push="12", pop="12", peek="12", pushType="int", popType="int", peekType="int", codeSize="50 b", stackSize="96 b", work="47"];
node19 -> node32;
node33 [label="WEIGHTED_ROUND_ROBIN_Splitter_6900", push="12", pop="12", peek="0", pushType="int", popType="int", peekType="void", codeSize="42 b", stackSize="96 b", work="0"];
node32 -> node33;
node34 [label="CompareExchange_6902", push="6", pop="6", peek="6", pushType="int", popType="int", peekType="int", codeSize="24 b", stackSize="128 b", work="14"];
node33 -> node34;
node35 [label="CompareExchange_6903", push="6", pop="6", peek="6", pushType="int", popType="int", peekType="int", codeSize="24 b", stackSize="128 b", work="14"];
node33 -> node35;
node36 [label="WEIGHTED_ROUND_ROBIN_Joiner_6901", push="12", pop="12", peek="0", pushType="int", popType="int", peekType="void", codeSize="42 b", stackSize="96 b", work="0"];
node34 -> node36;
node35 -> node36;
node37 [label="Post_CollapsedDataParallel_2_6691", push="12", pop="12", peek="12", pushType="int", popType="int", peekType="int", codeSize="54 b", stackSize="96 b", work="51"];
node36 -> node37;
node38 [label="Pre_CollapsedDataParallel_1_6693", push="12", pop="12", peek="12", pushType="int", popType="int", peekType="int", codeSize="50 b", stackSize="96 b", work="47"];
node19 -> node38;
node39 [label="WEIGHTED_ROUND_ROBIN_Splitter_6904", push="12", pop="12", peek="0", pushType="int", popType="int", peekType="void", codeSize="42 b", stackSize="96 b", work="0"];
node38 -> node39;
node40 [label="CompareExchange_6906", push="6", pop="6", peek="6", pushType="int", popType="int", peekType="int", codeSize="24 b", stackSize="128 b", work="14"];
node39 -> node40;
node41 [label="CompareExchange_6907", push="6", pop="6", peek="6", pushType="int", popType="int", peekType="int", codeSize="24 b", stackSize="128 b", work="14"];
node39 -> node41;
node42 [label="WEIGHTED_ROUND_ROBIN_Joiner_6905", push="12", pop="12", peek="0", pushType="int", popType="int", peekType="void", codeSize="42 b", stackSize="96 b", work="0"];
node40 -> node42;
node41 -> node42;
node43 [label="Post_CollapsedDataParallel_2_6694", push="12", pop="12", peek="12", pushType="int", popType="int", peekType="int", codeSize="54 b", stackSize="96 b", work="51"];
node42 -> node43;
node44 [label="WEIGHTED_ROUND_ROBIN_Joiner_6736", push="48", pop="48", peek="0", pushType="int", popType="int", peekType="void", codeSize="78 b", stackSize="160 b", work="0"];
node25 -> node44;
node31 -> node44;
node37 -> node44;
node43 -> node44;
node45 [label="WEIGHTED_ROUND_ROBIN_Splitter_6859", push="48", pop="48", peek="0", pushType="int", popType="int", peekType="void", codeSize="42 b", stackSize="96 b", work="0"];
node44 -> node45;
node46 [label="WEIGHTED_ROUND_ROBIN_Splitter_6860", push="24", pop="24", peek="0", pushType="int", popType="int", peekType="void", codeSize="42 b", stackSize="96 b", work="0"];
node45 -> node46;
node47 [label="WEIGHTED_ROUND_ROBIN_Splitter_6861", push="12", pop="12", peek="0", pushType="int", popType="int", peekType="void", codeSize="42 b", stackSize="96 b", work="0"];
node46 -> node47;
node48 [label="CompareExchange_6398", push="6", pop="6", peek="6", pushType="int", popType="int", peekType="int", codeSize="24 b", stackSize="128 b", work="14"];
node47 -> node48;
node49 [label="CompareExchange_6399", push="6", pop="6", peek="6", pushType="int", popType="int", peekType="int", codeSize="24 b", stackSize="128 b", work="14"];
node47 -> node49;
node50 [label="WEIGHTED_ROUND_ROBIN_Joiner_6862", push="12", pop="12", peek="0", pushType="int", popType="int", peekType="void", codeSize="42 b", stackSize="96 b", work="0"];
node48 -> node50;
node49 -> node50;
node51 [label="WEIGHTED_ROUND_ROBIN_Splitter_6863", push="12", pop="12", peek="0", pushType="int", popType="int", peekType="void", codeSize="42 b", stackSize="96 b", work="0"];
node46 -> node51;
node52 [label="CompareExchange_6400", push="6", pop="6", peek="6", pushType="int", popType="int", peekType="int", codeSize="24 b", stackSize="128 b", work="14"];
node51 -> node52;
node53 [label="CompareExchange_6401", push="6", pop="6", peek="6", pushType="int", popType="int", peekType="int", codeSize="24 b", stackSize="128 b", work="14"];
node51 -> node53;
node54 [label="WEIGHTED_ROUND_ROBIN_Joiner_6864", push="12", pop="12", peek="0", pushType="int", popType="int", peekType="void", codeSize="42 b", stackSize="96 b", work="0"];
node52 -> node54;
node53 -> node54;
node55 [label="WEIGHTED_ROUND_ROBIN_Joiner_6865", push="24", pop="24", peek="0", pushType="int", popType="int", peekType="void", codeSize="42 b", stackSize="96 b", work="0"];
node50 -> node55;
node54 -> node55;
node56 [label="WEIGHTED_ROUND_ROBIN_Splitter_6866", push="24", pop="24", peek="0", pushType="int", popType="int", peekType="void", codeSize="42 b", stackSize="96 b", work="0"];
node45 -> node56;
node57 [label="WEIGHTED_ROUND_ROBIN_Splitter_6867", push="12", pop="12", peek="0", pushType="int", popType="int", peekType="void", codeSize="42 b", stackSize="96 b", work="0"];
node56 -> node57;
node58 [label="CompareExchange_6402", push="6", pop="6", peek="6", pushType="int", popType="int", peekType="int", codeSize="24 b", stackSize="128 b", work="14"];
node57 -> node58;
node59 [label="CompareExchange_6403", push="6", pop="6", peek="6", pushType="int", popType="int", peekType="int", codeSize="24 b", stackSize="128 b", work="14"];
node57 -> node59;
node60 [label="WEIGHTED_ROUND_ROBIN_Joiner_6868", push="12", pop="12", peek="0", pushType="int", popType="int", peekType="void", codeSize="42 b", stackSize="96 b", work="0"];
node58 -> node60;
node59 -> node60;
node61 [label="WEIGHTED_ROUND_ROBIN_Splitter_6869", push="12", pop="12", peek="0", pushType="int", popType="int", peekType="void", codeSize="42 b", stackSize="96 b", work="0"];
node56 -> node61;
node62 [label="CompareExchange_6404", push="6", pop="6", peek="6", pushType="int", popType="int", peekType="int", codeSize="24 b", stackSize="128 b", work="14"];
node61 -> node62;
node63 [label="CompareExchange_6405", push="6", pop="6", peek="6", pushType="int", popType="int", peekType="int", codeSize="24 b", stackSize="128 b", work="14"];
node61 -> node63;
node64 [label="WEIGHTED_ROUND_ROBIN_Joiner_6870", push="12", pop="12", peek="0", pushType="int", popType="int", peekType="void", codeSize="42 b", stackSize="96 b", work="0"];
node62 -> node64;
node63 -> node64;
node65 [label="WEIGHTED_ROUND_ROBIN_Joiner_6871", push="24", pop="24", peek="0", pushType="int", popType="int", peekType="void", codeSize="42 b", stackSize="96 b", work="0"];
node60 -> node65;
node64 -> node65;
node66 [label="WEIGHTED_ROUND_ROBIN_Joiner_6872", push="48", pop="48", peek="0", pushType="int", popType="int", peekType="void", codeSize="42 b", stackSize="96 b", work="0"];
node55 -> node66;
node65 -> node66;
node67 [label="WEIGHTED_ROUND_ROBIN_Splitter_6739", push="48", pop="48", peek="0", pushType="int", popType="int", peekType="void", codeSize="42 b", stackSize="96 b", work="0"];
node66 -> node67;
node68 [label="Pre_CollapsedDataParallel_1_6696", push="24", pop="24", peek="24", pushType="int", popType="int", peekType="int", codeSize="50 b", stackSize="96 b", work="91"];
node67 -> node68;
node69 [label="WEIGHTED_ROUND_ROBIN_Splitter_6908", push="24", pop="24", peek="0", pushType="int", popType="int", peekType="void", codeSize="60 b", stackSize="128 b", work="0"];
node68 -> node69;
node70 [label="CompareExchange_6910", push="8", pop="8", peek="8", pushType="int", popType="int", peekType="int", codeSize="24 b", stackSize="128 b", work="14"];
node69 -> node70;
node71 [label="CompareExchange_6911", push="8", pop="8", peek="8", pushType="int", popType="int", peekType="int", codeSize="24 b", stackSize="128 b", work="14"];
node69 -> node71;
node72 [label="CompareExchange_6912", push="8", pop="8", peek="8", pushType="int", popType="int", peekType="int", codeSize="24 b", stackSize="128 b", work="14"];
node69 -> node72;
node73 [label="WEIGHTED_ROUND_ROBIN_Joiner_6909", push="24", pop="24", peek="0", pushType="int", popType="int", peekType="void", codeSize="60 b", stackSize="128 b", work="0"];
node70 -> node73;
node71 -> node73;
node72 -> node73;
node74 [label="Post_CollapsedDataParallel_2_6697", push="24", pop="24", peek="24", pushType="int", popType="int", peekType="int", codeSize="54 b", stackSize="96 b", work="95"];
node73 -> node74;
node75 [label="WEIGHTED_ROUND_ROBIN_Splitter_6873", push="24", pop="24", peek="0", pushType="int", popType="int", peekType="void", codeSize="42 b", stackSize="96 b", work="0"];
node74 -> node75;
node76 [label="Pre_CollapsedDataParallel_1_6702", push="12", pop="12", peek="12", pushType="int", popType="int", peekType="int", codeSize="50 b", stackSize="96 b", work="47"];
node75 -> node76;
node77 [label="WEIGHTED_ROUND_ROBIN_Splitter_6913", push="12", pop="12", peek="0", pushType="int", popType="int", peekType="void", codeSize="42 b", stackSize="96 b", work="0"];
node76 -> node77;
node78 [label="CompareExchange_6915", push="6", pop="6", peek="6", pushType="int", popType="int", peekType="int", codeSize="24 b", stackSize="128 b", work="14"];
node77 -> node78;
node79 [label="CompareExchange_6916", push="6", pop="6", peek="6", pushType="int", popType="int", peekType="int", codeSize="24 b", stackSize="128 b", work="14"];
node77 -> node79;
node80 [label="WEIGHTED_ROUND_ROBIN_Joiner_6914", push="12", pop="12", peek="0", pushType="int", popType="int", peekType="void", codeSize="42 b", stackSize="96 b", work="0"];
node78 -> node80;
node79 -> node80;
node81 [label="Post_CollapsedDataParallel_2_6703", push="12", pop="12", peek="12", pushType="int", popType="int", peekType="int", codeSize="54 b", stackSize="96 b", work="51"];
node80 -> node81;
node82 [label="Pre_CollapsedDataParallel_1_6705", push="12", pop="12", peek="12", pushType="int", popType="int", peekType="int", codeSize="50 b", stackSize="96 b", work="47"];
node75 -> node82;
node83 [label="WEIGHTED_ROUND_ROBIN_Splitter_6917", push="12", pop="12", peek="0", pushType="int", popType="int", peekType="void", codeSize="42 b", stackSize="96 b", work="0"];
node82 -> node83;
node84 [label="CompareExchange_6919", push="6", pop="6", peek="6", pushType="int", popType="int", peekType="int", codeSize="24 b", stackSize="128 b", work="14"];
node83 -> node84;
node85 [label="CompareExchange_6920", push="6", pop="6", peek="6", pushType="int", popType="int", peekType="int", codeSize="24 b", stackSize="128 b", work="14"];
node83 -> node85;
node86 [label="WEIGHTED_ROUND_ROBIN_Joiner_6918", push="12", pop="12", peek="0", pushType="int", popType="int", peekType="void", codeSize="42 b", stackSize="96 b", work="0"];
node84 -> node86;
node85 -> node86;
node87 [label="Post_CollapsedDataParallel_2_6706", push="12", pop="12", peek="12", pushType="int", popType="int", peekType="int", codeSize="54 b", stackSize="96 b", work="51"];
node86 -> node87;
node88 [label="WEIGHTED_ROUND_ROBIN_Joiner_6874", push="24", pop="24", peek="0", pushType="int", popType="int", peekType="void", codeSize="42 b", stackSize="96 b", work="0"];
node81 -> node88;
node87 -> node88;
node89 [label="Pre_CollapsedDataParallel_1_6699", push="24", pop="24", peek="24", pushType="int", popType="int", peekType="int", codeSize="50 b", stackSize="96 b", work="91"];
node67 -> node89;
node90 [label="WEIGHTED_ROUND_ROBIN_Splitter_6921", push="24", pop="24", peek="0", pushType="int", popType="int", peekType="void", codeSize="60 b", stackSize="128 b", work="0"];
node89 -> node90;
node91 [label="CompareExchange_6923", push="8", pop="8", peek="8", pushType="int", popType="int", peekType="int", codeSize="24 b", stackSize="128 b", work="14"];
node90 -> node91;
node92 [label="CompareExchange_6924", push="8", pop="8", peek="8", pushType="int", popType="int", peekType="int", codeSize="24 b", stackSize="128 b", work="14"];
node90 -> node92;
node93 [label="CompareExchange_6925", push="8", pop="8", peek="8", pushType="int", popType="int", peekType="int", codeSize="24 b", stackSize="128 b", work="14"];
node90 -> node93;
node94 [label="WEIGHTED_ROUND_ROBIN_Joiner_6922", push="24", pop="24", peek="0", pushType="int", popType="int", peekType="void", codeSize="60 b", stackSize="128 b", work="0"];
node91 -> node94;
node92 -> node94;
node93 -> node94;
node95 [label="Post_CollapsedDataParallel_2_6700", push="24", pop="24", peek="24", pushType="int", popType="int", peekType="int", codeSize="54 b", stackSize="96 b", work="95"];
node94 -> node95;
node96 [label="WEIGHTED_ROUND_ROBIN_Splitter_6875", push="24", pop="24", peek="0", pushType="int", popType="int", peekType="void", codeSize="42 b", stackSize="96 b", work="0"];
node95 -> node96;
node97 [label="Pre_CollapsedDataParallel_1_6708", push="12", pop="12", peek="12", pushType="int", popType="int", peekType="int", codeSize="50 b", stackSize="96 b", work="47"];
node96 -> node97;
node98 [label="WEIGHTED_ROUND_ROBIN_Splitter_6926", push="12", pop="12", peek="0", pushType="int", popType="int", peekType="void", codeSize="42 b", stackSize="96 b", work="0"];
node97 -> node98;
node99 [label="CompareExchange_6928", push="6", pop="6", peek="6", pushType="int", popType="int", peekType="int", codeSize="24 b", stackSize="128 b", work="14"];
node98 -> node99;
node100 [label="CompareExchange_6929", push="6", pop="6", peek="6", pushType="int", popType="int", peekType="int", codeSize="24 b", stackSize="128 b", work="14"];
node98 -> node100;
node101 [label="WEIGHTED_ROUND_ROBIN_Joiner_6927", push="12", pop="12", peek="0", pushType="int", popType="int", peekType="void", codeSize="42 b", stackSize="96 b", work="0"];
node99 -> node101;
node100 -> node101;
node102 [label="Post_CollapsedDataParallel_2_6709", push="12", pop="12", peek="12", pushType="int", popType="int", peekType="int", codeSize="54 b", stackSize="96 b", work="51"];
node101 -> node102;
node103 [label="Pre_CollapsedDataParallel_1_6711", push="12", pop="12", peek="12", pushType="int", popType="int", peekType="int", codeSize="50 b", stackSize="96 b", work="47"];
node96 -> node103;
node104 [label="WEIGHTED_ROUND_ROBIN_Splitter_6930", push="12", pop="12", peek="0", pushType="int", popType="int", peekType="void", codeSize="42 b", stackSize="96 b", work="0"];
node103 -> node104;
node105 [label="CompareExchange_6932", push="6", pop="6", peek="6", pushType="int", popType="int", peekType="int", codeSize="24 b", stackSize="128 b", work="14"];
node104 -> node105;
node106 [label="CompareExchange_6933", push="6", pop="6", peek="6", pushType="int", popType="int", peekType="int", codeSize="24 b", stackSize="128 b", work="14"];
node104 -> node106;
node107 [label="WEIGHTED_ROUND_ROBIN_Joiner_6931", push="12", pop="12", peek="0", pushType="int", popType="int", peekType="void", codeSize="42 b", stackSize="96 b", work="0"];
node105 -> node107;
node106 -> node107;
node108 [label="Post_CollapsedDataParallel_2_6712", push="12", pop="12", peek="12", pushType="int", popType="int", peekType="int", codeSize="54 b", stackSize="96 b", work="51"];
node107 -> node108;
node109 [label="WEIGHTED_ROUND_ROBIN_Joiner_6876", push="24", pop="24", peek="0", pushType="int", popType="int", peekType="void", codeSize="42 b", stackSize="96 b", work="0"];
node102 -> node109;
node108 -> node109;
node110 [label="WEIGHTED_ROUND_ROBIN_Joiner_6877", push="48", pop="48", peek="0", pushType="int", popType="int", peekType="void", codeSize="42 b", stackSize="96 b", work="0"];
node88 -> node110;
node109 -> node110;
node111 [label="WEIGHTED_ROUND_ROBIN_Splitter_6878", push="48", pop="48", peek="0", pushType="int", popType="int", peekType="void", codeSize="42 b", stackSize="96 b", work="0"];
node110 -> node111;
node112 [label="WEIGHTED_ROUND_ROBIN_Splitter_6879", push="24", pop="24", peek="0", pushType="int", popType="int", peekType="void", codeSize="78 b", stackSize="160 b", work="0"];
node111 -> node112;
node113 [label="CompareExchange_6422", push="6", pop="6", peek="6", pushType="int", popType="int", peekType="int", codeSize="24 b", stackSize="128 b", work="14"];
node112 -> node113;
node114 [label="CompareExchange_6423", push="6", pop="6", peek="6", pushType="int", popType="int", peekType="int", codeSize="24 b", stackSize="128 b", work="14"];
node112 -> node114;
node115 [label="CompareExchange_6424", push="6", pop="6", peek="6", pushType="int", popType="int", peekType="int", codeSize="24 b", stackSize="128 b", work="14"];
node112 -> node115;
node116 [label="CompareExchange_6425", push="6", pop="6", peek="6", pushType="int", popType="int", peekType="int", codeSize="24 b", stackSize="128 b", work="14"];
node112 -> node116;
node117 [label="WEIGHTED_ROUND_ROBIN_Joiner_6880", push="24", pop="24", peek="0", pushType="int", popType="int", peekType="void", codeSize="78 b", stackSize="160 b", work="0"];
node113 -> node117;
node114 -> node117;
node115 -> node117;
node116 -> node117;
node118 [label="WEIGHTED_ROUND_ROBIN_Splitter_6881", push="24", pop="24", peek="0", pushType="int", popType="int", peekType="void", codeSize="78 b", stackSize="160 b", work="0"];
node111 -> node118;
node119 [label="CompareExchange_6426", push="6", pop="6", peek="6", pushType="int", popType="int", peekType="int", codeSize="24 b", stackSize="128 b", work="14"];
node118 -> node119;
node120 [label="CompareExchange_6427", push="6", pop="6", peek="6", pushType="int", popType="int", peekType="int", codeSize="24 b", stackSize="128 b", work="14"];
node118 -> node120;
node121 [label="CompareExchange_6428", push="6", pop="6", peek="6", pushType="int", popType="int", peekType="int", codeSize="24 b", stackSize="128 b", work="14"];
node118 -> node121;
node122 [label="CompareExchange_6429", push="6", pop="6", peek="6", pushType="int", popType="int", peekType="int", codeSize="24 b", stackSize="128 b", work="14"];
node118 -> node122;
node123 [label="WEIGHTED_ROUND_ROBIN_Joiner_6882", push="24", pop="24", peek="0", pushType="int", popType="int", peekType="void", codeSize="78 b", stackSize="160 b", work="0"];
node119 -> node123;
node120 -> node123;
node121 -> node123;
node122 -> node123;
node124 [label="WEIGHTED_ROUND_ROBIN_Joiner_6883", push="48", pop="48", peek="0", pushType="int", popType="int", peekType="void", codeSize="42 b", stackSize="96 b", work="0"];
node117 -> node124;
node123 -> node124;
node125 [label="Pre_CollapsedDataParallel_1_6713", push="48", pop="48", peek="48", pushType="int", popType="int", peekType="int", codeSize="50 b", stackSize="96 b", work="179"];
node124 -> node125;
node126 [label="WEIGHTED_ROUND_ROBIN_Splitter_6934", push="48", pop="48", peek="0", pushType="int", popType="int", peekType="void", codeSize="60 b", stackSize="128 b", work="0"];
node125 -> node126;
node127 [label="CompareExchange_6936", push="16", pop="16", peek="16", pushType="int", popType="int", peekType="int", codeSize="24 b", stackSize="128 b", work="14"];
node126 -> node127;
node128 [label="CompareExchange_6937", push="16", pop="16", peek="16", pushType="int", popType="int", peekType="int", codeSize="24 b", stackSize="128 b", work="14"];
node126 -> node128;
node129 [label="CompareExchange_6938", push="16", pop="16", peek="16", pushType="int", popType="int", peekType="int", codeSize="24 b", stackSize="128 b", work="14"];
node126 -> node129;
node130 [label="WEIGHTED_ROUND_ROBIN_Joiner_6935", push="48", pop="48", peek="0", pushType="int", popType="int", peekType="void", codeSize="60 b", stackSize="128 b", work="0"];
node127 -> node130;
node128 -> node130;
node129 -> node130;
node131 [label="Post_CollapsedDataParallel_2_6714", push="48", pop="48", peek="48", pushType="int", popType="int", peekType="int", codeSize="54 b", stackSize="96 b", work="183"];
node130 -> node131;
node132 [label="WEIGHTED_ROUND_ROBIN_Splitter_6745", push="48", pop="48", peek="0", pushType="int", popType="int", peekType="void", codeSize="42 b", stackSize="96 b", work="0"];
node131 -> node132;
node133 [label="Pre_CollapsedDataParallel_1_6716", push="24", pop="24", peek="24", pushType="int", popType="int", peekType="int", codeSize="50 b", stackSize="96 b", work="91"];
node132 -> node133;
node134 [label="WEIGHTED_ROUND_ROBIN_Splitter_6939", push="24", pop="24", peek="0", pushType="int", popType="int", peekType="void", codeSize="60 b", stackSize="128 b", work="0"];
node133 -> node134;
node135 [label="CompareExchange_6941", push="8", pop="8", peek="8", pushType="int", popType="int", peekType="int", codeSize="24 b", stackSize="128 b", work="14"];
node134 -> node135;
node136 [label="CompareExchange_6942", push="8", pop="8", peek="8", pushType="int", popType="int", peekType="int", codeSize="24 b", stackSize="128 b", work="14"];
node134 -> node136;
node137 [label="CompareExchange_6943", push="8", pop="8", peek="8", pushType="int", popType="int", peekType="int", codeSize="24 b", stackSize="128 b", work="14"];
node134 -> node137;
node138 [label="WEIGHTED_ROUND_ROBIN_Joiner_6940", push="24", pop="24", peek="0", pushType="int", popType="int", peekType="void", codeSize="60 b", stackSize="128 b", work="0"];
node135 -> node138;
node136 -> node138;
node137 -> node138;
node139 [label="Post_CollapsedDataParallel_2_6717", push="24", pop="24", peek="24", pushType="int", popType="int", peekType="int", codeSize="54 b", stackSize="96 b", work="95"];
node138 -> node139;
node140 [label="WEIGHTED_ROUND_ROBIN_Splitter_6884", push="24", pop="24", peek="0", pushType="int", popType="int", peekType="void", codeSize="42 b", stackSize="96 b", work="0"];
node139 -> node140;
node141 [label="Pre_CollapsedDataParallel_1_6722", push="12", pop="12", peek="12", pushType="int", popType="int", peekType="int", codeSize="50 b", stackSize="96 b", work="47"];
node140 -> node141;
node142 [label="WEIGHTED_ROUND_ROBIN_Splitter_6944", push="12", pop="12", peek="0", pushType="int", popType="int", peekType="void", codeSize="42 b", stackSize="96 b", work="0"];
node141 -> node142;
node143 [label="CompareExchange_6946", push="6", pop="6", peek="6", pushType="int", popType="int", peekType="int", codeSize="24 b", stackSize="128 b", work="14"];
node142 -> node143;
node144 [label="CompareExchange_6947", push="6", pop="6", peek="6", pushType="int", popType="int", peekType="int", codeSize="24 b", stackSize="128 b", work="14"];
node142 -> node144;
node145 [label="WEIGHTED_ROUND_ROBIN_Joiner_6945", push="12", pop="12", peek="0", pushType="int", popType="int", peekType="void", codeSize="42 b", stackSize="96 b", work="0"];
node143 -> node145;
node144 -> node145;
node146 [label="Post_CollapsedDataParallel_2_6723", push="12", pop="12", peek="12", pushType="int", popType="int", peekType="int", codeSize="54 b", stackSize="96 b", work="51"];
node145 -> node146;
node147 [label="Pre_CollapsedDataParallel_1_6725", push="12", pop="12", peek="12", pushType="int", popType="int", peekType="int", codeSize="50 b", stackSize="96 b", work="47"];
node140 -> node147;
node148 [label="WEIGHTED_ROUND_ROBIN_Splitter_6948", push="12", pop="12", peek="0", pushType="int", popType="int", peekType="void", codeSize="42 b", stackSize="96 b", work="0"];
node147 -> node148;
node149 [label="CompareExchange_6950", push="6", pop="6", peek="6", pushType="int", popType="int", peekType="int", codeSize="24 b", stackSize="128 b", work="14"];
node148 -> node149;
node150 [label="CompareExchange_6951", push="6", pop="6", peek="6", pushType="int", popType="int", peekType="int", codeSize="24 b", stackSize="128 b", work="14"];
node148 -> node150;
node151 [label="WEIGHTED_ROUND_ROBIN_Joiner_6949", push="12", pop="12", peek="0", pushType="int", popType="int", peekType="void", codeSize="42 b", stackSize="96 b", work="0"];
node149 -> node151;
node150 -> node151;
node152 [label="Post_CollapsedDataParallel_2_6726", push="12", pop="12", peek="12", pushType="int", popType="int", peekType="int", codeSize="54 b", stackSize="96 b", work="51"];
node151 -> node152;
node153 [label="WEIGHTED_ROUND_ROBIN_Joiner_6885", push="24", pop="24", peek="0", pushType="int", popType="int", peekType="void", codeSize="42 b", stackSize="96 b", work="0"];
node146 -> node153;
node152 -> node153;
node154 [label="Pre_CollapsedDataParallel_1_6719", push="24", pop="24", peek="24", pushType="int", popType="int", peekType="int", codeSize="50 b", stackSize="96 b", work="91"];
node132 -> node154;
node155 [label="WEIGHTED_ROUND_ROBIN_Splitter_6952", push="24", pop="24", peek="0", pushType="int", popType="int", peekType="void", codeSize="60 b", stackSize="128 b", work="0"];
node154 -> node155;
node156 [label="CompareExchange_6954", push="8", pop="8", peek="8", pushType="int", popType="int", peekType="int", codeSize="24 b", stackSize="128 b", work="14"];
node155 -> node156;
node157 [label="CompareExchange_6955", push="8", pop="8", peek="8", pushType="int", popType="int", peekType="int", codeSize="24 b", stackSize="128 b", work="14"];
node155 -> node157;
node158 [label="CompareExchange_6956", push="8", pop="8", peek="8", pushType="int", popType="int", peekType="int", codeSize="24 b", stackSize="128 b", work="14"];
node155 -> node158;
node159 [label="WEIGHTED_ROUND_ROBIN_Joiner_6953", push="24", pop="24", peek="0", pushType="int", popType="int", peekType="void", codeSize="60 b", stackSize="128 b", work="0"];
node156 -> node159;
node157 -> node159;
node158 -> node159;
node160 [label="Post_CollapsedDataParallel_2_6720", push="24", pop="24", peek="24", pushType="int", popType="int", peekType="int", codeSize="54 b", stackSize="96 b", work="95"];
node159 -> node160;
node161 [label="WEIGHTED_ROUND_ROBIN_Splitter_6886", push="24", pop="24", peek="0", pushType="int", popType="int", peekType="void", codeSize="42 b", stackSize="96 b", work="0"];
node160 -> node161;
node162 [label="Pre_CollapsedDataParallel_1_6728", push="12", pop="12", peek="12", pushType="int", popType="int", peekType="int", codeSize="50 b", stackSize="96 b", work="47"];
node161 -> node162;
node163 [label="WEIGHTED_ROUND_ROBIN_Splitter_6957", push="12", pop="12", peek="0", pushType="int", popType="int", peekType="void", codeSize="42 b", stackSize="96 b", work="0"];
node162 -> node163;
node164 [label="CompareExchange_6959", push="6", pop="6", peek="6", pushType="int", popType="int", peekType="int", codeSize="24 b", stackSize="128 b", work="14"];
node163 -> node164;
node165 [label="CompareExchange_6960", push="6", pop="6", peek="6", pushType="int", popType="int", peekType="int", codeSize="24 b", stackSize="128 b", work="14"];
node163 -> node165;
node166 [label="WEIGHTED_ROUND_ROBIN_Joiner_6958", push="12", pop="12", peek="0", pushType="int", popType="int", peekType="void", codeSize="42 b", stackSize="96 b", work="0"];
node164 -> node166;
node165 -> node166;
node167 [label="Post_CollapsedDataParallel_2_6729", push="12", pop="12", peek="12", pushType="int", popType="int", peekType="int", codeSize="54 b", stackSize="96 b", work="51"];
node166 -> node167;
node168 [label="Pre_CollapsedDataParallel_1_6731", push="12", pop="12", peek="12", pushType="int", popType="int", peekType="int", codeSize="50 b", stackSize="96 b", work="47"];
node161 -> node168;
node169 [label="WEIGHTED_ROUND_ROBIN_Splitter_6961", push="12", pop="12", peek="0", pushType="int", popType="int", peekType="void", codeSize="42 b", stackSize="96 b", work="0"];
node168 -> node169;
node170 [label="CompareExchange_6963", push="6", pop="6", peek="6", pushType="int", popType="int", peekType="int", codeSize="24 b", stackSize="128 b", work="14"];
node169 -> node170;
node171 [label="CompareExchange_6964", push="6", pop="6", peek="6", pushType="int", popType="int", peekType="int", codeSize="24 b", stackSize="128 b", work="14"];
node169 -> node171;
node172 [label="WEIGHTED_ROUND_ROBIN_Joiner_6962", push="12", pop="12", peek="0", pushType="int", popType="int", peekType="void", codeSize="42 b", stackSize="96 b", work="0"];
node170 -> node172;
node171 -> node172;
node173 [label="Post_CollapsedDataParallel_2_6732", push="12", pop="12", peek="12", pushType="int", popType="int", peekType="int", codeSize="54 b", stackSize="96 b", work="51"];
node172 -> node173;
node174 [label="WEIGHTED_ROUND_ROBIN_Joiner_6887", push="24", pop="24", peek="0", pushType="int", popType="int", peekType="void", codeSize="42 b", stackSize="96 b", work="0"];
node167 -> node174;
node173 -> node174;
node175 [label="WEIGHTED_ROUND_ROBIN_Joiner_6888", push="48", pop="48", peek="0", pushType="int", popType="int", peekType="void", codeSize="42 b", stackSize="96 b", work="0"];
node153 -> node175;
node174 -> node175;
node176 [label="WEIGHTED_ROUND_ROBIN_Splitter_6965", push="48", pop="48", peek="0", pushType="int", popType="int", peekType="void", codeSize="60 b", stackSize="128 b", work="0"];
node175 -> node176;
node177 [label="CompareExchange_6967", push="16", pop="16", peek="16", pushType="int", popType="int", peekType="int", codeSize="24 b", stackSize="128 b", work="14"];
node176 -> node177;
node178 [label="CompareExchange_6968", push="16", pop="16", peek="16", pushType="int", popType="int", peekType="int", codeSize="24 b", stackSize="128 b", work="14"];
node176 -> node178;
node179 [label="CompareExchange_6969", push="16", pop="16", peek="16", pushType="int", popType="int", peekType="int", codeSize="24 b", stackSize="128 b", work="14"];
node176 -> node179;
node180 [label="WEIGHTED_ROUND_ROBIN_Joiner_6966", push="48", pop="48", peek="0", pushType="int", popType="int", peekType="void", codeSize="60 b", stackSize="128 b", work="0"];
node177 -> node180;
node178 -> node180;
node179 -> node180;
node181 [label="KeyPrinter_6462", push="0", pop="48", peek="48", pushType="void", popType="int", peekType="int", codeSize="42 b", stackSize="32 b", work="126"];
node180 -> node181;
}
