digraph BitonicSort_6121 {
node0 [label="KeySource_5492", push="16", pop="0", peek="0", pushType="int", popType="void", peekType="void", codeSize="30 b", stackSize="32 b", work="112"];
node1 [label="WEIGHTED_ROUND_ROBIN_Splitter_5960", push="16", pop="16", peek="0", pushType="int", popType="int", peekType="void", codeSize="78 b", stackSize="160 b", work="0"];
node0 -> node1;
node2 [label="WEIGHTED_ROUND_ROBIN_Splitter_5961", push="4", pop="4", peek="0", pushType="int", popType="int", peekType="void", codeSize="42 b", stackSize="96 b", work="0"];
node1 -> node2;
node3 [label="CompareExchange_5493", push="2", pop="2", peek="2", pushType="int", popType="int", peekType="int", codeSize="24 b", stackSize="128 b", work="14"];
node2 -> node3;
node4 [label="CompareExchange_5494", push="2", pop="2", peek="2", pushType="int", popType="int", peekType="int", codeSize="24 b", stackSize="128 b", work="14"];
node2 -> node4;
node5 [label="WEIGHTED_ROUND_ROBIN_Joiner_5962", push="4", pop="4", peek="0", pushType="int", popType="int", peekType="void", codeSize="42 b", stackSize="96 b", work="0"];
node3 -> node5;
node4 -> node5;
node6 [label="WEIGHTED_ROUND_ROBIN_Splitter_5963", push="4", pop="4", peek="0", pushType="int", popType="int", peekType="void", codeSize="42 b", stackSize="96 b", work="0"];
node1 -> node6;
node7 [label="CompareExchange_5495", push="2", pop="2", peek="2", pushType="int", popType="int", peekType="int", codeSize="24 b", stackSize="128 b", work="14"];
node6 -> node7;
node8 [label="CompareExchange_5496", push="2", pop="2", peek="2", pushType="int", popType="int", peekType="int", codeSize="24 b", stackSize="128 b", work="14"];
node6 -> node8;
node9 [label="WEIGHTED_ROUND_ROBIN_Joiner_5964", push="4", pop="4", peek="0", pushType="int", popType="int", peekType="void", codeSize="42 b", stackSize="96 b", work="0"];
node7 -> node9;
node8 -> node9;
node10 [label="WEIGHTED_ROUND_ROBIN_Splitter_5965", push="4", pop="4", peek="0", pushType="int", popType="int", peekType="void", codeSize="42 b", stackSize="96 b", work="0"];
node1 -> node10;
node11 [label="CompareExchange_5497", push="2", pop="2", peek="2", pushType="int", popType="int", peekType="int", codeSize="24 b", stackSize="128 b", work="14"];
node10 -> node11;
node12 [label="CompareExchange_5498", push="2", pop="2", peek="2", pushType="int", popType="int", peekType="int", codeSize="24 b", stackSize="128 b", work="14"];
node10 -> node12;
node13 [label="WEIGHTED_ROUND_ROBIN_Joiner_5966", push="4", pop="4", peek="0", pushType="int", popType="int", peekType="void", codeSize="42 b", stackSize="96 b", work="0"];
node11 -> node13;
node12 -> node13;
node14 [label="WEIGHTED_ROUND_ROBIN_Splitter_5967", push="4", pop="4", peek="0", pushType="int", popType="int", peekType="void", codeSize="42 b", stackSize="96 b", work="0"];
node1 -> node14;
node15 [label="CompareExchange_5499", push="2", pop="2", peek="2", pushType="int", popType="int", peekType="int", codeSize="24 b", stackSize="128 b", work="14"];
node14 -> node15;
node16 [label="CompareExchange_5500", push="2", pop="2", peek="2", pushType="int", popType="int", peekType="int", codeSize="24 b", stackSize="128 b", work="14"];
node14 -> node16;
node17 [label="WEIGHTED_ROUND_ROBIN_Joiner_5968", push="4", pop="4", peek="0", pushType="int", popType="int", peekType="void", codeSize="42 b", stackSize="96 b", work="0"];
node15 -> node17;
node16 -> node17;
node18 [label="WEIGHTED_ROUND_ROBIN_Joiner_5969", push="16", pop="16", peek="0", pushType="int", popType="int", peekType="void", codeSize="78 b", stackSize="160 b", work="0"];
node5 -> node18;
node9 -> node18;
node13 -> node18;
node17 -> node18;
node19 [label="WEIGHTED_ROUND_ROBIN_Splitter_5846", push="16", pop="16", peek="0", pushType="int", popType="int", peekType="void", codeSize="78 b", stackSize="160 b", work="0"];
node18 -> node19;
node20 [label="Pre_CollapsedDataParallel_1_5795", push="4", pop="4", peek="4", pushType="int", popType="int", peekType="int", codeSize="50 b", stackSize="96 b", work="47"];
node19 -> node20;
node21 [label="WEIGHTED_ROUND_ROBIN_Splitter_6003", push="4", pop="4", peek="0", pushType="int", popType="int", peekType="void", codeSize="42 b", stackSize="96 b", work="0"];
node20 -> node21;
node22 [label="CompareExchange_6005", push="2", pop="2", peek="2", pushType="int", popType="int", peekType="int", codeSize="24 b", stackSize="128 b", work="14"];
node21 -> node22;
node23 [label="CompareExchange_6006", push="2", pop="2", peek="2", pushType="int", popType="int", peekType="int", codeSize="24 b", stackSize="128 b", work="14"];
node21 -> node23;
node24 [label="WEIGHTED_ROUND_ROBIN_Joiner_6004", push="4", pop="4", peek="0", pushType="int", popType="int", peekType="void", codeSize="42 b", stackSize="96 b", work="0"];
node22 -> node24;
node23 -> node24;
node25 [label="Post_CollapsedDataParallel_2_5796", push="4", pop="4", peek="4", pushType="int", popType="int", peekType="int", codeSize="54 b", stackSize="96 b", work="51"];
node24 -> node25;
node26 [label="Pre_CollapsedDataParallel_1_5798", push="4", pop="4", peek="4", pushType="int", popType="int", peekType="int", codeSize="50 b", stackSize="96 b", work="47"];
node19 -> node26;
node27 [label="WEIGHTED_ROUND_ROBIN_Splitter_6007", push="4", pop="4", peek="0", pushType="int", popType="int", peekType="void", codeSize="42 b", stackSize="96 b", work="0"];
node26 -> node27;
node28 [label="CompareExchange_6009", push="2", pop="2", peek="2", pushType="int", popType="int", peekType="int", codeSize="24 b", stackSize="128 b", work="14"];
node27 -> node28;
node29 [label="CompareExchange_6010", push="2", pop="2", peek="2", pushType="int", popType="int", peekType="int", codeSize="24 b", stackSize="128 b", work="14"];
node27 -> node29;
node30 [label="WEIGHTED_ROUND_ROBIN_Joiner_6008", push="4", pop="4", peek="0", pushType="int", popType="int", peekType="void", codeSize="42 b", stackSize="96 b", work="0"];
node28 -> node30;
node29 -> node30;
node31 [label="Post_CollapsedDataParallel_2_5799", push="4", pop="4", peek="4", pushType="int", popType="int", peekType="int", codeSize="54 b", stackSize="96 b", work="51"];
node30 -> node31;
node32 [label="Pre_CollapsedDataParallel_1_5801", push="4", pop="4", peek="4", pushType="int", popType="int", peekType="int", codeSize="50 b", stackSize="96 b", work="47"];
node19 -> node32;
node33 [label="WEIGHTED_ROUND_ROBIN_Splitter_6011", push="4", pop="4", peek="0", pushType="int", popType="int", peekType="void", codeSize="42 b", stackSize="96 b", work="0"];
node32 -> node33;
node34 [label="CompareExchange_6013", push="2", pop="2", peek="2", pushType="int", popType="int", peekType="int", codeSize="24 b", stackSize="128 b", work="14"];
node33 -> node34;
node35 [label="CompareExchange_6014", push="2", pop="2", peek="2", pushType="int", popType="int", peekType="int", codeSize="24 b", stackSize="128 b", work="14"];
node33 -> node35;
node36 [label="WEIGHTED_ROUND_ROBIN_Joiner_6012", push="4", pop="4", peek="0", pushType="int", popType="int", peekType="void", codeSize="42 b", stackSize="96 b", work="0"];
node34 -> node36;
node35 -> node36;
node37 [label="Post_CollapsedDataParallel_2_5802", push="4", pop="4", peek="4", pushType="int", popType="int", peekType="int", codeSize="54 b", stackSize="96 b", work="51"];
node36 -> node37;
node38 [label="Pre_CollapsedDataParallel_1_5804", push="4", pop="4", peek="4", pushType="int", popType="int", peekType="int", codeSize="50 b", stackSize="96 b", work="47"];
node19 -> node38;
node39 [label="WEIGHTED_ROUND_ROBIN_Splitter_6015", push="4", pop="4", peek="0", pushType="int", popType="int", peekType="void", codeSize="42 b", stackSize="96 b", work="0"];
node38 -> node39;
node40 [label="CompareExchange_6017", push="2", pop="2", peek="2", pushType="int", popType="int", peekType="int", codeSize="24 b", stackSize="128 b", work="14"];
node39 -> node40;
node41 [label="CompareExchange_6018", push="2", pop="2", peek="2", pushType="int", popType="int", peekType="int", codeSize="24 b", stackSize="128 b", work="14"];
node39 -> node41;
node42 [label="WEIGHTED_ROUND_ROBIN_Joiner_6016", push="4", pop="4", peek="0", pushType="int", popType="int", peekType="void", codeSize="42 b", stackSize="96 b", work="0"];
node40 -> node42;
node41 -> node42;
node43 [label="Post_CollapsedDataParallel_2_5805", push="4", pop="4", peek="4", pushType="int", popType="int", peekType="int", codeSize="54 b", stackSize="96 b", work="51"];
node42 -> node43;
node44 [label="WEIGHTED_ROUND_ROBIN_Joiner_5847", push="16", pop="16", peek="0", pushType="int", popType="int", peekType="void", codeSize="78 b", stackSize="160 b", work="0"];
node25 -> node44;
node31 -> node44;
node37 -> node44;
node43 -> node44;
node45 [label="WEIGHTED_ROUND_ROBIN_Splitter_5970", push="16", pop="16", peek="0", pushType="int", popType="int", peekType="void", codeSize="42 b", stackSize="96 b", work="0"];
node44 -> node45;
node46 [label="WEIGHTED_ROUND_ROBIN_Splitter_5971", push="8", pop="8", peek="0", pushType="int", popType="int", peekType="void", codeSize="42 b", stackSize="96 b", work="0"];
node45 -> node46;
node47 [label="WEIGHTED_ROUND_ROBIN_Splitter_5972", push="4", pop="4", peek="0", pushType="int", popType="int", peekType="void", codeSize="42 b", stackSize="96 b", work="0"];
node46 -> node47;
node48 [label="CompareExchange_5509", push="2", pop="2", peek="2", pushType="int", popType="int", peekType="int", codeSize="24 b", stackSize="128 b", work="14"];
node47 -> node48;
node49 [label="CompareExchange_5510", push="2", pop="2", peek="2", pushType="int", popType="int", peekType="int", codeSize="24 b", stackSize="128 b", work="14"];
node47 -> node49;
node50 [label="WEIGHTED_ROUND_ROBIN_Joiner_5973", push="4", pop="4", peek="0", pushType="int", popType="int", peekType="void", codeSize="42 b", stackSize="96 b", work="0"];
node48 -> node50;
node49 -> node50;
node51 [label="WEIGHTED_ROUND_ROBIN_Splitter_5974", push="4", pop="4", peek="0", pushType="int", popType="int", peekType="void", codeSize="42 b", stackSize="96 b", work="0"];
node46 -> node51;
node52 [label="CompareExchange_5511", push="2", pop="2", peek="2", pushType="int", popType="int", peekType="int", codeSize="24 b", stackSize="128 b", work="14"];
node51 -> node52;
node53 [label="CompareExchange_5512", push="2", pop="2", peek="2", pushType="int", popType="int", peekType="int", codeSize="24 b", stackSize="128 b", work="14"];
node51 -> node53;
node54 [label="WEIGHTED_ROUND_ROBIN_Joiner_5975", push="4", pop="4", peek="0", pushType="int", popType="int", peekType="void", codeSize="42 b", stackSize="96 b", work="0"];
node52 -> node54;
node53 -> node54;
node55 [label="WEIGHTED_ROUND_ROBIN_Joiner_5976", push="8", pop="8", peek="0", pushType="int", popType="int", peekType="void", codeSize="42 b", stackSize="96 b", work="0"];
node50 -> node55;
node54 -> node55;
node56 [label="WEIGHTED_ROUND_ROBIN_Splitter_5977", push="8", pop="8", peek="0", pushType="int", popType="int", peekType="void", codeSize="42 b", stackSize="96 b", work="0"];
node45 -> node56;
node57 [label="WEIGHTED_ROUND_ROBIN_Splitter_5978", push="4", pop="4", peek="0", pushType="int", popType="int", peekType="void", codeSize="42 b", stackSize="96 b", work="0"];
node56 -> node57;
node58 [label="CompareExchange_5513", push="2", pop="2", peek="2", pushType="int", popType="int", peekType="int", codeSize="24 b", stackSize="128 b", work="14"];
node57 -> node58;
node59 [label="CompareExchange_5514", push="2", pop="2", peek="2", pushType="int", popType="int", peekType="int", codeSize="24 b", stackSize="128 b", work="14"];
node57 -> node59;
node60 [label="WEIGHTED_ROUND_ROBIN_Joiner_5979", push="4", pop="4", peek="0", pushType="int", popType="int", peekType="void", codeSize="42 b", stackSize="96 b", work="0"];
node58 -> node60;
node59 -> node60;
node61 [label="WEIGHTED_ROUND_ROBIN_Splitter_5980", push="4", pop="4", peek="0", pushType="int", popType="int", peekType="void", codeSize="42 b", stackSize="96 b", work="0"];
node56 -> node61;
node62 [label="CompareExchange_5515", push="2", pop="2", peek="2", pushType="int", popType="int", peekType="int", codeSize="24 b", stackSize="128 b", work="14"];
node61 -> node62;
node63 [label="CompareExchange_5516", push="2", pop="2", peek="2", pushType="int", popType="int", peekType="int", codeSize="24 b", stackSize="128 b", work="14"];
node61 -> node63;
node64 [label="WEIGHTED_ROUND_ROBIN_Joiner_5981", push="4", pop="4", peek="0", pushType="int", popType="int", peekType="void", codeSize="42 b", stackSize="96 b", work="0"];
node62 -> node64;
node63 -> node64;
node65 [label="WEIGHTED_ROUND_ROBIN_Joiner_5982", push="8", pop="8", peek="0", pushType="int", popType="int", peekType="void", codeSize="42 b", stackSize="96 b", work="0"];
node60 -> node65;
node64 -> node65;
node66 [label="WEIGHTED_ROUND_ROBIN_Joiner_5983", push="16", pop="16", peek="0", pushType="int", popType="int", peekType="void", codeSize="42 b", stackSize="96 b", work="0"];
node55 -> node66;
node65 -> node66;
node67 [label="WEIGHTED_ROUND_ROBIN_Splitter_5850", push="16", pop="16", peek="0", pushType="int", popType="int", peekType="void", codeSize="42 b", stackSize="96 b", work="0"];
node66 -> node67;
node68 [label="Pre_CollapsedDataParallel_1_5807", push="8", pop="8", peek="8", pushType="int", popType="int", peekType="int", codeSize="50 b", stackSize="96 b", work="91"];
node67 -> node68;
node69 [label="WEIGHTED_ROUND_ROBIN_Splitter_6019", push="8", pop="8", peek="0", pushType="int", popType="int", peekType="void", codeSize="78 b", stackSize="160 b", work="0"];
node68 -> node69;
node70 [label="CompareExchange_6021", push="2", pop="2", peek="2", pushType="int", popType="int", peekType="int", codeSize="24 b", stackSize="128 b", work="14"];
node69 -> node70;
node71 [label="CompareExchange_6022", push="2", pop="2", peek="2", pushType="int", popType="int", peekType="int", codeSize="24 b", stackSize="128 b", work="14"];
node69 -> node71;
node72 [label="CompareExchange_6023", push="2", pop="2", peek="2", pushType="int", popType="int", peekType="int", codeSize="24 b", stackSize="128 b", work="14"];
node69 -> node72;
node73 [label="CompareExchange_6024", push="2", pop="2", peek="2", pushType="int", popType="int", peekType="int", codeSize="24 b", stackSize="128 b", work="14"];
node69 -> node73;
node74 [label="WEIGHTED_ROUND_ROBIN_Joiner_6020", push="8", pop="8", peek="0", pushType="int", popType="int", peekType="void", codeSize="78 b", stackSize="160 b", work="0"];
node70 -> node74;
node71 -> node74;
node72 -> node74;
node73 -> node74;
node75 [label="Post_CollapsedDataParallel_2_5808", push="8", pop="8", peek="8", pushType="int", popType="int", peekType="int", codeSize="54 b", stackSize="96 b", work="95"];
node74 -> node75;
node76 [label="WEIGHTED_ROUND_ROBIN_Splitter_5984", push="8", pop="8", peek="0", pushType="int", popType="int", peekType="void", codeSize="42 b", stackSize="96 b", work="0"];
node75 -> node76;
node77 [label="Pre_CollapsedDataParallel_1_5813", push="4", pop="4", peek="4", pushType="int", popType="int", peekType="int", codeSize="50 b", stackSize="96 b", work="47"];
node76 -> node77;
node78 [label="WEIGHTED_ROUND_ROBIN_Splitter_6025", push="4", pop="4", peek="0", pushType="int", popType="int", peekType="void", codeSize="42 b", stackSize="96 b", work="0"];
node77 -> node78;
node79 [label="CompareExchange_6027", push="2", pop="2", peek="2", pushType="int", popType="int", peekType="int", codeSize="24 b", stackSize="128 b", work="14"];
node78 -> node79;
node80 [label="CompareExchange_6028", push="2", pop="2", peek="2", pushType="int", popType="int", peekType="int", codeSize="24 b", stackSize="128 b", work="14"];
node78 -> node80;
node81 [label="WEIGHTED_ROUND_ROBIN_Joiner_6026", push="4", pop="4", peek="0", pushType="int", popType="int", peekType="void", codeSize="42 b", stackSize="96 b", work="0"];
node79 -> node81;
node80 -> node81;
node82 [label="Post_CollapsedDataParallel_2_5814", push="4", pop="4", peek="4", pushType="int", popType="int", peekType="int", codeSize="54 b", stackSize="96 b", work="51"];
node81 -> node82;
node83 [label="Pre_CollapsedDataParallel_1_5816", push="4", pop="4", peek="4", pushType="int", popType="int", peekType="int", codeSize="50 b", stackSize="96 b", work="47"];
node76 -> node83;
node84 [label="WEIGHTED_ROUND_ROBIN_Splitter_6029", push="4", pop="4", peek="0", pushType="int", popType="int", peekType="void", codeSize="42 b", stackSize="96 b", work="0"];
node83 -> node84;
node85 [label="CompareExchange_6031", push="2", pop="2", peek="2", pushType="int", popType="int", peekType="int", codeSize="24 b", stackSize="128 b", work="14"];
node84 -> node85;
node86 [label="CompareExchange_6032", push="2", pop="2", peek="2", pushType="int", popType="int", peekType="int", codeSize="24 b", stackSize="128 b", work="14"];
node84 -> node86;
node87 [label="WEIGHTED_ROUND_ROBIN_Joiner_6030", push="4", pop="4", peek="0", pushType="int", popType="int", peekType="void", codeSize="42 b", stackSize="96 b", work="0"];
node85 -> node87;
node86 -> node87;
node88 [label="Post_CollapsedDataParallel_2_5817", push="4", pop="4", peek="4", pushType="int", popType="int", peekType="int", codeSize="54 b", stackSize="96 b", work="51"];
node87 -> node88;
node89 [label="WEIGHTED_ROUND_ROBIN_Joiner_5985", push="8", pop="8", peek="0", pushType="int", popType="int", peekType="void", codeSize="42 b", stackSize="96 b", work="0"];
node82 -> node89;
node88 -> node89;
node90 [label="Pre_CollapsedDataParallel_1_5810", push="8", pop="8", peek="8", pushType="int", popType="int", peekType="int", codeSize="50 b", stackSize="96 b", work="91"];
node67 -> node90;
node91 [label="WEIGHTED_ROUND_ROBIN_Splitter_6033", push="8", pop="8", peek="0", pushType="int", popType="int", peekType="void", codeSize="78 b", stackSize="160 b", work="0"];
node90 -> node91;
node92 [label="CompareExchange_6035", push="2", pop="2", peek="2", pushType="int", popType="int", peekType="int", codeSize="24 b", stackSize="128 b", work="14"];
node91 -> node92;
node93 [label="CompareExchange_6036", push="2", pop="2", peek="2", pushType="int", popType="int", peekType="int", codeSize="24 b", stackSize="128 b", work="14"];
node91 -> node93;
node94 [label="CompareExchange_6037", push="2", pop="2", peek="2", pushType="int", popType="int", peekType="int", codeSize="24 b", stackSize="128 b", work="14"];
node91 -> node94;
node95 [label="CompareExchange_6038", push="2", pop="2", peek="2", pushType="int", popType="int", peekType="int", codeSize="24 b", stackSize="128 b", work="14"];
node91 -> node95;
node96 [label="WEIGHTED_ROUND_ROBIN_Joiner_6034", push="8", pop="8", peek="0", pushType="int", popType="int", peekType="void", codeSize="78 b", stackSize="160 b", work="0"];
node92 -> node96;
node93 -> node96;
node94 -> node96;
node95 -> node96;
node97 [label="Post_CollapsedDataParallel_2_5811", push="8", pop="8", peek="8", pushType="int", popType="int", peekType="int", codeSize="54 b", stackSize="96 b", work="95"];
node96 -> node97;
node98 [label="WEIGHTED_ROUND_ROBIN_Splitter_5986", push="8", pop="8", peek="0", pushType="int", popType="int", peekType="void", codeSize="42 b", stackSize="96 b", work="0"];
node97 -> node98;
node99 [label="Pre_CollapsedDataParallel_1_5819", push="4", pop="4", peek="4", pushType="int", popType="int", peekType="int", codeSize="50 b", stackSize="96 b", work="47"];
node98 -> node99;
node100 [label="WEIGHTED_ROUND_ROBIN_Splitter_6039", push="4", pop="4", peek="0", pushType="int", popType="int", peekType="void", codeSize="42 b", stackSize="96 b", work="0"];
node99 -> node100;
node101 [label="CompareExchange_6041", push="2", pop="2", peek="2", pushType="int", popType="int", peekType="int", codeSize="24 b", stackSize="128 b", work="14"];
node100 -> node101;
node102 [label="CompareExchange_6042", push="2", pop="2", peek="2", pushType="int", popType="int", peekType="int", codeSize="24 b", stackSize="128 b", work="14"];
node100 -> node102;
node103 [label="WEIGHTED_ROUND_ROBIN_Joiner_6040", push="4", pop="4", peek="0", pushType="int", popType="int", peekType="void", codeSize="42 b", stackSize="96 b", work="0"];
node101 -> node103;
node102 -> node103;
node104 [label="Post_CollapsedDataParallel_2_5820", push="4", pop="4", peek="4", pushType="int", popType="int", peekType="int", codeSize="54 b", stackSize="96 b", work="51"];
node103 -> node104;
node105 [label="Pre_CollapsedDataParallel_1_5822", push="4", pop="4", peek="4", pushType="int", popType="int", peekType="int", codeSize="50 b", stackSize="96 b", work="47"];
node98 -> node105;
node106 [label="WEIGHTED_ROUND_ROBIN_Splitter_6043", push="4", pop="4", peek="0", pushType="int", popType="int", peekType="void", codeSize="42 b", stackSize="96 b", work="0"];
node105 -> node106;
node107 [label="CompareExchange_6045", push="2", pop="2", peek="2", pushType="int", popType="int", peekType="int", codeSize="24 b", stackSize="128 b", work="14"];
node106 -> node107;
node108 [label="CompareExchange_6046", push="2", pop="2", peek="2", pushType="int", popType="int", peekType="int", codeSize="24 b", stackSize="128 b", work="14"];
node106 -> node108;
node109 [label="WEIGHTED_ROUND_ROBIN_Joiner_6044", push="4", pop="4", peek="0", pushType="int", popType="int", peekType="void", codeSize="42 b", stackSize="96 b", work="0"];
node107 -> node109;
node108 -> node109;
node110 [label="Post_CollapsedDataParallel_2_5823", push="4", pop="4", peek="4", pushType="int", popType="int", peekType="int", codeSize="54 b", stackSize="96 b", work="51"];
node109 -> node110;
node111 [label="WEIGHTED_ROUND_ROBIN_Joiner_5987", push="8", pop="8", peek="0", pushType="int", popType="int", peekType="void", codeSize="42 b", stackSize="96 b", work="0"];
node104 -> node111;
node110 -> node111;
node112 [label="WEIGHTED_ROUND_ROBIN_Joiner_5988", push="16", pop="16", peek="0", pushType="int", popType="int", peekType="void", codeSize="42 b", stackSize="96 b", work="0"];
node89 -> node112;
node111 -> node112;
node113 [label="WEIGHTED_ROUND_ROBIN_Splitter_5989", push="16", pop="16", peek="0", pushType="int", popType="int", peekType="void", codeSize="42 b", stackSize="96 b", work="0"];
node112 -> node113;
node114 [label="WEIGHTED_ROUND_ROBIN_Splitter_5990", push="8", pop="8", peek="0", pushType="int", popType="int", peekType="void", codeSize="78 b", stackSize="160 b", work="0"];
node113 -> node114;
node115 [label="CompareExchange_5533", push="2", pop="2", peek="2", pushType="int", popType="int", peekType="int", codeSize="24 b", stackSize="128 b", work="14"];
node114 -> node115;
node116 [label="CompareExchange_5534", push="2", pop="2", peek="2", pushType="int", popType="int", peekType="int", codeSize="24 b", stackSize="128 b", work="14"];
node114 -> node116;
node117 [label="CompareExchange_5535", push="2", pop="2", peek="2", pushType="int", popType="int", peekType="int", codeSize="24 b", stackSize="128 b", work="14"];
node114 -> node117;
node118 [label="CompareExchange_5536", push="2", pop="2", peek="2", pushType="int", popType="int", peekType="int", codeSize="24 b", stackSize="128 b", work="14"];
node114 -> node118;
node119 [label="WEIGHTED_ROUND_ROBIN_Joiner_5991", push="8", pop="8", peek="0", pushType="int", popType="int", peekType="void", codeSize="78 b", stackSize="160 b", work="0"];
node115 -> node119;
node116 -> node119;
node117 -> node119;
node118 -> node119;
node120 [label="WEIGHTED_ROUND_ROBIN_Splitter_5992", push="8", pop="8", peek="0", pushType="int", popType="int", peekType="void", codeSize="78 b", stackSize="160 b", work="0"];
node113 -> node120;
node121 [label="CompareExchange_5537", push="2", pop="2", peek="2", pushType="int", popType="int", peekType="int", codeSize="24 b", stackSize="128 b", work="14"];
node120 -> node121;
node122 [label="CompareExchange_5538", push="2", pop="2", peek="2", pushType="int", popType="int", peekType="int", codeSize="24 b", stackSize="128 b", work="14"];
node120 -> node122;
node123 [label="CompareExchange_5539", push="2", pop="2", peek="2", pushType="int", popType="int", peekType="int", codeSize="24 b", stackSize="128 b", work="14"];
node120 -> node123;
node124 [label="CompareExchange_5540", push="2", pop="2", peek="2", pushType="int", popType="int", peekType="int", codeSize="24 b", stackSize="128 b", work="14"];
node120 -> node124;
node125 [label="WEIGHTED_ROUND_ROBIN_Joiner_5993", push="8", pop="8", peek="0", pushType="int", popType="int", peekType="void", codeSize="78 b", stackSize="160 b", work="0"];
node121 -> node125;
node122 -> node125;
node123 -> node125;
node124 -> node125;
node126 [label="WEIGHTED_ROUND_ROBIN_Joiner_5994", push="16", pop="16", peek="0", pushType="int", popType="int", peekType="void", codeSize="42 b", stackSize="96 b", work="0"];
node119 -> node126;
node125 -> node126;
node127 [label="Pre_CollapsedDataParallel_1_5824", push="16", pop="16", peek="16", pushType="int", popType="int", peekType="int", codeSize="50 b", stackSize="96 b", work="179"];
node126 -> node127;
node128 [label="WEIGHTED_ROUND_ROBIN_Splitter_6047", push="16", pop="16", peek="0", pushType="int", popType="int", peekType="void", codeSize="78 b", stackSize="160 b", work="0"];
node127 -> node128;
node129 [label="CompareExchange_6049", push="4", pop="4", peek="4", pushType="int", popType="int", peekType="int", codeSize="24 b", stackSize="128 b", work="14"];
node128 -> node129;
node130 [label="CompareExchange_6050", push="4", pop="4", peek="4", pushType="int", popType="int", peekType="int", codeSize="24 b", stackSize="128 b", work="14"];
node128 -> node130;
node131 [label="CompareExchange_6051", push="4", pop="4", peek="4", pushType="int", popType="int", peekType="int", codeSize="24 b", stackSize="128 b", work="14"];
node128 -> node131;
node132 [label="CompareExchange_6052", push="4", pop="4", peek="4", pushType="int", popType="int", peekType="int", codeSize="24 b", stackSize="128 b", work="14"];
node128 -> node132;
node133 [label="WEIGHTED_ROUND_ROBIN_Joiner_6048", push="16", pop="16", peek="0", pushType="int", popType="int", peekType="void", codeSize="78 b", stackSize="160 b", work="0"];
node129 -> node133;
node130 -> node133;
node131 -> node133;
node132 -> node133;
node134 [label="Post_CollapsedDataParallel_2_5825", push="16", pop="16", peek="16", pushType="int", popType="int", peekType="int", codeSize="54 b", stackSize="96 b", work="183"];
node133 -> node134;
node135 [label="WEIGHTED_ROUND_ROBIN_Splitter_5856", push="16", pop="16", peek="0", pushType="int", popType="int", peekType="void", codeSize="42 b", stackSize="96 b", work="0"];
node134 -> node135;
node136 [label="Pre_CollapsedDataParallel_1_5827", push="8", pop="8", peek="8", pushType="int", popType="int", peekType="int", codeSize="50 b", stackSize="96 b", work="91"];
node135 -> node136;
node137 [label="WEIGHTED_ROUND_ROBIN_Splitter_6053", push="8", pop="8", peek="0", pushType="int", popType="int", peekType="void", codeSize="78 b", stackSize="160 b", work="0"];
node136 -> node137;
node138 [label="CompareExchange_6055", push="2", pop="2", peek="2", pushType="int", popType="int", peekType="int", codeSize="24 b", stackSize="128 b", work="14"];
node137 -> node138;
node139 [label="CompareExchange_6056", push="2", pop="2", peek="2", pushType="int", popType="int", peekType="int", codeSize="24 b", stackSize="128 b", work="14"];
node137 -> node139;
node140 [label="CompareExchange_6057", push="2", pop="2", peek="2", pushType="int", popType="int", peekType="int", codeSize="24 b", stackSize="128 b", work="14"];
node137 -> node140;
node141 [label="CompareExchange_6058", push="2", pop="2", peek="2", pushType="int", popType="int", peekType="int", codeSize="24 b", stackSize="128 b", work="14"];
node137 -> node141;
node142 [label="WEIGHTED_ROUND_ROBIN_Joiner_6054", push="8", pop="8", peek="0", pushType="int", popType="int", peekType="void", codeSize="78 b", stackSize="160 b", work="0"];
node138 -> node142;
node139 -> node142;
node140 -> node142;
node141 -> node142;
node143 [label="Post_CollapsedDataParallel_2_5828", push="8", pop="8", peek="8", pushType="int", popType="int", peekType="int", codeSize="54 b", stackSize="96 b", work="95"];
node142 -> node143;
node144 [label="WEIGHTED_ROUND_ROBIN_Splitter_5995", push="8", pop="8", peek="0", pushType="int", popType="int", peekType="void", codeSize="42 b", stackSize="96 b", work="0"];
node143 -> node144;
node145 [label="Pre_CollapsedDataParallel_1_5833", push="4", pop="4", peek="4", pushType="int", popType="int", peekType="int", codeSize="50 b", stackSize="96 b", work="47"];
node144 -> node145;
node146 [label="WEIGHTED_ROUND_ROBIN_Splitter_6059", push="4", pop="4", peek="0", pushType="int", popType="int", peekType="void", codeSize="42 b", stackSize="96 b", work="0"];
node145 -> node146;
node147 [label="CompareExchange_6061", push="2", pop="2", peek="2", pushType="int", popType="int", peekType="int", codeSize="24 b", stackSize="128 b", work="14"];
node146 -> node147;
node148 [label="CompareExchange_6062", push="2", pop="2", peek="2", pushType="int", popType="int", peekType="int", codeSize="24 b", stackSize="128 b", work="14"];
node146 -> node148;
node149 [label="WEIGHTED_ROUND_ROBIN_Joiner_6060", push="4", pop="4", peek="0", pushType="int", popType="int", peekType="void", codeSize="42 b", stackSize="96 b", work="0"];
node147 -> node149;
node148 -> node149;
node150 [label="Post_CollapsedDataParallel_2_5834", push="4", pop="4", peek="4", pushType="int", popType="int", peekType="int", codeSize="54 b", stackSize="96 b", work="51"];
node149 -> node150;
node151 [label="Pre_CollapsedDataParallel_1_5836", push="4", pop="4", peek="4", pushType="int", popType="int", peekType="int", codeSize="50 b", stackSize="96 b", work="47"];
node144 -> node151;
node152 [label="WEIGHTED_ROUND_ROBIN_Splitter_6063", push="4", pop="4", peek="0", pushType="int", popType="int", peekType="void", codeSize="42 b", stackSize="96 b", work="0"];
node151 -> node152;
node153 [label="CompareExchange_6065", push="2", pop="2", peek="2", pushType="int", popType="int", peekType="int", codeSize="24 b", stackSize="128 b", work="14"];
node152 -> node153;
node154 [label="CompareExchange_6066", push="2", pop="2", peek="2", pushType="int", popType="int", peekType="int", codeSize="24 b", stackSize="128 b", work="14"];
node152 -> node154;
node155 [label="WEIGHTED_ROUND_ROBIN_Joiner_6064", push="4", pop="4", peek="0", pushType="int", popType="int", peekType="void", codeSize="42 b", stackSize="96 b", work="0"];
node153 -> node155;
node154 -> node155;
node156 [label="Post_CollapsedDataParallel_2_5837", push="4", pop="4", peek="4", pushType="int", popType="int", peekType="int", codeSize="54 b", stackSize="96 b", work="51"];
node155 -> node156;
node157 [label="WEIGHTED_ROUND_ROBIN_Joiner_5996", push="8", pop="8", peek="0", pushType="int", popType="int", peekType="void", codeSize="42 b", stackSize="96 b", work="0"];
node150 -> node157;
node156 -> node157;
node158 [label="Pre_CollapsedDataParallel_1_5830", push="8", pop="8", peek="8", pushType="int", popType="int", peekType="int", codeSize="50 b", stackSize="96 b", work="91"];
node135 -> node158;
node159 [label="WEIGHTED_ROUND_ROBIN_Splitter_6067", push="8", pop="8", peek="0", pushType="int", popType="int", peekType="void", codeSize="78 b", stackSize="160 b", work="0"];
node158 -> node159;
node160 [label="CompareExchange_6069", push="2", pop="2", peek="2", pushType="int", popType="int", peekType="int", codeSize="24 b", stackSize="128 b", work="14"];
node159 -> node160;
node161 [label="CompareExchange_6070", push="2", pop="2", peek="2", pushType="int", popType="int", peekType="int", codeSize="24 b", stackSize="128 b", work="14"];
node159 -> node161;
node162 [label="CompareExchange_6071", push="2", pop="2", peek="2", pushType="int", popType="int", peekType="int", codeSize="24 b", stackSize="128 b", work="14"];
node159 -> node162;
node163 [label="CompareExchange_6072", push="2", pop="2", peek="2", pushType="int", popType="int", peekType="int", codeSize="24 b", stackSize="128 b", work="14"];
node159 -> node163;
node164 [label="WEIGHTED_ROUND_ROBIN_Joiner_6068", push="8", pop="8", peek="0", pushType="int", popType="int", peekType="void", codeSize="78 b", stackSize="160 b", work="0"];
node160 -> node164;
node161 -> node164;
node162 -> node164;
node163 -> node164;
node165 [label="Post_CollapsedDataParallel_2_5831", push="8", pop="8", peek="8", pushType="int", popType="int", peekType="int", codeSize="54 b", stackSize="96 b", work="95"];
node164 -> node165;
node166 [label="WEIGHTED_ROUND_ROBIN_Splitter_5997", push="8", pop="8", peek="0", pushType="int", popType="int", peekType="void", codeSize="42 b", stackSize="96 b", work="0"];
node165 -> node166;
node167 [label="Pre_CollapsedDataParallel_1_5839", push="4", pop="4", peek="4", pushType="int", popType="int", peekType="int", codeSize="50 b", stackSize="96 b", work="47"];
node166 -> node167;
node168 [label="WEIGHTED_ROUND_ROBIN_Splitter_6073", push="4", pop="4", peek="0", pushType="int", popType="int", peekType="void", codeSize="42 b", stackSize="96 b", work="0"];
node167 -> node168;
node169 [label="CompareExchange_6075", push="2", pop="2", peek="2", pushType="int", popType="int", peekType="int", codeSize="24 b", stackSize="128 b", work="14"];
node168 -> node169;
node170 [label="CompareExchange_6076", push="2", pop="2", peek="2", pushType="int", popType="int", peekType="int", codeSize="24 b", stackSize="128 b", work="14"];
node168 -> node170;
node171 [label="WEIGHTED_ROUND_ROBIN_Joiner_6074", push="4", pop="4", peek="0", pushType="int", popType="int", peekType="void", codeSize="42 b", stackSize="96 b", work="0"];
node169 -> node171;
node170 -> node171;
node172 [label="Post_CollapsedDataParallel_2_5840", push="4", pop="4", peek="4", pushType="int", popType="int", peekType="int", codeSize="54 b", stackSize="96 b", work="51"];
node171 -> node172;
node173 [label="Pre_CollapsedDataParallel_1_5842", push="4", pop="4", peek="4", pushType="int", popType="int", peekType="int", codeSize="50 b", stackSize="96 b", work="47"];
node166 -> node173;
node174 [label="WEIGHTED_ROUND_ROBIN_Splitter_6077", push="4", pop="4", peek="0", pushType="int", popType="int", peekType="void", codeSize="42 b", stackSize="96 b", work="0"];
node173 -> node174;
node175 [label="CompareExchange_6079", push="2", pop="2", peek="2", pushType="int", popType="int", peekType="int", codeSize="24 b", stackSize="128 b", work="14"];
node174 -> node175;
node176 [label="CompareExchange_6080", push="2", pop="2", peek="2", pushType="int", popType="int", peekType="int", codeSize="24 b", stackSize="128 b", work="14"];
node174 -> node176;
node177 [label="WEIGHTED_ROUND_ROBIN_Joiner_6078", push="4", pop="4", peek="0", pushType="int", popType="int", peekType="void", codeSize="42 b", stackSize="96 b", work="0"];
node175 -> node177;
node176 -> node177;
node178 [label="Post_CollapsedDataParallel_2_5843", push="4", pop="4", peek="4", pushType="int", popType="int", peekType="int", codeSize="54 b", stackSize="96 b", work="51"];
node177 -> node178;
node179 [label="WEIGHTED_ROUND_ROBIN_Joiner_5998", push="8", pop="8", peek="0", pushType="int", popType="int", peekType="void", codeSize="42 b", stackSize="96 b", work="0"];
node172 -> node179;
node178 -> node179;
node180 [label="WEIGHTED_ROUND_ROBIN_Joiner_5999", push="16", pop="16", peek="0", pushType="int", popType="int", peekType="void", codeSize="42 b", stackSize="96 b", work="0"];
node157 -> node180;
node179 -> node180;
node181 [label="WEIGHTED_ROUND_ROBIN_Splitter_6081", push="16", pop="16", peek="0", pushType="int", popType="int", peekType="void", codeSize="78 b", stackSize="160 b", work="0"];
node180 -> node181;
node182 [label="CompareExchange_6083", push="4", pop="4", peek="4", pushType="int", popType="int", peekType="int", codeSize="24 b", stackSize="128 b", work="14"];
node181 -> node182;
node183 [label="CompareExchange_6084", push="4", pop="4", peek="4", pushType="int", popType="int", peekType="int", codeSize="24 b", stackSize="128 b", work="14"];
node181 -> node183;
node184 [label="CompareExchange_6085", push="4", pop="4", peek="4", pushType="int", popType="int", peekType="int", codeSize="24 b", stackSize="128 b", work="14"];
node181 -> node184;
node185 [label="CompareExchange_6086", push="4", pop="4", peek="4", pushType="int", popType="int", peekType="int", codeSize="24 b", stackSize="128 b", work="14"];
node181 -> node185;
node186 [label="WEIGHTED_ROUND_ROBIN_Joiner_6082", push="16", pop="16", peek="0", pushType="int", popType="int", peekType="void", codeSize="78 b", stackSize="160 b", work="0"];
node182 -> node186;
node183 -> node186;
node184 -> node186;
node185 -> node186;
node187 [label="KeyPrinter_5573", push="0", pop="16", peek="16", pushType="void", popType="int", peekType="int", codeSize="42 b", stackSize="32 b", work="126"];
node186 -> node187;
}
