digraph streamit {
IntoBits_5 -> doIP_7
doIPm1_25 -> BitstoInts_493
PlainTextSource_4 -> IntoBits_5
PlainTextSource_4 [ label="des16r_plain_text_source", push=2, pop=0 ]
IntoBits_5 [ label="des16r_int_to_bits", pop=2, push=64 ]
doIP_7 -> AnonFilter_a0_8_split
AnonFilter_a0_8_join -> AnonFilter_a0_9_split
AnonFilter_a0_9_join -> AnonFilter_a0_10_split
AnonFilter_a0_10_join -> AnonFilter_a0_11_split
AnonFilter_a0_11_join -> AnonFilter_a0_12_split
AnonFilter_a0_12_join -> AnonFilter_a0_13_split
AnonFilter_a0_13_join -> AnonFilter_a0_14_split
AnonFilter_a0_14_join -> AnonFilter_a0_15_split
AnonFilter_a0_15_join -> AnonFilter_a0_16_split
AnonFilter_a0_16_join -> AnonFilter_a0_17_split
AnonFilter_a0_17_join -> AnonFilter_a0_18_split
AnonFilter_a0_18_join -> AnonFilter_a0_19_split
AnonFilter_a0_19_join -> AnonFilter_a0_20_split
AnonFilter_a0_20_join -> AnonFilter_a0_21_split
AnonFilter_a0_21_join -> AnonFilter_a0_22_split
AnonFilter_a0_22_join -> AnonFilter_a0_23_split
AnonFilter_a0_23_join -> CrissCross_24
CrissCross_24 -> doIPm1_25
doIP_7 [ label="des16r_do_ip", push=64, pop=64 ]
AnonFilter_a0_8_split [ label="des16r_split4_duplicate", push=64, pop=64  ]
AnonFilter_a0_8_join [ label="des16r_join4_weighted_round_robin", push=64, pop=64 ]
AnonFilter_a3_28_join -> des16r_xor_29
AnonFilter_a3_28_split [ label="des16r_split6_weighted_round_robin", push=32, pop=64 ]
AnonFilter_a3_28_join [ label="des16r_join6_round_robin", pop=32, push=64 ]
AnonFilter_a4_32_join -> des16r_xor_33
des16r_xor_33 -> des16r_sboxes_34_split
des16r_sboxes_34_join -> des16r_do_p_35
AnonFilter_a4_32_split [ label="des16r_split7_weighted_round_robin", pop=32, push=32 ]
AnonFilter_a4_32_join [ label="des16r_join7_round_robin", pop=48, push=96 ]
des16r_do_e_36 [ label="des16r_do_e", pop=32, push=48, peek=48 ]
AnonFilter_a4_32_split -> des16r_do_e_36
des16r_do_e_36 -> AnonFilter_a4_32_join
des16r_key_schedule_38 [ label="des16r_key_schedule", pop=0, push=48 ]
AnonFilter_a4_32_split -> des16r_key_schedule_38
des16r_key_schedule_38 -> AnonFilter_a4_32_join
des16r_xor_33 [ label="des16r_xor", pop=96, push=48 ]
des16r_sboxes_34_split [ label="des16r_split1_round_robin", pop=48, push=6 ]
des16r_sboxes_34_join [ label="des16r_join1_round_robin", pop=4, push=32 ]
des16r_sbox_40 [ label="des16r_sbox", push=4, pop=6 ]
des16r_sboxes_34_split -> des16r_sbox_40
des16r_sbox_40 -> des16r_sboxes_34_join
des16r_sbox_41 [ label="des16r_sbox", push=4, pop=6 ]
des16r_sboxes_34_split -> des16r_sbox_41
des16r_sbox_41 -> des16r_sboxes_34_join
des16r_sbox_42 [ label="des16r_sbox", push=4, pop=6 ]
des16r_sboxes_34_split -> des16r_sbox_42
des16r_sbox_42 -> des16r_sboxes_34_join
des16r_sbox_43 [ label="des16r_sbox", push=4, pop=6 ]
des16r_sboxes_34_split -> des16r_sbox_43
des16r_sbox_43 -> des16r_sboxes_34_join
des16r_sbox_44 [ label="des16r_sbox", push=4, pop=6 ]
des16r_sboxes_34_split -> des16r_sbox_44
des16r_sbox_44 -> des16r_sboxes_34_join
des16r_sbox_45 [ label="des16r_sbox", push=4, pop=6 ]
des16r_sboxes_34_split -> des16r_sbox_45
des16r_sbox_45 -> des16r_sboxes_34_join
des16r_sbox_46 [ label="des16r_sbox", push=4, pop=6 ]
des16r_sboxes_34_split -> des16r_sbox_46
des16r_sbox_46 -> des16r_sboxes_34_join
des16r_sbox_47 [ label="des16r_sbox", push=4, pop=6 ]
des16r_sboxes_34_split -> des16r_sbox_47
des16r_sbox_47 -> des16r_sboxes_34_join
des16r_do_p_35 [ label="des16r_do_p", push=32, pop=32 ]
AnonFilter_a3_28_split -> AnonFilter_a4_32_split
des16r_do_p_35 -> AnonFilter_a3_28_join
des16r_identity_31 [ label="des16r_identity", pop=32, push=32 ]
AnonFilter_a3_28_split -> des16r_identity_31
des16r_identity_31 -> AnonFilter_a3_28_join
des16r_xor_29 [ label="des16r_xor", push=32, pop=64 ]
AnonFilter_a0_8_split -> AnonFilter_a3_28_split
des16r_xor_29 -> AnonFilter_a0_8_join
AnonFilter_a2_51_split [ label="des16r_split5_weighted_round_robin" ]
AnonFilter_a2_51_join [ label="des16r_join5_weighted_round_robin" ]
des16r_identity_52 [ label="des16r_identity", pop=32, push=32 ]
AnonFilter_a2_51_split -> des16r_identity_52
des16r_identity_52 -> AnonFilter_a2_51_join
des16r_anonfilter_a1_53 [ label="des16r_anonfilter_a1", pop=32, push=0 ]
AnonFilter_a2_51_split -> des16r_anonfilter_a1_53
des16r_anonfilter_a1_53 -> AnonFilter_a2_51_join
AnonFilter_a0_8_split -> AnonFilter_a2_51_split
AnonFilter_a2_51_join -> AnonFilter_a0_8_join
AnonFilter_a0_9_split [ label="des16r_split4_duplicate", push=64, pop=64  ]
AnonFilter_a0_9_join [ label="des16r_join4_weighted_round_robin", push=64, pop=64  ]
AnonFilter_a3_57_join -> des16r_xor_58
AnonFilter_a3_57_split [ label="des16r_split6_weighted_round_robin", push=32, pop=64  ]
AnonFilter_a3_57_join [ label="des16r_join6_round_robin", push=32, pop=64  ]
AnonFilter_a4_61_join -> des16r_xor_62
des16r_xor_62 -> des16r_sboxes_63_split
des16r_sboxes_63_join -> des16r_do_p_64
AnonFilter_a4_61_split [ label="des16r_split7_weighted_round_robin", push=32, pop=32  ]
AnonFilter_a4_61_join [ label="des16r_join7_round_robin", pop=48, push=96 ]
des16r_do_e_65 [ label="des16r_do_e", pop=32, push=48, peek=48 ]
AnonFilter_a4_61_split -> des16r_do_e_65
des16r_do_e_65 -> AnonFilter_a4_61_join
des16r_key_schedule_67 [ label="des16r_key_schedule", pop=0, push=48 ]
AnonFilter_a4_61_split -> des16r_key_schedule_67
des16r_key_schedule_67 -> AnonFilter_a4_61_join
des16r_xor_62 [ label="des16r_xor", pop=96, push=48 ]
des16r_sboxes_63_split [ label="des16r_split1_round_robin", pop=48, push=6 ]
des16r_sboxes_63_join [ label="des16r_join1_round_robin", pop=4, push=32 ]
des16r_sbox_69 [ label="des16r_sbox", push=4, pop=6 ]
des16r_sboxes_63_split -> des16r_sbox_69
des16r_sbox_69 -> des16r_sboxes_63_join
des16r_sbox_70 [ label="des16r_sbox", push=4, pop=6 ]
des16r_sboxes_63_split -> des16r_sbox_70
des16r_sbox_70 -> des16r_sboxes_63_join
des16r_sbox_71 [ label="des16r_sbox", push=4, pop=6 ]
des16r_sboxes_63_split -> des16r_sbox_71
des16r_sbox_71 -> des16r_sboxes_63_join
des16r_sbox_72 [ label="des16r_sbox", push=4, pop=6 ]
des16r_sboxes_63_split -> des16r_sbox_72
des16r_sbox_72 -> des16r_sboxes_63_join
des16r_sbox_73 [ label="des16r_sbox", push=4, pop=6 ]
des16r_sboxes_63_split -> des16r_sbox_73
des16r_sbox_73 -> des16r_sboxes_63_join
des16r_sbox_74 [ label="des16r_sbox", push=4, pop=6 ]
des16r_sboxes_63_split -> des16r_sbox_74
des16r_sbox_74 -> des16r_sboxes_63_join
des16r_sbox_75 [ label="des16r_sbox", push=4, pop=6 ]
des16r_sboxes_63_split -> des16r_sbox_75
des16r_sbox_75 -> des16r_sboxes_63_join
des16r_sbox_76 [ label="des16r_sbox", push=4, pop=6 ]
des16r_sboxes_63_split -> des16r_sbox_76
des16r_sbox_76 -> des16r_sboxes_63_join
des16r_do_p_64 [ label="des16r_do_p", push=32, pop=32 ]
AnonFilter_a3_57_split -> AnonFilter_a4_61_split
des16r_do_p_64 -> AnonFilter_a3_57_join
des16r_identity_60 [ label="des16r_identity", pop=32, push=32 ]
AnonFilter_a3_57_split -> des16r_identity_60
des16r_identity_60 -> AnonFilter_a3_57_join
des16r_xor_58 [ label="des16r_xor", push=32, pop=64 ]
AnonFilter_a0_9_split -> AnonFilter_a3_57_split
des16r_xor_58 -> AnonFilter_a0_9_join
AnonFilter_a2_80_split [ label="des16r_split5_weighted_round_robin" ]
AnonFilter_a2_80_join [ label="des16r_join5_weighted_round_robin" ]
des16r_identity_81 [ label="des16r_identity", pop=32, push=32 ]
AnonFilter_a2_80_split -> des16r_identity_81
des16r_identity_81 -> AnonFilter_a2_80_join
des16r_anonfilter_a1_82 [ label="des16r_anonfilter_a1", pop=32, push=0 ]
AnonFilter_a2_80_split -> des16r_anonfilter_a1_82
des16r_anonfilter_a1_82 -> AnonFilter_a2_80_join
AnonFilter_a0_9_split -> AnonFilter_a2_80_split
AnonFilter_a2_80_join -> AnonFilter_a0_9_join
AnonFilter_a0_10_split [ label="des16r_split4_duplicate", push=64, pop=64  ]
AnonFilter_a0_10_join [ label="des16r_join4_weighted_round_robin", push=64, pop=64  ]
AnonFilter_a3_86_join -> des16r_xor_87
AnonFilter_a3_86_split [ label="des16r_split6_weighted_round_robin", push=32, pop=64  ]
AnonFilter_a3_86_join [ label="des16r_join6_round_robin", push=32, pop=64  ]
AnonFilter_a4_90_join -> des16r_xor_91
des16r_xor_91 -> des16r_sboxes_92_split
des16r_sboxes_92_join -> des16r_do_p_93
AnonFilter_a4_90_split [ label="des16r_split7_weighted_round_robin", push=32, pop=32  ]
AnonFilter_a4_90_join [ label="des16r_join7_round_robin", pop=48, push=96 ]
des16r_do_e_94 [ label="des16r_do_e", pop=32, push=48, peek=48 ]
AnonFilter_a4_90_split -> des16r_do_e_94
des16r_do_e_94 -> AnonFilter_a4_90_join
des16r_key_schedule_96 [ label="des16r_key_schedule", pop=0, push=48 ]
AnonFilter_a4_90_split -> des16r_key_schedule_96
des16r_key_schedule_96 -> AnonFilter_a4_90_join
des16r_xor_91 [ label="des16r_xor", pop=96, push=48 ]
des16r_sboxes_92_split [ label="des16r_split1_round_robin", pop=48, push=6 ]
des16r_sboxes_92_join [ label="des16r_join1_round_robin", pop=4, push=32 ]
des16r_sbox_98 [ label="des16r_sbox", push=4, pop=6 ]
des16r_sboxes_92_split -> des16r_sbox_98
des16r_sbox_98 -> des16r_sboxes_92_join
des16r_sbox_99 [ label="des16r_sbox", push=4, pop=6 ]
des16r_sboxes_92_split -> des16r_sbox_99
des16r_sbox_99 -> des16r_sboxes_92_join
des16r_sbox_100 [ label="des16r_sbox", push=4, pop=6 ]
des16r_sboxes_92_split -> des16r_sbox_100
des16r_sbox_100 -> des16r_sboxes_92_join
des16r_sbox_101 [ label="des16r_sbox", push=4, pop=6 ]
des16r_sboxes_92_split -> des16r_sbox_101
des16r_sbox_101 -> des16r_sboxes_92_join
des16r_sbox_102 [ label="des16r_sbox", push=4, pop=6 ]
des16r_sboxes_92_split -> des16r_sbox_102
des16r_sbox_102 -> des16r_sboxes_92_join
des16r_sbox_103 [ label="des16r_sbox", push=4, pop=6 ]
des16r_sboxes_92_split -> des16r_sbox_103
des16r_sbox_103 -> des16r_sboxes_92_join
des16r_sbox_104 [ label="des16r_sbox", push=4, pop=6 ]
des16r_sboxes_92_split -> des16r_sbox_104
des16r_sbox_104 -> des16r_sboxes_92_join
des16r_sbox_105 [ label="des16r_sbox", push=4, pop=6 ]
des16r_sboxes_92_split -> des16r_sbox_105
des16r_sbox_105 -> des16r_sboxes_92_join
des16r_do_p_93 [ label="des16r_do_p", push=32, pop=32 ]
AnonFilter_a3_86_split -> AnonFilter_a4_90_split
des16r_do_p_93 -> AnonFilter_a3_86_join
des16r_identity_89 [ label="des16r_identity", pop=32, push=32 ]
AnonFilter_a3_86_split -> des16r_identity_89
des16r_identity_89 -> AnonFilter_a3_86_join
des16r_xor_87 [ label="des16r_xor", push=32, pop=64 ]
AnonFilter_a0_10_split -> AnonFilter_a3_86_split
des16r_xor_87 -> AnonFilter_a0_10_join
AnonFilter_a2_109_split [ label="des16r_split5_weighted_round_robin" ]
AnonFilter_a2_109_join [ label="des16r_join5_weighted_round_robin" ]
des16r_identity_110 [ label="des16r_identity", pop=32, push=32 ]
AnonFilter_a2_109_split -> des16r_identity_110
des16r_identity_110 -> AnonFilter_a2_109_join
des16r_anonfilter_a1_111 [ label="des16r_anonfilter_a1", pop=32, push=0 ]
AnonFilter_a2_109_split -> des16r_anonfilter_a1_111
des16r_anonfilter_a1_111 -> AnonFilter_a2_109_join
AnonFilter_a0_10_split -> AnonFilter_a2_109_split
AnonFilter_a2_109_join -> AnonFilter_a0_10_join
AnonFilter_a0_11_split [ label="des16r_split4_duplicate", push=64, pop=64  ]
AnonFilter_a0_11_join [ label="des16r_join4_weighted_round_robin", push=64, pop=64  ]
AnonFilter_a3_115_join -> des16r_xor_116
AnonFilter_a3_115_split [ label="des16r_split6_weighted_round_robin", push=32, pop=64  ]
AnonFilter_a3_115_join [ label="des16r_join6_round_robin", push=32, pop=64  ]
AnonFilter_a4_119_join -> des16r_xor_120
des16r_xor_120 -> des16r_sboxes_121_split
des16r_sboxes_121_join -> des16r_do_p_122
AnonFilter_a4_119_split [ label="des16r_split7_weighted_round_robin", push=32, pop=32  ]
AnonFilter_a4_119_join [ label="des16r_join7_round_robin", pop=48, push=96 ]
des16r_do_e_123 [ label="des16r_do_e", pop=32, push=48, peek=48 ]
AnonFilter_a4_119_split -> des16r_do_e_123
des16r_do_e_123 -> AnonFilter_a4_119_join
des16r_key_schedule_125 [ label="des16r_key_schedule", pop=0, push=48 ]
AnonFilter_a4_119_split -> des16r_key_schedule_125
des16r_key_schedule_125 -> AnonFilter_a4_119_join
des16r_xor_120 [ label="des16r_xor", pop=96, push=48 ]
des16r_sboxes_121_split [ label="des16r_split1_round_robin", pop=48, push=6 ]
des16r_sboxes_121_join [ label="des16r_join1_round_robin", pop=4, push=32 ]
des16r_sbox_127 [ label="des16r_sbox", push=4, pop=6 ]
des16r_sboxes_121_split -> des16r_sbox_127
des16r_sbox_127 -> des16r_sboxes_121_join
des16r_sbox_128 [ label="des16r_sbox", push=4, pop=6 ]
des16r_sboxes_121_split -> des16r_sbox_128
des16r_sbox_128 -> des16r_sboxes_121_join
des16r_sbox_129 [ label="des16r_sbox", push=4, pop=6 ]
des16r_sboxes_121_split -> des16r_sbox_129
des16r_sbox_129 -> des16r_sboxes_121_join
des16r_sbox_130 [ label="des16r_sbox", push=4, pop=6 ]
des16r_sboxes_121_split -> des16r_sbox_130
des16r_sbox_130 -> des16r_sboxes_121_join
des16r_sbox_131 [ label="des16r_sbox", push=4, pop=6 ]
des16r_sboxes_121_split -> des16r_sbox_131
des16r_sbox_131 -> des16r_sboxes_121_join
des16r_sbox_132 [ label="des16r_sbox", push=4, pop=6 ]
des16r_sboxes_121_split -> des16r_sbox_132
des16r_sbox_132 -> des16r_sboxes_121_join
des16r_sbox_133 [ label="des16r_sbox", push=4, pop=6 ]
des16r_sboxes_121_split -> des16r_sbox_133
des16r_sbox_133 -> des16r_sboxes_121_join
des16r_sbox_134 [ label="des16r_sbox", push=4, pop=6 ]
des16r_sboxes_121_split -> des16r_sbox_134
des16r_sbox_134 -> des16r_sboxes_121_join
des16r_do_p_122 [ label="des16r_do_p", push=32, pop=32 ]
AnonFilter_a3_115_split -> AnonFilter_a4_119_split
des16r_do_p_122 -> AnonFilter_a3_115_join
des16r_identity_118 [ label="des16r_identity", pop=32, push=32 ]
AnonFilter_a3_115_split -> des16r_identity_118
des16r_identity_118 -> AnonFilter_a3_115_join
des16r_xor_116 [ label="des16r_xor", push=32, pop=64 ]
AnonFilter_a0_11_split -> AnonFilter_a3_115_split
des16r_xor_116 -> AnonFilter_a0_11_join
AnonFilter_a2_138_split [ label="des16r_split5_weighted_round_robin" ]
AnonFilter_a2_138_join [ label="des16r_join5_weighted_round_robin" ]
des16r_identity_139 [ label="des16r_identity", pop=32, push=32 ]
AnonFilter_a2_138_split -> des16r_identity_139
des16r_identity_139 -> AnonFilter_a2_138_join
des16r_anonfilter_a1_140 [ label="des16r_anonfilter_a1", pop=32, push=0 ]
AnonFilter_a2_138_split -> des16r_anonfilter_a1_140
des16r_anonfilter_a1_140 -> AnonFilter_a2_138_join
AnonFilter_a0_11_split -> AnonFilter_a2_138_split
AnonFilter_a2_138_join -> AnonFilter_a0_11_join
AnonFilter_a0_12_split [ label="des16r_split4_duplicate", push=64, pop=64  ]
AnonFilter_a0_12_join [ label="des16r_join4_weighted_round_robin", push=64, pop=64  ]
AnonFilter_a3_144_join -> des16r_xor_145
AnonFilter_a3_144_split [ label="des16r_split6_weighted_round_robin", push=32, pop=64  ]
AnonFilter_a3_144_join [ label="des16r_join6_round_robin", push=32, pop=64  ]
AnonFilter_a4_148_join -> des16r_xor_149
des16r_xor_149 -> des16r_sboxes_150_split
des16r_sboxes_150_join -> des16r_do_p_151
AnonFilter_a4_148_split [ label="des16r_split7_weighted_round_robin", push=32, pop=32  ]
AnonFilter_a4_148_join [ label="des16r_join7_round_robin", pop=48, push=96 ]
des16r_do_e_152 [ label="des16r_do_e", pop=32, push=48, peek=48 ]
AnonFilter_a4_148_split -> des16r_do_e_152
des16r_do_e_152 -> AnonFilter_a4_148_join
des16r_key_schedule_154 [ label="des16r_key_schedule", pop=0, push=48 ]
AnonFilter_a4_148_split -> des16r_key_schedule_154
des16r_key_schedule_154 -> AnonFilter_a4_148_join
des16r_xor_149 [ label="des16r_xor", pop=96, push=48 ]
des16r_sboxes_150_split [ label="des16r_split1_round_robin", pop=48, push=6 ]
des16r_sboxes_150_join [ label="des16r_join1_round_robin", pop=4, push=32 ]
des16r_sbox_156 [ label="des16r_sbox", push=4, pop=6 ]
des16r_sboxes_150_split -> des16r_sbox_156
des16r_sbox_156 -> des16r_sboxes_150_join
des16r_sbox_157 [ label="des16r_sbox", push=4, pop=6 ]
des16r_sboxes_150_split -> des16r_sbox_157
des16r_sbox_157 -> des16r_sboxes_150_join
des16r_sbox_158 [ label="des16r_sbox", push=4, pop=6 ]
des16r_sboxes_150_split -> des16r_sbox_158
des16r_sbox_158 -> des16r_sboxes_150_join
des16r_sbox_159 [ label="des16r_sbox", push=4, pop=6 ]
des16r_sboxes_150_split -> des16r_sbox_159
des16r_sbox_159 -> des16r_sboxes_150_join
des16r_sbox_160 [ label="des16r_sbox", push=4, pop=6 ]
des16r_sboxes_150_split -> des16r_sbox_160
des16r_sbox_160 -> des16r_sboxes_150_join
des16r_sbox_161 [ label="des16r_sbox", push=4, pop=6 ]
des16r_sboxes_150_split -> des16r_sbox_161
des16r_sbox_161 -> des16r_sboxes_150_join
des16r_sbox_162 [ label="des16r_sbox", push=4, pop=6 ]
des16r_sboxes_150_split -> des16r_sbox_162
des16r_sbox_162 -> des16r_sboxes_150_join
des16r_sbox_163 [ label="des16r_sbox", push=4, pop=6 ]
des16r_sboxes_150_split -> des16r_sbox_163
des16r_sbox_163 -> des16r_sboxes_150_join
des16r_do_p_151 [ label="des16r_do_p", push=32, pop=32 ]
AnonFilter_a3_144_split -> AnonFilter_a4_148_split
des16r_do_p_151 -> AnonFilter_a3_144_join
des16r_identity_147 [ label="des16r_identity", pop=32, push=32 ]
AnonFilter_a3_144_split -> des16r_identity_147
des16r_identity_147 -> AnonFilter_a3_144_join
des16r_xor_145 [ label="des16r_xor", push=32, pop=64 ]
AnonFilter_a0_12_split -> AnonFilter_a3_144_split
des16r_xor_145 -> AnonFilter_a0_12_join
AnonFilter_a2_167_split [ label="des16r_split5_weighted_round_robin" ]
AnonFilter_a2_167_join [ label="des16r_join5_weighted_round_robin" ]
des16r_identity_168 [ label="des16r_identity", pop=32, push=32 ]
AnonFilter_a2_167_split -> des16r_identity_168
des16r_identity_168 -> AnonFilter_a2_167_join
des16r_anonfilter_a1_169 [ label="des16r_anonfilter_a1", pop=32, push=0 ]
AnonFilter_a2_167_split -> des16r_anonfilter_a1_169
des16r_anonfilter_a1_169 -> AnonFilter_a2_167_join
AnonFilter_a0_12_split -> AnonFilter_a2_167_split
AnonFilter_a2_167_join -> AnonFilter_a0_12_join
AnonFilter_a0_13_split [ label="des16r_split4_duplicate", push=64, pop=64  ]
AnonFilter_a0_13_join [ label="des16r_join4_weighted_round_robin", push=64, pop=64  ]
AnonFilter_a3_173_join -> des16r_xor_174
AnonFilter_a3_173_split [ label="des16r_split6_weighted_round_robin", push=32, pop=64  ]
AnonFilter_a3_173_join [ label="des16r_join6_round_robin", push=32, pop=64  ]
AnonFilter_a4_177_join -> des16r_xor_178
des16r_xor_178 -> des16r_sboxes_179_split
des16r_sboxes_179_join -> des16r_do_p_180
AnonFilter_a4_177_split [ label="des16r_split7_weighted_round_robin", push=32, pop=32  ]
AnonFilter_a4_177_join [ label="des16r_join7_round_robin", pop=48, push=96 ]
des16r_do_e_181 [ label="des16r_do_e", pop=32, push=48, peek=48 ]
AnonFilter_a4_177_split -> des16r_do_e_181
des16r_do_e_181 -> AnonFilter_a4_177_join
des16r_key_schedule_183 [ label="des16r_key_schedule", pop=0, push=48 ]
AnonFilter_a4_177_split -> des16r_key_schedule_183
des16r_key_schedule_183 -> AnonFilter_a4_177_join
des16r_xor_178 [ label="des16r_xor", pop=96, push=48 ]
des16r_sboxes_179_split [ label="des16r_split1_round_robin", pop=48, push=6 ]
des16r_sboxes_179_join [ label="des16r_join1_round_robin", pop=4, push=32 ]
des16r_sbox_185 [ label="des16r_sbox", push=4, pop=6 ]
des16r_sboxes_179_split -> des16r_sbox_185
des16r_sbox_185 -> des16r_sboxes_179_join
des16r_sbox_186 [ label="des16r_sbox", push=4, pop=6 ]
des16r_sboxes_179_split -> des16r_sbox_186
des16r_sbox_186 -> des16r_sboxes_179_join
des16r_sbox_187 [ label="des16r_sbox", push=4, pop=6 ]
des16r_sboxes_179_split -> des16r_sbox_187
des16r_sbox_187 -> des16r_sboxes_179_join
des16r_sbox_188 [ label="des16r_sbox", push=4, pop=6 ]
des16r_sboxes_179_split -> des16r_sbox_188
des16r_sbox_188 -> des16r_sboxes_179_join
des16r_sbox_189 [ label="des16r_sbox", push=4, pop=6 ]
des16r_sboxes_179_split -> des16r_sbox_189
des16r_sbox_189 -> des16r_sboxes_179_join
des16r_sbox_190 [ label="des16r_sbox", push=4, pop=6 ]
des16r_sboxes_179_split -> des16r_sbox_190
des16r_sbox_190 -> des16r_sboxes_179_join
des16r_sbox_191 [ label="des16r_sbox", push=4, pop=6 ]
des16r_sboxes_179_split -> des16r_sbox_191
des16r_sbox_191 -> des16r_sboxes_179_join
des16r_sbox_192 [ label="des16r_sbox", push=4, pop=6 ]
des16r_sboxes_179_split -> des16r_sbox_192
des16r_sbox_192 -> des16r_sboxes_179_join
des16r_do_p_180 [ label="des16r_do_p", push=32, pop=32 ]
AnonFilter_a3_173_split -> AnonFilter_a4_177_split
des16r_do_p_180 -> AnonFilter_a3_173_join
des16r_identity_176 [ label="des16r_identity", pop=32, push=32 ]
AnonFilter_a3_173_split -> des16r_identity_176
des16r_identity_176 -> AnonFilter_a3_173_join
des16r_xor_174 [ label="des16r_xor", push=32, pop=64 ]
AnonFilter_a0_13_split -> AnonFilter_a3_173_split
des16r_xor_174 -> AnonFilter_a0_13_join
AnonFilter_a2_196_split [ label="des16r_split5_weighted_round_robin" ]
AnonFilter_a2_196_join [ label="des16r_join5_weighted_round_robin" ]
des16r_identity_197 [ label="des16r_identity", pop=32, push=32 ]
AnonFilter_a2_196_split -> des16r_identity_197
des16r_identity_197 -> AnonFilter_a2_196_join
des16r_anonfilter_a1_198 [ label="des16r_anonfilter_a1", pop=32, push=0 ]
AnonFilter_a2_196_split -> des16r_anonfilter_a1_198
des16r_anonfilter_a1_198 -> AnonFilter_a2_196_join
AnonFilter_a0_13_split -> AnonFilter_a2_196_split
AnonFilter_a2_196_join -> AnonFilter_a0_13_join
AnonFilter_a0_14_split [ label="des16r_split4_duplicate", push=64, pop=64  ]
AnonFilter_a0_14_join [ label="des16r_join4_weighted_round_robin", push=64, pop=64  ]
AnonFilter_a3_202_join -> des16r_xor_203
AnonFilter_a3_202_split [ label="des16r_split6_weighted_round_robin", push=32, pop=64  ]
AnonFilter_a3_202_join [ label="des16r_join6_round_robin", push=32, pop=64  ]
AnonFilter_a4_206_join -> des16r_xor_207
des16r_xor_207 -> des16r_sboxes_208_split
des16r_sboxes_208_join -> des16r_do_p_209
AnonFilter_a4_206_split [ label="des16r_split7_weighted_round_robin", push=32, pop=32  ]
AnonFilter_a4_206_join [ label="des16r_join7_round_robin", pop=48, push=96 ]
des16r_do_e_210 [ label="des16r_do_e", pop=32, push=48, peek=48 ]
AnonFilter_a4_206_split -> des16r_do_e_210
des16r_do_e_210 -> AnonFilter_a4_206_join
des16r_key_schedule_212 [ label="des16r_key_schedule", pop=0, push=48 ]
AnonFilter_a4_206_split -> des16r_key_schedule_212
des16r_key_schedule_212 -> AnonFilter_a4_206_join
des16r_xor_207 [ label="des16r_xor", pop=96, push=48 ]
des16r_sboxes_208_split [ label="des16r_split1_round_robin", pop=48, push=6 ]
des16r_sboxes_208_join [ label="des16r_join1_round_robin", pop=4, push=32 ]
des16r_sbox_214 [ label="des16r_sbox", push=4, pop=6 ]
des16r_sboxes_208_split -> des16r_sbox_214
des16r_sbox_214 -> des16r_sboxes_208_join
des16r_sbox_215 [ label="des16r_sbox", push=4, pop=6 ]
des16r_sboxes_208_split -> des16r_sbox_215
des16r_sbox_215 -> des16r_sboxes_208_join
des16r_sbox_216 [ label="des16r_sbox", push=4, pop=6 ]
des16r_sboxes_208_split -> des16r_sbox_216
des16r_sbox_216 -> des16r_sboxes_208_join
des16r_sbox_217 [ label="des16r_sbox", push=4, pop=6 ]
des16r_sboxes_208_split -> des16r_sbox_217
des16r_sbox_217 -> des16r_sboxes_208_join
des16r_sbox_218 [ label="des16r_sbox", push=4, pop=6 ]
des16r_sboxes_208_split -> des16r_sbox_218
des16r_sbox_218 -> des16r_sboxes_208_join
des16r_sbox_219 [ label="des16r_sbox", push=4, pop=6 ]
des16r_sboxes_208_split -> des16r_sbox_219
des16r_sbox_219 -> des16r_sboxes_208_join
des16r_sbox_220 [ label="des16r_sbox", push=4, pop=6 ]
des16r_sboxes_208_split -> des16r_sbox_220
des16r_sbox_220 -> des16r_sboxes_208_join
des16r_sbox_221 [ label="des16r_sbox", push=4, pop=6 ]
des16r_sboxes_208_split -> des16r_sbox_221
des16r_sbox_221 -> des16r_sboxes_208_join
des16r_do_p_209 [ label="des16r_do_p", push=32, pop=32 ]
AnonFilter_a3_202_split -> AnonFilter_a4_206_split
des16r_do_p_209 -> AnonFilter_a3_202_join
des16r_identity_205 [ label="des16r_identity", pop=32, push=32 ]
AnonFilter_a3_202_split -> des16r_identity_205
des16r_identity_205 -> AnonFilter_a3_202_join
des16r_xor_203 [ label="des16r_xor", push=32, pop=64 ]
AnonFilter_a0_14_split -> AnonFilter_a3_202_split
des16r_xor_203 -> AnonFilter_a0_14_join
AnonFilter_a2_225_split [ label="des16r_split5_weighted_round_robin" ]
AnonFilter_a2_225_join [ label="des16r_join5_weighted_round_robin" ]
des16r_identity_226 [ label="des16r_identity", pop=32, push=32 ]
AnonFilter_a2_225_split -> des16r_identity_226
des16r_identity_226 -> AnonFilter_a2_225_join
des16r_anonfilter_a1_227 [ label="des16r_anonfilter_a1", pop=32, push=0 ]
AnonFilter_a2_225_split -> des16r_anonfilter_a1_227
des16r_anonfilter_a1_227 -> AnonFilter_a2_225_join
AnonFilter_a0_14_split -> AnonFilter_a2_225_split
AnonFilter_a2_225_join -> AnonFilter_a0_14_join
AnonFilter_a0_15_split [ label="des16r_split4_duplicate", push=64, pop=64  ]
AnonFilter_a0_15_join [ label="des16r_join4_weighted_round_robin", push=64, pop=64  ]
AnonFilter_a3_231_join -> des16r_xor_232
AnonFilter_a3_231_split [ label="des16r_split6_weighted_round_robin", push=32, pop=64  ]
AnonFilter_a3_231_join [ label="des16r_join6_round_robin", push=32, pop=64  ]
AnonFilter_a4_235_join -> des16r_xor_236
des16r_xor_236 -> des16r_sboxes_237_split
des16r_sboxes_237_join -> des16r_do_p_238
AnonFilter_a4_235_split [ label="des16r_split7_weighted_round_robin", push=32, pop=32  ]
AnonFilter_a4_235_join [ label="des16r_join7_round_robin", pop=48, push=96 ]
des16r_do_e_239 [ label="des16r_do_e", pop=32, push=48, peek=48 ]
AnonFilter_a4_235_split -> des16r_do_e_239
des16r_do_e_239 -> AnonFilter_a4_235_join
des16r_key_schedule_241 [ label="des16r_key_schedule", pop=0, push=48 ]
AnonFilter_a4_235_split -> des16r_key_schedule_241
des16r_key_schedule_241 -> AnonFilter_a4_235_join
des16r_xor_236 [ label="des16r_xor", pop=96, push=48 ]
des16r_sboxes_237_split [ label="des16r_split1_round_robin", pop=48, push=6 ]
des16r_sboxes_237_join [ label="des16r_join1_round_robin", pop=4, push=32 ]
des16r_sbox_243 [ label="des16r_sbox", push=4, pop=6 ]
des16r_sboxes_237_split -> des16r_sbox_243
des16r_sbox_243 -> des16r_sboxes_237_join
des16r_sbox_244 [ label="des16r_sbox", push=4, pop=6 ]
des16r_sboxes_237_split -> des16r_sbox_244
des16r_sbox_244 -> des16r_sboxes_237_join
des16r_sbox_245 [ label="des16r_sbox", push=4, pop=6 ]
des16r_sboxes_237_split -> des16r_sbox_245
des16r_sbox_245 -> des16r_sboxes_237_join
des16r_sbox_246 [ label="des16r_sbox", push=4, pop=6 ]
des16r_sboxes_237_split -> des16r_sbox_246
des16r_sbox_246 -> des16r_sboxes_237_join
des16r_sbox_247 [ label="des16r_sbox", push=4, pop=6 ]
des16r_sboxes_237_split -> des16r_sbox_247
des16r_sbox_247 -> des16r_sboxes_237_join
des16r_sbox_248 [ label="des16r_sbox", push=4, pop=6 ]
des16r_sboxes_237_split -> des16r_sbox_248
des16r_sbox_248 -> des16r_sboxes_237_join
des16r_sbox_249 [ label="des16r_sbox", push=4, pop=6 ]
des16r_sboxes_237_split -> des16r_sbox_249
des16r_sbox_249 -> des16r_sboxes_237_join
des16r_sbox_250 [ label="des16r_sbox", push=4, pop=6 ]
des16r_sboxes_237_split -> des16r_sbox_250
des16r_sbox_250 -> des16r_sboxes_237_join
des16r_do_p_238 [ label="des16r_do_p", push=32, pop=32 ]
AnonFilter_a3_231_split -> AnonFilter_a4_235_split
des16r_do_p_238 -> AnonFilter_a3_231_join
des16r_identity_234 [ label="des16r_identity", pop=32, push=32 ]
AnonFilter_a3_231_split -> des16r_identity_234
des16r_identity_234 -> AnonFilter_a3_231_join
des16r_xor_232 [ label="des16r_xor", push=32, pop=64 ]
AnonFilter_a0_15_split -> AnonFilter_a3_231_split
des16r_xor_232 -> AnonFilter_a0_15_join
AnonFilter_a2_254_split [ label="des16r_split5_weighted_round_robin" ]
AnonFilter_a2_254_join [ label="des16r_join5_weighted_round_robin" ]
des16r_identity_255 [ label="des16r_identity", pop=32, push=32 ]
AnonFilter_a2_254_split -> des16r_identity_255
des16r_identity_255 -> AnonFilter_a2_254_join
des16r_anonfilter_a1_256 [ label="des16r_anonfilter_a1", pop=32, push=0 ]
AnonFilter_a2_254_split -> des16r_anonfilter_a1_256
des16r_anonfilter_a1_256 -> AnonFilter_a2_254_join
AnonFilter_a0_15_split -> AnonFilter_a2_254_split
AnonFilter_a2_254_join -> AnonFilter_a0_15_join
AnonFilter_a0_16_split [ label="des16r_split4_duplicate", push=64, pop=64  ]
AnonFilter_a0_16_join [ label="des16r_join4_weighted_round_robin", push=64, pop=64  ]
AnonFilter_a3_260_join -> des16r_xor_261
AnonFilter_a3_260_split [ label="des16r_split6_weighted_round_robin", push=32, pop=64  ]
AnonFilter_a3_260_join [ label="des16r_join6_round_robin", push=32, pop=64  ]
AnonFilter_a4_264_join -> des16r_xor_265
des16r_xor_265 -> des16r_sboxes_266_split
des16r_sboxes_266_join -> des16r_do_p_267
AnonFilter_a4_264_split [ label="des16r_split7_weighted_round_robin", push=32, pop=32  ]
AnonFilter_a4_264_join [ label="des16r_join7_round_robin", pop=48, push=96 ]
des16r_do_e_268 [ label="des16r_do_e", pop=32, push=48, peek=48 ]
AnonFilter_a4_264_split -> des16r_do_e_268
des16r_do_e_268 -> AnonFilter_a4_264_join
des16r_key_schedule_270 [ label="des16r_key_schedule", pop=0, push=48 ]
AnonFilter_a4_264_split -> des16r_key_schedule_270
des16r_key_schedule_270 -> AnonFilter_a4_264_join
des16r_xor_265 [ label="des16r_xor", pop=96, push=48 ]
des16r_sboxes_266_split [ label="des16r_split1_round_robin", pop=48, push=6 ]
des16r_sboxes_266_join [ label="des16r_join1_round_robin", pop=4, push=32 ]
des16r_sbox_272 [ label="des16r_sbox", push=4, pop=6 ]
des16r_sboxes_266_split -> des16r_sbox_272
des16r_sbox_272 -> des16r_sboxes_266_join
des16r_sbox_273 [ label="des16r_sbox", push=4, pop=6 ]
des16r_sboxes_266_split -> des16r_sbox_273
des16r_sbox_273 -> des16r_sboxes_266_join
des16r_sbox_274 [ label="des16r_sbox", push=4, pop=6 ]
des16r_sboxes_266_split -> des16r_sbox_274
des16r_sbox_274 -> des16r_sboxes_266_join
des16r_sbox_275 [ label="des16r_sbox", push=4, pop=6 ]
des16r_sboxes_266_split -> des16r_sbox_275
des16r_sbox_275 -> des16r_sboxes_266_join
des16r_sbox_276 [ label="des16r_sbox", push=4, pop=6 ]
des16r_sboxes_266_split -> des16r_sbox_276
des16r_sbox_276 -> des16r_sboxes_266_join
des16r_sbox_277 [ label="des16r_sbox", push=4, pop=6 ]
des16r_sboxes_266_split -> des16r_sbox_277
des16r_sbox_277 -> des16r_sboxes_266_join
des16r_sbox_278 [ label="des16r_sbox", push=4, pop=6 ]
des16r_sboxes_266_split -> des16r_sbox_278
des16r_sbox_278 -> des16r_sboxes_266_join
des16r_sbox_279 [ label="des16r_sbox", push=4, pop=6 ]
des16r_sboxes_266_split -> des16r_sbox_279
des16r_sbox_279 -> des16r_sboxes_266_join
des16r_do_p_267 [ label="des16r_do_p", push=32, pop=32 ]
AnonFilter_a3_260_split -> AnonFilter_a4_264_split
des16r_do_p_267 -> AnonFilter_a3_260_join
des16r_identity_263 [ label="des16r_identity", pop=32, push=32 ]
AnonFilter_a3_260_split -> des16r_identity_263
des16r_identity_263 -> AnonFilter_a3_260_join
des16r_xor_261 [ label="des16r_xor", push=32, pop=64 ]
AnonFilter_a0_16_split -> AnonFilter_a3_260_split
des16r_xor_261 -> AnonFilter_a0_16_join
AnonFilter_a2_283_split [ label="des16r_split5_weighted_round_robin" ]
AnonFilter_a2_283_join [ label="des16r_join5_weighted_round_robin" ]
des16r_identity_284 [ label="des16r_identity", pop=32, push=32 ]
AnonFilter_a2_283_split -> des16r_identity_284
des16r_identity_284 -> AnonFilter_a2_283_join
des16r_anonfilter_a1_285 [ label="des16r_anonfilter_a1", pop=32, push=0 ]
AnonFilter_a2_283_split -> des16r_anonfilter_a1_285
des16r_anonfilter_a1_285 -> AnonFilter_a2_283_join
AnonFilter_a0_16_split -> AnonFilter_a2_283_split
AnonFilter_a2_283_join -> AnonFilter_a0_16_join
AnonFilter_a0_17_split [ label="des16r_split4_duplicate", push=64, pop=64  ]
AnonFilter_a0_17_join [ label="des16r_join4_weighted_round_robin", push=64, pop=64  ]
AnonFilter_a3_289_join -> des16r_xor_290
AnonFilter_a3_289_split [ label="des16r_split6_weighted_round_robin", push=32, pop=64  ]
AnonFilter_a3_289_join [ label="des16r_join6_round_robin", push=32, pop=64  ]
AnonFilter_a4_293_join -> des16r_xor_294
des16r_xor_294 -> des16r_sboxes_295_split
des16r_sboxes_295_join -> des16r_do_p_296
AnonFilter_a4_293_split [ label="des16r_split7_weighted_round_robin", push=32, pop=32  ]
AnonFilter_a4_293_join [ label="des16r_join7_round_robin", pop=48, push=96 ]
des16r_do_e_297 [ label="des16r_do_e", pop=32, push=48, peek=48 ]
AnonFilter_a4_293_split -> des16r_do_e_297
des16r_do_e_297 -> AnonFilter_a4_293_join
des16r_key_schedule_299 [ label="des16r_key_schedule", pop=0, push=48 ]
AnonFilter_a4_293_split -> des16r_key_schedule_299
des16r_key_schedule_299 -> AnonFilter_a4_293_join
des16r_xor_294 [ label="des16r_xor", pop=96, push=48 ]
des16r_sboxes_295_split [ label="des16r_split1_round_robin", pop=48, push=6 ]
des16r_sboxes_295_join [ label="des16r_join1_round_robin", pop=4, push=32 ]
des16r_sbox_301 [ label="des16r_sbox", push=4, pop=6 ]
des16r_sboxes_295_split -> des16r_sbox_301
des16r_sbox_301 -> des16r_sboxes_295_join
des16r_sbox_302 [ label="des16r_sbox", push=4, pop=6 ]
des16r_sboxes_295_split -> des16r_sbox_302
des16r_sbox_302 -> des16r_sboxes_295_join
des16r_sbox_303 [ label="des16r_sbox", push=4, pop=6 ]
des16r_sboxes_295_split -> des16r_sbox_303
des16r_sbox_303 -> des16r_sboxes_295_join
des16r_sbox_304 [ label="des16r_sbox", push=4, pop=6 ]
des16r_sboxes_295_split -> des16r_sbox_304
des16r_sbox_304 -> des16r_sboxes_295_join
des16r_sbox_305 [ label="des16r_sbox", push=4, pop=6 ]
des16r_sboxes_295_split -> des16r_sbox_305
des16r_sbox_305 -> des16r_sboxes_295_join
des16r_sbox_306 [ label="des16r_sbox", push=4, pop=6 ]
des16r_sboxes_295_split -> des16r_sbox_306
des16r_sbox_306 -> des16r_sboxes_295_join
des16r_sbox_307 [ label="des16r_sbox", push=4, pop=6 ]
des16r_sboxes_295_split -> des16r_sbox_307
des16r_sbox_307 -> des16r_sboxes_295_join
des16r_sbox_308 [ label="des16r_sbox", push=4, pop=6 ]
des16r_sboxes_295_split -> des16r_sbox_308
des16r_sbox_308 -> des16r_sboxes_295_join
des16r_do_p_296 [ label="des16r_do_p", push=32, pop=32 ]
AnonFilter_a3_289_split -> AnonFilter_a4_293_split
des16r_do_p_296 -> AnonFilter_a3_289_join
des16r_identity_292 [ label="des16r_identity", pop=32, push=32 ]
AnonFilter_a3_289_split -> des16r_identity_292
des16r_identity_292 -> AnonFilter_a3_289_join
des16r_xor_290 [ label="des16r_xor", push=32, pop=64 ]
AnonFilter_a0_17_split -> AnonFilter_a3_289_split
des16r_xor_290 -> AnonFilter_a0_17_join
AnonFilter_a2_312_split [ label="des16r_split5_weighted_round_robin" ]
AnonFilter_a2_312_join [ label="des16r_join5_weighted_round_robin" ]
des16r_identity_313 [ label="des16r_identity", pop=32, push=32 ]
AnonFilter_a2_312_split -> des16r_identity_313
des16r_identity_313 -> AnonFilter_a2_312_join
des16r_anonfilter_a1_314 [ label="des16r_anonfilter_a1", pop=32, push=0 ]
AnonFilter_a2_312_split -> des16r_anonfilter_a1_314
des16r_anonfilter_a1_314 -> AnonFilter_a2_312_join
AnonFilter_a0_17_split -> AnonFilter_a2_312_split
AnonFilter_a2_312_join -> AnonFilter_a0_17_join
AnonFilter_a0_18_split [ label="des16r_split4_duplicate", push=64, pop=64  ]
AnonFilter_a0_18_join [ label="des16r_join4_weighted_round_robin", push=64, pop=64  ]
AnonFilter_a3_318_join -> des16r_xor_319
AnonFilter_a3_318_split [ label="des16r_split6_weighted_round_robin", push=32, pop=64  ]
AnonFilter_a3_318_join [ label="des16r_join6_round_robin", push=32, pop=64  ]
AnonFilter_a4_322_join -> des16r_xor_323
des16r_xor_323 -> des16r_sboxes_324_split
des16r_sboxes_324_join -> des16r_do_p_325
AnonFilter_a4_322_split [ label="des16r_split7_weighted_round_robin", push=32, pop=32  ]
AnonFilter_a4_322_join [ label="des16r_join7_round_robin", pop=48, push=96 ]
des16r_do_e_326 [ label="des16r_do_e", pop=32, push=48, peek=48 ]
AnonFilter_a4_322_split -> des16r_do_e_326
des16r_do_e_326 -> AnonFilter_a4_322_join
des16r_key_schedule_328 [ label="des16r_key_schedule", pop=0, push=48 ]
AnonFilter_a4_322_split -> des16r_key_schedule_328
des16r_key_schedule_328 -> AnonFilter_a4_322_join
des16r_xor_323 [ label="des16r_xor", pop=96, push=48 ]
des16r_sboxes_324_split [ label="des16r_split1_round_robin", pop=48, push=6 ]
des16r_sboxes_324_join [ label="des16r_join1_round_robin", pop=4, push=32 ]
des16r_sbox_330 [ label="des16r_sbox", push=4, pop=6 ]
des16r_sboxes_324_split -> des16r_sbox_330
des16r_sbox_330 -> des16r_sboxes_324_join
des16r_sbox_331 [ label="des16r_sbox", push=4, pop=6 ]
des16r_sboxes_324_split -> des16r_sbox_331
des16r_sbox_331 -> des16r_sboxes_324_join
des16r_sbox_332 [ label="des16r_sbox", push=4, pop=6 ]
des16r_sboxes_324_split -> des16r_sbox_332
des16r_sbox_332 -> des16r_sboxes_324_join
des16r_sbox_333 [ label="des16r_sbox", push=4, pop=6 ]
des16r_sboxes_324_split -> des16r_sbox_333
des16r_sbox_333 -> des16r_sboxes_324_join
des16r_sbox_334 [ label="des16r_sbox", push=4, pop=6 ]
des16r_sboxes_324_split -> des16r_sbox_334
des16r_sbox_334 -> des16r_sboxes_324_join
des16r_sbox_335 [ label="des16r_sbox", push=4, pop=6 ]
des16r_sboxes_324_split -> des16r_sbox_335
des16r_sbox_335 -> des16r_sboxes_324_join
des16r_sbox_336 [ label="des16r_sbox", push=4, pop=6 ]
des16r_sboxes_324_split -> des16r_sbox_336
des16r_sbox_336 -> des16r_sboxes_324_join
des16r_sbox_337 [ label="des16r_sbox", push=4, pop=6 ]
des16r_sboxes_324_split -> des16r_sbox_337
des16r_sbox_337 -> des16r_sboxes_324_join
des16r_do_p_325 [ label="des16r_do_p", push=32, pop=32 ]
AnonFilter_a3_318_split -> AnonFilter_a4_322_split
des16r_do_p_325 -> AnonFilter_a3_318_join
des16r_identity_321 [ label="des16r_identity", pop=32, push=32 ]
AnonFilter_a3_318_split -> des16r_identity_321
des16r_identity_321 -> AnonFilter_a3_318_join
des16r_xor_319 [ label="des16r_xor", push=32, pop=64 ]
AnonFilter_a0_18_split -> AnonFilter_a3_318_split
des16r_xor_319 -> AnonFilter_a0_18_join
AnonFilter_a2_341_split [ label="des16r_split5_weighted_round_robin" ]
AnonFilter_a2_341_join [ label="des16r_join5_weighted_round_robin" ]
des16r_identity_342 [ label="des16r_identity", pop=32, push=32 ]
AnonFilter_a2_341_split -> des16r_identity_342
des16r_identity_342 -> AnonFilter_a2_341_join
des16r_anonfilter_a1_343 [ label="des16r_anonfilter_a1", pop=32, push=0 ]
AnonFilter_a2_341_split -> des16r_anonfilter_a1_343
des16r_anonfilter_a1_343 -> AnonFilter_a2_341_join
AnonFilter_a0_18_split -> AnonFilter_a2_341_split
AnonFilter_a2_341_join -> AnonFilter_a0_18_join
AnonFilter_a0_19_split [ label="des16r_split4_duplicate", push=64, pop=64  ]
AnonFilter_a0_19_join [ label="des16r_join4_weighted_round_robin", push=64, pop=64  ]
AnonFilter_a3_347_join -> des16r_xor_348
AnonFilter_a3_347_split [ label="des16r_split6_weighted_round_robin", push=32, pop=64  ]
AnonFilter_a3_347_join [ label="des16r_join6_round_robin", push=32, pop=64  ]
AnonFilter_a4_351_join -> des16r_xor_352
des16r_xor_352 -> des16r_sboxes_353_split
des16r_sboxes_353_join -> des16r_do_p_354
AnonFilter_a4_351_split [ label="des16r_split7_weighted_round_robin", push=32, pop=32  ]
AnonFilter_a4_351_join [ label="des16r_join7_round_robin", pop=48, push=96 ]
des16r_do_e_355 [ label="des16r_do_e", pop=32, push=48, peek=48 ]
AnonFilter_a4_351_split -> des16r_do_e_355
des16r_do_e_355 -> AnonFilter_a4_351_join
des16r_key_schedule_357 [ label="des16r_key_schedule", pop=0, push=48 ]
AnonFilter_a4_351_split -> des16r_key_schedule_357
des16r_key_schedule_357 -> AnonFilter_a4_351_join
des16r_xor_352 [ label="des16r_xor", pop=96, push=48 ]
des16r_sboxes_353_split [ label="des16r_split1_round_robin", pop=48, push=6 ]
des16r_sboxes_353_join [ label="des16r_join1_round_robin", pop=4, push=32 ]
des16r_sbox_359 [ label="des16r_sbox", push=4, pop=6 ]
des16r_sboxes_353_split -> des16r_sbox_359
des16r_sbox_359 -> des16r_sboxes_353_join
des16r_sbox_360 [ label="des16r_sbox", push=4, pop=6 ]
des16r_sboxes_353_split -> des16r_sbox_360
des16r_sbox_360 -> des16r_sboxes_353_join
des16r_sbox_361 [ label="des16r_sbox", push=4, pop=6 ]
des16r_sboxes_353_split -> des16r_sbox_361
des16r_sbox_361 -> des16r_sboxes_353_join
des16r_sbox_362 [ label="des16r_sbox", push=4, pop=6 ]
des16r_sboxes_353_split -> des16r_sbox_362
des16r_sbox_362 -> des16r_sboxes_353_join
des16r_sbox_363 [ label="des16r_sbox", push=4, pop=6 ]
des16r_sboxes_353_split -> des16r_sbox_363
des16r_sbox_363 -> des16r_sboxes_353_join
des16r_sbox_364 [ label="des16r_sbox", push=4, pop=6 ]
des16r_sboxes_353_split -> des16r_sbox_364
des16r_sbox_364 -> des16r_sboxes_353_join
des16r_sbox_365 [ label="des16r_sbox", push=4, pop=6 ]
des16r_sboxes_353_split -> des16r_sbox_365
des16r_sbox_365 -> des16r_sboxes_353_join
des16r_sbox_366 [ label="des16r_sbox", push=4, pop=6 ]
des16r_sboxes_353_split -> des16r_sbox_366
des16r_sbox_366 -> des16r_sboxes_353_join
des16r_do_p_354 [ label="des16r_do_p", push=32, pop=32 ]
AnonFilter_a3_347_split -> AnonFilter_a4_351_split
des16r_do_p_354 -> AnonFilter_a3_347_join
des16r_identity_350 [ label="des16r_identity", pop=32, push=32 ]
AnonFilter_a3_347_split -> des16r_identity_350
des16r_identity_350 -> AnonFilter_a3_347_join
des16r_xor_348 [ label="des16r_xor", push=32, pop=64 ]
AnonFilter_a0_19_split -> AnonFilter_a3_347_split
des16r_xor_348 -> AnonFilter_a0_19_join
AnonFilter_a2_370_split [ label="des16r_split5_weighted_round_robin" ]
AnonFilter_a2_370_join [ label="des16r_join5_weighted_round_robin" ]
des16r_identity_371 [ label="des16r_identity", pop=32, push=32 ]
AnonFilter_a2_370_split -> des16r_identity_371
des16r_identity_371 -> AnonFilter_a2_370_join
des16r_anonfilter_a1_372 [ label="des16r_anonfilter_a1", pop=32, push=0 ]
AnonFilter_a2_370_split -> des16r_anonfilter_a1_372
des16r_anonfilter_a1_372 -> AnonFilter_a2_370_join
AnonFilter_a0_19_split -> AnonFilter_a2_370_split
AnonFilter_a2_370_join -> AnonFilter_a0_19_join
AnonFilter_a0_20_split [ label="des16r_split4_duplicate", push=64, pop=64  ]
AnonFilter_a0_20_join [ label="des16r_join4_weighted_round_robin", push=64, pop=64  ]
AnonFilter_a3_376_join -> des16r_xor_377
AnonFilter_a3_376_split [ label="des16r_split6_weighted_round_robin", push=32, pop=64  ]
AnonFilter_a3_376_join [ label="des16r_join6_round_robin", push=32, pop=64  ]
AnonFilter_a4_380_join -> des16r_xor_381
des16r_xor_381 -> des16r_sboxes_382_split
des16r_sboxes_382_join -> des16r_do_p_383
AnonFilter_a4_380_split [ label="des16r_split7_weighted_round_robin", push=32, pop=32  ]
AnonFilter_a4_380_join [ label="des16r_join7_round_robin", pop=48, push=96 ]
des16r_do_e_384 [ label="des16r_do_e", pop=32, push=48, peek=48 ]
AnonFilter_a4_380_split -> des16r_do_e_384
des16r_do_e_384 -> AnonFilter_a4_380_join
des16r_key_schedule_386 [ label="des16r_key_schedule", pop=0, push=48 ]
AnonFilter_a4_380_split -> des16r_key_schedule_386
des16r_key_schedule_386 -> AnonFilter_a4_380_join
des16r_xor_381 [ label="des16r_xor", pop=96, push=48 ]
des16r_sboxes_382_split [ label="des16r_split1_round_robin", pop=48, push=6 ]
des16r_sboxes_382_join [ label="des16r_join1_round_robin", pop=4, push=32 ]
des16r_sbox_388 [ label="des16r_sbox", push=4, pop=6 ]
des16r_sboxes_382_split -> des16r_sbox_388
des16r_sbox_388 -> des16r_sboxes_382_join
des16r_sbox_389 [ label="des16r_sbox", push=4, pop=6 ]
des16r_sboxes_382_split -> des16r_sbox_389
des16r_sbox_389 -> des16r_sboxes_382_join
des16r_sbox_390 [ label="des16r_sbox", push=4, pop=6 ]
des16r_sboxes_382_split -> des16r_sbox_390
des16r_sbox_390 -> des16r_sboxes_382_join
des16r_sbox_391 [ label="des16r_sbox", push=4, pop=6 ]
des16r_sboxes_382_split -> des16r_sbox_391
des16r_sbox_391 -> des16r_sboxes_382_join
des16r_sbox_392 [ label="des16r_sbox", push=4, pop=6 ]
des16r_sboxes_382_split -> des16r_sbox_392
des16r_sbox_392 -> des16r_sboxes_382_join
des16r_sbox_393 [ label="des16r_sbox", push=4, pop=6 ]
des16r_sboxes_382_split -> des16r_sbox_393
des16r_sbox_393 -> des16r_sboxes_382_join
des16r_sbox_394 [ label="des16r_sbox", push=4, pop=6 ]
des16r_sboxes_382_split -> des16r_sbox_394
des16r_sbox_394 -> des16r_sboxes_382_join
des16r_sbox_395 [ label="des16r_sbox", push=4, pop=6 ]
des16r_sboxes_382_split -> des16r_sbox_395
des16r_sbox_395 -> des16r_sboxes_382_join
des16r_do_p_383 [ label="des16r_do_p", push=32, pop=32 ]
AnonFilter_a3_376_split -> AnonFilter_a4_380_split
des16r_do_p_383 -> AnonFilter_a3_376_join
des16r_identity_379 [ label="des16r_identity", pop=32, push=32 ]
AnonFilter_a3_376_split -> des16r_identity_379
des16r_identity_379 -> AnonFilter_a3_376_join
des16r_xor_377 [ label="des16r_xor", push=32, pop=64 ]
AnonFilter_a0_20_split -> AnonFilter_a3_376_split
des16r_xor_377 -> AnonFilter_a0_20_join
AnonFilter_a2_399_split [ label="des16r_split5_weighted_round_robin" ]
AnonFilter_a2_399_join [ label="des16r_join5_weighted_round_robin" ]
des16r_identity_400 [ label="des16r_identity", pop=32, push=32 ]
AnonFilter_a2_399_split -> des16r_identity_400
des16r_identity_400 -> AnonFilter_a2_399_join
des16r_anonfilter_a1_401 [ label="des16r_anonfilter_a1", pop=32, push=0 ]
AnonFilter_a2_399_split -> des16r_anonfilter_a1_401
des16r_anonfilter_a1_401 -> AnonFilter_a2_399_join
AnonFilter_a0_20_split -> AnonFilter_a2_399_split
AnonFilter_a2_399_join -> AnonFilter_a0_20_join
AnonFilter_a0_21_split [ label="des16r_split4_duplicate", push=64, pop=64  ]
AnonFilter_a0_21_join [ label="des16r_join4_weighted_round_robin", push=64, pop=64  ]
AnonFilter_a3_405_join -> des16r_xor_406
AnonFilter_a3_405_split [ label="des16r_split6_weighted_round_robin", push=32, pop=64  ]
AnonFilter_a3_405_join [ label="des16r_join6_round_robin", push=32, pop=64  ]
AnonFilter_a4_409_join -> des16r_xor_410
des16r_xor_410 -> des16r_sboxes_411_split
des16r_sboxes_411_join -> des16r_do_p_412
AnonFilter_a4_409_split [ label="des16r_split7_weighted_round_robin", push=32, pop=32  ]
AnonFilter_a4_409_join [ label="des16r_join7_round_robin", pop=48, push=96 ]
des16r_do_e_413 [ label="des16r_do_e", pop=32, push=48, peek=48 ]
AnonFilter_a4_409_split -> des16r_do_e_413
des16r_do_e_413 -> AnonFilter_a4_409_join
des16r_key_schedule_415 [ label="des16r_key_schedule", pop=0, push=48 ]
AnonFilter_a4_409_split -> des16r_key_schedule_415
des16r_key_schedule_415 -> AnonFilter_a4_409_join
des16r_xor_410 [ label="des16r_xor", pop=96, push=48 ]
des16r_sboxes_411_split [ label="des16r_split1_round_robin", pop=48, push=6 ]
des16r_sboxes_411_join [ label="des16r_join1_round_robin", pop=4, push=32 ]
des16r_sbox_417 [ label="des16r_sbox", push=4, pop=6 ]
des16r_sboxes_411_split -> des16r_sbox_417
des16r_sbox_417 -> des16r_sboxes_411_join
des16r_sbox_418 [ label="des16r_sbox", push=4, pop=6 ]
des16r_sboxes_411_split -> des16r_sbox_418
des16r_sbox_418 -> des16r_sboxes_411_join
des16r_sbox_419 [ label="des16r_sbox", push=4, pop=6 ]
des16r_sboxes_411_split -> des16r_sbox_419
des16r_sbox_419 -> des16r_sboxes_411_join
des16r_sbox_420 [ label="des16r_sbox", push=4, pop=6 ]
des16r_sboxes_411_split -> des16r_sbox_420
des16r_sbox_420 -> des16r_sboxes_411_join
des16r_sbox_421 [ label="des16r_sbox", push=4, pop=6 ]
des16r_sboxes_411_split -> des16r_sbox_421
des16r_sbox_421 -> des16r_sboxes_411_join
des16r_sbox_422 [ label="des16r_sbox", push=4, pop=6 ]
des16r_sboxes_411_split -> des16r_sbox_422
des16r_sbox_422 -> des16r_sboxes_411_join
des16r_sbox_423 [ label="des16r_sbox", push=4, pop=6 ]
des16r_sboxes_411_split -> des16r_sbox_423
des16r_sbox_423 -> des16r_sboxes_411_join
des16r_sbox_424 [ label="des16r_sbox", push=4, pop=6 ]
des16r_sboxes_411_split -> des16r_sbox_424
des16r_sbox_424 -> des16r_sboxes_411_join
des16r_do_p_412 [ label="des16r_do_p", push=32, pop=32 ]
AnonFilter_a3_405_split -> AnonFilter_a4_409_split
des16r_do_p_412 -> AnonFilter_a3_405_join
des16r_identity_408 [ label="des16r_identity", pop=32, push=32 ]
AnonFilter_a3_405_split -> des16r_identity_408
des16r_identity_408 -> AnonFilter_a3_405_join
des16r_xor_406 [ label="des16r_xor", push=32, pop=64 ]
AnonFilter_a0_21_split -> AnonFilter_a3_405_split
des16r_xor_406 -> AnonFilter_a0_21_join
AnonFilter_a2_428_split [ label="des16r_split5_weighted_round_robin" ]
AnonFilter_a2_428_join [ label="des16r_join5_weighted_round_robin" ]
des16r_identity_429 [ label="des16r_identity", pop=32, push=32 ]
AnonFilter_a2_428_split -> des16r_identity_429
des16r_identity_429 -> AnonFilter_a2_428_join
des16r_anonfilter_a1_430 [ label="des16r_anonfilter_a1", pop=32, push=0 ]
AnonFilter_a2_428_split -> des16r_anonfilter_a1_430
des16r_anonfilter_a1_430 -> AnonFilter_a2_428_join
AnonFilter_a0_21_split -> AnonFilter_a2_428_split
AnonFilter_a2_428_join -> AnonFilter_a0_21_join
AnonFilter_a0_22_split [ label="des16r_split4_duplicate", push=64, pop=64  ]
AnonFilter_a0_22_join [ label="des16r_join4_weighted_round_robin", push=64, pop=64  ]
AnonFilter_a3_434_join -> des16r_xor_435
AnonFilter_a3_434_split [ label="des16r_split6_weighted_round_robin", push=32, pop=64  ]
AnonFilter_a3_434_join [ label="des16r_join6_round_robin", push=32, pop=64  ]
AnonFilter_a4_438_join -> des16r_xor_439
des16r_xor_439 -> des16r_sboxes_440_split
des16r_sboxes_440_join -> des16r_do_p_441
AnonFilter_a4_438_split [ label="des16r_split7_weighted_round_robin", push=32, pop=32  ]
AnonFilter_a4_438_join [ label="des16r_join7_round_robin", pop=48, push=96 ]
des16r_do_e_442 [ label="des16r_do_e", pop=32, push=48, peek=48 ]
AnonFilter_a4_438_split -> des16r_do_e_442
des16r_do_e_442 -> AnonFilter_a4_438_join
des16r_key_schedule_444 [ label="des16r_key_schedule", pop=0, push=48 ]
AnonFilter_a4_438_split -> des16r_key_schedule_444
des16r_key_schedule_444 -> AnonFilter_a4_438_join
des16r_xor_439 [ label="des16r_xor", pop=96, push=48 ]
des16r_sboxes_440_split [ label="des16r_split1_round_robin", pop=48, push=6 ]
des16r_sboxes_440_join [ label="des16r_join1_round_robin", pop=4, push=32 ]
des16r_sbox_446 [ label="des16r_sbox", push=4, pop=6 ]
des16r_sboxes_440_split -> des16r_sbox_446
des16r_sbox_446 -> des16r_sboxes_440_join
des16r_sbox_447 [ label="des16r_sbox", push=4, pop=6 ]
des16r_sboxes_440_split -> des16r_sbox_447
des16r_sbox_447 -> des16r_sboxes_440_join
des16r_sbox_448 [ label="des16r_sbox", push=4, pop=6 ]
des16r_sboxes_440_split -> des16r_sbox_448
des16r_sbox_448 -> des16r_sboxes_440_join
des16r_sbox_449 [ label="des16r_sbox", push=4, pop=6 ]
des16r_sboxes_440_split -> des16r_sbox_449
des16r_sbox_449 -> des16r_sboxes_440_join
des16r_sbox_450 [ label="des16r_sbox", push=4, pop=6 ]
des16r_sboxes_440_split -> des16r_sbox_450
des16r_sbox_450 -> des16r_sboxes_440_join
des16r_sbox_451 [ label="des16r_sbox", push=4, pop=6 ]
des16r_sboxes_440_split -> des16r_sbox_451
des16r_sbox_451 -> des16r_sboxes_440_join
des16r_sbox_452 [ label="des16r_sbox", push=4, pop=6 ]
des16r_sboxes_440_split -> des16r_sbox_452
des16r_sbox_452 -> des16r_sboxes_440_join
des16r_sbox_453 [ label="des16r_sbox", push=4, pop=6 ]
des16r_sboxes_440_split -> des16r_sbox_453
des16r_sbox_453 -> des16r_sboxes_440_join
des16r_do_p_441 [ label="des16r_do_p", push=32, pop=32 ]
AnonFilter_a3_434_split -> AnonFilter_a4_438_split
des16r_do_p_441 -> AnonFilter_a3_434_join
des16r_identity_437 [ label="des16r_identity", pop=32, push=32 ]
AnonFilter_a3_434_split -> des16r_identity_437
des16r_identity_437 -> AnonFilter_a3_434_join
des16r_xor_435 [ label="des16r_xor", push=32, pop=64 ]
AnonFilter_a0_22_split -> AnonFilter_a3_434_split
des16r_xor_435 -> AnonFilter_a0_22_join
AnonFilter_a2_457_split [ label="des16r_split5_weighted_round_robin" ]
AnonFilter_a2_457_join [ label="des16r_join5_weighted_round_robin" ]
des16r_identity_458 [ label="des16r_identity", pop=32, push=32 ]
AnonFilter_a2_457_split -> des16r_identity_458
des16r_identity_458 -> AnonFilter_a2_457_join
des16r_anonfilter_a1_459 [ label="des16r_anonfilter_a1", pop=32, push=0 ]
AnonFilter_a2_457_split -> des16r_anonfilter_a1_459
des16r_anonfilter_a1_459 -> AnonFilter_a2_457_join
AnonFilter_a0_22_split -> AnonFilter_a2_457_split
AnonFilter_a2_457_join -> AnonFilter_a0_22_join
AnonFilter_a0_23_split [ label="des16r_split4_duplicate", push=64, pop=64  ]
AnonFilter_a0_23_join [ label="des16r_join4_weighted_round_robin", push=64, pop=64  ]
AnonFilter_a3_463_join -> des16r_xor_464
AnonFilter_a3_463_split [ label="des16r_split6_weighted_round_robin", push=32, pop=64  ]
AnonFilter_a3_463_join [ label="des16r_join6_round_robin", push=32, pop=64  ]
AnonFilter_a4_467_join -> des16r_xor_468
des16r_xor_468 -> des16r_sboxes_469_split
des16r_sboxes_469_join -> des16r_do_p_470
AnonFilter_a4_467_split [ label="des16r_split7_weighted_round_robin", push=32, pop=32  ]
AnonFilter_a4_467_join [ label="des16r_join7_round_robin", pop=48, push=96 ]
des16r_do_e_471 [ label="des16r_do_e", pop=32, push=48, peek=48 ]
AnonFilter_a4_467_split -> des16r_do_e_471
des16r_do_e_471 -> AnonFilter_a4_467_join
des16r_key_schedule_473 [ label="des16r_key_schedule", pop=0, push=48 ]
AnonFilter_a4_467_split -> des16r_key_schedule_473
des16r_key_schedule_473 -> AnonFilter_a4_467_join
des16r_xor_468 [ label="des16r_xor", pop=96, push=48 ]
des16r_sboxes_469_split [ label="des16r_split1_round_robin", pop=48, push=6 ]
des16r_sboxes_469_join [ label="des16r_join1_round_robin", pop=4, push=32 ]
des16r_sbox_475 [ label="des16r_sbox", push=4, pop=6 ]
des16r_sboxes_469_split -> des16r_sbox_475
des16r_sbox_475 -> des16r_sboxes_469_join
des16r_sbox_476 [ label="des16r_sbox", push=4, pop=6 ]
des16r_sboxes_469_split -> des16r_sbox_476
des16r_sbox_476 -> des16r_sboxes_469_join
des16r_sbox_477 [ label="des16r_sbox", push=4, pop=6 ]
des16r_sboxes_469_split -> des16r_sbox_477
des16r_sbox_477 -> des16r_sboxes_469_join
des16r_sbox_478 [ label="des16r_sbox", push=4, pop=6 ]
des16r_sboxes_469_split -> des16r_sbox_478
des16r_sbox_478 -> des16r_sboxes_469_join
des16r_sbox_479 [ label="des16r_sbox", push=4, pop=6 ]
des16r_sboxes_469_split -> des16r_sbox_479
des16r_sbox_479 -> des16r_sboxes_469_join
des16r_sbox_480 [ label="des16r_sbox", push=4, pop=6 ]
des16r_sboxes_469_split -> des16r_sbox_480
des16r_sbox_480 -> des16r_sboxes_469_join
des16r_sbox_481 [ label="des16r_sbox", push=4, pop=6 ]
des16r_sboxes_469_split -> des16r_sbox_481
des16r_sbox_481 -> des16r_sboxes_469_join
des16r_sbox_482 [ label="des16r_sbox", push=4, pop=6 ]
des16r_sboxes_469_split -> des16r_sbox_482
des16r_sbox_482 -> des16r_sboxes_469_join
des16r_do_p_470 [ label="des16r_do_p", push=32, pop=32 ]
AnonFilter_a3_463_split -> AnonFilter_a4_467_split
des16r_do_p_470 -> AnonFilter_a3_463_join
des16r_identity_466 [ label="des16r_identity", pop=32, push=32 ]
AnonFilter_a3_463_split -> des16r_identity_466
des16r_identity_466 -> AnonFilter_a3_463_join
des16r_xor_464 [ label="des16r_xor", push=32, pop=64 ]
AnonFilter_a0_23_split -> AnonFilter_a3_463_split
des16r_xor_464 -> AnonFilter_a0_23_join
AnonFilter_a2_486_split [ label="des16r_split5_weighted_round_robin" ]
AnonFilter_a2_486_join [ label="des16r_join5_weighted_round_robin" ]
des16r_identity_487 [ label="des16r_identity", pop=32, push=32 ]
AnonFilter_a2_486_split -> des16r_identity_487
des16r_identity_487 -> AnonFilter_a2_486_join
des16r_anonfilter_a1_488 [ label="des16r_anonfilter_a1", pop=32, push=0 ]
AnonFilter_a2_486_split -> des16r_anonfilter_a1_488
des16r_anonfilter_a1_488 -> AnonFilter_a2_486_join
AnonFilter_a0_23_split -> AnonFilter_a2_486_split
AnonFilter_a2_486_join -> AnonFilter_a0_23_join
CrissCross_24 [ label="des16r_criss_cross", push=64, pop=64 ]
doIPm1_25 [ label="des16r_do_ip_m1", pop=64, push=64 ]
BitstoInts_493 -> HexPrinter_494
BitstoInts_493 [ label="des16r_bits_to_ints", push=16, pop=64 ]
HexPrinter_494 [ label="des16r_hex_printer", pop=16, push=0 ]
}
