digraph FIRcoarse_11 {
node0 [label="FloatSource_8", push="1", pop="0", peek="0", pushType="float", popType="void", peekType="void", codeSize="31 b", stackSize="0 b", work="16"];
node1 [label="FIR_9", push="1", pop="1", peek="64", pushType="float", popType="float", peekType="float", codeSize="1316 b", stackSize="64 b", work="710"];
node0 -> node1;
node2 [label="FloatPrinter_10", push="0", pop="1", peek="1", pushType="void", popType="float", peekType="float", codeSize="16 b", stackSize="0 b", work="6"];
node1 -> node2;
}
