digraph iDCTcompare_15422 {
node0 [label="AnonFilter_a0_15261", push="1216", pop="0", peek="0", pushType="int", popType="void", peekType="void", codeSize="44 b", stackSize="32 b", work="36480"];
node1 [label="DUPLICATE_Splitter_15336", push="1216", pop="1216", peek="0", pushType="int", popType="int", peekType="void", codeSize="30 b", stackSize="64 b", work="0"];
node0 -> node1;
node2 [label="iDCT_2D_reference_coarse_15264", push="1216", pop="1216", peek="1216", pushType="int", popType="int", peekType="int", codeSize="273 b", stackSize="384 b", work="16032"];
node1 -> node2;
node3 [label="WEIGHTED_ROUND_ROBIN_Splitter_15344", push="1216", pop="1216", peek="0", pushType="int", popType="int", peekType="void", codeSize="234 b", stackSize="32 b", work="0"];
node1 -> node3;
node4 [label="AnonFilter_a3_15346", push="64", pop="64", peek="64", pushType="float", popType="int", peekType="int", codeSize="12 b", stackSize="0 b", work="6"];
node3 -> node4;
node5 [label="AnonFilter_a3_15347", push="64", pop="64", peek="64", pushType="float", popType="int", peekType="int", codeSize="12 b", stackSize="0 b", work="6"];
node3 -> node5;
node6 [label="AnonFilter_a3_15348", push="64", pop="64", peek="64", pushType="float", popType="int", peekType="int", codeSize="12 b", stackSize="0 b", work="6"];
node3 -> node6;
node7 [label="AnonFilter_a3_15349", push="64", pop="64", peek="64", pushType="float", popType="int", peekType="int", codeSize="12 b", stackSize="0 b", work="6"];
node3 -> node7;
node8 [label="AnonFilter_a3_15350", push="64", pop="64", peek="64", pushType="float", popType="int", peekType="int", codeSize="12 b", stackSize="0 b", work="6"];
node3 -> node8;
node9 [label="AnonFilter_a3_15351", push="64", pop="64", peek="64", pushType="float", popType="int", peekType="int", codeSize="12 b", stackSize="0 b", work="6"];
node3 -> node9;
node10 [label="AnonFilter_a3_15352", push="64", pop="64", peek="64", pushType="float", popType="int", peekType="int", codeSize="12 b", stackSize="0 b", work="6"];
node3 -> node10;
node11 [label="AnonFilter_a3_15353", push="64", pop="64", peek="64", pushType="float", popType="int", peekType="int", codeSize="12 b", stackSize="0 b", work="6"];
node3 -> node11;
node12 [label="AnonFilter_a3_15354", push="64", pop="64", peek="64", pushType="float", popType="int", peekType="int", codeSize="12 b", stackSize="0 b", work="6"];
node3 -> node12;
node13 [label="AnonFilter_a3_15355", push="64", pop="64", peek="64", pushType="float", popType="int", peekType="int", codeSize="12 b", stackSize="0 b", work="6"];
node3 -> node13;
node14 [label="AnonFilter_a3_15356", push="64", pop="64", peek="64", pushType="float", popType="int", peekType="int", codeSize="12 b", stackSize="0 b", work="6"];
node3 -> node14;
node15 [label="AnonFilter_a3_15357", push="64", pop="64", peek="64", pushType="float", popType="int", peekType="int", codeSize="12 b", stackSize="0 b", work="6"];
node3 -> node15;
node16 [label="AnonFilter_a3_15358", push="64", pop="64", peek="64", pushType="float", popType="int", peekType="int", codeSize="12 b", stackSize="0 b", work="6"];
node3 -> node16;
node17 [label="AnonFilter_a3_15359", push="64", pop="64", peek="64", pushType="float", popType="int", peekType="int", codeSize="12 b", stackSize="0 b", work="6"];
node3 -> node17;
node18 [label="AnonFilter_a3_15360", push="64", pop="64", peek="64", pushType="float", popType="int", peekType="int", codeSize="12 b", stackSize="0 b", work="6"];
node3 -> node18;
node19 [label="AnonFilter_a3_15361", push="64", pop="64", peek="64", pushType="float", popType="int", peekType="int", codeSize="12 b", stackSize="0 b", work="6"];
node3 -> node19;
node20 [label="AnonFilter_a3_15362", push="64", pop="64", peek="64", pushType="float", popType="int", peekType="int", codeSize="12 b", stackSize="0 b", work="6"];
node3 -> node20;
node21 [label="AnonFilter_a3_15363", push="64", pop="64", peek="64", pushType="float", popType="int", peekType="int", codeSize="12 b", stackSize="0 b", work="6"];
node3 -> node21;
node22 [label="AnonFilter_a3_15364", push="64", pop="64", peek="64", pushType="float", popType="int", peekType="int", codeSize="12 b", stackSize="0 b", work="6"];
node3 -> node22;
node23 [label="WEIGHTED_ROUND_ROBIN_Joiner_15345", push="1216", pop="1216", peek="0", pushType="float", popType="float", peekType="void", codeSize="234 b", stackSize="32 b", work="0"];
node4 -> node23;
node5 -> node23;
node6 -> node23;
node7 -> node23;
node8 -> node23;
node9 -> node23;
node10 -> node23;
node11 -> node23;
node12 -> node23;
node13 -> node23;
node14 -> node23;
node15 -> node23;
node16 -> node23;
node17 -> node23;
node18 -> node23;
node19 -> node23;
node20 -> node23;
node21 -> node23;
node22 -> node23;
node24 [label="Pre_CollapsedDataParallel_1_15334", push="1216", pop="1216", peek="1216", pushType="float", popType="float", peekType="float", codeSize="50 b", stackSize="96 b", work="659"];
node23 -> node24;
node25 [label="WEIGHTED_ROUND_ROBIN_Splitter_15365", push="1216", pop="1216", peek="0", pushType="float", popType="float", peekType="void", codeSize="150 b", stackSize="288 b", work="0"];
node24 -> node25;
node26 [label="iDCT_1D_reference_fine_15367", push="152", pop="152", peek="152", pushType="float", popType="float", peekType="float", codeSize="86 b", stackSize="128 b", work="784"];
node25 -> node26;
node27 [label="iDCT_1D_reference_fine_15368", push="152", pop="152", peek="152", pushType="float", popType="float", peekType="float", codeSize="86 b", stackSize="128 b", work="784"];
node25 -> node27;
node28 [label="iDCT_1D_reference_fine_15369", push="152", pop="152", peek="152", pushType="float", popType="float", peekType="float", codeSize="86 b", stackSize="128 b", work="784"];
node25 -> node28;
node29 [label="iDCT_1D_reference_fine_15370", push="152", pop="152", peek="152", pushType="float", popType="float", peekType="float", codeSize="86 b", stackSize="128 b", work="784"];
node25 -> node29;
node30 [label="iDCT_1D_reference_fine_15371", push="152", pop="152", peek="152", pushType="float", popType="float", peekType="float", codeSize="86 b", stackSize="128 b", work="784"];
node25 -> node30;
node31 [label="iDCT_1D_reference_fine_15372", push="152", pop="152", peek="152", pushType="float", popType="float", peekType="float", codeSize="86 b", stackSize="128 b", work="784"];
node25 -> node31;
node32 [label="iDCT_1D_reference_fine_15373", push="152", pop="152", peek="152", pushType="float", popType="float", peekType="float", codeSize="86 b", stackSize="128 b", work="784"];
node25 -> node32;
node33 [label="iDCT_1D_reference_fine_15374", push="152", pop="152", peek="152", pushType="float", popType="float", peekType="float", codeSize="86 b", stackSize="128 b", work="784"];
node25 -> node33;
node34 [label="WEIGHTED_ROUND_ROBIN_Joiner_15366", push="1216", pop="1216", peek="0", pushType="float", popType="float", peekType="void", codeSize="150 b", stackSize="288 b", work="0"];
node26 -> node34;
node27 -> node34;
node28 -> node34;
node29 -> node34;
node30 -> node34;
node31 -> node34;
node32 -> node34;
node33 -> node34;
node35 [label="Post_CollapsedDataParallel_2_15335", push="1216", pop="1216", peek="1216", pushType="float", popType="float", peekType="float", codeSize="54 b", stackSize="96 b", work="723"];
node34 -> node35;
node36 [label="WEIGHTED_ROUND_ROBIN_Splitter_15375", push="1216", pop="1216", peek="0", pushType="float", popType="float", peekType="void", codeSize="150 b", stackSize="288 b", work="0"];
node35 -> node36;
node37 [label="iDCT_1D_reference_fine_15377", push="152", pop="152", peek="152", pushType="float", popType="float", peekType="float", codeSize="86 b", stackSize="128 b", work="784"];
node36 -> node37;
node38 [label="iDCT_1D_reference_fine_15378", push="152", pop="152", peek="152", pushType="float", popType="float", peekType="float", codeSize="86 b", stackSize="128 b", work="784"];
node36 -> node38;
node39 [label="iDCT_1D_reference_fine_15379", push="152", pop="152", peek="152", pushType="float", popType="float", peekType="float", codeSize="86 b", stackSize="128 b", work="784"];
node36 -> node39;
node40 [label="iDCT_1D_reference_fine_15380", push="152", pop="152", peek="152", pushType="float", popType="float", peekType="float", codeSize="86 b", stackSize="128 b", work="784"];
node36 -> node40;
node41 [label="iDCT_1D_reference_fine_15381", push="152", pop="152", peek="152", pushType="float", popType="float", peekType="float", codeSize="86 b", stackSize="128 b", work="784"];
node36 -> node41;
node42 [label="iDCT_1D_reference_fine_15382", push="152", pop="152", peek="152", pushType="float", popType="float", peekType="float", codeSize="86 b", stackSize="128 b", work="784"];
node36 -> node42;
node43 [label="iDCT_1D_reference_fine_15383", push="152", pop="152", peek="152", pushType="float", popType="float", peekType="float", codeSize="86 b", stackSize="128 b", work="784"];
node36 -> node43;
node44 [label="iDCT_1D_reference_fine_15384", push="152", pop="152", peek="152", pushType="float", popType="float", peekType="float", codeSize="86 b", stackSize="128 b", work="784"];
node36 -> node44;
node45 [label="WEIGHTED_ROUND_ROBIN_Joiner_15376", push="1216", pop="1216", peek="0", pushType="float", popType="float", peekType="void", codeSize="150 b", stackSize="288 b", work="0"];
node37 -> node45;
node38 -> node45;
node39 -> node45;
node40 -> node45;
node41 -> node45;
node42 -> node45;
node43 -> node45;
node44 -> node45;
node46 [label="WEIGHTED_ROUND_ROBIN_Splitter_15385", push="1216", pop="1216", peek="0", pushType="float", popType="float", peekType="void", codeSize="234 b", stackSize="32 b", work="0"];
node45 -> node46;
node47 [label="AnonFilter_a4_15387", push="64", pop="64", peek="64", pushType="int", popType="float", peekType="float", codeSize="37 b", stackSize="0 b", work="76"];
node46 -> node47;
node48 [label="AnonFilter_a4_15388", push="64", pop="64", peek="64", pushType="int", popType="float", peekType="float", codeSize="37 b", stackSize="0 b", work="76"];
node46 -> node48;
node49 [label="AnonFilter_a4_15389", push="64", pop="64", peek="64", pushType="int", popType="float", peekType="float", codeSize="37 b", stackSize="0 b", work="76"];
node46 -> node49;
node50 [label="AnonFilter_a4_15390", push="64", pop="64", peek="64", pushType="int", popType="float", peekType="float", codeSize="37 b", stackSize="0 b", work="76"];
node46 -> node50;
node51 [label="AnonFilter_a4_15391", push="64", pop="64", peek="64", pushType="int", popType="float", peekType="float", codeSize="37 b", stackSize="0 b", work="76"];
node46 -> node51;
node52 [label="AnonFilter_a4_15392", push="64", pop="64", peek="64", pushType="int", popType="float", peekType="float", codeSize="37 b", stackSize="0 b", work="76"];
node46 -> node52;
node53 [label="AnonFilter_a4_15393", push="64", pop="64", peek="64", pushType="int", popType="float", peekType="float", codeSize="37 b", stackSize="0 b", work="76"];
node46 -> node53;
node54 [label="AnonFilter_a4_15394", push="64", pop="64", peek="64", pushType="int", popType="float", peekType="float", codeSize="37 b", stackSize="0 b", work="76"];
node46 -> node54;
node55 [label="AnonFilter_a4_15395", push="64", pop="64", peek="64", pushType="int", popType="float", peekType="float", codeSize="37 b", stackSize="0 b", work="76"];
node46 -> node55;
node56 [label="AnonFilter_a4_15396", push="64", pop="64", peek="64", pushType="int", popType="float", peekType="float", codeSize="37 b", stackSize="0 b", work="76"];
node46 -> node56;
node57 [label="AnonFilter_a4_15397", push="64", pop="64", peek="64", pushType="int", popType="float", peekType="float", codeSize="37 b", stackSize="0 b", work="76"];
node46 -> node57;
node58 [label="AnonFilter_a4_15398", push="64", pop="64", peek="64", pushType="int", popType="float", peekType="float", codeSize="37 b", stackSize="0 b", work="76"];
node46 -> node58;
node59 [label="AnonFilter_a4_15399", push="64", pop="64", peek="64", pushType="int", popType="float", peekType="float", codeSize="37 b", stackSize="0 b", work="76"];
node46 -> node59;
node60 [label="AnonFilter_a4_15400", push="64", pop="64", peek="64", pushType="int", popType="float", peekType="float", codeSize="37 b", stackSize="0 b", work="76"];
node46 -> node60;
node61 [label="AnonFilter_a4_15401", push="64", pop="64", peek="64", pushType="int", popType="float", peekType="float", codeSize="37 b", stackSize="0 b", work="76"];
node46 -> node61;
node62 [label="AnonFilter_a4_15402", push="64", pop="64", peek="64", pushType="int", popType="float", peekType="float", codeSize="37 b", stackSize="0 b", work="76"];
node46 -> node62;
node63 [label="AnonFilter_a4_15403", push="64", pop="64", peek="64", pushType="int", popType="float", peekType="float", codeSize="37 b", stackSize="0 b", work="76"];
node46 -> node63;
node64 [label="AnonFilter_a4_15404", push="64", pop="64", peek="64", pushType="int", popType="float", peekType="float", codeSize="37 b", stackSize="0 b", work="76"];
node46 -> node64;
node65 [label="AnonFilter_a4_15405", push="64", pop="64", peek="64", pushType="int", popType="float", peekType="float", codeSize="37 b", stackSize="0 b", work="76"];
node46 -> node65;
node66 [label="WEIGHTED_ROUND_ROBIN_Joiner_15386", push="1216", pop="1216", peek="0", pushType="int", popType="int", peekType="void", codeSize="234 b", stackSize="32 b", work="0"];
node47 -> node66;
node48 -> node66;
node49 -> node66;
node50 -> node66;
node51 -> node66;
node52 -> node66;
node53 -> node66;
node54 -> node66;
node55 -> node66;
node56 -> node66;
node57 -> node66;
node58 -> node66;
node59 -> node66;
node60 -> node66;
node61 -> node66;
node62 -> node66;
node63 -> node66;
node64 -> node66;
node65 -> node66;
node67 [label="WEIGHTED_ROUND_ROBIN_Splitter_15406", push="1216", pop="1216", peek="0", pushType="int", popType="int", peekType="void", codeSize="150 b", stackSize="288 b", work="0"];
node1 -> node67;
node68 [label="iDCT8x8_1D_row_fast_15408", push="152", pop="152", peek="152", pushType="int", popType="int", peekType="int", codeSize="356 b", stackSize="352 b", work="138"];
node67 -> node68;
node69 [label="iDCT8x8_1D_row_fast_15409", push="152", pop="152", peek="152", pushType="int", popType="int", peekType="int", codeSize="356 b", stackSize="352 b", work="138"];
node67 -> node69;
node70 [label="iDCT8x8_1D_row_fast_15410", push="152", pop="152", peek="152", pushType="int", popType="int", peekType="int", codeSize="356 b", stackSize="352 b", work="138"];
node67 -> node70;
node71 [label="iDCT8x8_1D_row_fast_15411", push="152", pop="152", peek="152", pushType="int", popType="int", peekType="int", codeSize="356 b", stackSize="352 b", work="138"];
node67 -> node71;
node72 [label="iDCT8x8_1D_row_fast_15412", push="152", pop="152", peek="152", pushType="int", popType="int", peekType="int", codeSize="356 b", stackSize="352 b", work="138"];
node67 -> node72;
node73 [label="iDCT8x8_1D_row_fast_15413", push="152", pop="152", peek="152", pushType="int", popType="int", peekType="int", codeSize="356 b", stackSize="352 b", work="138"];
node67 -> node73;
node74 [label="iDCT8x8_1D_row_fast_15414", push="152", pop="152", peek="152", pushType="int", popType="int", peekType="int", codeSize="356 b", stackSize="352 b", work="138"];
node67 -> node74;
node75 [label="iDCT8x8_1D_row_fast_15415", push="152", pop="152", peek="152", pushType="int", popType="int", peekType="int", codeSize="356 b", stackSize="352 b", work="138"];
node67 -> node75;
node76 [label="WEIGHTED_ROUND_ROBIN_Joiner_15407", push="1216", pop="1216", peek="0", pushType="int", popType="int", peekType="void", codeSize="150 b", stackSize="288 b", work="0"];
node68 -> node76;
node69 -> node76;
node70 -> node76;
node71 -> node76;
node72 -> node76;
node73 -> node76;
node74 -> node76;
node75 -> node76;
node77 [label="iDCT8x8_1D_col_fast_15288", push="1216", pop="1216", peek="1216", pushType="int", popType="int", peekType="int", codeSize="546 b", stackSize="384 b", work="1576"];
node76 -> node77;
node78 [label="WEIGHTED_ROUND_ROBIN_Joiner_15337", push="3648", pop="3648", peek="0", pushType="int", popType="int", peekType="void", codeSize="42 b", stackSize="32 b", work="0"];
node2 -> node78;
node66 -> node78;
node77 -> node78;
node79 [label="AnonFilter_a2_15289", push="0", pop="3648", peek="3648", pushType="void", popType="int", peekType="int", codeSize="175 b", stackSize="160 b", work="73"];
node78 -> node79;
}
