digraph iDCTcompare_11402 {
node0 [label="AnonFilter_a0_11211", push="1088", pop="0", peek="0", pushType="int", popType="void", peekType="void", codeSize="44 b", stackSize="32 b", work="36480"];
node1 [label="DUPLICATE_Splitter_11286", push="1088", pop="1088", peek="0", pushType="int", popType="int", peekType="void", codeSize="30 b", stackSize="64 b", work="0"];
node0 -> node1;
node2 [label="iDCT_2D_reference_coarse_11214", push="1088", pop="1088", peek="1088", pushType="int", popType="int", peekType="int", codeSize="273 b", stackSize="384 b", work="16032"];
node1 -> node2;
node3 [label="WEIGHTED_ROUND_ROBIN_Splitter_11294", push="1088", pop="1088", peek="0", pushType="int", popType="int", peekType="void", codeSize="414 b", stackSize="32 b", work="0"];
node1 -> node3;
node4 [label="AnonFilter_a3_11296", push="32", pop="32", peek="32", pushType="float", popType="int", peekType="int", codeSize="12 b", stackSize="0 b", work="6"];
node3 -> node4;
node5 [label="AnonFilter_a3_11297", push="32", pop="32", peek="32", pushType="float", popType="int", peekType="int", codeSize="12 b", stackSize="0 b", work="6"];
node3 -> node5;
node6 [label="AnonFilter_a3_11298", push="32", pop="32", peek="32", pushType="float", popType="int", peekType="int", codeSize="12 b", stackSize="0 b", work="6"];
node3 -> node6;
node7 [label="AnonFilter_a3_11299", push="32", pop="32", peek="32", pushType="float", popType="int", peekType="int", codeSize="12 b", stackSize="0 b", work="6"];
node3 -> node7;
node8 [label="AnonFilter_a3_11300", push="32", pop="32", peek="32", pushType="float", popType="int", peekType="int", codeSize="12 b", stackSize="0 b", work="6"];
node3 -> node8;
node9 [label="AnonFilter_a3_11301", push="32", pop="32", peek="32", pushType="float", popType="int", peekType="int", codeSize="12 b", stackSize="0 b", work="6"];
node3 -> node9;
node10 [label="AnonFilter_a3_11302", push="32", pop="32", peek="32", pushType="float", popType="int", peekType="int", codeSize="12 b", stackSize="0 b", work="6"];
node3 -> node10;
node11 [label="AnonFilter_a3_11303", push="32", pop="32", peek="32", pushType="float", popType="int", peekType="int", codeSize="12 b", stackSize="0 b", work="6"];
node3 -> node11;
node12 [label="AnonFilter_a3_11304", push="32", pop="32", peek="32", pushType="float", popType="int", peekType="int", codeSize="12 b", stackSize="0 b", work="6"];
node3 -> node12;
node13 [label="AnonFilter_a3_11305", push="32", pop="32", peek="32", pushType="float", popType="int", peekType="int", codeSize="12 b", stackSize="0 b", work="6"];
node3 -> node13;
node14 [label="AnonFilter_a3_11306", push="32", pop="32", peek="32", pushType="float", popType="int", peekType="int", codeSize="12 b", stackSize="0 b", work="6"];
node3 -> node14;
node15 [label="AnonFilter_a3_11307", push="32", pop="32", peek="32", pushType="float", popType="int", peekType="int", codeSize="12 b", stackSize="0 b", work="6"];
node3 -> node15;
node16 [label="AnonFilter_a3_11308", push="32", pop="32", peek="32", pushType="float", popType="int", peekType="int", codeSize="12 b", stackSize="0 b", work="6"];
node3 -> node16;
node17 [label="AnonFilter_a3_11309", push="32", pop="32", peek="32", pushType="float", popType="int", peekType="int", codeSize="12 b", stackSize="0 b", work="6"];
node3 -> node17;
node18 [label="AnonFilter_a3_11310", push="32", pop="32", peek="32", pushType="float", popType="int", peekType="int", codeSize="12 b", stackSize="0 b", work="6"];
node3 -> node18;
node19 [label="AnonFilter_a3_11311", push="32", pop="32", peek="32", pushType="float", popType="int", peekType="int", codeSize="12 b", stackSize="0 b", work="6"];
node3 -> node19;
node20 [label="AnonFilter_a3_11312", push="32", pop="32", peek="32", pushType="float", popType="int", peekType="int", codeSize="12 b", stackSize="0 b", work="6"];
node3 -> node20;
node21 [label="AnonFilter_a3_11313", push="32", pop="32", peek="32", pushType="float", popType="int", peekType="int", codeSize="12 b", stackSize="0 b", work="6"];
node3 -> node21;
node22 [label="AnonFilter_a3_11314", push="32", pop="32", peek="32", pushType="float", popType="int", peekType="int", codeSize="12 b", stackSize="0 b", work="6"];
node3 -> node22;
node23 [label="AnonFilter_a3_11315", push="32", pop="32", peek="32", pushType="float", popType="int", peekType="int", codeSize="12 b", stackSize="0 b", work="6"];
node3 -> node23;
node24 [label="AnonFilter_a3_11316", push="32", pop="32", peek="32", pushType="float", popType="int", peekType="int", codeSize="12 b", stackSize="0 b", work="6"];
node3 -> node24;
node25 [label="AnonFilter_a3_11317", push="32", pop="32", peek="32", pushType="float", popType="int", peekType="int", codeSize="12 b", stackSize="0 b", work="6"];
node3 -> node25;
node26 [label="AnonFilter_a3_11318", push="32", pop="32", peek="32", pushType="float", popType="int", peekType="int", codeSize="12 b", stackSize="0 b", work="6"];
node3 -> node26;
node27 [label="AnonFilter_a3_11319", push="32", pop="32", peek="32", pushType="float", popType="int", peekType="int", codeSize="12 b", stackSize="0 b", work="6"];
node3 -> node27;
node28 [label="AnonFilter_a3_11320", push="32", pop="32", peek="32", pushType="float", popType="int", peekType="int", codeSize="12 b", stackSize="0 b", work="6"];
node3 -> node28;
node29 [label="AnonFilter_a3_11321", push="32", pop="32", peek="32", pushType="float", popType="int", peekType="int", codeSize="12 b", stackSize="0 b", work="6"];
node3 -> node29;
node30 [label="AnonFilter_a3_11322", push="32", pop="32", peek="32", pushType="float", popType="int", peekType="int", codeSize="12 b", stackSize="0 b", work="6"];
node3 -> node30;
node31 [label="AnonFilter_a3_11323", push="32", pop="32", peek="32", pushType="float", popType="int", peekType="int", codeSize="12 b", stackSize="0 b", work="6"];
node3 -> node31;
node32 [label="AnonFilter_a3_11324", push="32", pop="32", peek="32", pushType="float", popType="int", peekType="int", codeSize="12 b", stackSize="0 b", work="6"];
node3 -> node32;
node33 [label="AnonFilter_a3_11325", push="32", pop="32", peek="32", pushType="float", popType="int", peekType="int", codeSize="12 b", stackSize="0 b", work="6"];
node3 -> node33;
node34 [label="AnonFilter_a3_11326", push="32", pop="32", peek="32", pushType="float", popType="int", peekType="int", codeSize="12 b", stackSize="0 b", work="6"];
node3 -> node34;
node35 [label="AnonFilter_a3_11327", push="32", pop="32", peek="32", pushType="float", popType="int", peekType="int", codeSize="12 b", stackSize="0 b", work="6"];
node3 -> node35;
node36 [label="AnonFilter_a3_11328", push="32", pop="32", peek="32", pushType="float", popType="int", peekType="int", codeSize="12 b", stackSize="0 b", work="6"];
node3 -> node36;
node37 [label="AnonFilter_a3_11329", push="32", pop="32", peek="32", pushType="float", popType="int", peekType="int", codeSize="12 b", stackSize="0 b", work="6"];
node3 -> node37;
node38 [label="WEIGHTED_ROUND_ROBIN_Joiner_11295", push="1088", pop="1088", peek="0", pushType="float", popType="float", peekType="void", codeSize="414 b", stackSize="32 b", work="0"];
node4 -> node38;
node5 -> node38;
node6 -> node38;
node7 -> node38;
node8 -> node38;
node9 -> node38;
node10 -> node38;
node11 -> node38;
node12 -> node38;
node13 -> node38;
node14 -> node38;
node15 -> node38;
node16 -> node38;
node17 -> node38;
node18 -> node38;
node19 -> node38;
node20 -> node38;
node21 -> node38;
node22 -> node38;
node23 -> node38;
node24 -> node38;
node25 -> node38;
node26 -> node38;
node27 -> node38;
node28 -> node38;
node29 -> node38;
node30 -> node38;
node31 -> node38;
node32 -> node38;
node33 -> node38;
node34 -> node38;
node35 -> node38;
node36 -> node38;
node37 -> node38;
node39 [label="Pre_CollapsedDataParallel_1_11284", push="1088", pop="1088", peek="1088", pushType="float", popType="float", peekType="float", codeSize="50 b", stackSize="96 b", work="659"];
node38 -> node39;
node40 [label="WEIGHTED_ROUND_ROBIN_Splitter_11330", push="1088", pop="1088", peek="0", pushType="float", popType="float", peekType="void", codeSize="150 b", stackSize="288 b", work="0"];
node39 -> node40;
node41 [label="iDCT_1D_reference_fine_11332", push="136", pop="136", peek="136", pushType="float", popType="float", peekType="float", codeSize="86 b", stackSize="128 b", work="784"];
node40 -> node41;
node42 [label="iDCT_1D_reference_fine_11333", push="136", pop="136", peek="136", pushType="float", popType="float", peekType="float", codeSize="86 b", stackSize="128 b", work="784"];
node40 -> node42;
node43 [label="iDCT_1D_reference_fine_11334", push="136", pop="136", peek="136", pushType="float", popType="float", peekType="float", codeSize="86 b", stackSize="128 b", work="784"];
node40 -> node43;
node44 [label="iDCT_1D_reference_fine_11335", push="136", pop="136", peek="136", pushType="float", popType="float", peekType="float", codeSize="86 b", stackSize="128 b", work="784"];
node40 -> node44;
node45 [label="iDCT_1D_reference_fine_11336", push="136", pop="136", peek="136", pushType="float", popType="float", peekType="float", codeSize="86 b", stackSize="128 b", work="784"];
node40 -> node45;
node46 [label="iDCT_1D_reference_fine_11337", push="136", pop="136", peek="136", pushType="float", popType="float", peekType="float", codeSize="86 b", stackSize="128 b", work="784"];
node40 -> node46;
node47 [label="iDCT_1D_reference_fine_11338", push="136", pop="136", peek="136", pushType="float", popType="float", peekType="float", codeSize="86 b", stackSize="128 b", work="784"];
node40 -> node47;
node48 [label="iDCT_1D_reference_fine_11339", push="136", pop="136", peek="136", pushType="float", popType="float", peekType="float", codeSize="86 b", stackSize="128 b", work="784"];
node40 -> node48;
node49 [label="WEIGHTED_ROUND_ROBIN_Joiner_11331", push="1088", pop="1088", peek="0", pushType="float", popType="float", peekType="void", codeSize="150 b", stackSize="288 b", work="0"];
node41 -> node49;
node42 -> node49;
node43 -> node49;
node44 -> node49;
node45 -> node49;
node46 -> node49;
node47 -> node49;
node48 -> node49;
node50 [label="Post_CollapsedDataParallel_2_11285", push="1088", pop="1088", peek="1088", pushType="float", popType="float", peekType="float", codeSize="54 b", stackSize="96 b", work="723"];
node49 -> node50;
node51 [label="WEIGHTED_ROUND_ROBIN_Splitter_11340", push="1088", pop="1088", peek="0", pushType="float", popType="float", peekType="void", codeSize="150 b", stackSize="288 b", work="0"];
node50 -> node51;
node52 [label="iDCT_1D_reference_fine_11342", push="136", pop="136", peek="136", pushType="float", popType="float", peekType="float", codeSize="86 b", stackSize="128 b", work="784"];
node51 -> node52;
node53 [label="iDCT_1D_reference_fine_11343", push="136", pop="136", peek="136", pushType="float", popType="float", peekType="float", codeSize="86 b", stackSize="128 b", work="784"];
node51 -> node53;
node54 [label="iDCT_1D_reference_fine_11344", push="136", pop="136", peek="136", pushType="float", popType="float", peekType="float", codeSize="86 b", stackSize="128 b", work="784"];
node51 -> node54;
node55 [label="iDCT_1D_reference_fine_11345", push="136", pop="136", peek="136", pushType="float", popType="float", peekType="float", codeSize="86 b", stackSize="128 b", work="784"];
node51 -> node55;
node56 [label="iDCT_1D_reference_fine_11346", push="136", pop="136", peek="136", pushType="float", popType="float", peekType="float", codeSize="86 b", stackSize="128 b", work="784"];
node51 -> node56;
node57 [label="iDCT_1D_reference_fine_11347", push="136", pop="136", peek="136", pushType="float", popType="float", peekType="float", codeSize="86 b", stackSize="128 b", work="784"];
node51 -> node57;
node58 [label="iDCT_1D_reference_fine_11348", push="136", pop="136", peek="136", pushType="float", popType="float", peekType="float", codeSize="86 b", stackSize="128 b", work="784"];
node51 -> node58;
node59 [label="iDCT_1D_reference_fine_11349", push="136", pop="136", peek="136", pushType="float", popType="float", peekType="float", codeSize="86 b", stackSize="128 b", work="784"];
node51 -> node59;
node60 [label="WEIGHTED_ROUND_ROBIN_Joiner_11341", push="1088", pop="1088", peek="0", pushType="float", popType="float", peekType="void", codeSize="150 b", stackSize="288 b", work="0"];
node52 -> node60;
node53 -> node60;
node54 -> node60;
node55 -> node60;
node56 -> node60;
node57 -> node60;
node58 -> node60;
node59 -> node60;
node61 [label="WEIGHTED_ROUND_ROBIN_Splitter_11350", push="1088", pop="1088", peek="0", pushType="float", popType="float", peekType="void", codeSize="414 b", stackSize="32 b", work="0"];
node60 -> node61;
node62 [label="AnonFilter_a4_11352", push="32", pop="32", peek="32", pushType="int", popType="float", peekType="float", codeSize="37 b", stackSize="0 b", work="76"];
node61 -> node62;
node63 [label="AnonFilter_a4_11353", push="32", pop="32", peek="32", pushType="int", popType="float", peekType="float", codeSize="37 b", stackSize="0 b", work="76"];
node61 -> node63;
node64 [label="AnonFilter_a4_11354", push="32", pop="32", peek="32", pushType="int", popType="float", peekType="float", codeSize="37 b", stackSize="0 b", work="76"];
node61 -> node64;
node65 [label="AnonFilter_a4_11355", push="32", pop="32", peek="32", pushType="int", popType="float", peekType="float", codeSize="37 b", stackSize="0 b", work="76"];
node61 -> node65;
node66 [label="AnonFilter_a4_11356", push="32", pop="32", peek="32", pushType="int", popType="float", peekType="float", codeSize="37 b", stackSize="0 b", work="76"];
node61 -> node66;
node67 [label="AnonFilter_a4_11357", push="32", pop="32", peek="32", pushType="int", popType="float", peekType="float", codeSize="37 b", stackSize="0 b", work="76"];
node61 -> node67;
node68 [label="AnonFilter_a4_11358", push="32", pop="32", peek="32", pushType="int", popType="float", peekType="float", codeSize="37 b", stackSize="0 b", work="76"];
node61 -> node68;
node69 [label="AnonFilter_a4_11359", push="32", pop="32", peek="32", pushType="int", popType="float", peekType="float", codeSize="37 b", stackSize="0 b", work="76"];
node61 -> node69;
node70 [label="AnonFilter_a4_11360", push="32", pop="32", peek="32", pushType="int", popType="float", peekType="float", codeSize="37 b", stackSize="0 b", work="76"];
node61 -> node70;
node71 [label="AnonFilter_a4_11361", push="32", pop="32", peek="32", pushType="int", popType="float", peekType="float", codeSize="37 b", stackSize="0 b", work="76"];
node61 -> node71;
node72 [label="AnonFilter_a4_11362", push="32", pop="32", peek="32", pushType="int", popType="float", peekType="float", codeSize="37 b", stackSize="0 b", work="76"];
node61 -> node72;
node73 [label="AnonFilter_a4_11363", push="32", pop="32", peek="32", pushType="int", popType="float", peekType="float", codeSize="37 b", stackSize="0 b", work="76"];
node61 -> node73;
node74 [label="AnonFilter_a4_11364", push="32", pop="32", peek="32", pushType="int", popType="float", peekType="float", codeSize="37 b", stackSize="0 b", work="76"];
node61 -> node74;
node75 [label="AnonFilter_a4_11365", push="32", pop="32", peek="32", pushType="int", popType="float", peekType="float", codeSize="37 b", stackSize="0 b", work="76"];
node61 -> node75;
node76 [label="AnonFilter_a4_11366", push="32", pop="32", peek="32", pushType="int", popType="float", peekType="float", codeSize="37 b", stackSize="0 b", work="76"];
node61 -> node76;
node77 [label="AnonFilter_a4_11367", push="32", pop="32", peek="32", pushType="int", popType="float", peekType="float", codeSize="37 b", stackSize="0 b", work="76"];
node61 -> node77;
node78 [label="AnonFilter_a4_11368", push="32", pop="32", peek="32", pushType="int", popType="float", peekType="float", codeSize="37 b", stackSize="0 b", work="76"];
node61 -> node78;
node79 [label="AnonFilter_a4_11369", push="32", pop="32", peek="32", pushType="int", popType="float", peekType="float", codeSize="37 b", stackSize="0 b", work="76"];
node61 -> node79;
node80 [label="AnonFilter_a4_11370", push="32", pop="32", peek="32", pushType="int", popType="float", peekType="float", codeSize="37 b", stackSize="0 b", work="76"];
node61 -> node80;
node81 [label="AnonFilter_a4_11371", push="32", pop="32", peek="32", pushType="int", popType="float", peekType="float", codeSize="37 b", stackSize="0 b", work="76"];
node61 -> node81;
node82 [label="AnonFilter_a4_11372", push="32", pop="32", peek="32", pushType="int", popType="float", peekType="float", codeSize="37 b", stackSize="0 b", work="76"];
node61 -> node82;
node83 [label="AnonFilter_a4_11373", push="32", pop="32", peek="32", pushType="int", popType="float", peekType="float", codeSize="37 b", stackSize="0 b", work="76"];
node61 -> node83;
node84 [label="AnonFilter_a4_11374", push="32", pop="32", peek="32", pushType="int", popType="float", peekType="float", codeSize="37 b", stackSize="0 b", work="76"];
node61 -> node84;
node85 [label="AnonFilter_a4_11375", push="32", pop="32", peek="32", pushType="int", popType="float", peekType="float", codeSize="37 b", stackSize="0 b", work="76"];
node61 -> node85;
node86 [label="AnonFilter_a4_11376", push="32", pop="32", peek="32", pushType="int", popType="float", peekType="float", codeSize="37 b", stackSize="0 b", work="76"];
node61 -> node86;
node87 [label="AnonFilter_a4_11377", push="32", pop="32", peek="32", pushType="int", popType="float", peekType="float", codeSize="37 b", stackSize="0 b", work="76"];
node61 -> node87;
node88 [label="AnonFilter_a4_11378", push="32", pop="32", peek="32", pushType="int", popType="float", peekType="float", codeSize="37 b", stackSize="0 b", work="76"];
node61 -> node88;
node89 [label="AnonFilter_a4_11379", push="32", pop="32", peek="32", pushType="int", popType="float", peekType="float", codeSize="37 b", stackSize="0 b", work="76"];
node61 -> node89;
node90 [label="AnonFilter_a4_11380", push="32", pop="32", peek="32", pushType="int", popType="float", peekType="float", codeSize="37 b", stackSize="0 b", work="76"];
node61 -> node90;
node91 [label="AnonFilter_a4_11381", push="32", pop="32", peek="32", pushType="int", popType="float", peekType="float", codeSize="37 b", stackSize="0 b", work="76"];
node61 -> node91;
node92 [label="AnonFilter_a4_11382", push="32", pop="32", peek="32", pushType="int", popType="float", peekType="float", codeSize="37 b", stackSize="0 b", work="76"];
node61 -> node92;
node93 [label="AnonFilter_a4_11383", push="32", pop="32", peek="32", pushType="int", popType="float", peekType="float", codeSize="37 b", stackSize="0 b", work="76"];
node61 -> node93;
node94 [label="AnonFilter_a4_11384", push="32", pop="32", peek="32", pushType="int", popType="float", peekType="float", codeSize="37 b", stackSize="0 b", work="76"];
node61 -> node94;
node95 [label="AnonFilter_a4_11385", push="32", pop="32", peek="32", pushType="int", popType="float", peekType="float", codeSize="37 b", stackSize="0 b", work="76"];
node61 -> node95;
node96 [label="WEIGHTED_ROUND_ROBIN_Joiner_11351", push="1088", pop="1088", peek="0", pushType="int", popType="int", peekType="void", codeSize="414 b", stackSize="32 b", work="0"];
node62 -> node96;
node63 -> node96;
node64 -> node96;
node65 -> node96;
node66 -> node96;
node67 -> node96;
node68 -> node96;
node69 -> node96;
node70 -> node96;
node71 -> node96;
node72 -> node96;
node73 -> node96;
node74 -> node96;
node75 -> node96;
node76 -> node96;
node77 -> node96;
node78 -> node96;
node79 -> node96;
node80 -> node96;
node81 -> node96;
node82 -> node96;
node83 -> node96;
node84 -> node96;
node85 -> node96;
node86 -> node96;
node87 -> node96;
node88 -> node96;
node89 -> node96;
node90 -> node96;
node91 -> node96;
node92 -> node96;
node93 -> node96;
node94 -> node96;
node95 -> node96;
node97 [label="WEIGHTED_ROUND_ROBIN_Splitter_11386", push="1088", pop="1088", peek="0", pushType="int", popType="int", peekType="void", codeSize="150 b", stackSize="288 b", work="0"];
node1 -> node97;
node98 [label="iDCT8x8_1D_row_fast_11388", push="136", pop="136", peek="136", pushType="int", popType="int", peekType="int", codeSize="356 b", stackSize="352 b", work="138"];
node97 -> node98;
node99 [label="iDCT8x8_1D_row_fast_11389", push="136", pop="136", peek="136", pushType="int", popType="int", peekType="int", codeSize="356 b", stackSize="352 b", work="138"];
node97 -> node99;
node100 [label="iDCT8x8_1D_row_fast_11390", push="136", pop="136", peek="136", pushType="int", popType="int", peekType="int", codeSize="356 b", stackSize="352 b", work="138"];
node97 -> node100;
node101 [label="iDCT8x8_1D_row_fast_11391", push="136", pop="136", peek="136", pushType="int", popType="int", peekType="int", codeSize="356 b", stackSize="352 b", work="138"];
node97 -> node101;
node102 [label="iDCT8x8_1D_row_fast_11392", push="136", pop="136", peek="136", pushType="int", popType="int", peekType="int", codeSize="356 b", stackSize="352 b", work="138"];
node97 -> node102;
node103 [label="iDCT8x8_1D_row_fast_11393", push="136", pop="136", peek="136", pushType="int", popType="int", peekType="int", codeSize="356 b", stackSize="352 b", work="138"];
node97 -> node103;
node104 [label="iDCT8x8_1D_row_fast_11394", push="136", pop="136", peek="136", pushType="int", popType="int", peekType="int", codeSize="356 b", stackSize="352 b", work="138"];
node97 -> node104;
node105 [label="iDCT8x8_1D_row_fast_11395", push="136", pop="136", peek="136", pushType="int", popType="int", peekType="int", codeSize="356 b", stackSize="352 b", work="138"];
node97 -> node105;
node106 [label="WEIGHTED_ROUND_ROBIN_Joiner_11387", push="1088", pop="1088", peek="0", pushType="int", popType="int", peekType="void", codeSize="150 b", stackSize="288 b", work="0"];
node98 -> node106;
node99 -> node106;
node100 -> node106;
node101 -> node106;
node102 -> node106;
node103 -> node106;
node104 -> node106;
node105 -> node106;
node107 [label="iDCT8x8_1D_col_fast_11238", push="1088", pop="1088", peek="1088", pushType="int", popType="int", peekType="int", codeSize="546 b", stackSize="384 b", work="1576"];
node106 -> node107;
node108 [label="WEIGHTED_ROUND_ROBIN_Joiner_11287", push="3264", pop="3264", peek="0", pushType="int", popType="int", peekType="void", codeSize="42 b", stackSize="32 b", work="0"];
node2 -> node108;
node96 -> node108;
node107 -> node108;
node109 [label="AnonFilter_a2_11239", push="0", pop="3264", peek="3264", pushType="void", popType="int", peekType="int", codeSize="175 b", stackSize="160 b", work="73"];
node108 -> node109;
}
