digraph iDCTcompare_8890 {
node0 [label="AnonFilter_a0_8683", push="1344", pop="0", peek="0", pushType="int", popType="void", peekType="void", codeSize="44 b", stackSize="32 b", work="36480"];
node1 [label="DUPLICATE_Splitter_8758", push="1344", pop="1344", peek="0", pushType="int", popType="int", peekType="void", codeSize="30 b", stackSize="64 b", work="0"];
node0 -> node1;
node2 [label="iDCT_2D_reference_coarse_8686", push="1344", pop="1344", peek="1344", pushType="int", popType="int", peekType="int", codeSize="273 b", stackSize="384 b", work="16032"];
node1 -> node2;
node3 [label="WEIGHTED_ROUND_ROBIN_Splitter_8766", push="1344", pop="1344", peek="0", pushType="int", popType="int", peekType="void", codeSize="510 b", stackSize="32 b", work="0"];
node1 -> node3;
node4 [label="AnonFilter_a3_8768", push="32", pop="32", peek="32", pushType="float", popType="int", peekType="int", codeSize="12 b", stackSize="0 b", work="6"];
node3 -> node4;
node5 [label="AnonFilter_a3_8769", push="32", pop="32", peek="32", pushType="float", popType="int", peekType="int", codeSize="12 b", stackSize="0 b", work="6"];
node3 -> node5;
node6 [label="AnonFilter_a3_8770", push="32", pop="32", peek="32", pushType="float", popType="int", peekType="int", codeSize="12 b", stackSize="0 b", work="6"];
node3 -> node6;
node7 [label="AnonFilter_a3_8771", push="32", pop="32", peek="32", pushType="float", popType="int", peekType="int", codeSize="12 b", stackSize="0 b", work="6"];
node3 -> node7;
node8 [label="AnonFilter_a3_8772", push="32", pop="32", peek="32", pushType="float", popType="int", peekType="int", codeSize="12 b", stackSize="0 b", work="6"];
node3 -> node8;
node9 [label="AnonFilter_a3_8773", push="32", pop="32", peek="32", pushType="float", popType="int", peekType="int", codeSize="12 b", stackSize="0 b", work="6"];
node3 -> node9;
node10 [label="AnonFilter_a3_8774", push="32", pop="32", peek="32", pushType="float", popType="int", peekType="int", codeSize="12 b", stackSize="0 b", work="6"];
node3 -> node10;
node11 [label="AnonFilter_a3_8775", push="32", pop="32", peek="32", pushType="float", popType="int", peekType="int", codeSize="12 b", stackSize="0 b", work="6"];
node3 -> node11;
node12 [label="AnonFilter_a3_8776", push="32", pop="32", peek="32", pushType="float", popType="int", peekType="int", codeSize="12 b", stackSize="0 b", work="6"];
node3 -> node12;
node13 [label="AnonFilter_a3_8777", push="32", pop="32", peek="32", pushType="float", popType="int", peekType="int", codeSize="12 b", stackSize="0 b", work="6"];
node3 -> node13;
node14 [label="AnonFilter_a3_8778", push="32", pop="32", peek="32", pushType="float", popType="int", peekType="int", codeSize="12 b", stackSize="0 b", work="6"];
node3 -> node14;
node15 [label="AnonFilter_a3_8779", push="32", pop="32", peek="32", pushType="float", popType="int", peekType="int", codeSize="12 b", stackSize="0 b", work="6"];
node3 -> node15;
node16 [label="AnonFilter_a3_8780", push="32", pop="32", peek="32", pushType="float", popType="int", peekType="int", codeSize="12 b", stackSize="0 b", work="6"];
node3 -> node16;
node17 [label="AnonFilter_a3_8781", push="32", pop="32", peek="32", pushType="float", popType="int", peekType="int", codeSize="12 b", stackSize="0 b", work="6"];
node3 -> node17;
node18 [label="AnonFilter_a3_8782", push="32", pop="32", peek="32", pushType="float", popType="int", peekType="int", codeSize="12 b", stackSize="0 b", work="6"];
node3 -> node18;
node19 [label="AnonFilter_a3_8783", push="32", pop="32", peek="32", pushType="float", popType="int", peekType="int", codeSize="12 b", stackSize="0 b", work="6"];
node3 -> node19;
node20 [label="AnonFilter_a3_8784", push="32", pop="32", peek="32", pushType="float", popType="int", peekType="int", codeSize="12 b", stackSize="0 b", work="6"];
node3 -> node20;
node21 [label="AnonFilter_a3_8785", push="32", pop="32", peek="32", pushType="float", popType="int", peekType="int", codeSize="12 b", stackSize="0 b", work="6"];
node3 -> node21;
node22 [label="AnonFilter_a3_8786", push="32", pop="32", peek="32", pushType="float", popType="int", peekType="int", codeSize="12 b", stackSize="0 b", work="6"];
node3 -> node22;
node23 [label="AnonFilter_a3_8787", push="32", pop="32", peek="32", pushType="float", popType="int", peekType="int", codeSize="12 b", stackSize="0 b", work="6"];
node3 -> node23;
node24 [label="AnonFilter_a3_8788", push="32", pop="32", peek="32", pushType="float", popType="int", peekType="int", codeSize="12 b", stackSize="0 b", work="6"];
node3 -> node24;
node25 [label="AnonFilter_a3_8789", push="32", pop="32", peek="32", pushType="float", popType="int", peekType="int", codeSize="12 b", stackSize="0 b", work="6"];
node3 -> node25;
node26 [label="AnonFilter_a3_8790", push="32", pop="32", peek="32", pushType="float", popType="int", peekType="int", codeSize="12 b", stackSize="0 b", work="6"];
node3 -> node26;
node27 [label="AnonFilter_a3_8791", push="32", pop="32", peek="32", pushType="float", popType="int", peekType="int", codeSize="12 b", stackSize="0 b", work="6"];
node3 -> node27;
node28 [label="AnonFilter_a3_8792", push="32", pop="32", peek="32", pushType="float", popType="int", peekType="int", codeSize="12 b", stackSize="0 b", work="6"];
node3 -> node28;
node29 [label="AnonFilter_a3_8793", push="32", pop="32", peek="32", pushType="float", popType="int", peekType="int", codeSize="12 b", stackSize="0 b", work="6"];
node3 -> node29;
node30 [label="AnonFilter_a3_8794", push="32", pop="32", peek="32", pushType="float", popType="int", peekType="int", codeSize="12 b", stackSize="0 b", work="6"];
node3 -> node30;
node31 [label="AnonFilter_a3_8795", push="32", pop="32", peek="32", pushType="float", popType="int", peekType="int", codeSize="12 b", stackSize="0 b", work="6"];
node3 -> node31;
node32 [label="AnonFilter_a3_8796", push="32", pop="32", peek="32", pushType="float", popType="int", peekType="int", codeSize="12 b", stackSize="0 b", work="6"];
node3 -> node32;
node33 [label="AnonFilter_a3_8797", push="32", pop="32", peek="32", pushType="float", popType="int", peekType="int", codeSize="12 b", stackSize="0 b", work="6"];
node3 -> node33;
node34 [label="AnonFilter_a3_8798", push="32", pop="32", peek="32", pushType="float", popType="int", peekType="int", codeSize="12 b", stackSize="0 b", work="6"];
node3 -> node34;
node35 [label="AnonFilter_a3_8799", push="32", pop="32", peek="32", pushType="float", popType="int", peekType="int", codeSize="12 b", stackSize="0 b", work="6"];
node3 -> node35;
node36 [label="AnonFilter_a3_8800", push="32", pop="32", peek="32", pushType="float", popType="int", peekType="int", codeSize="12 b", stackSize="0 b", work="6"];
node3 -> node36;
node37 [label="AnonFilter_a3_8801", push="32", pop="32", peek="32", pushType="float", popType="int", peekType="int", codeSize="12 b", stackSize="0 b", work="6"];
node3 -> node37;
node38 [label="AnonFilter_a3_8802", push="32", pop="32", peek="32", pushType="float", popType="int", peekType="int", codeSize="12 b", stackSize="0 b", work="6"];
node3 -> node38;
node39 [label="AnonFilter_a3_8803", push="32", pop="32", peek="32", pushType="float", popType="int", peekType="int", codeSize="12 b", stackSize="0 b", work="6"];
node3 -> node39;
node40 [label="AnonFilter_a3_8804", push="32", pop="32", peek="32", pushType="float", popType="int", peekType="int", codeSize="12 b", stackSize="0 b", work="6"];
node3 -> node40;
node41 [label="AnonFilter_a3_8805", push="32", pop="32", peek="32", pushType="float", popType="int", peekType="int", codeSize="12 b", stackSize="0 b", work="6"];
node3 -> node41;
node42 [label="AnonFilter_a3_8806", push="32", pop="32", peek="32", pushType="float", popType="int", peekType="int", codeSize="12 b", stackSize="0 b", work="6"];
node3 -> node42;
node43 [label="AnonFilter_a3_8807", push="32", pop="32", peek="32", pushType="float", popType="int", peekType="int", codeSize="12 b", stackSize="0 b", work="6"];
node3 -> node43;
node44 [label="AnonFilter_a3_8808", push="32", pop="32", peek="32", pushType="float", popType="int", peekType="int", codeSize="12 b", stackSize="0 b", work="6"];
node3 -> node44;
node45 [label="AnonFilter_a3_8809", push="32", pop="32", peek="32", pushType="float", popType="int", peekType="int", codeSize="12 b", stackSize="0 b", work="6"];
node3 -> node45;
node46 [label="WEIGHTED_ROUND_ROBIN_Joiner_8767", push="1344", pop="1344", peek="0", pushType="float", popType="float", peekType="void", codeSize="510 b", stackSize="32 b", work="0"];
node4 -> node46;
node5 -> node46;
node6 -> node46;
node7 -> node46;
node8 -> node46;
node9 -> node46;
node10 -> node46;
node11 -> node46;
node12 -> node46;
node13 -> node46;
node14 -> node46;
node15 -> node46;
node16 -> node46;
node17 -> node46;
node18 -> node46;
node19 -> node46;
node20 -> node46;
node21 -> node46;
node22 -> node46;
node23 -> node46;
node24 -> node46;
node25 -> node46;
node26 -> node46;
node27 -> node46;
node28 -> node46;
node29 -> node46;
node30 -> node46;
node31 -> node46;
node32 -> node46;
node33 -> node46;
node34 -> node46;
node35 -> node46;
node36 -> node46;
node37 -> node46;
node38 -> node46;
node39 -> node46;
node40 -> node46;
node41 -> node46;
node42 -> node46;
node43 -> node46;
node44 -> node46;
node45 -> node46;
node47 [label="Pre_CollapsedDataParallel_1_8756", push="1344", pop="1344", peek="1344", pushType="float", popType="float", peekType="float", codeSize="50 b", stackSize="96 b", work="659"];
node46 -> node47;
node48 [label="WEIGHTED_ROUND_ROBIN_Splitter_8810", push="1344", pop="1344", peek="0", pushType="float", popType="float", peekType="void", codeSize="150 b", stackSize="288 b", work="0"];
node47 -> node48;
node49 [label="iDCT_1D_reference_fine_8812", push="168", pop="168", peek="168", pushType="float", popType="float", peekType="float", codeSize="86 b", stackSize="128 b", work="784"];
node48 -> node49;
node50 [label="iDCT_1D_reference_fine_8813", push="168", pop="168", peek="168", pushType="float", popType="float", peekType="float", codeSize="86 b", stackSize="128 b", work="784"];
node48 -> node50;
node51 [label="iDCT_1D_reference_fine_8814", push="168", pop="168", peek="168", pushType="float", popType="float", peekType="float", codeSize="86 b", stackSize="128 b", work="784"];
node48 -> node51;
node52 [label="iDCT_1D_reference_fine_8815", push="168", pop="168", peek="168", pushType="float", popType="float", peekType="float", codeSize="86 b", stackSize="128 b", work="784"];
node48 -> node52;
node53 [label="iDCT_1D_reference_fine_8816", push="168", pop="168", peek="168", pushType="float", popType="float", peekType="float", codeSize="86 b", stackSize="128 b", work="784"];
node48 -> node53;
node54 [label="iDCT_1D_reference_fine_8817", push="168", pop="168", peek="168", pushType="float", popType="float", peekType="float", codeSize="86 b", stackSize="128 b", work="784"];
node48 -> node54;
node55 [label="iDCT_1D_reference_fine_8818", push="168", pop="168", peek="168", pushType="float", popType="float", peekType="float", codeSize="86 b", stackSize="128 b", work="784"];
node48 -> node55;
node56 [label="iDCT_1D_reference_fine_8819", push="168", pop="168", peek="168", pushType="float", popType="float", peekType="float", codeSize="86 b", stackSize="128 b", work="784"];
node48 -> node56;
node57 [label="WEIGHTED_ROUND_ROBIN_Joiner_8811", push="1344", pop="1344", peek="0", pushType="float", popType="float", peekType="void", codeSize="150 b", stackSize="288 b", work="0"];
node49 -> node57;
node50 -> node57;
node51 -> node57;
node52 -> node57;
node53 -> node57;
node54 -> node57;
node55 -> node57;
node56 -> node57;
node58 [label="Post_CollapsedDataParallel_2_8757", push="1344", pop="1344", peek="1344", pushType="float", popType="float", peekType="float", codeSize="54 b", stackSize="96 b", work="723"];
node57 -> node58;
node59 [label="WEIGHTED_ROUND_ROBIN_Splitter_8820", push="1344", pop="1344", peek="0", pushType="float", popType="float", peekType="void", codeSize="150 b", stackSize="288 b", work="0"];
node58 -> node59;
node60 [label="iDCT_1D_reference_fine_8822", push="168", pop="168", peek="168", pushType="float", popType="float", peekType="float", codeSize="86 b", stackSize="128 b", work="784"];
node59 -> node60;
node61 [label="iDCT_1D_reference_fine_8823", push="168", pop="168", peek="168", pushType="float", popType="float", peekType="float", codeSize="86 b", stackSize="128 b", work="784"];
node59 -> node61;
node62 [label="iDCT_1D_reference_fine_8824", push="168", pop="168", peek="168", pushType="float", popType="float", peekType="float", codeSize="86 b", stackSize="128 b", work="784"];
node59 -> node62;
node63 [label="iDCT_1D_reference_fine_8825", push="168", pop="168", peek="168", pushType="float", popType="float", peekType="float", codeSize="86 b", stackSize="128 b", work="784"];
node59 -> node63;
node64 [label="iDCT_1D_reference_fine_8826", push="168", pop="168", peek="168", pushType="float", popType="float", peekType="float", codeSize="86 b", stackSize="128 b", work="784"];
node59 -> node64;
node65 [label="iDCT_1D_reference_fine_8827", push="168", pop="168", peek="168", pushType="float", popType="float", peekType="float", codeSize="86 b", stackSize="128 b", work="784"];
node59 -> node65;
node66 [label="iDCT_1D_reference_fine_8828", push="168", pop="168", peek="168", pushType="float", popType="float", peekType="float", codeSize="86 b", stackSize="128 b", work="784"];
node59 -> node66;
node67 [label="iDCT_1D_reference_fine_8829", push="168", pop="168", peek="168", pushType="float", popType="float", peekType="float", codeSize="86 b", stackSize="128 b", work="784"];
node59 -> node67;
node68 [label="WEIGHTED_ROUND_ROBIN_Joiner_8821", push="1344", pop="1344", peek="0", pushType="float", popType="float", peekType="void", codeSize="150 b", stackSize="288 b", work="0"];
node60 -> node68;
node61 -> node68;
node62 -> node68;
node63 -> node68;
node64 -> node68;
node65 -> node68;
node66 -> node68;
node67 -> node68;
node69 [label="WEIGHTED_ROUND_ROBIN_Splitter_8830", push="1344", pop="1344", peek="0", pushType="float", popType="float", peekType="void", codeSize="510 b", stackSize="32 b", work="0"];
node68 -> node69;
node70 [label="AnonFilter_a4_8832", push="32", pop="32", peek="32", pushType="int", popType="float", peekType="float", codeSize="37 b", stackSize="0 b", work="76"];
node69 -> node70;
node71 [label="AnonFilter_a4_8833", push="32", pop="32", peek="32", pushType="int", popType="float", peekType="float", codeSize="37 b", stackSize="0 b", work="76"];
node69 -> node71;
node72 [label="AnonFilter_a4_8834", push="32", pop="32", peek="32", pushType="int", popType="float", peekType="float", codeSize="37 b", stackSize="0 b", work="76"];
node69 -> node72;
node73 [label="AnonFilter_a4_8835", push="32", pop="32", peek="32", pushType="int", popType="float", peekType="float", codeSize="37 b", stackSize="0 b", work="76"];
node69 -> node73;
node74 [label="AnonFilter_a4_8836", push="32", pop="32", peek="32", pushType="int", popType="float", peekType="float", codeSize="37 b", stackSize="0 b", work="76"];
node69 -> node74;
node75 [label="AnonFilter_a4_8837", push="32", pop="32", peek="32", pushType="int", popType="float", peekType="float", codeSize="37 b", stackSize="0 b", work="76"];
node69 -> node75;
node76 [label="AnonFilter_a4_8838", push="32", pop="32", peek="32", pushType="int", popType="float", peekType="float", codeSize="37 b", stackSize="0 b", work="76"];
node69 -> node76;
node77 [label="AnonFilter_a4_8839", push="32", pop="32", peek="32", pushType="int", popType="float", peekType="float", codeSize="37 b", stackSize="0 b", work="76"];
node69 -> node77;
node78 [label="AnonFilter_a4_8840", push="32", pop="32", peek="32", pushType="int", popType="float", peekType="float", codeSize="37 b", stackSize="0 b", work="76"];
node69 -> node78;
node79 [label="AnonFilter_a4_8841", push="32", pop="32", peek="32", pushType="int", popType="float", peekType="float", codeSize="37 b", stackSize="0 b", work="76"];
node69 -> node79;
node80 [label="AnonFilter_a4_8842", push="32", pop="32", peek="32", pushType="int", popType="float", peekType="float", codeSize="37 b", stackSize="0 b", work="76"];
node69 -> node80;
node81 [label="AnonFilter_a4_8843", push="32", pop="32", peek="32", pushType="int", popType="float", peekType="float", codeSize="37 b", stackSize="0 b", work="76"];
node69 -> node81;
node82 [label="AnonFilter_a4_8844", push="32", pop="32", peek="32", pushType="int", popType="float", peekType="float", codeSize="37 b", stackSize="0 b", work="76"];
node69 -> node82;
node83 [label="AnonFilter_a4_8845", push="32", pop="32", peek="32", pushType="int", popType="float", peekType="float", codeSize="37 b", stackSize="0 b", work="76"];
node69 -> node83;
node84 [label="AnonFilter_a4_8846", push="32", pop="32", peek="32", pushType="int", popType="float", peekType="float", codeSize="37 b", stackSize="0 b", work="76"];
node69 -> node84;
node85 [label="AnonFilter_a4_8847", push="32", pop="32", peek="32", pushType="int", popType="float", peekType="float", codeSize="37 b", stackSize="0 b", work="76"];
node69 -> node85;
node86 [label="AnonFilter_a4_8848", push="32", pop="32", peek="32", pushType="int", popType="float", peekType="float", codeSize="37 b", stackSize="0 b", work="76"];
node69 -> node86;
node87 [label="AnonFilter_a4_8849", push="32", pop="32", peek="32", pushType="int", popType="float", peekType="float", codeSize="37 b", stackSize="0 b", work="76"];
node69 -> node87;
node88 [label="AnonFilter_a4_8850", push="32", pop="32", peek="32", pushType="int", popType="float", peekType="float", codeSize="37 b", stackSize="0 b", work="76"];
node69 -> node88;
node89 [label="AnonFilter_a4_8851", push="32", pop="32", peek="32", pushType="int", popType="float", peekType="float", codeSize="37 b", stackSize="0 b", work="76"];
node69 -> node89;
node90 [label="AnonFilter_a4_8852", push="32", pop="32", peek="32", pushType="int", popType="float", peekType="float", codeSize="37 b", stackSize="0 b", work="76"];
node69 -> node90;
node91 [label="AnonFilter_a4_8853", push="32", pop="32", peek="32", pushType="int", popType="float", peekType="float", codeSize="37 b", stackSize="0 b", work="76"];
node69 -> node91;
node92 [label="AnonFilter_a4_8854", push="32", pop="32", peek="32", pushType="int", popType="float", peekType="float", codeSize="37 b", stackSize="0 b", work="76"];
node69 -> node92;
node93 [label="AnonFilter_a4_8855", push="32", pop="32", peek="32", pushType="int", popType="float", peekType="float", codeSize="37 b", stackSize="0 b", work="76"];
node69 -> node93;
node94 [label="AnonFilter_a4_8856", push="32", pop="32", peek="32", pushType="int", popType="float", peekType="float", codeSize="37 b", stackSize="0 b", work="76"];
node69 -> node94;
node95 [label="AnonFilter_a4_8857", push="32", pop="32", peek="32", pushType="int", popType="float", peekType="float", codeSize="37 b", stackSize="0 b", work="76"];
node69 -> node95;
node96 [label="AnonFilter_a4_8858", push="32", pop="32", peek="32", pushType="int", popType="float", peekType="float", codeSize="37 b", stackSize="0 b", work="76"];
node69 -> node96;
node97 [label="AnonFilter_a4_8859", push="32", pop="32", peek="32", pushType="int", popType="float", peekType="float", codeSize="37 b", stackSize="0 b", work="76"];
node69 -> node97;
node98 [label="AnonFilter_a4_8860", push="32", pop="32", peek="32", pushType="int", popType="float", peekType="float", codeSize="37 b", stackSize="0 b", work="76"];
node69 -> node98;
node99 [label="AnonFilter_a4_8861", push="32", pop="32", peek="32", pushType="int", popType="float", peekType="float", codeSize="37 b", stackSize="0 b", work="76"];
node69 -> node99;
node100 [label="AnonFilter_a4_8862", push="32", pop="32", peek="32", pushType="int", popType="float", peekType="float", codeSize="37 b", stackSize="0 b", work="76"];
node69 -> node100;
node101 [label="AnonFilter_a4_8863", push="32", pop="32", peek="32", pushType="int", popType="float", peekType="float", codeSize="37 b", stackSize="0 b", work="76"];
node69 -> node101;
node102 [label="AnonFilter_a4_8864", push="32", pop="32", peek="32", pushType="int", popType="float", peekType="float", codeSize="37 b", stackSize="0 b", work="76"];
node69 -> node102;
node103 [label="AnonFilter_a4_8865", push="32", pop="32", peek="32", pushType="int", popType="float", peekType="float", codeSize="37 b", stackSize="0 b", work="76"];
node69 -> node103;
node104 [label="AnonFilter_a4_8866", push="32", pop="32", peek="32", pushType="int", popType="float", peekType="float", codeSize="37 b", stackSize="0 b", work="76"];
node69 -> node104;
node105 [label="AnonFilter_a4_8867", push="32", pop="32", peek="32", pushType="int", popType="float", peekType="float", codeSize="37 b", stackSize="0 b", work="76"];
node69 -> node105;
node106 [label="AnonFilter_a4_8868", push="32", pop="32", peek="32", pushType="int", popType="float", peekType="float", codeSize="37 b", stackSize="0 b", work="76"];
node69 -> node106;
node107 [label="AnonFilter_a4_8869", push="32", pop="32", peek="32", pushType="int", popType="float", peekType="float", codeSize="37 b", stackSize="0 b", work="76"];
node69 -> node107;
node108 [label="AnonFilter_a4_8870", push="32", pop="32", peek="32", pushType="int", popType="float", peekType="float", codeSize="37 b", stackSize="0 b", work="76"];
node69 -> node108;
node109 [label="AnonFilter_a4_8871", push="32", pop="32", peek="32", pushType="int", popType="float", peekType="float", codeSize="37 b", stackSize="0 b", work="76"];
node69 -> node109;
node110 [label="AnonFilter_a4_8872", push="32", pop="32", peek="32", pushType="int", popType="float", peekType="float", codeSize="37 b", stackSize="0 b", work="76"];
node69 -> node110;
node111 [label="AnonFilter_a4_8873", push="32", pop="32", peek="32", pushType="int", popType="float", peekType="float", codeSize="37 b", stackSize="0 b", work="76"];
node69 -> node111;
node112 [label="WEIGHTED_ROUND_ROBIN_Joiner_8831", push="1344", pop="1344", peek="0", pushType="int", popType="int", peekType="void", codeSize="510 b", stackSize="32 b", work="0"];
node70 -> node112;
node71 -> node112;
node72 -> node112;
node73 -> node112;
node74 -> node112;
node75 -> node112;
node76 -> node112;
node77 -> node112;
node78 -> node112;
node79 -> node112;
node80 -> node112;
node81 -> node112;
node82 -> node112;
node83 -> node112;
node84 -> node112;
node85 -> node112;
node86 -> node112;
node87 -> node112;
node88 -> node112;
node89 -> node112;
node90 -> node112;
node91 -> node112;
node92 -> node112;
node93 -> node112;
node94 -> node112;
node95 -> node112;
node96 -> node112;
node97 -> node112;
node98 -> node112;
node99 -> node112;
node100 -> node112;
node101 -> node112;
node102 -> node112;
node103 -> node112;
node104 -> node112;
node105 -> node112;
node106 -> node112;
node107 -> node112;
node108 -> node112;
node109 -> node112;
node110 -> node112;
node111 -> node112;
node113 [label="WEIGHTED_ROUND_ROBIN_Splitter_8874", push="1344", pop="1344", peek="0", pushType="int", popType="int", peekType="void", codeSize="150 b", stackSize="288 b", work="0"];
node1 -> node113;
node114 [label="iDCT8x8_1D_row_fast_8876", push="168", pop="168", peek="168", pushType="int", popType="int", peekType="int", codeSize="356 b", stackSize="352 b", work="138"];
node113 -> node114;
node115 [label="iDCT8x8_1D_row_fast_8877", push="168", pop="168", peek="168", pushType="int", popType="int", peekType="int", codeSize="356 b", stackSize="352 b", work="138"];
node113 -> node115;
node116 [label="iDCT8x8_1D_row_fast_8878", push="168", pop="168", peek="168", pushType="int", popType="int", peekType="int", codeSize="356 b", stackSize="352 b", work="138"];
node113 -> node116;
node117 [label="iDCT8x8_1D_row_fast_8879", push="168", pop="168", peek="168", pushType="int", popType="int", peekType="int", codeSize="356 b", stackSize="352 b", work="138"];
node113 -> node117;
node118 [label="iDCT8x8_1D_row_fast_8880", push="168", pop="168", peek="168", pushType="int", popType="int", peekType="int", codeSize="356 b", stackSize="352 b", work="138"];
node113 -> node118;
node119 [label="iDCT8x8_1D_row_fast_8881", push="168", pop="168", peek="168", pushType="int", popType="int", peekType="int", codeSize="356 b", stackSize="352 b", work="138"];
node113 -> node119;
node120 [label="iDCT8x8_1D_row_fast_8882", push="168", pop="168", peek="168", pushType="int", popType="int", peekType="int", codeSize="356 b", stackSize="352 b", work="138"];
node113 -> node120;
node121 [label="iDCT8x8_1D_row_fast_8883", push="168", pop="168", peek="168", pushType="int", popType="int", peekType="int", codeSize="356 b", stackSize="352 b", work="138"];
node113 -> node121;
node122 [label="WEIGHTED_ROUND_ROBIN_Joiner_8875", push="1344", pop="1344", peek="0", pushType="int", popType="int", peekType="void", codeSize="150 b", stackSize="288 b", work="0"];
node114 -> node122;
node115 -> node122;
node116 -> node122;
node117 -> node122;
node118 -> node122;
node119 -> node122;
node120 -> node122;
node121 -> node122;
node123 [label="iDCT8x8_1D_col_fast_8710", push="1344", pop="1344", peek="1344", pushType="int", popType="int", peekType="int", codeSize="546 b", stackSize="384 b", work="1576"];
node122 -> node123;
node124 [label="WEIGHTED_ROUND_ROBIN_Joiner_8759", push="4032", pop="4032", peek="0", pushType="int", popType="int", peekType="void", codeSize="42 b", stackSize="32 b", work="0"];
node2 -> node124;
node112 -> node124;
node123 -> node124;
node125 [label="AnonFilter_a2_8711", push="0", pop="4032", peek="4032", pushType="void", popType="int", peekType="int", codeSize="175 b", stackSize="160 b", work="73"];
node124 -> node125;
}
