digraph iDCTcompare_9218 {
node0 [label="AnonFilter_a0_9013", push="2624", pop="0", peek="0", pushType="int", popType="void", peekType="void", codeSize="44 b", stackSize="32 b", work="36480"];
node1 [label="DUPLICATE_Splitter_9088", push="2624", pop="2624", peek="0", pushType="int", popType="int", peekType="void", codeSize="30 b", stackSize="64 b", work="0"];
node0 -> node1;
node2 [label="iDCT_2D_reference_coarse_9016", push="2624", pop="2624", peek="2624", pushType="int", popType="int", peekType="int", codeSize="273 b", stackSize="384 b", work="16032"];
node1 -> node2;
node3 [label="WEIGHTED_ROUND_ROBIN_Splitter_9096", push="2624", pop="2624", peek="0", pushType="int", popType="int", peekType="void", codeSize="498 b", stackSize="32 b", work="0"];
node1 -> node3;
node4 [label="AnonFilter_a3_9098", push="64", pop="64", peek="64", pushType="float", popType="int", peekType="int", codeSize="12 b", stackSize="0 b", work="6"];
node3 -> node4;
node5 [label="AnonFilter_a3_9099", push="64", pop="64", peek="64", pushType="float", popType="int", peekType="int", codeSize="12 b", stackSize="0 b", work="6"];
node3 -> node5;
node6 [label="AnonFilter_a3_9100", push="64", pop="64", peek="64", pushType="float", popType="int", peekType="int", codeSize="12 b", stackSize="0 b", work="6"];
node3 -> node6;
node7 [label="AnonFilter_a3_9101", push="64", pop="64", peek="64", pushType="float", popType="int", peekType="int", codeSize="12 b", stackSize="0 b", work="6"];
node3 -> node7;
node8 [label="AnonFilter_a3_9102", push="64", pop="64", peek="64", pushType="float", popType="int", peekType="int", codeSize="12 b", stackSize="0 b", work="6"];
node3 -> node8;
node9 [label="AnonFilter_a3_9103", push="64", pop="64", peek="64", pushType="float", popType="int", peekType="int", codeSize="12 b", stackSize="0 b", work="6"];
node3 -> node9;
node10 [label="AnonFilter_a3_9104", push="64", pop="64", peek="64", pushType="float", popType="int", peekType="int", codeSize="12 b", stackSize="0 b", work="6"];
node3 -> node10;
node11 [label="AnonFilter_a3_9105", push="64", pop="64", peek="64", pushType="float", popType="int", peekType="int", codeSize="12 b", stackSize="0 b", work="6"];
node3 -> node11;
node12 [label="AnonFilter_a3_9106", push="64", pop="64", peek="64", pushType="float", popType="int", peekType="int", codeSize="12 b", stackSize="0 b", work="6"];
node3 -> node12;
node13 [label="AnonFilter_a3_9107", push="64", pop="64", peek="64", pushType="float", popType="int", peekType="int", codeSize="12 b", stackSize="0 b", work="6"];
node3 -> node13;
node14 [label="AnonFilter_a3_9108", push="64", pop="64", peek="64", pushType="float", popType="int", peekType="int", codeSize="12 b", stackSize="0 b", work="6"];
node3 -> node14;
node15 [label="AnonFilter_a3_9109", push="64", pop="64", peek="64", pushType="float", popType="int", peekType="int", codeSize="12 b", stackSize="0 b", work="6"];
node3 -> node15;
node16 [label="AnonFilter_a3_9110", push="64", pop="64", peek="64", pushType="float", popType="int", peekType="int", codeSize="12 b", stackSize="0 b", work="6"];
node3 -> node16;
node17 [label="AnonFilter_a3_9111", push="64", pop="64", peek="64", pushType="float", popType="int", peekType="int", codeSize="12 b", stackSize="0 b", work="6"];
node3 -> node17;
node18 [label="AnonFilter_a3_9112", push="64", pop="64", peek="64", pushType="float", popType="int", peekType="int", codeSize="12 b", stackSize="0 b", work="6"];
node3 -> node18;
node19 [label="AnonFilter_a3_9113", push="64", pop="64", peek="64", pushType="float", popType="int", peekType="int", codeSize="12 b", stackSize="0 b", work="6"];
node3 -> node19;
node20 [label="AnonFilter_a3_9114", push="64", pop="64", peek="64", pushType="float", popType="int", peekType="int", codeSize="12 b", stackSize="0 b", work="6"];
node3 -> node20;
node21 [label="AnonFilter_a3_9115", push="64", pop="64", peek="64", pushType="float", popType="int", peekType="int", codeSize="12 b", stackSize="0 b", work="6"];
node3 -> node21;
node22 [label="AnonFilter_a3_9116", push="64", pop="64", peek="64", pushType="float", popType="int", peekType="int", codeSize="12 b", stackSize="0 b", work="6"];
node3 -> node22;
node23 [label="AnonFilter_a3_9117", push="64", pop="64", peek="64", pushType="float", popType="int", peekType="int", codeSize="12 b", stackSize="0 b", work="6"];
node3 -> node23;
node24 [label="AnonFilter_a3_9118", push="64", pop="64", peek="64", pushType="float", popType="int", peekType="int", codeSize="12 b", stackSize="0 b", work="6"];
node3 -> node24;
node25 [label="AnonFilter_a3_9119", push="64", pop="64", peek="64", pushType="float", popType="int", peekType="int", codeSize="12 b", stackSize="0 b", work="6"];
node3 -> node25;
node26 [label="AnonFilter_a3_9120", push="64", pop="64", peek="64", pushType="float", popType="int", peekType="int", codeSize="12 b", stackSize="0 b", work="6"];
node3 -> node26;
node27 [label="AnonFilter_a3_9121", push="64", pop="64", peek="64", pushType="float", popType="int", peekType="int", codeSize="12 b", stackSize="0 b", work="6"];
node3 -> node27;
node28 [label="AnonFilter_a3_9122", push="64", pop="64", peek="64", pushType="float", popType="int", peekType="int", codeSize="12 b", stackSize="0 b", work="6"];
node3 -> node28;
node29 [label="AnonFilter_a3_9123", push="64", pop="64", peek="64", pushType="float", popType="int", peekType="int", codeSize="12 b", stackSize="0 b", work="6"];
node3 -> node29;
node30 [label="AnonFilter_a3_9124", push="64", pop="64", peek="64", pushType="float", popType="int", peekType="int", codeSize="12 b", stackSize="0 b", work="6"];
node3 -> node30;
node31 [label="AnonFilter_a3_9125", push="64", pop="64", peek="64", pushType="float", popType="int", peekType="int", codeSize="12 b", stackSize="0 b", work="6"];
node3 -> node31;
node32 [label="AnonFilter_a3_9126", push="64", pop="64", peek="64", pushType="float", popType="int", peekType="int", codeSize="12 b", stackSize="0 b", work="6"];
node3 -> node32;
node33 [label="AnonFilter_a3_9127", push="64", pop="64", peek="64", pushType="float", popType="int", peekType="int", codeSize="12 b", stackSize="0 b", work="6"];
node3 -> node33;
node34 [label="AnonFilter_a3_9128", push="64", pop="64", peek="64", pushType="float", popType="int", peekType="int", codeSize="12 b", stackSize="0 b", work="6"];
node3 -> node34;
node35 [label="AnonFilter_a3_9129", push="64", pop="64", peek="64", pushType="float", popType="int", peekType="int", codeSize="12 b", stackSize="0 b", work="6"];
node3 -> node35;
node36 [label="AnonFilter_a3_9130", push="64", pop="64", peek="64", pushType="float", popType="int", peekType="int", codeSize="12 b", stackSize="0 b", work="6"];
node3 -> node36;
node37 [label="AnonFilter_a3_9131", push="64", pop="64", peek="64", pushType="float", popType="int", peekType="int", codeSize="12 b", stackSize="0 b", work="6"];
node3 -> node37;
node38 [label="AnonFilter_a3_9132", push="64", pop="64", peek="64", pushType="float", popType="int", peekType="int", codeSize="12 b", stackSize="0 b", work="6"];
node3 -> node38;
node39 [label="AnonFilter_a3_9133", push="64", pop="64", peek="64", pushType="float", popType="int", peekType="int", codeSize="12 b", stackSize="0 b", work="6"];
node3 -> node39;
node40 [label="AnonFilter_a3_9134", push="64", pop="64", peek="64", pushType="float", popType="int", peekType="int", codeSize="12 b", stackSize="0 b", work="6"];
node3 -> node40;
node41 [label="AnonFilter_a3_9135", push="64", pop="64", peek="64", pushType="float", popType="int", peekType="int", codeSize="12 b", stackSize="0 b", work="6"];
node3 -> node41;
node42 [label="AnonFilter_a3_9136", push="64", pop="64", peek="64", pushType="float", popType="int", peekType="int", codeSize="12 b", stackSize="0 b", work="6"];
node3 -> node42;
node43 [label="AnonFilter_a3_9137", push="64", pop="64", peek="64", pushType="float", popType="int", peekType="int", codeSize="12 b", stackSize="0 b", work="6"];
node3 -> node43;
node44 [label="AnonFilter_a3_9138", push="64", pop="64", peek="64", pushType="float", popType="int", peekType="int", codeSize="12 b", stackSize="0 b", work="6"];
node3 -> node44;
node45 [label="WEIGHTED_ROUND_ROBIN_Joiner_9097", push="2624", pop="2624", peek="0", pushType="float", popType="float", peekType="void", codeSize="498 b", stackSize="32 b", work="0"];
node4 -> node45;
node5 -> node45;
node6 -> node45;
node7 -> node45;
node8 -> node45;
node9 -> node45;
node10 -> node45;
node11 -> node45;
node12 -> node45;
node13 -> node45;
node14 -> node45;
node15 -> node45;
node16 -> node45;
node17 -> node45;
node18 -> node45;
node19 -> node45;
node20 -> node45;
node21 -> node45;
node22 -> node45;
node23 -> node45;
node24 -> node45;
node25 -> node45;
node26 -> node45;
node27 -> node45;
node28 -> node45;
node29 -> node45;
node30 -> node45;
node31 -> node45;
node32 -> node45;
node33 -> node45;
node34 -> node45;
node35 -> node45;
node36 -> node45;
node37 -> node45;
node38 -> node45;
node39 -> node45;
node40 -> node45;
node41 -> node45;
node42 -> node45;
node43 -> node45;
node44 -> node45;
node46 [label="Pre_CollapsedDataParallel_1_9086", push="2624", pop="2624", peek="2624", pushType="float", popType="float", peekType="float", codeSize="50 b", stackSize="96 b", work="659"];
node45 -> node46;
node47 [label="WEIGHTED_ROUND_ROBIN_Splitter_9139", push="2624", pop="2624", peek="0", pushType="float", popType="float", peekType="void", codeSize="150 b", stackSize="288 b", work="0"];
node46 -> node47;
node48 [label="iDCT_1D_reference_fine_9141", push="328", pop="328", peek="328", pushType="float", popType="float", peekType="float", codeSize="86 b", stackSize="128 b", work="784"];
node47 -> node48;
node49 [label="iDCT_1D_reference_fine_9142", push="328", pop="328", peek="328", pushType="float", popType="float", peekType="float", codeSize="86 b", stackSize="128 b", work="784"];
node47 -> node49;
node50 [label="iDCT_1D_reference_fine_9143", push="328", pop="328", peek="328", pushType="float", popType="float", peekType="float", codeSize="86 b", stackSize="128 b", work="784"];
node47 -> node50;
node51 [label="iDCT_1D_reference_fine_9144", push="328", pop="328", peek="328", pushType="float", popType="float", peekType="float", codeSize="86 b", stackSize="128 b", work="784"];
node47 -> node51;
node52 [label="iDCT_1D_reference_fine_9145", push="328", pop="328", peek="328", pushType="float", popType="float", peekType="float", codeSize="86 b", stackSize="128 b", work="784"];
node47 -> node52;
node53 [label="iDCT_1D_reference_fine_9146", push="328", pop="328", peek="328", pushType="float", popType="float", peekType="float", codeSize="86 b", stackSize="128 b", work="784"];
node47 -> node53;
node54 [label="iDCT_1D_reference_fine_9147", push="328", pop="328", peek="328", pushType="float", popType="float", peekType="float", codeSize="86 b", stackSize="128 b", work="784"];
node47 -> node54;
node55 [label="iDCT_1D_reference_fine_9148", push="328", pop="328", peek="328", pushType="float", popType="float", peekType="float", codeSize="86 b", stackSize="128 b", work="784"];
node47 -> node55;
node56 [label="WEIGHTED_ROUND_ROBIN_Joiner_9140", push="2624", pop="2624", peek="0", pushType="float", popType="float", peekType="void", codeSize="150 b", stackSize="288 b", work="0"];
node48 -> node56;
node49 -> node56;
node50 -> node56;
node51 -> node56;
node52 -> node56;
node53 -> node56;
node54 -> node56;
node55 -> node56;
node57 [label="Post_CollapsedDataParallel_2_9087", push="2624", pop="2624", peek="2624", pushType="float", popType="float", peekType="float", codeSize="54 b", stackSize="96 b", work="723"];
node56 -> node57;
node58 [label="WEIGHTED_ROUND_ROBIN_Splitter_9149", push="2624", pop="2624", peek="0", pushType="float", popType="float", peekType="void", codeSize="150 b", stackSize="288 b", work="0"];
node57 -> node58;
node59 [label="iDCT_1D_reference_fine_9151", push="328", pop="328", peek="328", pushType="float", popType="float", peekType="float", codeSize="86 b", stackSize="128 b", work="784"];
node58 -> node59;
node60 [label="iDCT_1D_reference_fine_9152", push="328", pop="328", peek="328", pushType="float", popType="float", peekType="float", codeSize="86 b", stackSize="128 b", work="784"];
node58 -> node60;
node61 [label="iDCT_1D_reference_fine_9153", push="328", pop="328", peek="328", pushType="float", popType="float", peekType="float", codeSize="86 b", stackSize="128 b", work="784"];
node58 -> node61;
node62 [label="iDCT_1D_reference_fine_9154", push="328", pop="328", peek="328", pushType="float", popType="float", peekType="float", codeSize="86 b", stackSize="128 b", work="784"];
node58 -> node62;
node63 [label="iDCT_1D_reference_fine_9155", push="328", pop="328", peek="328", pushType="float", popType="float", peekType="float", codeSize="86 b", stackSize="128 b", work="784"];
node58 -> node63;
node64 [label="iDCT_1D_reference_fine_9156", push="328", pop="328", peek="328", pushType="float", popType="float", peekType="float", codeSize="86 b", stackSize="128 b", work="784"];
node58 -> node64;
node65 [label="iDCT_1D_reference_fine_9157", push="328", pop="328", peek="328", pushType="float", popType="float", peekType="float", codeSize="86 b", stackSize="128 b", work="784"];
node58 -> node65;
node66 [label="iDCT_1D_reference_fine_9158", push="328", pop="328", peek="328", pushType="float", popType="float", peekType="float", codeSize="86 b", stackSize="128 b", work="784"];
node58 -> node66;
node67 [label="WEIGHTED_ROUND_ROBIN_Joiner_9150", push="2624", pop="2624", peek="0", pushType="float", popType="float", peekType="void", codeSize="150 b", stackSize="288 b", work="0"];
node59 -> node67;
node60 -> node67;
node61 -> node67;
node62 -> node67;
node63 -> node67;
node64 -> node67;
node65 -> node67;
node66 -> node67;
node68 [label="WEIGHTED_ROUND_ROBIN_Splitter_9159", push="2624", pop="2624", peek="0", pushType="float", popType="float", peekType="void", codeSize="498 b", stackSize="32 b", work="0"];
node67 -> node68;
node69 [label="AnonFilter_a4_9161", push="64", pop="64", peek="64", pushType="int", popType="float", peekType="float", codeSize="37 b", stackSize="0 b", work="76"];
node68 -> node69;
node70 [label="AnonFilter_a4_9162", push="64", pop="64", peek="64", pushType="int", popType="float", peekType="float", codeSize="37 b", stackSize="0 b", work="76"];
node68 -> node70;
node71 [label="AnonFilter_a4_9163", push="64", pop="64", peek="64", pushType="int", popType="float", peekType="float", codeSize="37 b", stackSize="0 b", work="76"];
node68 -> node71;
node72 [label="AnonFilter_a4_9164", push="64", pop="64", peek="64", pushType="int", popType="float", peekType="float", codeSize="37 b", stackSize="0 b", work="76"];
node68 -> node72;
node73 [label="AnonFilter_a4_9165", push="64", pop="64", peek="64", pushType="int", popType="float", peekType="float", codeSize="37 b", stackSize="0 b", work="76"];
node68 -> node73;
node74 [label="AnonFilter_a4_9166", push="64", pop="64", peek="64", pushType="int", popType="float", peekType="float", codeSize="37 b", stackSize="0 b", work="76"];
node68 -> node74;
node75 [label="AnonFilter_a4_9167", push="64", pop="64", peek="64", pushType="int", popType="float", peekType="float", codeSize="37 b", stackSize="0 b", work="76"];
node68 -> node75;
node76 [label="AnonFilter_a4_9168", push="64", pop="64", peek="64", pushType="int", popType="float", peekType="float", codeSize="37 b", stackSize="0 b", work="76"];
node68 -> node76;
node77 [label="AnonFilter_a4_9169", push="64", pop="64", peek="64", pushType="int", popType="float", peekType="float", codeSize="37 b", stackSize="0 b", work="76"];
node68 -> node77;
node78 [label="AnonFilter_a4_9170", push="64", pop="64", peek="64", pushType="int", popType="float", peekType="float", codeSize="37 b", stackSize="0 b", work="76"];
node68 -> node78;
node79 [label="AnonFilter_a4_9171", push="64", pop="64", peek="64", pushType="int", popType="float", peekType="float", codeSize="37 b", stackSize="0 b", work="76"];
node68 -> node79;
node80 [label="AnonFilter_a4_9172", push="64", pop="64", peek="64", pushType="int", popType="float", peekType="float", codeSize="37 b", stackSize="0 b", work="76"];
node68 -> node80;
node81 [label="AnonFilter_a4_9173", push="64", pop="64", peek="64", pushType="int", popType="float", peekType="float", codeSize="37 b", stackSize="0 b", work="76"];
node68 -> node81;
node82 [label="AnonFilter_a4_9174", push="64", pop="64", peek="64", pushType="int", popType="float", peekType="float", codeSize="37 b", stackSize="0 b", work="76"];
node68 -> node82;
node83 [label="AnonFilter_a4_9175", push="64", pop="64", peek="64", pushType="int", popType="float", peekType="float", codeSize="37 b", stackSize="0 b", work="76"];
node68 -> node83;
node84 [label="AnonFilter_a4_9176", push="64", pop="64", peek="64", pushType="int", popType="float", peekType="float", codeSize="37 b", stackSize="0 b", work="76"];
node68 -> node84;
node85 [label="AnonFilter_a4_9177", push="64", pop="64", peek="64", pushType="int", popType="float", peekType="float", codeSize="37 b", stackSize="0 b", work="76"];
node68 -> node85;
node86 [label="AnonFilter_a4_9178", push="64", pop="64", peek="64", pushType="int", popType="float", peekType="float", codeSize="37 b", stackSize="0 b", work="76"];
node68 -> node86;
node87 [label="AnonFilter_a4_9179", push="64", pop="64", peek="64", pushType="int", popType="float", peekType="float", codeSize="37 b", stackSize="0 b", work="76"];
node68 -> node87;
node88 [label="AnonFilter_a4_9180", push="64", pop="64", peek="64", pushType="int", popType="float", peekType="float", codeSize="37 b", stackSize="0 b", work="76"];
node68 -> node88;
node89 [label="AnonFilter_a4_9181", push="64", pop="64", peek="64", pushType="int", popType="float", peekType="float", codeSize="37 b", stackSize="0 b", work="76"];
node68 -> node89;
node90 [label="AnonFilter_a4_9182", push="64", pop="64", peek="64", pushType="int", popType="float", peekType="float", codeSize="37 b", stackSize="0 b", work="76"];
node68 -> node90;
node91 [label="AnonFilter_a4_9183", push="64", pop="64", peek="64", pushType="int", popType="float", peekType="float", codeSize="37 b", stackSize="0 b", work="76"];
node68 -> node91;
node92 [label="AnonFilter_a4_9184", push="64", pop="64", peek="64", pushType="int", popType="float", peekType="float", codeSize="37 b", stackSize="0 b", work="76"];
node68 -> node92;
node93 [label="AnonFilter_a4_9185", push="64", pop="64", peek="64", pushType="int", popType="float", peekType="float", codeSize="37 b", stackSize="0 b", work="76"];
node68 -> node93;
node94 [label="AnonFilter_a4_9186", push="64", pop="64", peek="64", pushType="int", popType="float", peekType="float", codeSize="37 b", stackSize="0 b", work="76"];
node68 -> node94;
node95 [label="AnonFilter_a4_9187", push="64", pop="64", peek="64", pushType="int", popType="float", peekType="float", codeSize="37 b", stackSize="0 b", work="76"];
node68 -> node95;
node96 [label="AnonFilter_a4_9188", push="64", pop="64", peek="64", pushType="int", popType="float", peekType="float", codeSize="37 b", stackSize="0 b", work="76"];
node68 -> node96;
node97 [label="AnonFilter_a4_9189", push="64", pop="64", peek="64", pushType="int", popType="float", peekType="float", codeSize="37 b", stackSize="0 b", work="76"];
node68 -> node97;
node98 [label="AnonFilter_a4_9190", push="64", pop="64", peek="64", pushType="int", popType="float", peekType="float", codeSize="37 b", stackSize="0 b", work="76"];
node68 -> node98;
node99 [label="AnonFilter_a4_9191", push="64", pop="64", peek="64", pushType="int", popType="float", peekType="float", codeSize="37 b", stackSize="0 b", work="76"];
node68 -> node99;
node100 [label="AnonFilter_a4_9192", push="64", pop="64", peek="64", pushType="int", popType="float", peekType="float", codeSize="37 b", stackSize="0 b", work="76"];
node68 -> node100;
node101 [label="AnonFilter_a4_9193", push="64", pop="64", peek="64", pushType="int", popType="float", peekType="float", codeSize="37 b", stackSize="0 b", work="76"];
node68 -> node101;
node102 [label="AnonFilter_a4_9194", push="64", pop="64", peek="64", pushType="int", popType="float", peekType="float", codeSize="37 b", stackSize="0 b", work="76"];
node68 -> node102;
node103 [label="AnonFilter_a4_9195", push="64", pop="64", peek="64", pushType="int", popType="float", peekType="float", codeSize="37 b", stackSize="0 b", work="76"];
node68 -> node103;
node104 [label="AnonFilter_a4_9196", push="64", pop="64", peek="64", pushType="int", popType="float", peekType="float", codeSize="37 b", stackSize="0 b", work="76"];
node68 -> node104;
node105 [label="AnonFilter_a4_9197", push="64", pop="64", peek="64", pushType="int", popType="float", peekType="float", codeSize="37 b", stackSize="0 b", work="76"];
node68 -> node105;
node106 [label="AnonFilter_a4_9198", push="64", pop="64", peek="64", pushType="int", popType="float", peekType="float", codeSize="37 b", stackSize="0 b", work="76"];
node68 -> node106;
node107 [label="AnonFilter_a4_9199", push="64", pop="64", peek="64", pushType="int", popType="float", peekType="float", codeSize="37 b", stackSize="0 b", work="76"];
node68 -> node107;
node108 [label="AnonFilter_a4_9200", push="64", pop="64", peek="64", pushType="int", popType="float", peekType="float", codeSize="37 b", stackSize="0 b", work="76"];
node68 -> node108;
node109 [label="AnonFilter_a4_9201", push="64", pop="64", peek="64", pushType="int", popType="float", peekType="float", codeSize="37 b", stackSize="0 b", work="76"];
node68 -> node109;
node110 [label="WEIGHTED_ROUND_ROBIN_Joiner_9160", push="2624", pop="2624", peek="0", pushType="int", popType="int", peekType="void", codeSize="498 b", stackSize="32 b", work="0"];
node69 -> node110;
node70 -> node110;
node71 -> node110;
node72 -> node110;
node73 -> node110;
node74 -> node110;
node75 -> node110;
node76 -> node110;
node77 -> node110;
node78 -> node110;
node79 -> node110;
node80 -> node110;
node81 -> node110;
node82 -> node110;
node83 -> node110;
node84 -> node110;
node85 -> node110;
node86 -> node110;
node87 -> node110;
node88 -> node110;
node89 -> node110;
node90 -> node110;
node91 -> node110;
node92 -> node110;
node93 -> node110;
node94 -> node110;
node95 -> node110;
node96 -> node110;
node97 -> node110;
node98 -> node110;
node99 -> node110;
node100 -> node110;
node101 -> node110;
node102 -> node110;
node103 -> node110;
node104 -> node110;
node105 -> node110;
node106 -> node110;
node107 -> node110;
node108 -> node110;
node109 -> node110;
node111 [label="WEIGHTED_ROUND_ROBIN_Splitter_9202", push="2624", pop="2624", peek="0", pushType="int", popType="int", peekType="void", codeSize="150 b", stackSize="288 b", work="0"];
node1 -> node111;
node112 [label="iDCT8x8_1D_row_fast_9204", push="328", pop="328", peek="328", pushType="int", popType="int", peekType="int", codeSize="356 b", stackSize="352 b", work="138"];
node111 -> node112;
node113 [label="iDCT8x8_1D_row_fast_9205", push="328", pop="328", peek="328", pushType="int", popType="int", peekType="int", codeSize="356 b", stackSize="352 b", work="138"];
node111 -> node113;
node114 [label="iDCT8x8_1D_row_fast_9206", push="328", pop="328", peek="328", pushType="int", popType="int", peekType="int", codeSize="356 b", stackSize="352 b", work="138"];
node111 -> node114;
node115 [label="iDCT8x8_1D_row_fast_9207", push="328", pop="328", peek="328", pushType="int", popType="int", peekType="int", codeSize="356 b", stackSize="352 b", work="138"];
node111 -> node115;
node116 [label="iDCT8x8_1D_row_fast_9208", push="328", pop="328", peek="328", pushType="int", popType="int", peekType="int", codeSize="356 b", stackSize="352 b", work="138"];
node111 -> node116;
node117 [label="iDCT8x8_1D_row_fast_9209", push="328", pop="328", peek="328", pushType="int", popType="int", peekType="int", codeSize="356 b", stackSize="352 b", work="138"];
node111 -> node117;
node118 [label="iDCT8x8_1D_row_fast_9210", push="328", pop="328", peek="328", pushType="int", popType="int", peekType="int", codeSize="356 b", stackSize="352 b", work="138"];
node111 -> node118;
node119 [label="iDCT8x8_1D_row_fast_9211", push="328", pop="328", peek="328", pushType="int", popType="int", peekType="int", codeSize="356 b", stackSize="352 b", work="138"];
node111 -> node119;
node120 [label="WEIGHTED_ROUND_ROBIN_Joiner_9203", push="2624", pop="2624", peek="0", pushType="int", popType="int", peekType="void", codeSize="150 b", stackSize="288 b", work="0"];
node112 -> node120;
node113 -> node120;
node114 -> node120;
node115 -> node120;
node116 -> node120;
node117 -> node120;
node118 -> node120;
node119 -> node120;
node121 [label="iDCT8x8_1D_col_fast_9040", push="2624", pop="2624", peek="2624", pushType="int", popType="int", peekType="int", codeSize="546 b", stackSize="384 b", work="1576"];
node120 -> node121;
node122 [label="WEIGHTED_ROUND_ROBIN_Joiner_9089", push="7872", pop="7872", peek="0", pushType="int", popType="int", peekType="void", codeSize="42 b", stackSize="32 b", work="0"];
node2 -> node122;
node110 -> node122;
node121 -> node122;
node123 [label="AnonFilter_a2_9041", push="0", pop="7872", peek="7872", pushType="void", popType="int", peekType="int", codeSize="175 b", stackSize="160 b", work="73"];
node122 -> node123;
}
