digraph iDCTcompare_17602 {
node0 [label="AnonFilter_a0_17461", push="576", pop="0", peek="0", pushType="int", popType="void", peekType="void", codeSize="44 b", stackSize="32 b", work="36480"];
node1 [label="DUPLICATE_Splitter_17536", push="576", pop="576", peek="0", pushType="int", popType="int", peekType="void", codeSize="30 b", stackSize="64 b", work="0"];
node0 -> node1;
node2 [label="iDCT_2D_reference_coarse_17464", push="576", pop="576", peek="576", pushType="int", popType="int", peekType="int", codeSize="273 b", stackSize="384 b", work="16032"];
node1 -> node2;
node3 [label="WEIGHTED_ROUND_ROBIN_Splitter_17544", push="576", pop="576", peek="0", pushType="int", popType="int", peekType="void", codeSize="114 b", stackSize="32 b", work="0"];
node1 -> node3;
node4 [label="AnonFilter_a3_17546", push="64", pop="64", peek="64", pushType="float", popType="int", peekType="int", codeSize="12 b", stackSize="0 b", work="6"];
node3 -> node4;
node5 [label="AnonFilter_a3_17547", push="64", pop="64", peek="64", pushType="float", popType="int", peekType="int", codeSize="12 b", stackSize="0 b", work="6"];
node3 -> node5;
node6 [label="AnonFilter_a3_17548", push="64", pop="64", peek="64", pushType="float", popType="int", peekType="int", codeSize="12 b", stackSize="0 b", work="6"];
node3 -> node6;
node7 [label="AnonFilter_a3_17549", push="64", pop="64", peek="64", pushType="float", popType="int", peekType="int", codeSize="12 b", stackSize="0 b", work="6"];
node3 -> node7;
node8 [label="AnonFilter_a3_17550", push="64", pop="64", peek="64", pushType="float", popType="int", peekType="int", codeSize="12 b", stackSize="0 b", work="6"];
node3 -> node8;
node9 [label="AnonFilter_a3_17551", push="64", pop="64", peek="64", pushType="float", popType="int", peekType="int", codeSize="12 b", stackSize="0 b", work="6"];
node3 -> node9;
node10 [label="AnonFilter_a3_17552", push="64", pop="64", peek="64", pushType="float", popType="int", peekType="int", codeSize="12 b", stackSize="0 b", work="6"];
node3 -> node10;
node11 [label="AnonFilter_a3_17553", push="64", pop="64", peek="64", pushType="float", popType="int", peekType="int", codeSize="12 b", stackSize="0 b", work="6"];
node3 -> node11;
node12 [label="AnonFilter_a3_17554", push="64", pop="64", peek="64", pushType="float", popType="int", peekType="int", codeSize="12 b", stackSize="0 b", work="6"];
node3 -> node12;
node13 [label="WEIGHTED_ROUND_ROBIN_Joiner_17545", push="576", pop="576", peek="0", pushType="float", popType="float", peekType="void", codeSize="114 b", stackSize="32 b", work="0"];
node4 -> node13;
node5 -> node13;
node6 -> node13;
node7 -> node13;
node8 -> node13;
node9 -> node13;
node10 -> node13;
node11 -> node13;
node12 -> node13;
node14 [label="Pre_CollapsedDataParallel_1_17534", push="576", pop="576", peek="576", pushType="float", popType="float", peekType="float", codeSize="50 b", stackSize="96 b", work="659"];
node13 -> node14;
node15 [label="WEIGHTED_ROUND_ROBIN_Splitter_17555", push="576", pop="576", peek="0", pushType="float", popType="float", peekType="void", codeSize="150 b", stackSize="288 b", work="0"];
node14 -> node15;
node16 [label="iDCT_1D_reference_fine_17557", push="72", pop="72", peek="72", pushType="float", popType="float", peekType="float", codeSize="86 b", stackSize="128 b", work="784"];
node15 -> node16;
node17 [label="iDCT_1D_reference_fine_17558", push="72", pop="72", peek="72", pushType="float", popType="float", peekType="float", codeSize="86 b", stackSize="128 b", work="784"];
node15 -> node17;
node18 [label="iDCT_1D_reference_fine_17559", push="72", pop="72", peek="72", pushType="float", popType="float", peekType="float", codeSize="86 b", stackSize="128 b", work="784"];
node15 -> node18;
node19 [label="iDCT_1D_reference_fine_17560", push="72", pop="72", peek="72", pushType="float", popType="float", peekType="float", codeSize="86 b", stackSize="128 b", work="784"];
node15 -> node19;
node20 [label="iDCT_1D_reference_fine_17561", push="72", pop="72", peek="72", pushType="float", popType="float", peekType="float", codeSize="86 b", stackSize="128 b", work="784"];
node15 -> node20;
node21 [label="iDCT_1D_reference_fine_17562", push="72", pop="72", peek="72", pushType="float", popType="float", peekType="float", codeSize="86 b", stackSize="128 b", work="784"];
node15 -> node21;
node22 [label="iDCT_1D_reference_fine_17563", push="72", pop="72", peek="72", pushType="float", popType="float", peekType="float", codeSize="86 b", stackSize="128 b", work="784"];
node15 -> node22;
node23 [label="iDCT_1D_reference_fine_17564", push="72", pop="72", peek="72", pushType="float", popType="float", peekType="float", codeSize="86 b", stackSize="128 b", work="784"];
node15 -> node23;
node24 [label="WEIGHTED_ROUND_ROBIN_Joiner_17556", push="576", pop="576", peek="0", pushType="float", popType="float", peekType="void", codeSize="150 b", stackSize="288 b", work="0"];
node16 -> node24;
node17 -> node24;
node18 -> node24;
node19 -> node24;
node20 -> node24;
node21 -> node24;
node22 -> node24;
node23 -> node24;
node25 [label="Post_CollapsedDataParallel_2_17535", push="576", pop="576", peek="576", pushType="float", popType="float", peekType="float", codeSize="54 b", stackSize="96 b", work="723"];
node24 -> node25;
node26 [label="WEIGHTED_ROUND_ROBIN_Splitter_17565", push="576", pop="576", peek="0", pushType="float", popType="float", peekType="void", codeSize="150 b", stackSize="288 b", work="0"];
node25 -> node26;
node27 [label="iDCT_1D_reference_fine_17567", push="72", pop="72", peek="72", pushType="float", popType="float", peekType="float", codeSize="86 b", stackSize="128 b", work="784"];
node26 -> node27;
node28 [label="iDCT_1D_reference_fine_17568", push="72", pop="72", peek="72", pushType="float", popType="float", peekType="float", codeSize="86 b", stackSize="128 b", work="784"];
node26 -> node28;
node29 [label="iDCT_1D_reference_fine_17569", push="72", pop="72", peek="72", pushType="float", popType="float", peekType="float", codeSize="86 b", stackSize="128 b", work="784"];
node26 -> node29;
node30 [label="iDCT_1D_reference_fine_17570", push="72", pop="72", peek="72", pushType="float", popType="float", peekType="float", codeSize="86 b", stackSize="128 b", work="784"];
node26 -> node30;
node31 [label="iDCT_1D_reference_fine_17571", push="72", pop="72", peek="72", pushType="float", popType="float", peekType="float", codeSize="86 b", stackSize="128 b", work="784"];
node26 -> node31;
node32 [label="iDCT_1D_reference_fine_17572", push="72", pop="72", peek="72", pushType="float", popType="float", peekType="float", codeSize="86 b", stackSize="128 b", work="784"];
node26 -> node32;
node33 [label="iDCT_1D_reference_fine_17573", push="72", pop="72", peek="72", pushType="float", popType="float", peekType="float", codeSize="86 b", stackSize="128 b", work="784"];
node26 -> node33;
node34 [label="iDCT_1D_reference_fine_17574", push="72", pop="72", peek="72", pushType="float", popType="float", peekType="float", codeSize="86 b", stackSize="128 b", work="784"];
node26 -> node34;
node35 [label="WEIGHTED_ROUND_ROBIN_Joiner_17566", push="576", pop="576", peek="0", pushType="float", popType="float", peekType="void", codeSize="150 b", stackSize="288 b", work="0"];
node27 -> node35;
node28 -> node35;
node29 -> node35;
node30 -> node35;
node31 -> node35;
node32 -> node35;
node33 -> node35;
node34 -> node35;
node36 [label="WEIGHTED_ROUND_ROBIN_Splitter_17575", push="576", pop="576", peek="0", pushType="float", popType="float", peekType="void", codeSize="114 b", stackSize="32 b", work="0"];
node35 -> node36;
node37 [label="AnonFilter_a4_17577", push="64", pop="64", peek="64", pushType="int", popType="float", peekType="float", codeSize="37 b", stackSize="0 b", work="76"];
node36 -> node37;
node38 [label="AnonFilter_a4_17578", push="64", pop="64", peek="64", pushType="int", popType="float", peekType="float", codeSize="37 b", stackSize="0 b", work="76"];
node36 -> node38;
node39 [label="AnonFilter_a4_17579", push="64", pop="64", peek="64", pushType="int", popType="float", peekType="float", codeSize="37 b", stackSize="0 b", work="76"];
node36 -> node39;
node40 [label="AnonFilter_a4_17580", push="64", pop="64", peek="64", pushType="int", popType="float", peekType="float", codeSize="37 b", stackSize="0 b", work="76"];
node36 -> node40;
node41 [label="AnonFilter_a4_17581", push="64", pop="64", peek="64", pushType="int", popType="float", peekType="float", codeSize="37 b", stackSize="0 b", work="76"];
node36 -> node41;
node42 [label="AnonFilter_a4_17582", push="64", pop="64", peek="64", pushType="int", popType="float", peekType="float", codeSize="37 b", stackSize="0 b", work="76"];
node36 -> node42;
node43 [label="AnonFilter_a4_17583", push="64", pop="64", peek="64", pushType="int", popType="float", peekType="float", codeSize="37 b", stackSize="0 b", work="76"];
node36 -> node43;
node44 [label="AnonFilter_a4_17584", push="64", pop="64", peek="64", pushType="int", popType="float", peekType="float", codeSize="37 b", stackSize="0 b", work="76"];
node36 -> node44;
node45 [label="AnonFilter_a4_17585", push="64", pop="64", peek="64", pushType="int", popType="float", peekType="float", codeSize="37 b", stackSize="0 b", work="76"];
node36 -> node45;
node46 [label="WEIGHTED_ROUND_ROBIN_Joiner_17576", push="576", pop="576", peek="0", pushType="int", popType="int", peekType="void", codeSize="114 b", stackSize="32 b", work="0"];
node37 -> node46;
node38 -> node46;
node39 -> node46;
node40 -> node46;
node41 -> node46;
node42 -> node46;
node43 -> node46;
node44 -> node46;
node45 -> node46;
node47 [label="WEIGHTED_ROUND_ROBIN_Splitter_17586", push="576", pop="576", peek="0", pushType="int", popType="int", peekType="void", codeSize="150 b", stackSize="288 b", work="0"];
node1 -> node47;
node48 [label="iDCT8x8_1D_row_fast_17588", push="72", pop="72", peek="72", pushType="int", popType="int", peekType="int", codeSize="356 b", stackSize="352 b", work="138"];
node47 -> node48;
node49 [label="iDCT8x8_1D_row_fast_17589", push="72", pop="72", peek="72", pushType="int", popType="int", peekType="int", codeSize="356 b", stackSize="352 b", work="138"];
node47 -> node49;
node50 [label="iDCT8x8_1D_row_fast_17590", push="72", pop="72", peek="72", pushType="int", popType="int", peekType="int", codeSize="356 b", stackSize="352 b", work="138"];
node47 -> node50;
node51 [label="iDCT8x8_1D_row_fast_17591", push="72", pop="72", peek="72", pushType="int", popType="int", peekType="int", codeSize="356 b", stackSize="352 b", work="138"];
node47 -> node51;
node52 [label="iDCT8x8_1D_row_fast_17592", push="72", pop="72", peek="72", pushType="int", popType="int", peekType="int", codeSize="356 b", stackSize="352 b", work="138"];
node47 -> node52;
node53 [label="iDCT8x8_1D_row_fast_17593", push="72", pop="72", peek="72", pushType="int", popType="int", peekType="int", codeSize="356 b", stackSize="352 b", work="138"];
node47 -> node53;
node54 [label="iDCT8x8_1D_row_fast_17594", push="72", pop="72", peek="72", pushType="int", popType="int", peekType="int", codeSize="356 b", stackSize="352 b", work="138"];
node47 -> node54;
node55 [label="iDCT8x8_1D_row_fast_17595", push="72", pop="72", peek="72", pushType="int", popType="int", peekType="int", codeSize="356 b", stackSize="352 b", work="138"];
node47 -> node55;
node56 [label="WEIGHTED_ROUND_ROBIN_Joiner_17587", push="576", pop="576", peek="0", pushType="int", popType="int", peekType="void", codeSize="150 b", stackSize="288 b", work="0"];
node48 -> node56;
node49 -> node56;
node50 -> node56;
node51 -> node56;
node52 -> node56;
node53 -> node56;
node54 -> node56;
node55 -> node56;
node57 [label="iDCT8x8_1D_col_fast_17488", push="576", pop="576", peek="576", pushType="int", popType="int", peekType="int", codeSize="546 b", stackSize="384 b", work="1576"];
node56 -> node57;
node58 [label="WEIGHTED_ROUND_ROBIN_Joiner_17537", push="1728", pop="1728", peek="0", pushType="int", popType="int", peekType="void", codeSize="42 b", stackSize="32 b", work="0"];
node2 -> node58;
node46 -> node58;
node57 -> node58;
node59 [label="AnonFilter_a2_17489", push="0", pop="1728", peek="1728", pushType="void", popType="int", peekType="int", codeSize="175 b", stackSize="160 b", work="73"];
node58 -> node59;
}
