digraph FilterBankNew_3258 {
node0 [label="source_2946", push="8", pop="0", peek="0", pushType="float", popType="void", peekType="void", codeSize="31 b", stackSize="0 b", work="13"];
node1 [label="DUPLICATE_Splitter_3006", push="8", pop="8", peek="0", pushType="float", popType="float", peekType="void", codeSize="60 b", stackSize="64 b", work="0"];
node0 -> node1;
node2 [label="WEIGHTED_ROUND_ROBIN_Splitter_3026", push="8", pop="8", peek="0", pushType="float", popType="float", peekType="void", codeSize="54 b", stackSize="32 b", work="0"];
node1 -> node2;
node3 [label="Delay_N_3028", push="2", pop="2", peek="2", pushType="float", popType="float", peekType="float", codeSize="12 b", stackSize="0 b", work="6"];
node2 -> node3;
node4 [label="Delay_N_3029", push="2", pop="2", peek="2", pushType="float", popType="float", peekType="float", codeSize="12 b", stackSize="0 b", work="6"];
node2 -> node4;
node5 [label="Delay_N_3030", push="2", pop="2", peek="2", pushType="float", popType="float", peekType="float", codeSize="12 b", stackSize="0 b", work="6"];
node2 -> node5;
node6 [label="Delay_N_3031", push="2", pop="2", peek="2", pushType="float", popType="float", peekType="float", codeSize="12 b", stackSize="0 b", work="6"];
node2 -> node6;
node7 [label="WEIGHTED_ROUND_ROBIN_Joiner_3027", push="8", pop="8", peek="0", pushType="float", popType="float", peekType="void", codeSize="54 b", stackSize="32 b", work="0"];
node3 -> node7;
node4 -> node7;
node5 -> node7;
node6 -> node7;
node8 [label="DUPLICATE_Splitter_3032", push="8", pop="8", peek="0", pushType="float", popType="float", peekType="void", codeSize="36 b", stackSize="64 b", work="0"];
node7 -> node8;
node9 [label="FirFilter_3034", push="2", pop="8", peek="64", pushType="float", popType="float", peekType="float", codeSize="636 b", stackSize="96 b", work="405"];
node8 -> node9;
node10 [label="FirFilter_3035", push="2", pop="8", peek="66", pushType="float", popType="float", peekType="float", codeSize="662 b", stackSize="96 b", work="403"];
node8 -> node10;
node11 [label="FirFilter_3036", push="2", pop="8", peek="68", pushType="float", popType="float", peekType="float", codeSize="682 b", stackSize="96 b", work="403"];
node8 -> node11;
node12 [label="FirFilter_3037", push="2", pop="8", peek="70", pushType="float", popType="float", peekType="float", codeSize="696 b", stackSize="96 b", work="405"];
node8 -> node12;
node13 [label="WEIGHTED_ROUND_ROBIN_Joiner_3033", push="8", pop="8", peek="0", pushType="float", popType="float", peekType="void", codeSize="54 b", stackSize="32 b", work="0"];
node9 -> node13;
node10 -> node13;
node11 -> node13;
node12 -> node13;
node14 [label="DownSamp_2951", push="1", pop="8", peek="8", pushType="float", popType="float", peekType="float", codeSize="28 b", stackSize="32 b", work="41"];
node13 -> node14;
node15 [label="UpSamp_2952", push="8", pop="1", peek="1", pushType="float", popType="float", peekType="float", codeSize="28 b", stackSize="32 b", work="41"];
node14 -> node15;
node16 [label="WEIGHTED_ROUND_ROBIN_Splitter_3038", push="8", pop="8", peek="0", pushType="float", popType="float", peekType="void", codeSize="54 b", stackSize="32 b", work="0"];
node15 -> node16;
node17 [label="Delay_N_3040", push="2", pop="2", peek="2", pushType="float", popType="float", peekType="float", codeSize="12 b", stackSize="0 b", work="6"];
node16 -> node17;
node18 [label="Delay_N_3041", push="2", pop="2", peek="2", pushType="float", popType="float", peekType="float", codeSize="12 b", stackSize="0 b", work="6"];
node16 -> node18;
node19 [label="Delay_N_3042", push="2", pop="2", peek="2", pushType="float", popType="float", peekType="float", codeSize="12 b", stackSize="0 b", work="6"];
node16 -> node19;
node20 [label="Delay_N_3043", push="2", pop="2", peek="2", pushType="float", popType="float", peekType="float", codeSize="12 b", stackSize="0 b", work="6"];
node16 -> node20;
node21 [label="WEIGHTED_ROUND_ROBIN_Joiner_3039", push="8", pop="8", peek="0", pushType="float", popType="float", peekType="void", codeSize="54 b", stackSize="32 b", work="0"];
node17 -> node21;
node18 -> node21;
node19 -> node21;
node20 -> node21;
node22 [label="DUPLICATE_Splitter_3044", push="8", pop="8", peek="0", pushType="float", popType="float", peekType="void", codeSize="36 b", stackSize="64 b", work="0"];
node21 -> node22;
node23 [label="FirFilter_3046", push="2", pop="8", peek="64", pushType="float", popType="float", peekType="float", codeSize="636 b", stackSize="96 b", work="405"];
node22 -> node23;
node24 [label="FirFilter_3047", push="2", pop="8", peek="66", pushType="float", popType="float", peekType="float", codeSize="662 b", stackSize="96 b", work="403"];
node22 -> node24;
node25 [label="FirFilter_3048", push="2", pop="8", peek="68", pushType="float", popType="float", peekType="float", codeSize="682 b", stackSize="96 b", work="403"];
node22 -> node25;
node26 [label="FirFilter_3049", push="2", pop="8", peek="70", pushType="float", popType="float", peekType="float", codeSize="696 b", stackSize="96 b", work="405"];
node22 -> node26;
node27 [label="WEIGHTED_ROUND_ROBIN_Joiner_3045", push="8", pop="8", peek="0", pushType="float", popType="float", peekType="void", codeSize="54 b", stackSize="32 b", work="0"];
node23 -> node27;
node24 -> node27;
node25 -> node27;
node26 -> node27;
node28 [label="WEIGHTED_ROUND_ROBIN_Splitter_3050", push="8", pop="8", peek="0", pushType="float", popType="float", peekType="void", codeSize="54 b", stackSize="32 b", work="0"];
node1 -> node28;
node29 [label="Delay_N_3052", push="2", pop="2", peek="2", pushType="float", popType="float", peekType="float", codeSize="12 b", stackSize="0 b", work="6"];
node28 -> node29;
node30 [label="Delay_N_3053", push="2", pop="2", peek="2", pushType="float", popType="float", peekType="float", codeSize="12 b", stackSize="0 b", work="6"];
node28 -> node30;
node31 [label="Delay_N_3054", push="2", pop="2", peek="2", pushType="float", popType="float", peekType="float", codeSize="12 b", stackSize="0 b", work="6"];
node28 -> node31;
node32 [label="Delay_N_3055", push="2", pop="2", peek="2", pushType="float", popType="float", peekType="float", codeSize="12 b", stackSize="0 b", work="6"];
node28 -> node32;
node33 [label="WEIGHTED_ROUND_ROBIN_Joiner_3051", push="8", pop="8", peek="0", pushType="float", popType="float", peekType="void", codeSize="54 b", stackSize="32 b", work="0"];
node29 -> node33;
node30 -> node33;
node31 -> node33;
node32 -> node33;
node34 [label="DUPLICATE_Splitter_3056", push="8", pop="8", peek="0", pushType="float", popType="float", peekType="void", codeSize="36 b", stackSize="64 b", work="0"];
node33 -> node34;
node35 [label="FirFilter_3058", push="2", pop="8", peek="64", pushType="float", popType="float", peekType="float", codeSize="636 b", stackSize="96 b", work="405"];
node34 -> node35;
node36 [label="FirFilter_3059", push="2", pop="8", peek="66", pushType="float", popType="float", peekType="float", codeSize="662 b", stackSize="96 b", work="403"];
node34 -> node36;
node37 [label="FirFilter_3060", push="2", pop="8", peek="68", pushType="float", popType="float", peekType="float", codeSize="682 b", stackSize="96 b", work="403"];
node34 -> node37;
node38 [label="FirFilter_3061", push="2", pop="8", peek="70", pushType="float", popType="float", peekType="float", codeSize="696 b", stackSize="96 b", work="405"];
node34 -> node38;
node39 [label="WEIGHTED_ROUND_ROBIN_Joiner_3057", push="8", pop="8", peek="0", pushType="float", popType="float", peekType="void", codeSize="54 b", stackSize="32 b", work="0"];
node35 -> node39;
node36 -> node39;
node37 -> node39;
node38 -> node39;
node40 [label="DownSamp_2958", push="1", pop="8", peek="8", pushType="float", popType="float", peekType="float", codeSize="28 b", stackSize="32 b", work="41"];
node39 -> node40;
node41 [label="UpSamp_2959", push="8", pop="1", peek="1", pushType="float", popType="float", peekType="float", codeSize="28 b", stackSize="32 b", work="41"];
node40 -> node41;
node42 [label="WEIGHTED_ROUND_ROBIN_Splitter_3062", push="8", pop="8", peek="0", pushType="float", popType="float", peekType="void", codeSize="54 b", stackSize="32 b", work="0"];
node41 -> node42;
node43 [label="Delay_N_3064", push="2", pop="2", peek="2", pushType="float", popType="float", peekType="float", codeSize="12 b", stackSize="0 b", work="6"];
node42 -> node43;
node44 [label="Delay_N_3065", push="2", pop="2", peek="2", pushType="float", popType="float", peekType="float", codeSize="12 b", stackSize="0 b", work="6"];
node42 -> node44;
node45 [label="Delay_N_3066", push="2", pop="2", peek="2", pushType="float", popType="float", peekType="float", codeSize="12 b", stackSize="0 b", work="6"];
node42 -> node45;
node46 [label="Delay_N_3067", push="2", pop="2", peek="2", pushType="float", popType="float", peekType="float", codeSize="12 b", stackSize="0 b", work="6"];
node42 -> node46;
node47 [label="WEIGHTED_ROUND_ROBIN_Joiner_3063", push="8", pop="8", peek="0", pushType="float", popType="float", peekType="void", codeSize="54 b", stackSize="32 b", work="0"];
node43 -> node47;
node44 -> node47;
node45 -> node47;
node46 -> node47;
node48 [label="DUPLICATE_Splitter_3068", push="8", pop="8", peek="0", pushType="float", popType="float", peekType="void", codeSize="36 b", stackSize="64 b", work="0"];
node47 -> node48;
node49 [label="FirFilter_3070", push="2", pop="8", peek="64", pushType="float", popType="float", peekType="float", codeSize="636 b", stackSize="96 b", work="405"];
node48 -> node49;
node50 [label="FirFilter_3071", push="2", pop="8", peek="66", pushType="float", popType="float", peekType="float", codeSize="662 b", stackSize="96 b", work="403"];
node48 -> node50;
node51 [label="FirFilter_3072", push="2", pop="8", peek="68", pushType="float", popType="float", peekType="float", codeSize="682 b", stackSize="96 b", work="403"];
node48 -> node51;
node52 [label="FirFilter_3073", push="2", pop="8", peek="70", pushType="float", popType="float", peekType="float", codeSize="696 b", stackSize="96 b", work="405"];
node48 -> node52;
node53 [label="WEIGHTED_ROUND_ROBIN_Joiner_3069", push="8", pop="8", peek="0", pushType="float", popType="float", peekType="void", codeSize="54 b", stackSize="32 b", work="0"];
node49 -> node53;
node50 -> node53;
node51 -> node53;
node52 -> node53;
node54 [label="WEIGHTED_ROUND_ROBIN_Splitter_3074", push="8", pop="8", peek="0", pushType="float", popType="float", peekType="void", codeSize="54 b", stackSize="32 b", work="0"];
node1 -> node54;
node55 [label="Delay_N_3076", push="2", pop="2", peek="2", pushType="float", popType="float", peekType="float", codeSize="12 b", stackSize="0 b", work="6"];
node54 -> node55;
node56 [label="Delay_N_3077", push="2", pop="2", peek="2", pushType="float", popType="float", peekType="float", codeSize="12 b", stackSize="0 b", work="6"];
node54 -> node56;
node57 [label="Delay_N_3078", push="2", pop="2", peek="2", pushType="float", popType="float", peekType="float", codeSize="12 b", stackSize="0 b", work="6"];
node54 -> node57;
node58 [label="Delay_N_3079", push="2", pop="2", peek="2", pushType="float", popType="float", peekType="float", codeSize="12 b", stackSize="0 b", work="6"];
node54 -> node58;
node59 [label="WEIGHTED_ROUND_ROBIN_Joiner_3075", push="8", pop="8", peek="0", pushType="float", popType="float", peekType="void", codeSize="54 b", stackSize="32 b", work="0"];
node55 -> node59;
node56 -> node59;
node57 -> node59;
node58 -> node59;
node60 [label="DUPLICATE_Splitter_3080", push="8", pop="8", peek="0", pushType="float", popType="float", peekType="void", codeSize="36 b", stackSize="64 b", work="0"];
node59 -> node60;
node61 [label="FirFilter_3082", push="2", pop="8", peek="64", pushType="float", popType="float", peekType="float", codeSize="636 b", stackSize="96 b", work="405"];
node60 -> node61;
node62 [label="FirFilter_3083", push="2", pop="8", peek="66", pushType="float", popType="float", peekType="float", codeSize="662 b", stackSize="96 b", work="403"];
node60 -> node62;
node63 [label="FirFilter_3084", push="2", pop="8", peek="68", pushType="float", popType="float", peekType="float", codeSize="682 b", stackSize="96 b", work="403"];
node60 -> node63;
node64 [label="FirFilter_3085", push="2", pop="8", peek="70", pushType="float", popType="float", peekType="float", codeSize="696 b", stackSize="96 b", work="405"];
node60 -> node64;
node65 [label="WEIGHTED_ROUND_ROBIN_Joiner_3081", push="8", pop="8", peek="0", pushType="float", popType="float", peekType="void", codeSize="54 b", stackSize="32 b", work="0"];
node61 -> node65;
node62 -> node65;
node63 -> node65;
node64 -> node65;
node66 [label="DownSamp_2965", push="1", pop="8", peek="8", pushType="float", popType="float", peekType="float", codeSize="28 b", stackSize="32 b", work="41"];
node65 -> node66;
node67 [label="UpSamp_2966", push="8", pop="1", peek="1", pushType="float", popType="float", peekType="float", codeSize="28 b", stackSize="32 b", work="41"];
node66 -> node67;
node68 [label="WEIGHTED_ROUND_ROBIN_Splitter_3086", push="8", pop="8", peek="0", pushType="float", popType="float", peekType="void", codeSize="54 b", stackSize="32 b", work="0"];
node67 -> node68;
node69 [label="Delay_N_3088", push="2", pop="2", peek="2", pushType="float", popType="float", peekType="float", codeSize="12 b", stackSize="0 b", work="6"];
node68 -> node69;
node70 [label="Delay_N_3089", push="2", pop="2", peek="2", pushType="float", popType="float", peekType="float", codeSize="12 b", stackSize="0 b", work="6"];
node68 -> node70;
node71 [label="Delay_N_3090", push="2", pop="2", peek="2", pushType="float", popType="float", peekType="float", codeSize="12 b", stackSize="0 b", work="6"];
node68 -> node71;
node72 [label="Delay_N_3091", push="2", pop="2", peek="2", pushType="float", popType="float", peekType="float", codeSize="12 b", stackSize="0 b", work="6"];
node68 -> node72;
node73 [label="WEIGHTED_ROUND_ROBIN_Joiner_3087", push="8", pop="8", peek="0", pushType="float", popType="float", peekType="void", codeSize="54 b", stackSize="32 b", work="0"];
node69 -> node73;
node70 -> node73;
node71 -> node73;
node72 -> node73;
node74 [label="DUPLICATE_Splitter_3092", push="8", pop="8", peek="0", pushType="float", popType="float", peekType="void", codeSize="36 b", stackSize="64 b", work="0"];
node73 -> node74;
node75 [label="FirFilter_3094", push="2", pop="8", peek="64", pushType="float", popType="float", peekType="float", codeSize="636 b", stackSize="96 b", work="405"];
node74 -> node75;
node76 [label="FirFilter_3095", push="2", pop="8", peek="66", pushType="float", popType="float", peekType="float", codeSize="662 b", stackSize="96 b", work="403"];
node74 -> node76;
node77 [label="FirFilter_3096", push="2", pop="8", peek="68", pushType="float", popType="float", peekType="float", codeSize="682 b", stackSize="96 b", work="403"];
node74 -> node77;
node78 [label="FirFilter_3097", push="2", pop="8", peek="70", pushType="float", popType="float", peekType="float", codeSize="696 b", stackSize="96 b", work="405"];
node74 -> node78;
node79 [label="WEIGHTED_ROUND_ROBIN_Joiner_3093", push="8", pop="8", peek="0", pushType="float", popType="float", peekType="void", codeSize="54 b", stackSize="32 b", work="0"];
node75 -> node79;
node76 -> node79;
node77 -> node79;
node78 -> node79;
node80 [label="WEIGHTED_ROUND_ROBIN_Splitter_3098", push="8", pop="8", peek="0", pushType="float", popType="float", peekType="void", codeSize="54 b", stackSize="32 b", work="0"];
node1 -> node80;
node81 [label="Delay_N_3100", push="2", pop="2", peek="2", pushType="float", popType="float", peekType="float", codeSize="12 b", stackSize="0 b", work="6"];
node80 -> node81;
node82 [label="Delay_N_3101", push="2", pop="2", peek="2", pushType="float", popType="float", peekType="float", codeSize="12 b", stackSize="0 b", work="6"];
node80 -> node82;
node83 [label="Delay_N_3102", push="2", pop="2", peek="2", pushType="float", popType="float", peekType="float", codeSize="12 b", stackSize="0 b", work="6"];
node80 -> node83;
node84 [label="Delay_N_3103", push="2", pop="2", peek="2", pushType="float", popType="float", peekType="float", codeSize="12 b", stackSize="0 b", work="6"];
node80 -> node84;
node85 [label="WEIGHTED_ROUND_ROBIN_Joiner_3099", push="8", pop="8", peek="0", pushType="float", popType="float", peekType="void", codeSize="54 b", stackSize="32 b", work="0"];
node81 -> node85;
node82 -> node85;
node83 -> node85;
node84 -> node85;
node86 [label="DUPLICATE_Splitter_3104", push="8", pop="8", peek="0", pushType="float", popType="float", peekType="void", codeSize="36 b", stackSize="64 b", work="0"];
node85 -> node86;
node87 [label="FirFilter_3106", push="2", pop="8", peek="64", pushType="float", popType="float", peekType="float", codeSize="636 b", stackSize="96 b", work="405"];
node86 -> node87;
node88 [label="FirFilter_3107", push="2", pop="8", peek="66", pushType="float", popType="float", peekType="float", codeSize="662 b", stackSize="96 b", work="403"];
node86 -> node88;
node89 [label="FirFilter_3108", push="2", pop="8", peek="68", pushType="float", popType="float", peekType="float", codeSize="682 b", stackSize="96 b", work="403"];
node86 -> node89;
node90 [label="FirFilter_3109", push="2", pop="8", peek="70", pushType="float", popType="float", peekType="float", codeSize="696 b", stackSize="96 b", work="405"];
node86 -> node90;
node91 [label="WEIGHTED_ROUND_ROBIN_Joiner_3105", push="8", pop="8", peek="0", pushType="float", popType="float", peekType="void", codeSize="54 b", stackSize="32 b", work="0"];
node87 -> node91;
node88 -> node91;
node89 -> node91;
node90 -> node91;
node92 [label="DownSamp_2972", push="1", pop="8", peek="8", pushType="float", popType="float", peekType="float", codeSize="28 b", stackSize="32 b", work="41"];
node91 -> node92;
node93 [label="UpSamp_2973", push="8", pop="1", peek="1", pushType="float", popType="float", peekType="float", codeSize="28 b", stackSize="32 b", work="41"];
node92 -> node93;
node94 [label="WEIGHTED_ROUND_ROBIN_Splitter_3110", push="8", pop="8", peek="0", pushType="float", popType="float", peekType="void", codeSize="54 b", stackSize="32 b", work="0"];
node93 -> node94;
node95 [label="Delay_N_3112", push="2", pop="2", peek="2", pushType="float", popType="float", peekType="float", codeSize="12 b", stackSize="0 b", work="6"];
node94 -> node95;
node96 [label="Delay_N_3113", push="2", pop="2", peek="2", pushType="float", popType="float", peekType="float", codeSize="12 b", stackSize="0 b", work="6"];
node94 -> node96;
node97 [label="Delay_N_3114", push="2", pop="2", peek="2", pushType="float", popType="float", peekType="float", codeSize="12 b", stackSize="0 b", work="6"];
node94 -> node97;
node98 [label="Delay_N_3115", push="2", pop="2", peek="2", pushType="float", popType="float", peekType="float", codeSize="12 b", stackSize="0 b", work="6"];
node94 -> node98;
node99 [label="WEIGHTED_ROUND_ROBIN_Joiner_3111", push="8", pop="8", peek="0", pushType="float", popType="float", peekType="void", codeSize="54 b", stackSize="32 b", work="0"];
node95 -> node99;
node96 -> node99;
node97 -> node99;
node98 -> node99;
node100 [label="DUPLICATE_Splitter_3116", push="8", pop="8", peek="0", pushType="float", popType="float", peekType="void", codeSize="36 b", stackSize="64 b", work="0"];
node99 -> node100;
node101 [label="FirFilter_3118", push="2", pop="8", peek="64", pushType="float", popType="float", peekType="float", codeSize="636 b", stackSize="96 b", work="405"];
node100 -> node101;
node102 [label="FirFilter_3119", push="2", pop="8", peek="66", pushType="float", popType="float", peekType="float", codeSize="662 b", stackSize="96 b", work="403"];
node100 -> node102;
node103 [label="FirFilter_3120", push="2", pop="8", peek="68", pushType="float", popType="float", peekType="float", codeSize="682 b", stackSize="96 b", work="403"];
node100 -> node103;
node104 [label="FirFilter_3121", push="2", pop="8", peek="70", pushType="float", popType="float", peekType="float", codeSize="696 b", stackSize="96 b", work="405"];
node100 -> node104;
node105 [label="WEIGHTED_ROUND_ROBIN_Joiner_3117", push="8", pop="8", peek="0", pushType="float", popType="float", peekType="void", codeSize="54 b", stackSize="32 b", work="0"];
node101 -> node105;
node102 -> node105;
node103 -> node105;
node104 -> node105;
node106 [label="WEIGHTED_ROUND_ROBIN_Splitter_3122", push="8", pop="8", peek="0", pushType="float", popType="float", peekType="void", codeSize="54 b", stackSize="32 b", work="0"];
node1 -> node106;
node107 [label="Delay_N_3124", push="2", pop="2", peek="2", pushType="float", popType="float", peekType="float", codeSize="12 b", stackSize="0 b", work="6"];
node106 -> node107;
node108 [label="Delay_N_3125", push="2", pop="2", peek="2", pushType="float", popType="float", peekType="float", codeSize="12 b", stackSize="0 b", work="6"];
node106 -> node108;
node109 [label="Delay_N_3126", push="2", pop="2", peek="2", pushType="float", popType="float", peekType="float", codeSize="12 b", stackSize="0 b", work="6"];
node106 -> node109;
node110 [label="Delay_N_3127", push="2", pop="2", peek="2", pushType="float", popType="float", peekType="float", codeSize="12 b", stackSize="0 b", work="6"];
node106 -> node110;
node111 [label="WEIGHTED_ROUND_ROBIN_Joiner_3123", push="8", pop="8", peek="0", pushType="float", popType="float", peekType="void", codeSize="54 b", stackSize="32 b", work="0"];
node107 -> node111;
node108 -> node111;
node109 -> node111;
node110 -> node111;
node112 [label="DUPLICATE_Splitter_3128", push="8", pop="8", peek="0", pushType="float", popType="float", peekType="void", codeSize="36 b", stackSize="64 b", work="0"];
node111 -> node112;
node113 [label="FirFilter_3130", push="2", pop="8", peek="64", pushType="float", popType="float", peekType="float", codeSize="636 b", stackSize="96 b", work="405"];
node112 -> node113;
node114 [label="FirFilter_3131", push="2", pop="8", peek="66", pushType="float", popType="float", peekType="float", codeSize="662 b", stackSize="96 b", work="403"];
node112 -> node114;
node115 [label="FirFilter_3132", push="2", pop="8", peek="68", pushType="float", popType="float", peekType="float", codeSize="682 b", stackSize="96 b", work="403"];
node112 -> node115;
node116 [label="FirFilter_3133", push="2", pop="8", peek="70", pushType="float", popType="float", peekType="float", codeSize="696 b", stackSize="96 b", work="405"];
node112 -> node116;
node117 [label="WEIGHTED_ROUND_ROBIN_Joiner_3129", push="8", pop="8", peek="0", pushType="float", popType="float", peekType="void", codeSize="54 b", stackSize="32 b", work="0"];
node113 -> node117;
node114 -> node117;
node115 -> node117;
node116 -> node117;
node118 [label="DownSamp_2979", push="1", pop="8", peek="8", pushType="float", popType="float", peekType="float", codeSize="28 b", stackSize="32 b", work="41"];
node117 -> node118;
node119 [label="UpSamp_2980", push="8", pop="1", peek="1", pushType="float", popType="float", peekType="float", codeSize="28 b", stackSize="32 b", work="41"];
node118 -> node119;
node120 [label="WEIGHTED_ROUND_ROBIN_Splitter_3134", push="8", pop="8", peek="0", pushType="float", popType="float", peekType="void", codeSize="54 b", stackSize="32 b", work="0"];
node119 -> node120;
node121 [label="Delay_N_3136", push="2", pop="2", peek="2", pushType="float", popType="float", peekType="float", codeSize="12 b", stackSize="0 b", work="6"];
node120 -> node121;
node122 [label="Delay_N_3137", push="2", pop="2", peek="2", pushType="float", popType="float", peekType="float", codeSize="12 b", stackSize="0 b", work="6"];
node120 -> node122;
node123 [label="Delay_N_3138", push="2", pop="2", peek="2", pushType="float", popType="float", peekType="float", codeSize="12 b", stackSize="0 b", work="6"];
node120 -> node123;
node124 [label="Delay_N_3139", push="2", pop="2", peek="2", pushType="float", popType="float", peekType="float", codeSize="12 b", stackSize="0 b", work="6"];
node120 -> node124;
node125 [label="WEIGHTED_ROUND_ROBIN_Joiner_3135", push="8", pop="8", peek="0", pushType="float", popType="float", peekType="void", codeSize="54 b", stackSize="32 b", work="0"];
node121 -> node125;
node122 -> node125;
node123 -> node125;
node124 -> node125;
node126 [label="DUPLICATE_Splitter_3140", push="8", pop="8", peek="0", pushType="float", popType="float", peekType="void", codeSize="36 b", stackSize="64 b", work="0"];
node125 -> node126;
node127 [label="FirFilter_3142", push="2", pop="8", peek="64", pushType="float", popType="float", peekType="float", codeSize="636 b", stackSize="96 b", work="405"];
node126 -> node127;
node128 [label="FirFilter_3143", push="2", pop="8", peek="66", pushType="float", popType="float", peekType="float", codeSize="662 b", stackSize="96 b", work="403"];
node126 -> node128;
node129 [label="FirFilter_3144", push="2", pop="8", peek="68", pushType="float", popType="float", peekType="float", codeSize="682 b", stackSize="96 b", work="403"];
node126 -> node129;
node130 [label="FirFilter_3145", push="2", pop="8", peek="70", pushType="float", popType="float", peekType="float", codeSize="696 b", stackSize="96 b", work="405"];
node126 -> node130;
node131 [label="WEIGHTED_ROUND_ROBIN_Joiner_3141", push="8", pop="8", peek="0", pushType="float", popType="float", peekType="void", codeSize="54 b", stackSize="32 b", work="0"];
node127 -> node131;
node128 -> node131;
node129 -> node131;
node130 -> node131;
node132 [label="WEIGHTED_ROUND_ROBIN_Splitter_3146", push="8", pop="8", peek="0", pushType="float", popType="float", peekType="void", codeSize="54 b", stackSize="32 b", work="0"];
node1 -> node132;
node133 [label="Delay_N_3148", push="2", pop="2", peek="2", pushType="float", popType="float", peekType="float", codeSize="12 b", stackSize="0 b", work="6"];
node132 -> node133;
node134 [label="Delay_N_3149", push="2", pop="2", peek="2", pushType="float", popType="float", peekType="float", codeSize="12 b", stackSize="0 b", work="6"];
node132 -> node134;
node135 [label="Delay_N_3150", push="2", pop="2", peek="2", pushType="float", popType="float", peekType="float", codeSize="12 b", stackSize="0 b", work="6"];
node132 -> node135;
node136 [label="Delay_N_3151", push="2", pop="2", peek="2", pushType="float", popType="float", peekType="float", codeSize="12 b", stackSize="0 b", work="6"];
node132 -> node136;
node137 [label="WEIGHTED_ROUND_ROBIN_Joiner_3147", push="8", pop="8", peek="0", pushType="float", popType="float", peekType="void", codeSize="54 b", stackSize="32 b", work="0"];
node133 -> node137;
node134 -> node137;
node135 -> node137;
node136 -> node137;
node138 [label="DUPLICATE_Splitter_3152", push="8", pop="8", peek="0", pushType="float", popType="float", peekType="void", codeSize="36 b", stackSize="64 b", work="0"];
node137 -> node138;
node139 [label="FirFilter_3154", push="2", pop="8", peek="64", pushType="float", popType="float", peekType="float", codeSize="636 b", stackSize="96 b", work="405"];
node138 -> node139;
node140 [label="FirFilter_3155", push="2", pop="8", peek="66", pushType="float", popType="float", peekType="float", codeSize="662 b", stackSize="96 b", work="403"];
node138 -> node140;
node141 [label="FirFilter_3156", push="2", pop="8", peek="68", pushType="float", popType="float", peekType="float", codeSize="682 b", stackSize="96 b", work="403"];
node138 -> node141;
node142 [label="FirFilter_3157", push="2", pop="8", peek="70", pushType="float", popType="float", peekType="float", codeSize="696 b", stackSize="96 b", work="405"];
node138 -> node142;
node143 [label="WEIGHTED_ROUND_ROBIN_Joiner_3153", push="8", pop="8", peek="0", pushType="float", popType="float", peekType="void", codeSize="54 b", stackSize="32 b", work="0"];
node139 -> node143;
node140 -> node143;
node141 -> node143;
node142 -> node143;
node144 [label="DownSamp_2986", push="1", pop="8", peek="8", pushType="float", popType="float", peekType="float", codeSize="28 b", stackSize="32 b", work="41"];
node143 -> node144;
node145 [label="UpSamp_2987", push="8", pop="1", peek="1", pushType="float", popType="float", peekType="float", codeSize="28 b", stackSize="32 b", work="41"];
node144 -> node145;
node146 [label="WEIGHTED_ROUND_ROBIN_Splitter_3158", push="8", pop="8", peek="0", pushType="float", popType="float", peekType="void", codeSize="54 b", stackSize="32 b", work="0"];
node145 -> node146;
node147 [label="Delay_N_3160", push="2", pop="2", peek="2", pushType="float", popType="float", peekType="float", codeSize="12 b", stackSize="0 b", work="6"];
node146 -> node147;
node148 [label="Delay_N_3161", push="2", pop="2", peek="2", pushType="float", popType="float", peekType="float", codeSize="12 b", stackSize="0 b", work="6"];
node146 -> node148;
node149 [label="Delay_N_3162", push="2", pop="2", peek="2", pushType="float", popType="float", peekType="float", codeSize="12 b", stackSize="0 b", work="6"];
node146 -> node149;
node150 [label="Delay_N_3163", push="2", pop="2", peek="2", pushType="float", popType="float", peekType="float", codeSize="12 b", stackSize="0 b", work="6"];
node146 -> node150;
node151 [label="WEIGHTED_ROUND_ROBIN_Joiner_3159", push="8", pop="8", peek="0", pushType="float", popType="float", peekType="void", codeSize="54 b", stackSize="32 b", work="0"];
node147 -> node151;
node148 -> node151;
node149 -> node151;
node150 -> node151;
node152 [label="DUPLICATE_Splitter_3164", push="8", pop="8", peek="0", pushType="float", popType="float", peekType="void", codeSize="36 b", stackSize="64 b", work="0"];
node151 -> node152;
node153 [label="FirFilter_3166", push="2", pop="8", peek="64", pushType="float", popType="float", peekType="float", codeSize="636 b", stackSize="96 b", work="405"];
node152 -> node153;
node154 [label="FirFilter_3167", push="2", pop="8", peek="66", pushType="float", popType="float", peekType="float", codeSize="662 b", stackSize="96 b", work="403"];
node152 -> node154;
node155 [label="FirFilter_3168", push="2", pop="8", peek="68", pushType="float", popType="float", peekType="float", codeSize="682 b", stackSize="96 b", work="403"];
node152 -> node155;
node156 [label="FirFilter_3169", push="2", pop="8", peek="70", pushType="float", popType="float", peekType="float", codeSize="696 b", stackSize="96 b", work="405"];
node152 -> node156;
node157 [label="WEIGHTED_ROUND_ROBIN_Joiner_3165", push="8", pop="8", peek="0", pushType="float", popType="float", peekType="void", codeSize="54 b", stackSize="32 b", work="0"];
node153 -> node157;
node154 -> node157;
node155 -> node157;
node156 -> node157;
node158 [label="WEIGHTED_ROUND_ROBIN_Splitter_3170", push="8", pop="8", peek="0", pushType="float", popType="float", peekType="void", codeSize="54 b", stackSize="32 b", work="0"];
node1 -> node158;
node159 [label="Delay_N_3172", push="2", pop="2", peek="2", pushType="float", popType="float", peekType="float", codeSize="12 b", stackSize="0 b", work="6"];
node158 -> node159;
node160 [label="Delay_N_3173", push="2", pop="2", peek="2", pushType="float", popType="float", peekType="float", codeSize="12 b", stackSize="0 b", work="6"];
node158 -> node160;
node161 [label="Delay_N_3174", push="2", pop="2", peek="2", pushType="float", popType="float", peekType="float", codeSize="12 b", stackSize="0 b", work="6"];
node158 -> node161;
node162 [label="Delay_N_3175", push="2", pop="2", peek="2", pushType="float", popType="float", peekType="float", codeSize="12 b", stackSize="0 b", work="6"];
node158 -> node162;
node163 [label="WEIGHTED_ROUND_ROBIN_Joiner_3171", push="8", pop="8", peek="0", pushType="float", popType="float", peekType="void", codeSize="54 b", stackSize="32 b", work="0"];
node159 -> node163;
node160 -> node163;
node161 -> node163;
node162 -> node163;
node164 [label="DUPLICATE_Splitter_3176", push="8", pop="8", peek="0", pushType="float", popType="float", peekType="void", codeSize="36 b", stackSize="64 b", work="0"];
node163 -> node164;
node165 [label="FirFilter_3178", push="2", pop="8", peek="64", pushType="float", popType="float", peekType="float", codeSize="636 b", stackSize="96 b", work="405"];
node164 -> node165;
node166 [label="FirFilter_3179", push="2", pop="8", peek="66", pushType="float", popType="float", peekType="float", codeSize="662 b", stackSize="96 b", work="403"];
node164 -> node166;
node167 [label="FirFilter_3180", push="2", pop="8", peek="68", pushType="float", popType="float", peekType="float", codeSize="682 b", stackSize="96 b", work="403"];
node164 -> node167;
node168 [label="FirFilter_3181", push="2", pop="8", peek="70", pushType="float", popType="float", peekType="float", codeSize="696 b", stackSize="96 b", work="405"];
node164 -> node168;
node169 [label="WEIGHTED_ROUND_ROBIN_Joiner_3177", push="8", pop="8", peek="0", pushType="float", popType="float", peekType="void", codeSize="54 b", stackSize="32 b", work="0"];
node165 -> node169;
node166 -> node169;
node167 -> node169;
node168 -> node169;
node170 [label="DownSamp_2993", push="1", pop="8", peek="8", pushType="float", popType="float", peekType="float", codeSize="28 b", stackSize="32 b", work="41"];
node169 -> node170;
node171 [label="UpSamp_2994", push="8", pop="1", peek="1", pushType="float", popType="float", peekType="float", codeSize="28 b", stackSize="32 b", work="41"];
node170 -> node171;
node172 [label="WEIGHTED_ROUND_ROBIN_Splitter_3182", push="8", pop="8", peek="0", pushType="float", popType="float", peekType="void", codeSize="54 b", stackSize="32 b", work="0"];
node171 -> node172;
node173 [label="Delay_N_3184", push="2", pop="2", peek="2", pushType="float", popType="float", peekType="float", codeSize="12 b", stackSize="0 b", work="6"];
node172 -> node173;
node174 [label="Delay_N_3185", push="2", pop="2", peek="2", pushType="float", popType="float", peekType="float", codeSize="12 b", stackSize="0 b", work="6"];
node172 -> node174;
node175 [label="Delay_N_3186", push="2", pop="2", peek="2", pushType="float", popType="float", peekType="float", codeSize="12 b", stackSize="0 b", work="6"];
node172 -> node175;
node176 [label="Delay_N_3187", push="2", pop="2", peek="2", pushType="float", popType="float", peekType="float", codeSize="12 b", stackSize="0 b", work="6"];
node172 -> node176;
node177 [label="WEIGHTED_ROUND_ROBIN_Joiner_3183", push="8", pop="8", peek="0", pushType="float", popType="float", peekType="void", codeSize="54 b", stackSize="32 b", work="0"];
node173 -> node177;
node174 -> node177;
node175 -> node177;
node176 -> node177;
node178 [label="DUPLICATE_Splitter_3188", push="8", pop="8", peek="0", pushType="float", popType="float", peekType="void", codeSize="36 b", stackSize="64 b", work="0"];
node177 -> node178;
node179 [label="FirFilter_3190", push="2", pop="8", peek="64", pushType="float", popType="float", peekType="float", codeSize="636 b", stackSize="96 b", work="405"];
node178 -> node179;
node180 [label="FirFilter_3191", push="2", pop="8", peek="66", pushType="float", popType="float", peekType="float", codeSize="662 b", stackSize="96 b", work="403"];
node178 -> node180;
node181 [label="FirFilter_3192", push="2", pop="8", peek="68", pushType="float", popType="float", peekType="float", codeSize="682 b", stackSize="96 b", work="403"];
node178 -> node181;
node182 [label="FirFilter_3193", push="2", pop="8", peek="70", pushType="float", popType="float", peekType="float", codeSize="696 b", stackSize="96 b", work="405"];
node178 -> node182;
node183 [label="WEIGHTED_ROUND_ROBIN_Joiner_3189", push="8", pop="8", peek="0", pushType="float", popType="float", peekType="void", codeSize="54 b", stackSize="32 b", work="0"];
node179 -> node183;
node180 -> node183;
node181 -> node183;
node182 -> node183;
node184 [label="WEIGHTED_ROUND_ROBIN_Splitter_3194", push="8", pop="8", peek="0", pushType="float", popType="float", peekType="void", codeSize="54 b", stackSize="32 b", work="0"];
node1 -> node184;
node185 [label="Delay_N_3196", push="2", pop="2", peek="2", pushType="float", popType="float", peekType="float", codeSize="12 b", stackSize="0 b", work="6"];
node184 -> node185;
node186 [label="Delay_N_3197", push="2", pop="2", peek="2", pushType="float", popType="float", peekType="float", codeSize="12 b", stackSize="0 b", work="6"];
node184 -> node186;
node187 [label="Delay_N_3198", push="2", pop="2", peek="2", pushType="float", popType="float", peekType="float", codeSize="12 b", stackSize="0 b", work="6"];
node184 -> node187;
node188 [label="Delay_N_3199", push="2", pop="2", peek="2", pushType="float", popType="float", peekType="float", codeSize="12 b", stackSize="0 b", work="6"];
node184 -> node188;
node189 [label="WEIGHTED_ROUND_ROBIN_Joiner_3195", push="8", pop="8", peek="0", pushType="float", popType="float", peekType="void", codeSize="54 b", stackSize="32 b", work="0"];
node185 -> node189;
node186 -> node189;
node187 -> node189;
node188 -> node189;
node190 [label="DUPLICATE_Splitter_3200", push="8", pop="8", peek="0", pushType="float", popType="float", peekType="void", codeSize="36 b", stackSize="64 b", work="0"];
node189 -> node190;
node191 [label="FirFilter_3202", push="2", pop="8", peek="64", pushType="float", popType="float", peekType="float", codeSize="636 b", stackSize="96 b", work="405"];
node190 -> node191;
node192 [label="FirFilter_3203", push="2", pop="8", peek="66", pushType="float", popType="float", peekType="float", codeSize="662 b", stackSize="96 b", work="403"];
node190 -> node192;
node193 [label="FirFilter_3204", push="2", pop="8", peek="68", pushType="float", popType="float", peekType="float", codeSize="682 b", stackSize="96 b", work="403"];
node190 -> node193;
node194 [label="FirFilter_3205", push="2", pop="8", peek="70", pushType="float", popType="float", peekType="float", codeSize="696 b", stackSize="96 b", work="405"];
node190 -> node194;
node195 [label="WEIGHTED_ROUND_ROBIN_Joiner_3201", push="8", pop="8", peek="0", pushType="float", popType="float", peekType="void", codeSize="54 b", stackSize="32 b", work="0"];
node191 -> node195;
node192 -> node195;
node193 -> node195;
node194 -> node195;
node196 [label="DownSamp_3000", push="1", pop="8", peek="8", pushType="float", popType="float", peekType="float", codeSize="28 b", stackSize="32 b", work="41"];
node195 -> node196;
node197 [label="UpSamp_3001", push="8", pop="1", peek="1", pushType="float", popType="float", peekType="float", codeSize="28 b", stackSize="32 b", work="41"];
node196 -> node197;
node198 [label="WEIGHTED_ROUND_ROBIN_Splitter_3206", push="8", pop="8", peek="0", pushType="float", popType="float", peekType="void", codeSize="54 b", stackSize="32 b", work="0"];
node197 -> node198;
node199 [label="Delay_N_3208", push="2", pop="2", peek="2", pushType="float", popType="float", peekType="float", codeSize="12 b", stackSize="0 b", work="6"];
node198 -> node199;
node200 [label="Delay_N_3209", push="2", pop="2", peek="2", pushType="float", popType="float", peekType="float", codeSize="12 b", stackSize="0 b", work="6"];
node198 -> node200;
node201 [label="Delay_N_3210", push="2", pop="2", peek="2", pushType="float", popType="float", peekType="float", codeSize="12 b", stackSize="0 b", work="6"];
node198 -> node201;
node202 [label="Delay_N_3211", push="2", pop="2", peek="2", pushType="float", popType="float", peekType="float", codeSize="12 b", stackSize="0 b", work="6"];
node198 -> node202;
node203 [label="WEIGHTED_ROUND_ROBIN_Joiner_3207", push="8", pop="8", peek="0", pushType="float", popType="float", peekType="void", codeSize="54 b", stackSize="32 b", work="0"];
node199 -> node203;
node200 -> node203;
node201 -> node203;
node202 -> node203;
node204 [label="DUPLICATE_Splitter_3212", push="8", pop="8", peek="0", pushType="float", popType="float", peekType="void", codeSize="36 b", stackSize="64 b", work="0"];
node203 -> node204;
node205 [label="FirFilter_3214", push="2", pop="8", peek="64", pushType="float", popType="float", peekType="float", codeSize="636 b", stackSize="96 b", work="405"];
node204 -> node205;
node206 [label="FirFilter_3215", push="2", pop="8", peek="66", pushType="float", popType="float", peekType="float", codeSize="662 b", stackSize="96 b", work="403"];
node204 -> node206;
node207 [label="FirFilter_3216", push="2", pop="8", peek="68", pushType="float", popType="float", peekType="float", codeSize="682 b", stackSize="96 b", work="403"];
node204 -> node207;
node208 [label="FirFilter_3217", push="2", pop="8", peek="70", pushType="float", popType="float", peekType="float", codeSize="696 b", stackSize="96 b", work="405"];
node204 -> node208;
node209 [label="WEIGHTED_ROUND_ROBIN_Joiner_3213", push="8", pop="8", peek="0", pushType="float", popType="float", peekType="void", codeSize="54 b", stackSize="32 b", work="0"];
node205 -> node209;
node206 -> node209;
node207 -> node209;
node208 -> node209;
node210 [label="WEIGHTED_ROUND_ROBIN_Joiner_3007", push="64", pop="64", peek="0", pushType="float", popType="float", peekType="void", codeSize="102 b", stackSize="32 b", work="0"];
node27 -> node210;
node53 -> node210;
node79 -> node210;
node105 -> node210;
node131 -> node210;
node157 -> node210;
node183 -> node210;
node209 -> node210;
node211 [label="WEIGHTED_ROUND_ROBIN_Splitter_3218", push="64", pop="64", peek="0", pushType="float", popType="float", peekType="void", codeSize="78 b", stackSize="160 b", work="0"];
node210 -> node211;
node212 [label="Combine_3220", push="2", pop="16", peek="16", pushType="float", popType="float", peekType="float", codeSize="27 b", stackSize="64 b", work="59"];
node211 -> node212;
node213 [label="Combine_3221", push="2", pop="16", peek="16", pushType="float", popType="float", peekType="float", codeSize="27 b", stackSize="64 b", work="59"];
node211 -> node213;
node214 [label="Combine_3222", push="2", pop="16", peek="16", pushType="float", popType="float", peekType="float", codeSize="27 b", stackSize="64 b", work="59"];
node211 -> node214;
node215 [label="Combine_3223", push="2", pop="16", peek="16", pushType="float", popType="float", peekType="float", codeSize="27 b", stackSize="64 b", work="59"];
node211 -> node215;
node216 [label="WEIGHTED_ROUND_ROBIN_Joiner_3219", push="8", pop="8", peek="0", pushType="float", popType="float", peekType="void", codeSize="54 b", stackSize="32 b", work="0"];
node212 -> node216;
node213 -> node216;
node214 -> node216;
node215 -> node216;
node217 [label="sink_3005", push="0", pop="8", peek="8", pushType="void", popType="float", peekType="float", codeSize="16 b", stackSize="0 b", work="6"];
node216 -> node217;
}
