digraph FFT6_3161 {
node0 [label="FFTTestSource_3041", push="1216", pop="0", peek="0", pushType="complex", popType="void", peekType="void", codeSize="44 b", stackSize="1056 b", work="324"];
node1 [label="FFTReorderSimple_3042", push="1216", pop="1216", peek="1216", pushType="complex", popType="complex", peekType="complex", codeSize="68 b", stackSize="1056 b", work="832"];
node0 -> node1;
node2 [label="WEIGHTED_ROUND_ROBIN_Splitter_3055", push="1216", pop="1216", peek="0", pushType="complex", popType="complex", peekType="void", codeSize="42 b", stackSize="96 b", work="0"];
node1 -> node2;
node3 [label="FFTReorderSimple_3057", push="608", pop="608", peek="608", pushType="complex", popType="complex", peekType="complex", codeSize="68 b", stackSize="1056 b", work="416"];
node2 -> node3;
node4 [label="FFTReorderSimple_3058", push="608", pop="608", peek="608", pushType="complex", popType="complex", peekType="complex", codeSize="68 b", stackSize="1056 b", work="416"];
node2 -> node4;
node5 [label="WEIGHTED_ROUND_ROBIN_Joiner_3056", push="1216", pop="1216", peek="0", pushType="complex", popType="complex", peekType="void", codeSize="42 b", stackSize="96 b", work="0"];
node3 -> node5;
node4 -> node5;
node6 [label="WEIGHTED_ROUND_ROBIN_Splitter_3059", push="1216", pop="1216", peek="0", pushType="complex", popType="complex", peekType="void", codeSize="78 b", stackSize="160 b", work="0"];
node5 -> node6;
node7 [label="FFTReorderSimple_3061", push="304", pop="304", peek="304", pushType="complex", popType="complex", peekType="complex", codeSize="68 b", stackSize="1056 b", work="208"];
node6 -> node7;
node8 [label="FFTReorderSimple_3062", push="304", pop="304", peek="304", pushType="complex", popType="complex", peekType="complex", codeSize="68 b", stackSize="1056 b", work="208"];
node6 -> node8;
node9 [label="FFTReorderSimple_3063", push="304", pop="304", peek="304", pushType="complex", popType="complex", peekType="complex", codeSize="68 b", stackSize="1056 b", work="208"];
node6 -> node9;
node10 [label="FFTReorderSimple_3064", push="304", pop="304", peek="304", pushType="complex", popType="complex", peekType="complex", codeSize="68 b", stackSize="1056 b", work="208"];
node6 -> node10;
node11 [label="WEIGHTED_ROUND_ROBIN_Joiner_3060", push="1216", pop="1216", peek="0", pushType="complex", popType="complex", peekType="void", codeSize="78 b", stackSize="160 b", work="0"];
node7 -> node11;
node8 -> node11;
node9 -> node11;
node10 -> node11;
node12 [label="WEIGHTED_ROUND_ROBIN_Splitter_3065", push="1216", pop="1216", peek="0", pushType="complex", popType="complex", peekType="void", codeSize="150 b", stackSize="288 b", work="0"];
node11 -> node12;
node13 [label="FFTReorderSimple_3067", push="152", pop="152", peek="152", pushType="complex", popType="complex", peekType="complex", codeSize="68 b", stackSize="1056 b", work="104"];
node12 -> node13;
node14 [label="FFTReorderSimple_3068", push="152", pop="152", peek="152", pushType="complex", popType="complex", peekType="complex", codeSize="68 b", stackSize="1056 b", work="104"];
node12 -> node14;
node15 [label="FFTReorderSimple_3069", push="152", pop="152", peek="152", pushType="complex", popType="complex", peekType="complex", codeSize="68 b", stackSize="1056 b", work="104"];
node12 -> node15;
node16 [label="FFTReorderSimple_3070", push="152", pop="152", peek="152", pushType="complex", popType="complex", peekType="complex", codeSize="68 b", stackSize="1056 b", work="104"];
node12 -> node16;
node17 [label="FFTReorderSimple_3071", push="152", pop="152", peek="152", pushType="complex", popType="complex", peekType="complex", codeSize="68 b", stackSize="1056 b", work="104"];
node12 -> node17;
node18 [label="FFTReorderSimple_3072", push="152", pop="152", peek="152", pushType="complex", popType="complex", peekType="complex", codeSize="68 b", stackSize="1056 b", work="104"];
node12 -> node18;
node19 [label="FFTReorderSimple_3073", push="152", pop="152", peek="152", pushType="complex", popType="complex", peekType="complex", codeSize="68 b", stackSize="1056 b", work="104"];
node12 -> node19;
node20 [label="FFTReorderSimple_3074", push="152", pop="152", peek="152", pushType="complex", popType="complex", peekType="complex", codeSize="68 b", stackSize="1056 b", work="104"];
node12 -> node20;
node21 [label="WEIGHTED_ROUND_ROBIN_Joiner_3066", push="1216", pop="1216", peek="0", pushType="complex", popType="complex", peekType="void", codeSize="150 b", stackSize="288 b", work="0"];
node13 -> node21;
node14 -> node21;
node15 -> node21;
node16 -> node21;
node17 -> node21;
node18 -> node21;
node19 -> node21;
node20 -> node21;
node22 [label="WEIGHTED_ROUND_ROBIN_Splitter_3075", push="1216", pop="1216", peek="0", pushType="complex", popType="complex", peekType="void", codeSize="294 b", stackSize="544 b", work="0"];
node21 -> node22;
node23 [label="FFTReorderSimple_3077", push="76", pop="76", peek="76", pushType="complex", popType="complex", peekType="complex", codeSize="68 b", stackSize="1056 b", work="52"];
node22 -> node23;
node24 [label="FFTReorderSimple_3078", push="76", pop="76", peek="76", pushType="complex", popType="complex", peekType="complex", codeSize="68 b", stackSize="1056 b", work="52"];
node22 -> node24;
node25 [label="FFTReorderSimple_3079", push="76", pop="76", peek="76", pushType="complex", popType="complex", peekType="complex", codeSize="68 b", stackSize="1056 b", work="52"];
node22 -> node25;
node26 [label="FFTReorderSimple_3080", push="76", pop="76", peek="76", pushType="complex", popType="complex", peekType="complex", codeSize="68 b", stackSize="1056 b", work="52"];
node22 -> node26;
node27 [label="FFTReorderSimple_3081", push="76", pop="76", peek="76", pushType="complex", popType="complex", peekType="complex", codeSize="68 b", stackSize="1056 b", work="52"];
node22 -> node27;
node28 [label="FFTReorderSimple_3082", push="76", pop="76", peek="76", pushType="complex", popType="complex", peekType="complex", codeSize="68 b", stackSize="1056 b", work="52"];
node22 -> node28;
node29 [label="FFTReorderSimple_3083", push="76", pop="76", peek="76", pushType="complex", popType="complex", peekType="complex", codeSize="68 b", stackSize="1056 b", work="52"];
node22 -> node29;
node30 [label="FFTReorderSimple_3084", push="76", pop="76", peek="76", pushType="complex", popType="complex", peekType="complex", codeSize="68 b", stackSize="1056 b", work="52"];
node22 -> node30;
node31 [label="FFTReorderSimple_3085", push="76", pop="76", peek="76", pushType="complex", popType="complex", peekType="complex", codeSize="68 b", stackSize="1056 b", work="52"];
node22 -> node31;
node32 [label="FFTReorderSimple_3086", push="76", pop="76", peek="76", pushType="complex", popType="complex", peekType="complex", codeSize="68 b", stackSize="1056 b", work="52"];
node22 -> node32;
node33 [label="FFTReorderSimple_3087", push="76", pop="76", peek="76", pushType="complex", popType="complex", peekType="complex", codeSize="68 b", stackSize="1056 b", work="52"];
node22 -> node33;
node34 [label="FFTReorderSimple_3088", push="76", pop="76", peek="76", pushType="complex", popType="complex", peekType="complex", codeSize="68 b", stackSize="1056 b", work="52"];
node22 -> node34;
node35 [label="FFTReorderSimple_3089", push="76", pop="76", peek="76", pushType="complex", popType="complex", peekType="complex", codeSize="68 b", stackSize="1056 b", work="52"];
node22 -> node35;
node36 [label="FFTReorderSimple_3090", push="76", pop="76", peek="76", pushType="complex", popType="complex", peekType="complex", codeSize="68 b", stackSize="1056 b", work="52"];
node22 -> node36;
node37 [label="FFTReorderSimple_3091", push="76", pop="76", peek="76", pushType="complex", popType="complex", peekType="complex", codeSize="68 b", stackSize="1056 b", work="52"];
node22 -> node37;
node38 [label="FFTReorderSimple_3092", push="76", pop="76", peek="76", pushType="complex", popType="complex", peekType="complex", codeSize="68 b", stackSize="1056 b", work="52"];
node22 -> node38;
node39 [label="WEIGHTED_ROUND_ROBIN_Joiner_3076", push="1216", pop="1216", peek="0", pushType="complex", popType="complex", peekType="void", codeSize="294 b", stackSize="544 b", work="0"];
node23 -> node39;
node24 -> node39;
node25 -> node39;
node26 -> node39;
node27 -> node39;
node28 -> node39;
node29 -> node39;
node30 -> node39;
node31 -> node39;
node32 -> node39;
node33 -> node39;
node34 -> node39;
node35 -> node39;
node36 -> node39;
node37 -> node39;
node38 -> node39;
node40 [label="WEIGHTED_ROUND_ROBIN_Splitter_3093", push="1216", pop="1216", peek="0", pushType="complex", popType="complex", peekType="void", codeSize="348 b", stackSize="640 b", work="0"];
node39 -> node40;
node41 [label="CombineDFT_3095", push="64", pop="64", peek="64", pushType="complex", popType="complex", peekType="complex", codeSize="394 b", stackSize="4640 b", work="159"];
node40 -> node41;
node42 [label="CombineDFT_3096", push="64", pop="64", peek="64", pushType="complex", popType="complex", peekType="complex", codeSize="394 b", stackSize="4640 b", work="159"];
node40 -> node42;
node43 [label="CombineDFT_3097", push="64", pop="64", peek="64", pushType="complex", popType="complex", peekType="complex", codeSize="394 b", stackSize="4640 b", work="159"];
node40 -> node43;
node44 [label="CombineDFT_3098", push="64", pop="64", peek="64", pushType="complex", popType="complex", peekType="complex", codeSize="394 b", stackSize="4640 b", work="159"];
node40 -> node44;
node45 [label="CombineDFT_3099", push="64", pop="64", peek="64", pushType="complex", popType="complex", peekType="complex", codeSize="394 b", stackSize="4640 b", work="159"];
node40 -> node45;
node46 [label="CombineDFT_3100", push="64", pop="64", peek="64", pushType="complex", popType="complex", peekType="complex", codeSize="394 b", stackSize="4640 b", work="159"];
node40 -> node46;
node47 [label="CombineDFT_3101", push="64", pop="64", peek="64", pushType="complex", popType="complex", peekType="complex", codeSize="394 b", stackSize="4640 b", work="159"];
node40 -> node47;
node48 [label="CombineDFT_3102", push="64", pop="64", peek="64", pushType="complex", popType="complex", peekType="complex", codeSize="394 b", stackSize="4640 b", work="159"];
node40 -> node48;
node49 [label="CombineDFT_3103", push="64", pop="64", peek="64", pushType="complex", popType="complex", peekType="complex", codeSize="394 b", stackSize="4640 b", work="159"];
node40 -> node49;
node50 [label="CombineDFT_3104", push="64", pop="64", peek="64", pushType="complex", popType="complex", peekType="complex", codeSize="394 b", stackSize="4640 b", work="159"];
node40 -> node50;
node51 [label="CombineDFT_3105", push="64", pop="64", peek="64", pushType="complex", popType="complex", peekType="complex", codeSize="394 b", stackSize="4640 b", work="159"];
node40 -> node51;
node52 [label="CombineDFT_3106", push="64", pop="64", peek="64", pushType="complex", popType="complex", peekType="complex", codeSize="394 b", stackSize="4640 b", work="159"];
node40 -> node52;
node53 [label="CombineDFT_3107", push="64", pop="64", peek="64", pushType="complex", popType="complex", peekType="complex", codeSize="394 b", stackSize="4640 b", work="159"];
node40 -> node53;
node54 [label="CombineDFT_3108", push="64", pop="64", peek="64", pushType="complex", popType="complex", peekType="complex", codeSize="394 b", stackSize="4640 b", work="159"];
node40 -> node54;
node55 [label="CombineDFT_3109", push="64", pop="64", peek="64", pushType="complex", popType="complex", peekType="complex", codeSize="394 b", stackSize="4640 b", work="159"];
node40 -> node55;
node56 [label="CombineDFT_3110", push="64", pop="64", peek="64", pushType="complex", popType="complex", peekType="complex", codeSize="394 b", stackSize="4640 b", work="159"];
node40 -> node56;
node57 [label="CombineDFT_3111", push="64", pop="64", peek="64", pushType="complex", popType="complex", peekType="complex", codeSize="394 b", stackSize="4640 b", work="159"];
node40 -> node57;
node58 [label="CombineDFT_3112", push="64", pop="64", peek="64", pushType="complex", popType="complex", peekType="complex", codeSize="394 b", stackSize="4640 b", work="159"];
node40 -> node58;
node59 [label="CombineDFT_3113", push="64", pop="64", peek="64", pushType="complex", popType="complex", peekType="complex", codeSize="394 b", stackSize="4640 b", work="159"];
node40 -> node59;
node60 [label="WEIGHTED_ROUND_ROBIN_Joiner_3094", push="1216", pop="1216", peek="0", pushType="complex", popType="complex", peekType="void", codeSize="348 b", stackSize="640 b", work="0"];
node41 -> node60;
node42 -> node60;
node43 -> node60;
node44 -> node60;
node45 -> node60;
node46 -> node60;
node47 -> node60;
node48 -> node60;
node49 -> node60;
node50 -> node60;
node51 -> node60;
node52 -> node60;
node53 -> node60;
node54 -> node60;
node55 -> node60;
node56 -> node60;
node57 -> node60;
node58 -> node60;
node59 -> node60;
node61 [label="WEIGHTED_ROUND_ROBIN_Splitter_3114", push="1216", pop="1216", peek="0", pushType="complex", popType="complex", peekType="void", codeSize="294 b", stackSize="544 b", work="0"];
node60 -> node61;
node62 [label="CombineDFT_3116", push="76", pop="76", peek="76", pushType="complex", popType="complex", peekType="complex", codeSize="394 b", stackSize="5664 b", work="314"];
node61 -> node62;
node63 [label="CombineDFT_3117", push="76", pop="76", peek="76", pushType="complex", popType="complex", peekType="complex", codeSize="394 b", stackSize="5664 b", work="314"];
node61 -> node63;
node64 [label="CombineDFT_3118", push="76", pop="76", peek="76", pushType="complex", popType="complex", peekType="complex", codeSize="394 b", stackSize="5664 b", work="314"];
node61 -> node64;
node65 [label="CombineDFT_3119", push="76", pop="76", peek="76", pushType="complex", popType="complex", peekType="complex", codeSize="394 b", stackSize="5664 b", work="314"];
node61 -> node65;
node66 [label="CombineDFT_3120", push="76", pop="76", peek="76", pushType="complex", popType="complex", peekType="complex", codeSize="394 b", stackSize="5664 b", work="314"];
node61 -> node66;
node67 [label="CombineDFT_3121", push="76", pop="76", peek="76", pushType="complex", popType="complex", peekType="complex", codeSize="394 b", stackSize="5664 b", work="314"];
node61 -> node67;
node68 [label="CombineDFT_3122", push="76", pop="76", peek="76", pushType="complex", popType="complex", peekType="complex", codeSize="394 b", stackSize="5664 b", work="314"];
node61 -> node68;
node69 [label="CombineDFT_3123", push="76", pop="76", peek="76", pushType="complex", popType="complex", peekType="complex", codeSize="394 b", stackSize="5664 b", work="314"];
node61 -> node69;
node70 [label="CombineDFT_3124", push="76", pop="76", peek="76", pushType="complex", popType="complex", peekType="complex", codeSize="394 b", stackSize="5664 b", work="314"];
node61 -> node70;
node71 [label="CombineDFT_3125", push="76", pop="76", peek="76", pushType="complex", popType="complex", peekType="complex", codeSize="394 b", stackSize="5664 b", work="314"];
node61 -> node71;
node72 [label="CombineDFT_3126", push="76", pop="76", peek="76", pushType="complex", popType="complex", peekType="complex", codeSize="394 b", stackSize="5664 b", work="314"];
node61 -> node72;
node73 [label="CombineDFT_3127", push="76", pop="76", peek="76", pushType="complex", popType="complex", peekType="complex", codeSize="394 b", stackSize="5664 b", work="314"];
node61 -> node73;
node74 [label="CombineDFT_3128", push="76", pop="76", peek="76", pushType="complex", popType="complex", peekType="complex", codeSize="394 b", stackSize="5664 b", work="314"];
node61 -> node74;
node75 [label="CombineDFT_3129", push="76", pop="76", peek="76", pushType="complex", popType="complex", peekType="complex", codeSize="394 b", stackSize="5664 b", work="314"];
node61 -> node75;
node76 [label="CombineDFT_3130", push="76", pop="76", peek="76", pushType="complex", popType="complex", peekType="complex", codeSize="394 b", stackSize="5664 b", work="314"];
node61 -> node76;
node77 [label="CombineDFT_3131", push="76", pop="76", peek="76", pushType="complex", popType="complex", peekType="complex", codeSize="394 b", stackSize="5664 b", work="314"];
node61 -> node77;
node78 [label="WEIGHTED_ROUND_ROBIN_Joiner_3115", push="1216", pop="1216", peek="0", pushType="complex", popType="complex", peekType="void", codeSize="294 b", stackSize="544 b", work="0"];
node62 -> node78;
node63 -> node78;
node64 -> node78;
node65 -> node78;
node66 -> node78;
node67 -> node78;
node68 -> node78;
node69 -> node78;
node70 -> node78;
node71 -> node78;
node72 -> node78;
node73 -> node78;
node74 -> node78;
node75 -> node78;
node76 -> node78;
node77 -> node78;
node79 [label="WEIGHTED_ROUND_ROBIN_Splitter_3132", push="1216", pop="1216", peek="0", pushType="complex", popType="complex", peekType="void", codeSize="150 b", stackSize="288 b", work="0"];
node78 -> node79;
node80 [label="CombineDFT_3134", push="152", pop="152", peek="152", pushType="complex", popType="complex", peekType="complex", codeSize="394 b", stackSize="7712 b", work="624"];
node79 -> node80;
node81 [label="CombineDFT_3135", push="152", pop="152", peek="152", pushType="complex", popType="complex", peekType="complex", codeSize="394 b", stackSize="7712 b", work="624"];
node79 -> node81;
node82 [label="CombineDFT_3136", push="152", pop="152", peek="152", pushType="complex", popType="complex", peekType="complex", codeSize="394 b", stackSize="7712 b", work="624"];
node79 -> node82;
node83 [label="CombineDFT_3137", push="152", pop="152", peek="152", pushType="complex", popType="complex", peekType="complex", codeSize="394 b", stackSize="7712 b", work="624"];
node79 -> node83;
node84 [label="CombineDFT_3138", push="152", pop="152", peek="152", pushType="complex", popType="complex", peekType="complex", codeSize="394 b", stackSize="7712 b", work="624"];
node79 -> node84;
node85 [label="CombineDFT_3139", push="152", pop="152", peek="152", pushType="complex", popType="complex", peekType="complex", codeSize="394 b", stackSize="7712 b", work="624"];
node79 -> node85;
node86 [label="CombineDFT_3140", push="152", pop="152", peek="152", pushType="complex", popType="complex", peekType="complex", codeSize="394 b", stackSize="7712 b", work="624"];
node79 -> node86;
node87 [label="CombineDFT_3141", push="152", pop="152", peek="152", pushType="complex", popType="complex", peekType="complex", codeSize="394 b", stackSize="7712 b", work="624"];
node79 -> node87;
node88 [label="WEIGHTED_ROUND_ROBIN_Joiner_3133", push="1216", pop="1216", peek="0", pushType="complex", popType="complex", peekType="void", codeSize="150 b", stackSize="288 b", work="0"];
node80 -> node88;
node81 -> node88;
node82 -> node88;
node83 -> node88;
node84 -> node88;
node85 -> node88;
node86 -> node88;
node87 -> node88;
node89 [label="WEIGHTED_ROUND_ROBIN_Splitter_3142", push="1216", pop="1216", peek="0", pushType="complex", popType="complex", peekType="void", codeSize="78 b", stackSize="160 b", work="0"];
node88 -> node89;
node90 [label="CombineDFT_3144", push="304", pop="304", peek="304", pushType="complex", popType="complex", peekType="complex", codeSize="394 b", stackSize="11808 b", work="1244"];
node89 -> node90;
node91 [label="CombineDFT_3145", push="304", pop="304", peek="304", pushType="complex", popType="complex", peekType="complex", codeSize="394 b", stackSize="11808 b", work="1244"];
node89 -> node91;
node92 [label="CombineDFT_3146", push="304", pop="304", peek="304", pushType="complex", popType="complex", peekType="complex", codeSize="394 b", stackSize="11808 b", work="1244"];
node89 -> node92;
node93 [label="CombineDFT_3147", push="304", pop="304", peek="304", pushType="complex", popType="complex", peekType="complex", codeSize="394 b", stackSize="11808 b", work="1244"];
node89 -> node93;
node94 [label="WEIGHTED_ROUND_ROBIN_Joiner_3143", push="1216", pop="1216", peek="0", pushType="complex", popType="complex", peekType="void", codeSize="78 b", stackSize="160 b", work="0"];
node90 -> node94;
node91 -> node94;
node92 -> node94;
node93 -> node94;
node95 [label="WEIGHTED_ROUND_ROBIN_Splitter_3148", push="1216", pop="1216", peek="0", pushType="complex", popType="complex", peekType="void", codeSize="42 b", stackSize="96 b", work="0"];
node94 -> node95;
node96 [label="CombineDFT_3150", push="608", pop="608", peek="608", pushType="complex", popType="complex", peekType="complex", codeSize="394 b", stackSize="20000 b", work="2484"];
node95 -> node96;
node97 [label="CombineDFT_3151", push="608", pop="608", peek="608", pushType="complex", popType="complex", peekType="complex", codeSize="394 b", stackSize="20000 b", work="2484"];
node95 -> node97;
node98 [label="WEIGHTED_ROUND_ROBIN_Joiner_3149", push="1216", pop="1216", peek="0", pushType="complex", popType="complex", peekType="void", codeSize="42 b", stackSize="96 b", work="0"];
node96 -> node98;
node97 -> node98;
node99 [label="CombineDFT_3052", push="1216", pop="1216", peek="1216", pushType="complex", popType="complex", peekType="complex", codeSize="394 b", stackSize="36384 b", work="4964"];
node98 -> node99;
node100 [label="CPrinter_3053", push="0", pop="1216", peek="1216", pushType="void", popType="complex", peekType="complex", codeSize="34 b", stackSize="512 b", work="13"];
node99 -> node100;
}
