digraph FFT6_4934 {
node0 [label="FFTTestSource_4835", push="320", pop="0", peek="0", pushType="complex", popType="void", peekType="void", codeSize="44 b", stackSize="1056 b", work="324"];
node1 [label="FFTReorderSimple_4836", push="320", pop="320", peek="320", pushType="complex", popType="complex", peekType="complex", codeSize="68 b", stackSize="1056 b", work="832"];
node0 -> node1;
node2 [label="WEIGHTED_ROUND_ROBIN_Splitter_4849", push="320", pop="320", peek="0", pushType="complex", popType="complex", peekType="void", codeSize="42 b", stackSize="96 b", work="0"];
node1 -> node2;
node3 [label="FFTReorderSimple_4851", push="160", pop="160", peek="160", pushType="complex", popType="complex", peekType="complex", codeSize="68 b", stackSize="1056 b", work="416"];
node2 -> node3;
node4 [label="FFTReorderSimple_4852", push="160", pop="160", peek="160", pushType="complex", popType="complex", peekType="complex", codeSize="68 b", stackSize="1056 b", work="416"];
node2 -> node4;
node5 [label="WEIGHTED_ROUND_ROBIN_Joiner_4850", push="320", pop="320", peek="0", pushType="complex", popType="complex", peekType="void", codeSize="42 b", stackSize="96 b", work="0"];
node3 -> node5;
node4 -> node5;
node6 [label="WEIGHTED_ROUND_ROBIN_Splitter_4853", push="320", pop="320", peek="0", pushType="complex", popType="complex", peekType="void", codeSize="78 b", stackSize="160 b", work="0"];
node5 -> node6;
node7 [label="FFTReorderSimple_4855", push="80", pop="80", peek="80", pushType="complex", popType="complex", peekType="complex", codeSize="68 b", stackSize="1056 b", work="208"];
node6 -> node7;
node8 [label="FFTReorderSimple_4856", push="80", pop="80", peek="80", pushType="complex", popType="complex", peekType="complex", codeSize="68 b", stackSize="1056 b", work="208"];
node6 -> node8;
node9 [label="FFTReorderSimple_4857", push="80", pop="80", peek="80", pushType="complex", popType="complex", peekType="complex", codeSize="68 b", stackSize="1056 b", work="208"];
node6 -> node9;
node10 [label="FFTReorderSimple_4858", push="80", pop="80", peek="80", pushType="complex", popType="complex", peekType="complex", codeSize="68 b", stackSize="1056 b", work="208"];
node6 -> node10;
node11 [label="WEIGHTED_ROUND_ROBIN_Joiner_4854", push="320", pop="320", peek="0", pushType="complex", popType="complex", peekType="void", codeSize="78 b", stackSize="160 b", work="0"];
node7 -> node11;
node8 -> node11;
node9 -> node11;
node10 -> node11;
node12 [label="WEIGHTED_ROUND_ROBIN_Splitter_4859", push="320", pop="320", peek="0", pushType="complex", popType="complex", peekType="void", codeSize="150 b", stackSize="288 b", work="0"];
node11 -> node12;
node13 [label="FFTReorderSimple_4861", push="40", pop="40", peek="40", pushType="complex", popType="complex", peekType="complex", codeSize="68 b", stackSize="1056 b", work="104"];
node12 -> node13;
node14 [label="FFTReorderSimple_4862", push="40", pop="40", peek="40", pushType="complex", popType="complex", peekType="complex", codeSize="68 b", stackSize="1056 b", work="104"];
node12 -> node14;
node15 [label="FFTReorderSimple_4863", push="40", pop="40", peek="40", pushType="complex", popType="complex", peekType="complex", codeSize="68 b", stackSize="1056 b", work="104"];
node12 -> node15;
node16 [label="FFTReorderSimple_4864", push="40", pop="40", peek="40", pushType="complex", popType="complex", peekType="complex", codeSize="68 b", stackSize="1056 b", work="104"];
node12 -> node16;
node17 [label="FFTReorderSimple_4865", push="40", pop="40", peek="40", pushType="complex", popType="complex", peekType="complex", codeSize="68 b", stackSize="1056 b", work="104"];
node12 -> node17;
node18 [label="FFTReorderSimple_4866", push="40", pop="40", peek="40", pushType="complex", popType="complex", peekType="complex", codeSize="68 b", stackSize="1056 b", work="104"];
node12 -> node18;
node19 [label="FFTReorderSimple_4867", push="40", pop="40", peek="40", pushType="complex", popType="complex", peekType="complex", codeSize="68 b", stackSize="1056 b", work="104"];
node12 -> node19;
node20 [label="FFTReorderSimple_4868", push="40", pop="40", peek="40", pushType="complex", popType="complex", peekType="complex", codeSize="68 b", stackSize="1056 b", work="104"];
node12 -> node20;
node21 [label="WEIGHTED_ROUND_ROBIN_Joiner_4860", push="320", pop="320", peek="0", pushType="complex", popType="complex", peekType="void", codeSize="150 b", stackSize="288 b", work="0"];
node13 -> node21;
node14 -> node21;
node15 -> node21;
node16 -> node21;
node17 -> node21;
node18 -> node21;
node19 -> node21;
node20 -> node21;
node22 [label="WEIGHTED_ROUND_ROBIN_Splitter_4869", push="320", pop="320", peek="0", pushType="complex", popType="complex", peekType="void", codeSize="186 b", stackSize="352 b", work="0"];
node21 -> node22;
node23 [label="FFTReorderSimple_4871", push="32", pop="32", peek="32", pushType="complex", popType="complex", peekType="complex", codeSize="68 b", stackSize="1056 b", work="52"];
node22 -> node23;
node24 [label="FFTReorderSimple_4872", push="32", pop="32", peek="32", pushType="complex", popType="complex", peekType="complex", codeSize="68 b", stackSize="1056 b", work="52"];
node22 -> node24;
node25 [label="FFTReorderSimple_4873", push="32", pop="32", peek="32", pushType="complex", popType="complex", peekType="complex", codeSize="68 b", stackSize="1056 b", work="52"];
node22 -> node25;
node26 [label="FFTReorderSimple_4874", push="32", pop="32", peek="32", pushType="complex", popType="complex", peekType="complex", codeSize="68 b", stackSize="1056 b", work="52"];
node22 -> node26;
node27 [label="FFTReorderSimple_4875", push="32", pop="32", peek="32", pushType="complex", popType="complex", peekType="complex", codeSize="68 b", stackSize="1056 b", work="52"];
node22 -> node27;
node28 [label="FFTReorderSimple_4876", push="32", pop="32", peek="32", pushType="complex", popType="complex", peekType="complex", codeSize="68 b", stackSize="1056 b", work="52"];
node22 -> node28;
node29 [label="FFTReorderSimple_4877", push="32", pop="32", peek="32", pushType="complex", popType="complex", peekType="complex", codeSize="68 b", stackSize="1056 b", work="52"];
node22 -> node29;
node30 [label="FFTReorderSimple_4878", push="32", pop="32", peek="32", pushType="complex", popType="complex", peekType="complex", codeSize="68 b", stackSize="1056 b", work="52"];
node22 -> node30;
node31 [label="FFTReorderSimple_4879", push="32", pop="32", peek="32", pushType="complex", popType="complex", peekType="complex", codeSize="68 b", stackSize="1056 b", work="52"];
node22 -> node31;
node32 [label="FFTReorderSimple_4880", push="32", pop="32", peek="32", pushType="complex", popType="complex", peekType="complex", codeSize="68 b", stackSize="1056 b", work="52"];
node22 -> node32;
node33 [label="WEIGHTED_ROUND_ROBIN_Joiner_4870", push="320", pop="320", peek="0", pushType="complex", popType="complex", peekType="void", codeSize="186 b", stackSize="352 b", work="0"];
node23 -> node33;
node24 -> node33;
node25 -> node33;
node26 -> node33;
node27 -> node33;
node28 -> node33;
node29 -> node33;
node30 -> node33;
node31 -> node33;
node32 -> node33;
node34 [label="WEIGHTED_ROUND_ROBIN_Splitter_4881", push="320", pop="320", peek="0", pushType="complex", popType="complex", peekType="void", codeSize="186 b", stackSize="352 b", work="0"];
node33 -> node34;
node35 [label="CombineDFT_4883", push="32", pop="32", peek="32", pushType="complex", popType="complex", peekType="complex", codeSize="394 b", stackSize="4640 b", work="159"];
node34 -> node35;
node36 [label="CombineDFT_4884", push="32", pop="32", peek="32", pushType="complex", popType="complex", peekType="complex", codeSize="394 b", stackSize="4640 b", work="159"];
node34 -> node36;
node37 [label="CombineDFT_4885", push="32", pop="32", peek="32", pushType="complex", popType="complex", peekType="complex", codeSize="394 b", stackSize="4640 b", work="159"];
node34 -> node37;
node38 [label="CombineDFT_4886", push="32", pop="32", peek="32", pushType="complex", popType="complex", peekType="complex", codeSize="394 b", stackSize="4640 b", work="159"];
node34 -> node38;
node39 [label="CombineDFT_4887", push="32", pop="32", peek="32", pushType="complex", popType="complex", peekType="complex", codeSize="394 b", stackSize="4640 b", work="159"];
node34 -> node39;
node40 [label="CombineDFT_4888", push="32", pop="32", peek="32", pushType="complex", popType="complex", peekType="complex", codeSize="394 b", stackSize="4640 b", work="159"];
node34 -> node40;
node41 [label="CombineDFT_4889", push="32", pop="32", peek="32", pushType="complex", popType="complex", peekType="complex", codeSize="394 b", stackSize="4640 b", work="159"];
node34 -> node41;
node42 [label="CombineDFT_4890", push="32", pop="32", peek="32", pushType="complex", popType="complex", peekType="complex", codeSize="394 b", stackSize="4640 b", work="159"];
node34 -> node42;
node43 [label="CombineDFT_4891", push="32", pop="32", peek="32", pushType="complex", popType="complex", peekType="complex", codeSize="394 b", stackSize="4640 b", work="159"];
node34 -> node43;
node44 [label="CombineDFT_4892", push="32", pop="32", peek="32", pushType="complex", popType="complex", peekType="complex", codeSize="394 b", stackSize="4640 b", work="159"];
node34 -> node44;
node45 [label="WEIGHTED_ROUND_ROBIN_Joiner_4882", push="320", pop="320", peek="0", pushType="complex", popType="complex", peekType="void", codeSize="186 b", stackSize="352 b", work="0"];
node35 -> node45;
node36 -> node45;
node37 -> node45;
node38 -> node45;
node39 -> node45;
node40 -> node45;
node41 -> node45;
node42 -> node45;
node43 -> node45;
node44 -> node45;
node46 [label="WEIGHTED_ROUND_ROBIN_Splitter_4893", push="320", pop="320", peek="0", pushType="complex", popType="complex", peekType="void", codeSize="186 b", stackSize="352 b", work="0"];
node45 -> node46;
node47 [label="CombineDFT_4895", push="32", pop="32", peek="32", pushType="complex", popType="complex", peekType="complex", codeSize="394 b", stackSize="5664 b", work="314"];
node46 -> node47;
node48 [label="CombineDFT_4896", push="32", pop="32", peek="32", pushType="complex", popType="complex", peekType="complex", codeSize="394 b", stackSize="5664 b", work="314"];
node46 -> node48;
node49 [label="CombineDFT_4897", push="32", pop="32", peek="32", pushType="complex", popType="complex", peekType="complex", codeSize="394 b", stackSize="5664 b", work="314"];
node46 -> node49;
node50 [label="CombineDFT_4898", push="32", pop="32", peek="32", pushType="complex", popType="complex", peekType="complex", codeSize="394 b", stackSize="5664 b", work="314"];
node46 -> node50;
node51 [label="CombineDFT_4899", push="32", pop="32", peek="32", pushType="complex", popType="complex", peekType="complex", codeSize="394 b", stackSize="5664 b", work="314"];
node46 -> node51;
node52 [label="CombineDFT_4900", push="32", pop="32", peek="32", pushType="complex", popType="complex", peekType="complex", codeSize="394 b", stackSize="5664 b", work="314"];
node46 -> node52;
node53 [label="CombineDFT_4901", push="32", pop="32", peek="32", pushType="complex", popType="complex", peekType="complex", codeSize="394 b", stackSize="5664 b", work="314"];
node46 -> node53;
node54 [label="CombineDFT_4902", push="32", pop="32", peek="32", pushType="complex", popType="complex", peekType="complex", codeSize="394 b", stackSize="5664 b", work="314"];
node46 -> node54;
node55 [label="CombineDFT_4903", push="32", pop="32", peek="32", pushType="complex", popType="complex", peekType="complex", codeSize="394 b", stackSize="5664 b", work="314"];
node46 -> node55;
node56 [label="CombineDFT_4904", push="32", pop="32", peek="32", pushType="complex", popType="complex", peekType="complex", codeSize="394 b", stackSize="5664 b", work="314"];
node46 -> node56;
node57 [label="WEIGHTED_ROUND_ROBIN_Joiner_4894", push="320", pop="320", peek="0", pushType="complex", popType="complex", peekType="void", codeSize="186 b", stackSize="352 b", work="0"];
node47 -> node57;
node48 -> node57;
node49 -> node57;
node50 -> node57;
node51 -> node57;
node52 -> node57;
node53 -> node57;
node54 -> node57;
node55 -> node57;
node56 -> node57;
node58 [label="WEIGHTED_ROUND_ROBIN_Splitter_4905", push="320", pop="320", peek="0", pushType="complex", popType="complex", peekType="void", codeSize="150 b", stackSize="288 b", work="0"];
node57 -> node58;
node59 [label="CombineDFT_4907", push="40", pop="40", peek="40", pushType="complex", popType="complex", peekType="complex", codeSize="394 b", stackSize="7712 b", work="624"];
node58 -> node59;
node60 [label="CombineDFT_4908", push="40", pop="40", peek="40", pushType="complex", popType="complex", peekType="complex", codeSize="394 b", stackSize="7712 b", work="624"];
node58 -> node60;
node61 [label="CombineDFT_4909", push="40", pop="40", peek="40", pushType="complex", popType="complex", peekType="complex", codeSize="394 b", stackSize="7712 b", work="624"];
node58 -> node61;
node62 [label="CombineDFT_4910", push="40", pop="40", peek="40", pushType="complex", popType="complex", peekType="complex", codeSize="394 b", stackSize="7712 b", work="624"];
node58 -> node62;
node63 [label="CombineDFT_4911", push="40", pop="40", peek="40", pushType="complex", popType="complex", peekType="complex", codeSize="394 b", stackSize="7712 b", work="624"];
node58 -> node63;
node64 [label="CombineDFT_4912", push="40", pop="40", peek="40", pushType="complex", popType="complex", peekType="complex", codeSize="394 b", stackSize="7712 b", work="624"];
node58 -> node64;
node65 [label="CombineDFT_4913", push="40", pop="40", peek="40", pushType="complex", popType="complex", peekType="complex", codeSize="394 b", stackSize="7712 b", work="624"];
node58 -> node65;
node66 [label="CombineDFT_4914", push="40", pop="40", peek="40", pushType="complex", popType="complex", peekType="complex", codeSize="394 b", stackSize="7712 b", work="624"];
node58 -> node66;
node67 [label="WEIGHTED_ROUND_ROBIN_Joiner_4906", push="320", pop="320", peek="0", pushType="complex", popType="complex", peekType="void", codeSize="150 b", stackSize="288 b", work="0"];
node59 -> node67;
node60 -> node67;
node61 -> node67;
node62 -> node67;
node63 -> node67;
node64 -> node67;
node65 -> node67;
node66 -> node67;
node68 [label="WEIGHTED_ROUND_ROBIN_Splitter_4915", push="320", pop="320", peek="0", pushType="complex", popType="complex", peekType="void", codeSize="78 b", stackSize="160 b", work="0"];
node67 -> node68;
node69 [label="CombineDFT_4917", push="80", pop="80", peek="80", pushType="complex", popType="complex", peekType="complex", codeSize="394 b", stackSize="11808 b", work="1244"];
node68 -> node69;
node70 [label="CombineDFT_4918", push="80", pop="80", peek="80", pushType="complex", popType="complex", peekType="complex", codeSize="394 b", stackSize="11808 b", work="1244"];
node68 -> node70;
node71 [label="CombineDFT_4919", push="80", pop="80", peek="80", pushType="complex", popType="complex", peekType="complex", codeSize="394 b", stackSize="11808 b", work="1244"];
node68 -> node71;
node72 [label="CombineDFT_4920", push="80", pop="80", peek="80", pushType="complex", popType="complex", peekType="complex", codeSize="394 b", stackSize="11808 b", work="1244"];
node68 -> node72;
node73 [label="WEIGHTED_ROUND_ROBIN_Joiner_4916", push="320", pop="320", peek="0", pushType="complex", popType="complex", peekType="void", codeSize="78 b", stackSize="160 b", work="0"];
node69 -> node73;
node70 -> node73;
node71 -> node73;
node72 -> node73;
node74 [label="WEIGHTED_ROUND_ROBIN_Splitter_4921", push="320", pop="320", peek="0", pushType="complex", popType="complex", peekType="void", codeSize="42 b", stackSize="96 b", work="0"];
node73 -> node74;
node75 [label="CombineDFT_4923", push="160", pop="160", peek="160", pushType="complex", popType="complex", peekType="complex", codeSize="394 b", stackSize="20000 b", work="2484"];
node74 -> node75;
node76 [label="CombineDFT_4924", push="160", pop="160", peek="160", pushType="complex", popType="complex", peekType="complex", codeSize="394 b", stackSize="20000 b", work="2484"];
node74 -> node76;
node77 [label="WEIGHTED_ROUND_ROBIN_Joiner_4922", push="320", pop="320", peek="0", pushType="complex", popType="complex", peekType="void", codeSize="42 b", stackSize="96 b", work="0"];
node75 -> node77;
node76 -> node77;
node78 [label="CombineDFT_4846", push="320", pop="320", peek="320", pushType="complex", popType="complex", peekType="complex", codeSize="394 b", stackSize="36384 b", work="4964"];
node77 -> node78;
node79 [label="CPrinter_4847", push="0", pop="320", peek="320", pushType="void", popType="complex", peekType="complex", codeSize="34 b", stackSize="512 b", work="13"];
node78 -> node79;
}
