digraph FFT6_4578 {
node0 [label="FFTTestSource_4473", push="192", pop="0", peek="0", pushType="complex", popType="void", peekType="void", codeSize="44 b", stackSize="1056 b", work="324"];
node1 [label="FFTReorderSimple_4474", push="192", pop="192", peek="192", pushType="complex", popType="complex", peekType="complex", codeSize="68 b", stackSize="1056 b", work="832"];
node0 -> node1;
node2 [label="WEIGHTED_ROUND_ROBIN_Splitter_4487", push="192", pop="192", peek="0", pushType="complex", popType="complex", peekType="void", codeSize="42 b", stackSize="96 b", work="0"];
node1 -> node2;
node3 [label="FFTReorderSimple_4489", push="96", pop="96", peek="96", pushType="complex", popType="complex", peekType="complex", codeSize="68 b", stackSize="1056 b", work="416"];
node2 -> node3;
node4 [label="FFTReorderSimple_4490", push="96", pop="96", peek="96", pushType="complex", popType="complex", peekType="complex", codeSize="68 b", stackSize="1056 b", work="416"];
node2 -> node4;
node5 [label="WEIGHTED_ROUND_ROBIN_Joiner_4488", push="192", pop="192", peek="0", pushType="complex", popType="complex", peekType="void", codeSize="42 b", stackSize="96 b", work="0"];
node3 -> node5;
node4 -> node5;
node6 [label="WEIGHTED_ROUND_ROBIN_Splitter_4491", push="192", pop="192", peek="0", pushType="complex", popType="complex", peekType="void", codeSize="78 b", stackSize="160 b", work="0"];
node5 -> node6;
node7 [label="FFTReorderSimple_4493", push="48", pop="48", peek="48", pushType="complex", popType="complex", peekType="complex", codeSize="68 b", stackSize="1056 b", work="208"];
node6 -> node7;
node8 [label="FFTReorderSimple_4494", push="48", pop="48", peek="48", pushType="complex", popType="complex", peekType="complex", codeSize="68 b", stackSize="1056 b", work="208"];
node6 -> node8;
node9 [label="FFTReorderSimple_4495", push="48", pop="48", peek="48", pushType="complex", popType="complex", peekType="complex", codeSize="68 b", stackSize="1056 b", work="208"];
node6 -> node9;
node10 [label="FFTReorderSimple_4496", push="48", pop="48", peek="48", pushType="complex", popType="complex", peekType="complex", codeSize="68 b", stackSize="1056 b", work="208"];
node6 -> node10;
node11 [label="WEIGHTED_ROUND_ROBIN_Joiner_4492", push="192", pop="192", peek="0", pushType="complex", popType="complex", peekType="void", codeSize="78 b", stackSize="160 b", work="0"];
node7 -> node11;
node8 -> node11;
node9 -> node11;
node10 -> node11;
node12 [label="WEIGHTED_ROUND_ROBIN_Splitter_4497", push="192", pop="192", peek="0", pushType="complex", popType="complex", peekType="void", codeSize="150 b", stackSize="288 b", work="0"];
node11 -> node12;
node13 [label="FFTReorderSimple_4499", push="24", pop="24", peek="24", pushType="complex", popType="complex", peekType="complex", codeSize="68 b", stackSize="1056 b", work="104"];
node12 -> node13;
node14 [label="FFTReorderSimple_4500", push="24", pop="24", peek="24", pushType="complex", popType="complex", peekType="complex", codeSize="68 b", stackSize="1056 b", work="104"];
node12 -> node14;
node15 [label="FFTReorderSimple_4501", push="24", pop="24", peek="24", pushType="complex", popType="complex", peekType="complex", codeSize="68 b", stackSize="1056 b", work="104"];
node12 -> node15;
node16 [label="FFTReorderSimple_4502", push="24", pop="24", peek="24", pushType="complex", popType="complex", peekType="complex", codeSize="68 b", stackSize="1056 b", work="104"];
node12 -> node16;
node17 [label="FFTReorderSimple_4503", push="24", pop="24", peek="24", pushType="complex", popType="complex", peekType="complex", codeSize="68 b", stackSize="1056 b", work="104"];
node12 -> node17;
node18 [label="FFTReorderSimple_4504", push="24", pop="24", peek="24", pushType="complex", popType="complex", peekType="complex", codeSize="68 b", stackSize="1056 b", work="104"];
node12 -> node18;
node19 [label="FFTReorderSimple_4505", push="24", pop="24", peek="24", pushType="complex", popType="complex", peekType="complex", codeSize="68 b", stackSize="1056 b", work="104"];
node12 -> node19;
node20 [label="FFTReorderSimple_4506", push="24", pop="24", peek="24", pushType="complex", popType="complex", peekType="complex", codeSize="68 b", stackSize="1056 b", work="104"];
node12 -> node20;
node21 [label="WEIGHTED_ROUND_ROBIN_Joiner_4498", push="192", pop="192", peek="0", pushType="complex", popType="complex", peekType="void", codeSize="150 b", stackSize="288 b", work="0"];
node13 -> node21;
node14 -> node21;
node15 -> node21;
node16 -> node21;
node17 -> node21;
node18 -> node21;
node19 -> node21;
node20 -> node21;
node22 [label="WEIGHTED_ROUND_ROBIN_Splitter_4507", push="192", pop="192", peek="0", pushType="complex", popType="complex", peekType="void", codeSize="222 b", stackSize="416 b", work="0"];
node21 -> node22;
node23 [label="FFTReorderSimple_4509", push="16", pop="16", peek="16", pushType="complex", popType="complex", peekType="complex", codeSize="68 b", stackSize="1056 b", work="52"];
node22 -> node23;
node24 [label="FFTReorderSimple_4510", push="16", pop="16", peek="16", pushType="complex", popType="complex", peekType="complex", codeSize="68 b", stackSize="1056 b", work="52"];
node22 -> node24;
node25 [label="FFTReorderSimple_4511", push="16", pop="16", peek="16", pushType="complex", popType="complex", peekType="complex", codeSize="68 b", stackSize="1056 b", work="52"];
node22 -> node25;
node26 [label="FFTReorderSimple_4512", push="16", pop="16", peek="16", pushType="complex", popType="complex", peekType="complex", codeSize="68 b", stackSize="1056 b", work="52"];
node22 -> node26;
node27 [label="FFTReorderSimple_4513", push="16", pop="16", peek="16", pushType="complex", popType="complex", peekType="complex", codeSize="68 b", stackSize="1056 b", work="52"];
node22 -> node27;
node28 [label="FFTReorderSimple_4514", push="16", pop="16", peek="16", pushType="complex", popType="complex", peekType="complex", codeSize="68 b", stackSize="1056 b", work="52"];
node22 -> node28;
node29 [label="FFTReorderSimple_4515", push="16", pop="16", peek="16", pushType="complex", popType="complex", peekType="complex", codeSize="68 b", stackSize="1056 b", work="52"];
node22 -> node29;
node30 [label="FFTReorderSimple_4516", push="16", pop="16", peek="16", pushType="complex", popType="complex", peekType="complex", codeSize="68 b", stackSize="1056 b", work="52"];
node22 -> node30;
node31 [label="FFTReorderSimple_4517", push="16", pop="16", peek="16", pushType="complex", popType="complex", peekType="complex", codeSize="68 b", stackSize="1056 b", work="52"];
node22 -> node31;
node32 [label="FFTReorderSimple_4518", push="16", pop="16", peek="16", pushType="complex", popType="complex", peekType="complex", codeSize="68 b", stackSize="1056 b", work="52"];
node22 -> node32;
node33 [label="FFTReorderSimple_4519", push="16", pop="16", peek="16", pushType="complex", popType="complex", peekType="complex", codeSize="68 b", stackSize="1056 b", work="52"];
node22 -> node33;
node34 [label="FFTReorderSimple_4520", push="16", pop="16", peek="16", pushType="complex", popType="complex", peekType="complex", codeSize="68 b", stackSize="1056 b", work="52"];
node22 -> node34;
node35 [label="WEIGHTED_ROUND_ROBIN_Joiner_4508", push="192", pop="192", peek="0", pushType="complex", popType="complex", peekType="void", codeSize="222 b", stackSize="416 b", work="0"];
node23 -> node35;
node24 -> node35;
node25 -> node35;
node26 -> node35;
node27 -> node35;
node28 -> node35;
node29 -> node35;
node30 -> node35;
node31 -> node35;
node32 -> node35;
node33 -> node35;
node34 -> node35;
node36 [label="WEIGHTED_ROUND_ROBIN_Splitter_4521", push="192", pop="192", peek="0", pushType="complex", popType="complex", peekType="void", codeSize="222 b", stackSize="416 b", work="0"];
node35 -> node36;
node37 [label="CombineDFT_4523", push="16", pop="16", peek="16", pushType="complex", popType="complex", peekType="complex", codeSize="394 b", stackSize="4640 b", work="159"];
node36 -> node37;
node38 [label="CombineDFT_4524", push="16", pop="16", peek="16", pushType="complex", popType="complex", peekType="complex", codeSize="394 b", stackSize="4640 b", work="159"];
node36 -> node38;
node39 [label="CombineDFT_4525", push="16", pop="16", peek="16", pushType="complex", popType="complex", peekType="complex", codeSize="394 b", stackSize="4640 b", work="159"];
node36 -> node39;
node40 [label="CombineDFT_4526", push="16", pop="16", peek="16", pushType="complex", popType="complex", peekType="complex", codeSize="394 b", stackSize="4640 b", work="159"];
node36 -> node40;
node41 [label="CombineDFT_4527", push="16", pop="16", peek="16", pushType="complex", popType="complex", peekType="complex", codeSize="394 b", stackSize="4640 b", work="159"];
node36 -> node41;
node42 [label="CombineDFT_4528", push="16", pop="16", peek="16", pushType="complex", popType="complex", peekType="complex", codeSize="394 b", stackSize="4640 b", work="159"];
node36 -> node42;
node43 [label="CombineDFT_4529", push="16", pop="16", peek="16", pushType="complex", popType="complex", peekType="complex", codeSize="394 b", stackSize="4640 b", work="159"];
node36 -> node43;
node44 [label="CombineDFT_4530", push="16", pop="16", peek="16", pushType="complex", popType="complex", peekType="complex", codeSize="394 b", stackSize="4640 b", work="159"];
node36 -> node44;
node45 [label="CombineDFT_4531", push="16", pop="16", peek="16", pushType="complex", popType="complex", peekType="complex", codeSize="394 b", stackSize="4640 b", work="159"];
node36 -> node45;
node46 [label="CombineDFT_4532", push="16", pop="16", peek="16", pushType="complex", popType="complex", peekType="complex", codeSize="394 b", stackSize="4640 b", work="159"];
node36 -> node46;
node47 [label="CombineDFT_4533", push="16", pop="16", peek="16", pushType="complex", popType="complex", peekType="complex", codeSize="394 b", stackSize="4640 b", work="159"];
node36 -> node47;
node48 [label="CombineDFT_4534", push="16", pop="16", peek="16", pushType="complex", popType="complex", peekType="complex", codeSize="394 b", stackSize="4640 b", work="159"];
node36 -> node48;
node49 [label="WEIGHTED_ROUND_ROBIN_Joiner_4522", push="192", pop="192", peek="0", pushType="complex", popType="complex", peekType="void", codeSize="222 b", stackSize="416 b", work="0"];
node37 -> node49;
node38 -> node49;
node39 -> node49;
node40 -> node49;
node41 -> node49;
node42 -> node49;
node43 -> node49;
node44 -> node49;
node45 -> node49;
node46 -> node49;
node47 -> node49;
node48 -> node49;
node50 [label="WEIGHTED_ROUND_ROBIN_Splitter_4535", push="192", pop="192", peek="0", pushType="complex", popType="complex", peekType="void", codeSize="222 b", stackSize="416 b", work="0"];
node49 -> node50;
node51 [label="CombineDFT_4537", push="16", pop="16", peek="16", pushType="complex", popType="complex", peekType="complex", codeSize="394 b", stackSize="5664 b", work="314"];
node50 -> node51;
node52 [label="CombineDFT_4538", push="16", pop="16", peek="16", pushType="complex", popType="complex", peekType="complex", codeSize="394 b", stackSize="5664 b", work="314"];
node50 -> node52;
node53 [label="CombineDFT_4539", push="16", pop="16", peek="16", pushType="complex", popType="complex", peekType="complex", codeSize="394 b", stackSize="5664 b", work="314"];
node50 -> node53;
node54 [label="CombineDFT_4540", push="16", pop="16", peek="16", pushType="complex", popType="complex", peekType="complex", codeSize="394 b", stackSize="5664 b", work="314"];
node50 -> node54;
node55 [label="CombineDFT_4541", push="16", pop="16", peek="16", pushType="complex", popType="complex", peekType="complex", codeSize="394 b", stackSize="5664 b", work="314"];
node50 -> node55;
node56 [label="CombineDFT_4542", push="16", pop="16", peek="16", pushType="complex", popType="complex", peekType="complex", codeSize="394 b", stackSize="5664 b", work="314"];
node50 -> node56;
node57 [label="CombineDFT_4543", push="16", pop="16", peek="16", pushType="complex", popType="complex", peekType="complex", codeSize="394 b", stackSize="5664 b", work="314"];
node50 -> node57;
node58 [label="CombineDFT_4544", push="16", pop="16", peek="16", pushType="complex", popType="complex", peekType="complex", codeSize="394 b", stackSize="5664 b", work="314"];
node50 -> node58;
node59 [label="CombineDFT_4545", push="16", pop="16", peek="16", pushType="complex", popType="complex", peekType="complex", codeSize="394 b", stackSize="5664 b", work="314"];
node50 -> node59;
node60 [label="CombineDFT_4546", push="16", pop="16", peek="16", pushType="complex", popType="complex", peekType="complex", codeSize="394 b", stackSize="5664 b", work="314"];
node50 -> node60;
node61 [label="CombineDFT_4547", push="16", pop="16", peek="16", pushType="complex", popType="complex", peekType="complex", codeSize="394 b", stackSize="5664 b", work="314"];
node50 -> node61;
node62 [label="CombineDFT_4548", push="16", pop="16", peek="16", pushType="complex", popType="complex", peekType="complex", codeSize="394 b", stackSize="5664 b", work="314"];
node50 -> node62;
node63 [label="WEIGHTED_ROUND_ROBIN_Joiner_4536", push="192", pop="192", peek="0", pushType="complex", popType="complex", peekType="void", codeSize="222 b", stackSize="416 b", work="0"];
node51 -> node63;
node52 -> node63;
node53 -> node63;
node54 -> node63;
node55 -> node63;
node56 -> node63;
node57 -> node63;
node58 -> node63;
node59 -> node63;
node60 -> node63;
node61 -> node63;
node62 -> node63;
node64 [label="WEIGHTED_ROUND_ROBIN_Splitter_4549", push="192", pop="192", peek="0", pushType="complex", popType="complex", peekType="void", codeSize="150 b", stackSize="288 b", work="0"];
node63 -> node64;
node65 [label="CombineDFT_4551", push="24", pop="24", peek="24", pushType="complex", popType="complex", peekType="complex", codeSize="394 b", stackSize="7712 b", work="624"];
node64 -> node65;
node66 [label="CombineDFT_4552", push="24", pop="24", peek="24", pushType="complex", popType="complex", peekType="complex", codeSize="394 b", stackSize="7712 b", work="624"];
node64 -> node66;
node67 [label="CombineDFT_4553", push="24", pop="24", peek="24", pushType="complex", popType="complex", peekType="complex", codeSize="394 b", stackSize="7712 b", work="624"];
node64 -> node67;
node68 [label="CombineDFT_4554", push="24", pop="24", peek="24", pushType="complex", popType="complex", peekType="complex", codeSize="394 b", stackSize="7712 b", work="624"];
node64 -> node68;
node69 [label="CombineDFT_4555", push="24", pop="24", peek="24", pushType="complex", popType="complex", peekType="complex", codeSize="394 b", stackSize="7712 b", work="624"];
node64 -> node69;
node70 [label="CombineDFT_4556", push="24", pop="24", peek="24", pushType="complex", popType="complex", peekType="complex", codeSize="394 b", stackSize="7712 b", work="624"];
node64 -> node70;
node71 [label="CombineDFT_4557", push="24", pop="24", peek="24", pushType="complex", popType="complex", peekType="complex", codeSize="394 b", stackSize="7712 b", work="624"];
node64 -> node71;
node72 [label="CombineDFT_4558", push="24", pop="24", peek="24", pushType="complex", popType="complex", peekType="complex", codeSize="394 b", stackSize="7712 b", work="624"];
node64 -> node72;
node73 [label="WEIGHTED_ROUND_ROBIN_Joiner_4550", push="192", pop="192", peek="0", pushType="complex", popType="complex", peekType="void", codeSize="150 b", stackSize="288 b", work="0"];
node65 -> node73;
node66 -> node73;
node67 -> node73;
node68 -> node73;
node69 -> node73;
node70 -> node73;
node71 -> node73;
node72 -> node73;
node74 [label="WEIGHTED_ROUND_ROBIN_Splitter_4559", push="192", pop="192", peek="0", pushType="complex", popType="complex", peekType="void", codeSize="78 b", stackSize="160 b", work="0"];
node73 -> node74;
node75 [label="CombineDFT_4561", push="48", pop="48", peek="48", pushType="complex", popType="complex", peekType="complex", codeSize="394 b", stackSize="11808 b", work="1244"];
node74 -> node75;
node76 [label="CombineDFT_4562", push="48", pop="48", peek="48", pushType="complex", popType="complex", peekType="complex", codeSize="394 b", stackSize="11808 b", work="1244"];
node74 -> node76;
node77 [label="CombineDFT_4563", push="48", pop="48", peek="48", pushType="complex", popType="complex", peekType="complex", codeSize="394 b", stackSize="11808 b", work="1244"];
node74 -> node77;
node78 [label="CombineDFT_4564", push="48", pop="48", peek="48", pushType="complex", popType="complex", peekType="complex", codeSize="394 b", stackSize="11808 b", work="1244"];
node74 -> node78;
node79 [label="WEIGHTED_ROUND_ROBIN_Joiner_4560", push="192", pop="192", peek="0", pushType="complex", popType="complex", peekType="void", codeSize="78 b", stackSize="160 b", work="0"];
node75 -> node79;
node76 -> node79;
node77 -> node79;
node78 -> node79;
node80 [label="WEIGHTED_ROUND_ROBIN_Splitter_4565", push="192", pop="192", peek="0", pushType="complex", popType="complex", peekType="void", codeSize="42 b", stackSize="96 b", work="0"];
node79 -> node80;
node81 [label="CombineDFT_4567", push="96", pop="96", peek="96", pushType="complex", popType="complex", peekType="complex", codeSize="394 b", stackSize="20000 b", work="2484"];
node80 -> node81;
node82 [label="CombineDFT_4568", push="96", pop="96", peek="96", pushType="complex", popType="complex", peekType="complex", codeSize="394 b", stackSize="20000 b", work="2484"];
node80 -> node82;
node83 [label="WEIGHTED_ROUND_ROBIN_Joiner_4566", push="192", pop="192", peek="0", pushType="complex", popType="complex", peekType="void", codeSize="42 b", stackSize="96 b", work="0"];
node81 -> node83;
node82 -> node83;
node84 [label="CombineDFT_4484", push="192", pop="192", peek="192", pushType="complex", popType="complex", peekType="complex", codeSize="394 b", stackSize="36384 b", work="4964"];
node83 -> node84;
node85 [label="CPrinter_4485", push="0", pop="192", peek="192", pushType="void", popType="complex", peekType="complex", codeSize="34 b", stackSize="512 b", work="13"];
node84 -> node85;
}
