digraph FFT2_5694 {
node0 [label="WEIGHTED_ROUND_ROBIN_Splitter_5472", push="0", pop="0", peek="0", pushType="void", popType="void", peekType="void", codeSize="30 b", stackSize="32 b", work="0"];
node1 [label="FFTTestSource_5474", push="2688", pop="0", peek="0", pushType="float", popType="void", peekType="void", codeSize="40 b", stackSize="32 b", work="632"];
node0 -> node1;
node2 [label="FFTTestSource_5475", push="2688", pop="0", peek="0", pushType="float", popType="void", peekType="void", codeSize="40 b", stackSize="32 b", work="632"];
node0 -> node2;
node3 [label="WEIGHTED_ROUND_ROBIN_Joiner_5473", push="5376", pop="5376", peek="0", pushType="float", popType="float", peekType="void", codeSize="42 b", stackSize="96 b", work="0"];
node1 -> node3;
node2 -> node3;
node4 [label="WEIGHTED_ROUND_ROBIN_Splitter_5464", push="5376", pop="5376", peek="0", pushType="float", popType="float", peekType="void", codeSize="42 b", stackSize="96 b", work="0"];
node3 -> node4;
node5 [label="FFTReorderSimple_5441", push="2688", pop="2688", peek="2688", pushType="float", popType="float", peekType="float", codeSize="114 b", stackSize="32 b", work="1472"];
node4 -> node5;
node6 [label="WEIGHTED_ROUND_ROBIN_Splitter_5476", push="2688", pop="2688", peek="0", pushType="float", popType="float", peekType="void", codeSize="42 b", stackSize="96 b", work="0"];
node5 -> node6;
node7 [label="FFTReorderSimple_5478", push="1344", pop="1344", peek="1344", pushType="float", popType="float", peekType="float", codeSize="114 b", stackSize="32 b", work="736"];
node6 -> node7;
node8 [label="FFTReorderSimple_5479", push="1344", pop="1344", peek="1344", pushType="float", popType="float", peekType="float", codeSize="114 b", stackSize="32 b", work="736"];
node6 -> node8;
node9 [label="WEIGHTED_ROUND_ROBIN_Joiner_5477", push="2688", pop="2688", peek="0", pushType="float", popType="float", peekType="void", codeSize="42 b", stackSize="96 b", work="0"];
node7 -> node9;
node8 -> node9;
node10 [label="WEIGHTED_ROUND_ROBIN_Splitter_5480", push="2688", pop="2688", peek="0", pushType="float", popType="float", peekType="void", codeSize="78 b", stackSize="160 b", work="0"];
node9 -> node10;
node11 [label="FFTReorderSimple_5482", push="672", pop="672", peek="672", pushType="float", popType="float", peekType="float", codeSize="114 b", stackSize="32 b", work="368"];
node10 -> node11;
node12 [label="FFTReorderSimple_5483", push="672", pop="672", peek="672", pushType="float", popType="float", peekType="float", codeSize="114 b", stackSize="32 b", work="368"];
node10 -> node12;
node13 [label="FFTReorderSimple_5484", push="672", pop="672", peek="672", pushType="float", popType="float", peekType="float", codeSize="114 b", stackSize="32 b", work="368"];
node10 -> node13;
node14 [label="FFTReorderSimple_5485", push="672", pop="672", peek="672", pushType="float", popType="float", peekType="float", codeSize="114 b", stackSize="32 b", work="368"];
node10 -> node14;
node15 [label="WEIGHTED_ROUND_ROBIN_Joiner_5481", push="2688", pop="2688", peek="0", pushType="float", popType="float", peekType="void", codeSize="78 b", stackSize="160 b", work="0"];
node11 -> node15;
node12 -> node15;
node13 -> node15;
node14 -> node15;
node16 [label="WEIGHTED_ROUND_ROBIN_Splitter_5486", push="2688", pop="2688", peek="0", pushType="float", popType="float", peekType="void", codeSize="150 b", stackSize="288 b", work="0"];
node15 -> node16;
node17 [label="FFTReorderSimple_5488", push="336", pop="336", peek="336", pushType="float", popType="float", peekType="float", codeSize="114 b", stackSize="32 b", work="184"];
node16 -> node17;
node18 [label="FFTReorderSimple_5489", push="336", pop="336", peek="336", pushType="float", popType="float", peekType="float", codeSize="114 b", stackSize="32 b", work="184"];
node16 -> node18;
node19 [label="FFTReorderSimple_5490", push="336", pop="336", peek="336", pushType="float", popType="float", peekType="float", codeSize="114 b", stackSize="32 b", work="184"];
node16 -> node19;
node20 [label="FFTReorderSimple_5491", push="336", pop="336", peek="336", pushType="float", popType="float", peekType="float", codeSize="114 b", stackSize="32 b", work="184"];
node16 -> node20;
node21 [label="FFTReorderSimple_5492", push="336", pop="336", peek="336", pushType="float", popType="float", peekType="float", codeSize="114 b", stackSize="32 b", work="184"];
node16 -> node21;
node22 [label="FFTReorderSimple_5493", push="336", pop="336", peek="336", pushType="float", popType="float", peekType="float", codeSize="114 b", stackSize="32 b", work="184"];
node16 -> node22;
node23 [label="FFTReorderSimple_5494", push="336", pop="336", peek="336", pushType="float", popType="float", peekType="float", codeSize="114 b", stackSize="32 b", work="184"];
node16 -> node23;
node24 [label="FFTReorderSimple_5495", push="336", pop="336", peek="336", pushType="float", popType="float", peekType="float", codeSize="114 b", stackSize="32 b", work="184"];
node16 -> node24;
node25 [label="WEIGHTED_ROUND_ROBIN_Joiner_5487", push="2688", pop="2688", peek="0", pushType="float", popType="float", peekType="void", codeSize="150 b", stackSize="288 b", work="0"];
node17 -> node25;
node18 -> node25;
node19 -> node25;
node20 -> node25;
node21 -> node25;
node22 -> node25;
node23 -> node25;
node24 -> node25;
node26 [label="WEIGHTED_ROUND_ROBIN_Splitter_5496", push="2688", pop="2688", peek="0", pushType="float", popType="float", peekType="void", codeSize="294 b", stackSize="544 b", work="0"];
node25 -> node26;
node27 [label="FFTReorderSimple_5498", push="168", pop="168", peek="168", pushType="float", popType="float", peekType="float", codeSize="114 b", stackSize="32 b", work="92"];
node26 -> node27;
node28 [label="FFTReorderSimple_5499", push="168", pop="168", peek="168", pushType="float", popType="float", peekType="float", codeSize="114 b", stackSize="32 b", work="92"];
node26 -> node28;
node29 [label="FFTReorderSimple_5500", push="168", pop="168", peek="168", pushType="float", popType="float", peekType="float", codeSize="114 b", stackSize="32 b", work="92"];
node26 -> node29;
node30 [label="FFTReorderSimple_5501", push="168", pop="168", peek="168", pushType="float", popType="float", peekType="float", codeSize="114 b", stackSize="32 b", work="92"];
node26 -> node30;
node31 [label="FFTReorderSimple_5502", push="168", pop="168", peek="168", pushType="float", popType="float", peekType="float", codeSize="114 b", stackSize="32 b", work="92"];
node26 -> node31;
node32 [label="FFTReorderSimple_5503", push="168", pop="168", peek="168", pushType="float", popType="float", peekType="float", codeSize="114 b", stackSize="32 b", work="92"];
node26 -> node32;
node33 [label="FFTReorderSimple_5504", push="168", pop="168", peek="168", pushType="float", popType="float", peekType="float", codeSize="114 b", stackSize="32 b", work="92"];
node26 -> node33;
node34 [label="FFTReorderSimple_5505", push="168", pop="168", peek="168", pushType="float", popType="float", peekType="float", codeSize="114 b", stackSize="32 b", work="92"];
node26 -> node34;
node35 [label="FFTReorderSimple_5506", push="168", pop="168", peek="168", pushType="float", popType="float", peekType="float", codeSize="114 b", stackSize="32 b", work="92"];
node26 -> node35;
node36 [label="FFTReorderSimple_5507", push="168", pop="168", peek="168", pushType="float", popType="float", peekType="float", codeSize="114 b", stackSize="32 b", work="92"];
node26 -> node36;
node37 [label="FFTReorderSimple_5508", push="168", pop="168", peek="168", pushType="float", popType="float", peekType="float", codeSize="114 b", stackSize="32 b", work="92"];
node26 -> node37;
node38 [label="FFTReorderSimple_5509", push="168", pop="168", peek="168", pushType="float", popType="float", peekType="float", codeSize="114 b", stackSize="32 b", work="92"];
node26 -> node38;
node39 [label="FFTReorderSimple_5510", push="168", pop="168", peek="168", pushType="float", popType="float", peekType="float", codeSize="114 b", stackSize="32 b", work="92"];
node26 -> node39;
node40 [label="FFTReorderSimple_5511", push="168", pop="168", peek="168", pushType="float", popType="float", peekType="float", codeSize="114 b", stackSize="32 b", work="92"];
node26 -> node40;
node41 [label="FFTReorderSimple_5512", push="168", pop="168", peek="168", pushType="float", popType="float", peekType="float", codeSize="114 b", stackSize="32 b", work="92"];
node26 -> node41;
node42 [label="FFTReorderSimple_5513", push="168", pop="168", peek="168", pushType="float", popType="float", peekType="float", codeSize="114 b", stackSize="32 b", work="92"];
node26 -> node42;
node43 [label="WEIGHTED_ROUND_ROBIN_Joiner_5497", push="2688", pop="2688", peek="0", pushType="float", popType="float", peekType="void", codeSize="294 b", stackSize="544 b", work="0"];
node27 -> node43;
node28 -> node43;
node29 -> node43;
node30 -> node43;
node31 -> node43;
node32 -> node43;
node33 -> node43;
node34 -> node43;
node35 -> node43;
node36 -> node43;
node37 -> node43;
node38 -> node43;
node39 -> node43;
node40 -> node43;
node41 -> node43;
node42 -> node43;
node44 [label="WEIGHTED_ROUND_ROBIN_Splitter_5514", push="2688", pop="2688", peek="0", pushType="float", popType="float", peekType="void", codeSize="384 b", stackSize="704 b", work="0"];
node43 -> node44;
node45 [label="CombineDFT_5516", push="128", pop="128", peek="128", pushType="float", popType="float", peekType="float", codeSize="228 b", stackSize="448 b", work="77"];
node44 -> node45;
node46 [label="CombineDFT_5517", push="128", pop="128", peek="128", pushType="float", popType="float", peekType="float", codeSize="228 b", stackSize="448 b", work="77"];
node44 -> node46;
node47 [label="CombineDFT_5518", push="128", pop="128", peek="128", pushType="float", popType="float", peekType="float", codeSize="228 b", stackSize="448 b", work="77"];
node44 -> node47;
node48 [label="CombineDFT_5519", push="128", pop="128", peek="128", pushType="float", popType="float", peekType="float", codeSize="228 b", stackSize="448 b", work="77"];
node44 -> node48;
node49 [label="CombineDFT_5520", push="128", pop="128", peek="128", pushType="float", popType="float", peekType="float", codeSize="228 b", stackSize="448 b", work="77"];
node44 -> node49;
node50 [label="CombineDFT_5521", push="128", pop="128", peek="128", pushType="float", popType="float", peekType="float", codeSize="228 b", stackSize="448 b", work="77"];
node44 -> node50;
node51 [label="CombineDFT_5522", push="128", pop="128", peek="128", pushType="float", popType="float", peekType="float", codeSize="228 b", stackSize="448 b", work="77"];
node44 -> node51;
node52 [label="CombineDFT_5523", push="128", pop="128", peek="128", pushType="float", popType="float", peekType="float", codeSize="228 b", stackSize="448 b", work="77"];
node44 -> node52;
node53 [label="CombineDFT_5524", push="128", pop="128", peek="128", pushType="float", popType="float", peekType="float", codeSize="228 b", stackSize="448 b", work="77"];
node44 -> node53;
node54 [label="CombineDFT_5525", push="128", pop="128", peek="128", pushType="float", popType="float", peekType="float", codeSize="228 b", stackSize="448 b", work="77"];
node44 -> node54;
node55 [label="CombineDFT_5526", push="128", pop="128", peek="128", pushType="float", popType="float", peekType="float", codeSize="228 b", stackSize="448 b", work="77"];
node44 -> node55;
node56 [label="CombineDFT_5527", push="128", pop="128", peek="128", pushType="float", popType="float", peekType="float", codeSize="228 b", stackSize="448 b", work="77"];
node44 -> node56;
node57 [label="CombineDFT_5528", push="128", pop="128", peek="128", pushType="float", popType="float", peekType="float", codeSize="228 b", stackSize="448 b", work="77"];
node44 -> node57;
node58 [label="CombineDFT_5529", push="128", pop="128", peek="128", pushType="float", popType="float", peekType="float", codeSize="228 b", stackSize="448 b", work="77"];
node44 -> node58;
node59 [label="CombineDFT_5530", push="128", pop="128", peek="128", pushType="float", popType="float", peekType="float", codeSize="228 b", stackSize="448 b", work="77"];
node44 -> node59;
node60 [label="CombineDFT_5531", push="128", pop="128", peek="128", pushType="float", popType="float", peekType="float", codeSize="228 b", stackSize="448 b", work="77"];
node44 -> node60;
node61 [label="CombineDFT_5532", push="128", pop="128", peek="128", pushType="float", popType="float", peekType="float", codeSize="228 b", stackSize="448 b", work="77"];
node44 -> node61;
node62 [label="CombineDFT_5533", push="128", pop="128", peek="128", pushType="float", popType="float", peekType="float", codeSize="228 b", stackSize="448 b", work="77"];
node44 -> node62;
node63 [label="CombineDFT_5534", push="128", pop="128", peek="128", pushType="float", popType="float", peekType="float", codeSize="228 b", stackSize="448 b", work="77"];
node44 -> node63;
node64 [label="CombineDFT_5535", push="128", pop="128", peek="128", pushType="float", popType="float", peekType="float", codeSize="228 b", stackSize="448 b", work="77"];
node44 -> node64;
node65 [label="CombineDFT_5536", push="128", pop="128", peek="128", pushType="float", popType="float", peekType="float", codeSize="228 b", stackSize="448 b", work="77"];
node44 -> node65;
node66 [label="WEIGHTED_ROUND_ROBIN_Joiner_5515", push="2688", pop="2688", peek="0", pushType="float", popType="float", peekType="void", codeSize="384 b", stackSize="704 b", work="0"];
node45 -> node66;
node46 -> node66;
node47 -> node66;
node48 -> node66;
node49 -> node66;
node50 -> node66;
node51 -> node66;
node52 -> node66;
node53 -> node66;
node54 -> node66;
node55 -> node66;
node56 -> node66;
node57 -> node66;
node58 -> node66;
node59 -> node66;
node60 -> node66;
node61 -> node66;
node62 -> node66;
node63 -> node66;
node64 -> node66;
node65 -> node66;
node67 [label="WEIGHTED_ROUND_ROBIN_Splitter_5537", push="2688", pop="2688", peek="0", pushType="float", popType="float", peekType="void", codeSize="294 b", stackSize="544 b", work="0"];
node66 -> node67;
node68 [label="CombineDFT_5539", push="168", pop="168", peek="168", pushType="float", popType="float", peekType="float", codeSize="228 b", stackSize="576 b", work="154"];
node67 -> node68;
node69 [label="CombineDFT_5540", push="168", pop="168", peek="168", pushType="float", popType="float", peekType="float", codeSize="228 b", stackSize="576 b", work="154"];
node67 -> node69;
node70 [label="CombineDFT_5541", push="168", pop="168", peek="168", pushType="float", popType="float", peekType="float", codeSize="228 b", stackSize="576 b", work="154"];
node67 -> node70;
node71 [label="CombineDFT_5542", push="168", pop="168", peek="168", pushType="float", popType="float", peekType="float", codeSize="228 b", stackSize="576 b", work="154"];
node67 -> node71;
node72 [label="CombineDFT_5543", push="168", pop="168", peek="168", pushType="float", popType="float", peekType="float", codeSize="228 b", stackSize="576 b", work="154"];
node67 -> node72;
node73 [label="CombineDFT_5544", push="168", pop="168", peek="168", pushType="float", popType="float", peekType="float", codeSize="228 b", stackSize="576 b", work="154"];
node67 -> node73;
node74 [label="CombineDFT_5545", push="168", pop="168", peek="168", pushType="float", popType="float", peekType="float", codeSize="228 b", stackSize="576 b", work="154"];
node67 -> node74;
node75 [label="CombineDFT_5546", push="168", pop="168", peek="168", pushType="float", popType="float", peekType="float", codeSize="228 b", stackSize="576 b", work="154"];
node67 -> node75;
node76 [label="CombineDFT_5547", push="168", pop="168", peek="168", pushType="float", popType="float", peekType="float", codeSize="228 b", stackSize="576 b", work="154"];
node67 -> node76;
node77 [label="CombineDFT_5548", push="168", pop="168", peek="168", pushType="float", popType="float", peekType="float", codeSize="228 b", stackSize="576 b", work="154"];
node67 -> node77;
node78 [label="CombineDFT_5549", push="168", pop="168", peek="168", pushType="float", popType="float", peekType="float", codeSize="228 b", stackSize="576 b", work="154"];
node67 -> node78;
node79 [label="CombineDFT_5550", push="168", pop="168", peek="168", pushType="float", popType="float", peekType="float", codeSize="228 b", stackSize="576 b", work="154"];
node67 -> node79;
node80 [label="CombineDFT_5551", push="168", pop="168", peek="168", pushType="float", popType="float", peekType="float", codeSize="228 b", stackSize="576 b", work="154"];
node67 -> node80;
node81 [label="CombineDFT_5552", push="168", pop="168", peek="168", pushType="float", popType="float", peekType="float", codeSize="228 b", stackSize="576 b", work="154"];
node67 -> node81;
node82 [label="CombineDFT_5553", push="168", pop="168", peek="168", pushType="float", popType="float", peekType="float", codeSize="228 b", stackSize="576 b", work="154"];
node67 -> node82;
node83 [label="CombineDFT_5554", push="168", pop="168", peek="168", pushType="float", popType="float", peekType="float", codeSize="228 b", stackSize="576 b", work="154"];
node67 -> node83;
node84 [label="WEIGHTED_ROUND_ROBIN_Joiner_5538", push="2688", pop="2688", peek="0", pushType="float", popType="float", peekType="void", codeSize="294 b", stackSize="544 b", work="0"];
node68 -> node84;
node69 -> node84;
node70 -> node84;
node71 -> node84;
node72 -> node84;
node73 -> node84;
node74 -> node84;
node75 -> node84;
node76 -> node84;
node77 -> node84;
node78 -> node84;
node79 -> node84;
node80 -> node84;
node81 -> node84;
node82 -> node84;
node83 -> node84;
node85 [label="WEIGHTED_ROUND_ROBIN_Splitter_5555", push="2688", pop="2688", peek="0", pushType="float", popType="float", peekType="void", codeSize="150 b", stackSize="288 b", work="0"];
node84 -> node85;
node86 [label="CombineDFT_5557", push="336", pop="336", peek="336", pushType="float", popType="float", peekType="float", codeSize="228 b", stackSize="832 b", work="308"];
node85 -> node86;
node87 [label="CombineDFT_5558", push="336", pop="336", peek="336", pushType="float", popType="float", peekType="float", codeSize="228 b", stackSize="832 b", work="308"];
node85 -> node87;
node88 [label="CombineDFT_5559", push="336", pop="336", peek="336", pushType="float", popType="float", peekType="float", codeSize="228 b", stackSize="832 b", work="308"];
node85 -> node88;
node89 [label="CombineDFT_5560", push="336", pop="336", peek="336", pushType="float", popType="float", peekType="float", codeSize="228 b", stackSize="832 b", work="308"];
node85 -> node89;
node90 [label="CombineDFT_5561", push="336", pop="336", peek="336", pushType="float", popType="float", peekType="float", codeSize="228 b", stackSize="832 b", work="308"];
node85 -> node90;
node91 [label="CombineDFT_5562", push="336", pop="336", peek="336", pushType="float", popType="float", peekType="float", codeSize="228 b", stackSize="832 b", work="308"];
node85 -> node91;
node92 [label="CombineDFT_5563", push="336", pop="336", peek="336", pushType="float", popType="float", peekType="float", codeSize="228 b", stackSize="832 b", work="308"];
node85 -> node92;
node93 [label="CombineDFT_5564", push="336", pop="336", peek="336", pushType="float", popType="float", peekType="float", codeSize="228 b", stackSize="832 b", work="308"];
node85 -> node93;
node94 [label="WEIGHTED_ROUND_ROBIN_Joiner_5556", push="2688", pop="2688", peek="0", pushType="float", popType="float", peekType="void", codeSize="150 b", stackSize="288 b", work="0"];
node86 -> node94;
node87 -> node94;
node88 -> node94;
node89 -> node94;
node90 -> node94;
node91 -> node94;
node92 -> node94;
node93 -> node94;
node95 [label="WEIGHTED_ROUND_ROBIN_Splitter_5565", push="2688", pop="2688", peek="0", pushType="float", popType="float", peekType="void", codeSize="78 b", stackSize="160 b", work="0"];
node94 -> node95;
node96 [label="CombineDFT_5567", push="672", pop="672", peek="672", pushType="float", popType="float", peekType="float", codeSize="228 b", stackSize="1344 b", work="616"];
node95 -> node96;
node97 [label="CombineDFT_5568", push="672", pop="672", peek="672", pushType="float", popType="float", peekType="float", codeSize="228 b", stackSize="1344 b", work="616"];
node95 -> node97;
node98 [label="CombineDFT_5569", push="672", pop="672", peek="672", pushType="float", popType="float", peekType="float", codeSize="228 b", stackSize="1344 b", work="616"];
node95 -> node98;
node99 [label="CombineDFT_5570", push="672", pop="672", peek="672", pushType="float", popType="float", peekType="float", codeSize="228 b", stackSize="1344 b", work="616"];
node95 -> node99;
node100 [label="WEIGHTED_ROUND_ROBIN_Joiner_5566", push="2688", pop="2688", peek="0", pushType="float", popType="float", peekType="void", codeSize="78 b", stackSize="160 b", work="0"];
node96 -> node100;
node97 -> node100;
node98 -> node100;
node99 -> node100;
node101 [label="WEIGHTED_ROUND_ROBIN_Splitter_5571", push="2688", pop="2688", peek="0", pushType="float", popType="float", peekType="void", codeSize="42 b", stackSize="96 b", work="0"];
node100 -> node101;
node102 [label="CombineDFT_5573", push="1344", pop="1344", peek="1344", pushType="float", popType="float", peekType="float", codeSize="228 b", stackSize="2368 b", work="1232"];
node101 -> node102;
node103 [label="CombineDFT_5574", push="1344", pop="1344", peek="1344", pushType="float", popType="float", peekType="float", codeSize="228 b", stackSize="2368 b", work="1232"];
node101 -> node103;
node104 [label="WEIGHTED_ROUND_ROBIN_Joiner_5572", push="2688", pop="2688", peek="0", pushType="float", popType="float", peekType="void", codeSize="42 b", stackSize="96 b", work="0"];
node102 -> node104;
node103 -> node104;
node105 [label="CombineDFT_5451", push="2688", pop="2688", peek="2688", pushType="float", popType="float", peekType="float", codeSize="228 b", stackSize="4416 b", work="2464"];
node104 -> node105;
node106 [label="FFTReorderSimple_5452", push="2688", pop="2688", peek="2688", pushType="float", popType="float", peekType="float", codeSize="114 b", stackSize="32 b", work="1472"];
node4 -> node106;
node107 [label="WEIGHTED_ROUND_ROBIN_Splitter_5575", push="2688", pop="2688", peek="0", pushType="float", popType="float", peekType="void", codeSize="42 b", stackSize="96 b", work="0"];
node106 -> node107;
node108 [label="FFTReorderSimple_5577", push="1344", pop="1344", peek="1344", pushType="float", popType="float", peekType="float", codeSize="114 b", stackSize="32 b", work="736"];
node107 -> node108;
node109 [label="FFTReorderSimple_5578", push="1344", pop="1344", peek="1344", pushType="float", popType="float", peekType="float", codeSize="114 b", stackSize="32 b", work="736"];
node107 -> node109;
node110 [label="WEIGHTED_ROUND_ROBIN_Joiner_5576", push="2688", pop="2688", peek="0", pushType="float", popType="float", peekType="void", codeSize="42 b", stackSize="96 b", work="0"];
node108 -> node110;
node109 -> node110;
node111 [label="WEIGHTED_ROUND_ROBIN_Splitter_5579", push="2688", pop="2688", peek="0", pushType="float", popType="float", peekType="void", codeSize="78 b", stackSize="160 b", work="0"];
node110 -> node111;
node112 [label="FFTReorderSimple_5581", push="672", pop="672", peek="672", pushType="float", popType="float", peekType="float", codeSize="114 b", stackSize="32 b", work="368"];
node111 -> node112;
node113 [label="FFTReorderSimple_5582", push="672", pop="672", peek="672", pushType="float", popType="float", peekType="float", codeSize="114 b", stackSize="32 b", work="368"];
node111 -> node113;
node114 [label="FFTReorderSimple_5583", push="672", pop="672", peek="672", pushType="float", popType="float", peekType="float", codeSize="114 b", stackSize="32 b", work="368"];
node111 -> node114;
node115 [label="FFTReorderSimple_5584", push="672", pop="672", peek="672", pushType="float", popType="float", peekType="float", codeSize="114 b", stackSize="32 b", work="368"];
node111 -> node115;
node116 [label="WEIGHTED_ROUND_ROBIN_Joiner_5580", push="2688", pop="2688", peek="0", pushType="float", popType="float", peekType="void", codeSize="78 b", stackSize="160 b", work="0"];
node112 -> node116;
node113 -> node116;
node114 -> node116;
node115 -> node116;
node117 [label="WEIGHTED_ROUND_ROBIN_Splitter_5585", push="2688", pop="2688", peek="0", pushType="float", popType="float", peekType="void", codeSize="150 b", stackSize="288 b", work="0"];
node116 -> node117;
node118 [label="FFTReorderSimple_5587", push="336", pop="336", peek="336", pushType="float", popType="float", peekType="float", codeSize="114 b", stackSize="32 b", work="184"];
node117 -> node118;
node119 [label="FFTReorderSimple_5588", push="336", pop="336", peek="336", pushType="float", popType="float", peekType="float", codeSize="114 b", stackSize="32 b", work="184"];
node117 -> node119;
node120 [label="FFTReorderSimple_5589", push="336", pop="336", peek="336", pushType="float", popType="float", peekType="float", codeSize="114 b", stackSize="32 b", work="184"];
node117 -> node120;
node121 [label="FFTReorderSimple_5590", push="336", pop="336", peek="336", pushType="float", popType="float", peekType="float", codeSize="114 b", stackSize="32 b", work="184"];
node117 -> node121;
node122 [label="FFTReorderSimple_5591", push="336", pop="336", peek="336", pushType="float", popType="float", peekType="float", codeSize="114 b", stackSize="32 b", work="184"];
node117 -> node122;
node123 [label="FFTReorderSimple_5592", push="336", pop="336", peek="336", pushType="float", popType="float", peekType="float", codeSize="114 b", stackSize="32 b", work="184"];
node117 -> node123;
node124 [label="FFTReorderSimple_5593", push="336", pop="336", peek="336", pushType="float", popType="float", peekType="float", codeSize="114 b", stackSize="32 b", work="184"];
node117 -> node124;
node125 [label="FFTReorderSimple_5594", push="336", pop="336", peek="336", pushType="float", popType="float", peekType="float", codeSize="114 b", stackSize="32 b", work="184"];
node117 -> node125;
node126 [label="WEIGHTED_ROUND_ROBIN_Joiner_5586", push="2688", pop="2688", peek="0", pushType="float", popType="float", peekType="void", codeSize="150 b", stackSize="288 b", work="0"];
node118 -> node126;
node119 -> node126;
node120 -> node126;
node121 -> node126;
node122 -> node126;
node123 -> node126;
node124 -> node126;
node125 -> node126;
node127 [label="WEIGHTED_ROUND_ROBIN_Splitter_5595", push="2688", pop="2688", peek="0", pushType="float", popType="float", peekType="void", codeSize="294 b", stackSize="544 b", work="0"];
node126 -> node127;
node128 [label="FFTReorderSimple_5597", push="168", pop="168", peek="168", pushType="float", popType="float", peekType="float", codeSize="114 b", stackSize="32 b", work="92"];
node127 -> node128;
node129 [label="FFTReorderSimple_5598", push="168", pop="168", peek="168", pushType="float", popType="float", peekType="float", codeSize="114 b", stackSize="32 b", work="92"];
node127 -> node129;
node130 [label="FFTReorderSimple_5599", push="168", pop="168", peek="168", pushType="float", popType="float", peekType="float", codeSize="114 b", stackSize="32 b", work="92"];
node127 -> node130;
node131 [label="FFTReorderSimple_5600", push="168", pop="168", peek="168", pushType="float", popType="float", peekType="float", codeSize="114 b", stackSize="32 b", work="92"];
node127 -> node131;
node132 [label="FFTReorderSimple_5601", push="168", pop="168", peek="168", pushType="float", popType="float", peekType="float", codeSize="114 b", stackSize="32 b", work="92"];
node127 -> node132;
node133 [label="FFTReorderSimple_5602", push="168", pop="168", peek="168", pushType="float", popType="float", peekType="float", codeSize="114 b", stackSize="32 b", work="92"];
node127 -> node133;
node134 [label="FFTReorderSimple_5603", push="168", pop="168", peek="168", pushType="float", popType="float", peekType="float", codeSize="114 b", stackSize="32 b", work="92"];
node127 -> node134;
node135 [label="FFTReorderSimple_5604", push="168", pop="168", peek="168", pushType="float", popType="float", peekType="float", codeSize="114 b", stackSize="32 b", work="92"];
node127 -> node135;
node136 [label="FFTReorderSimple_5605", push="168", pop="168", peek="168", pushType="float", popType="float", peekType="float", codeSize="114 b", stackSize="32 b", work="92"];
node127 -> node136;
node137 [label="FFTReorderSimple_5606", push="168", pop="168", peek="168", pushType="float", popType="float", peekType="float", codeSize="114 b", stackSize="32 b", work="92"];
node127 -> node137;
node138 [label="FFTReorderSimple_5607", push="168", pop="168", peek="168", pushType="float", popType="float", peekType="float", codeSize="114 b", stackSize="32 b", work="92"];
node127 -> node138;
node139 [label="FFTReorderSimple_5608", push="168", pop="168", peek="168", pushType="float", popType="float", peekType="float", codeSize="114 b", stackSize="32 b", work="92"];
node127 -> node139;
node140 [label="FFTReorderSimple_5609", push="168", pop="168", peek="168", pushType="float", popType="float", peekType="float", codeSize="114 b", stackSize="32 b", work="92"];
node127 -> node140;
node141 [label="FFTReorderSimple_5610", push="168", pop="168", peek="168", pushType="float", popType="float", peekType="float", codeSize="114 b", stackSize="32 b", work="92"];
node127 -> node141;
node142 [label="FFTReorderSimple_5611", push="168", pop="168", peek="168", pushType="float", popType="float", peekType="float", codeSize="114 b", stackSize="32 b", work="92"];
node127 -> node142;
node143 [label="FFTReorderSimple_5612", push="168", pop="168", peek="168", pushType="float", popType="float", peekType="float", codeSize="114 b", stackSize="32 b", work="92"];
node127 -> node143;
node144 [label="WEIGHTED_ROUND_ROBIN_Joiner_5596", push="2688", pop="2688", peek="0", pushType="float", popType="float", peekType="void", codeSize="294 b", stackSize="544 b", work="0"];
node128 -> node144;
node129 -> node144;
node130 -> node144;
node131 -> node144;
node132 -> node144;
node133 -> node144;
node134 -> node144;
node135 -> node144;
node136 -> node144;
node137 -> node144;
node138 -> node144;
node139 -> node144;
node140 -> node144;
node141 -> node144;
node142 -> node144;
node143 -> node144;
node145 [label="WEIGHTED_ROUND_ROBIN_Splitter_5613", push="2688", pop="2688", peek="0", pushType="float", popType="float", peekType="void", codeSize="384 b", stackSize="704 b", work="0"];
node144 -> node145;
node146 [label="CombineDFT_5615", push="128", pop="128", peek="128", pushType="float", popType="float", peekType="float", codeSize="228 b", stackSize="448 b", work="77"];
node145 -> node146;
node147 [label="CombineDFT_5616", push="128", pop="128", peek="128", pushType="float", popType="float", peekType="float", codeSize="228 b", stackSize="448 b", work="77"];
node145 -> node147;
node148 [label="CombineDFT_5617", push="128", pop="128", peek="128", pushType="float", popType="float", peekType="float", codeSize="228 b", stackSize="448 b", work="77"];
node145 -> node148;
node149 [label="CombineDFT_5618", push="128", pop="128", peek="128", pushType="float", popType="float", peekType="float", codeSize="228 b", stackSize="448 b", work="77"];
node145 -> node149;
node150 [label="CombineDFT_5619", push="128", pop="128", peek="128", pushType="float", popType="float", peekType="float", codeSize="228 b", stackSize="448 b", work="77"];
node145 -> node150;
node151 [label="CombineDFT_5620", push="128", pop="128", peek="128", pushType="float", popType="float", peekType="float", codeSize="228 b", stackSize="448 b", work="77"];
node145 -> node151;
node152 [label="CombineDFT_5621", push="128", pop="128", peek="128", pushType="float", popType="float", peekType="float", codeSize="228 b", stackSize="448 b", work="77"];
node145 -> node152;
node153 [label="CombineDFT_5622", push="128", pop="128", peek="128", pushType="float", popType="float", peekType="float", codeSize="228 b", stackSize="448 b", work="77"];
node145 -> node153;
node154 [label="CombineDFT_5623", push="128", pop="128", peek="128", pushType="float", popType="float", peekType="float", codeSize="228 b", stackSize="448 b", work="77"];
node145 -> node154;
node155 [label="CombineDFT_5624", push="128", pop="128", peek="128", pushType="float", popType="float", peekType="float", codeSize="228 b", stackSize="448 b", work="77"];
node145 -> node155;
node156 [label="CombineDFT_5625", push="128", pop="128", peek="128", pushType="float", popType="float", peekType="float", codeSize="228 b", stackSize="448 b", work="77"];
node145 -> node156;
node157 [label="CombineDFT_5626", push="128", pop="128", peek="128", pushType="float", popType="float", peekType="float", codeSize="228 b", stackSize="448 b", work="77"];
node145 -> node157;
node158 [label="CombineDFT_5627", push="128", pop="128", peek="128", pushType="float", popType="float", peekType="float", codeSize="228 b", stackSize="448 b", work="77"];
node145 -> node158;
node159 [label="CombineDFT_5628", push="128", pop="128", peek="128", pushType="float", popType="float", peekType="float", codeSize="228 b", stackSize="448 b", work="77"];
node145 -> node159;
node160 [label="CombineDFT_5629", push="128", pop="128", peek="128", pushType="float", popType="float", peekType="float", codeSize="228 b", stackSize="448 b", work="77"];
node145 -> node160;
node161 [label="CombineDFT_5630", push="128", pop="128", peek="128", pushType="float", popType="float", peekType="float", codeSize="228 b", stackSize="448 b", work="77"];
node145 -> node161;
node162 [label="CombineDFT_5631", push="128", pop="128", peek="128", pushType="float", popType="float", peekType="float", codeSize="228 b", stackSize="448 b", work="77"];
node145 -> node162;
node163 [label="CombineDFT_5632", push="128", pop="128", peek="128", pushType="float", popType="float", peekType="float", codeSize="228 b", stackSize="448 b", work="77"];
node145 -> node163;
node164 [label="CombineDFT_5633", push="128", pop="128", peek="128", pushType="float", popType="float", peekType="float", codeSize="228 b", stackSize="448 b", work="77"];
node145 -> node164;
node165 [label="CombineDFT_5634", push="128", pop="128", peek="128", pushType="float", popType="float", peekType="float", codeSize="228 b", stackSize="448 b", work="77"];
node145 -> node165;
node166 [label="CombineDFT_5635", push="128", pop="128", peek="128", pushType="float", popType="float", peekType="float", codeSize="228 b", stackSize="448 b", work="77"];
node145 -> node166;
node167 [label="WEIGHTED_ROUND_ROBIN_Joiner_5614", push="2688", pop="2688", peek="0", pushType="float", popType="float", peekType="void", codeSize="384 b", stackSize="704 b", work="0"];
node146 -> node167;
node147 -> node167;
node148 -> node167;
node149 -> node167;
node150 -> node167;
node151 -> node167;
node152 -> node167;
node153 -> node167;
node154 -> node167;
node155 -> node167;
node156 -> node167;
node157 -> node167;
node158 -> node167;
node159 -> node167;
node160 -> node167;
node161 -> node167;
node162 -> node167;
node163 -> node167;
node164 -> node167;
node165 -> node167;
node166 -> node167;
node168 [label="WEIGHTED_ROUND_ROBIN_Splitter_5636", push="2688", pop="2688", peek="0", pushType="float", popType="float", peekType="void", codeSize="294 b", stackSize="544 b", work="0"];
node167 -> node168;
node169 [label="CombineDFT_5638", push="168", pop="168", peek="168", pushType="float", popType="float", peekType="float", codeSize="228 b", stackSize="576 b", work="154"];
node168 -> node169;
node170 [label="CombineDFT_5639", push="168", pop="168", peek="168", pushType="float", popType="float", peekType="float", codeSize="228 b", stackSize="576 b", work="154"];
node168 -> node170;
node171 [label="CombineDFT_5640", push="168", pop="168", peek="168", pushType="float", popType="float", peekType="float", codeSize="228 b", stackSize="576 b", work="154"];
node168 -> node171;
node172 [label="CombineDFT_5641", push="168", pop="168", peek="168", pushType="float", popType="float", peekType="float", codeSize="228 b", stackSize="576 b", work="154"];
node168 -> node172;
node173 [label="CombineDFT_5642", push="168", pop="168", peek="168", pushType="float", popType="float", peekType="float", codeSize="228 b", stackSize="576 b", work="154"];
node168 -> node173;
node174 [label="CombineDFT_5643", push="168", pop="168", peek="168", pushType="float", popType="float", peekType="float", codeSize="228 b", stackSize="576 b", work="154"];
node168 -> node174;
node175 [label="CombineDFT_5644", push="168", pop="168", peek="168", pushType="float", popType="float", peekType="float", codeSize="228 b", stackSize="576 b", work="154"];
node168 -> node175;
node176 [label="CombineDFT_5645", push="168", pop="168", peek="168", pushType="float", popType="float", peekType="float", codeSize="228 b", stackSize="576 b", work="154"];
node168 -> node176;
node177 [label="CombineDFT_5646", push="168", pop="168", peek="168", pushType="float", popType="float", peekType="float", codeSize="228 b", stackSize="576 b", work="154"];
node168 -> node177;
node178 [label="CombineDFT_5647", push="168", pop="168", peek="168", pushType="float", popType="float", peekType="float", codeSize="228 b", stackSize="576 b", work="154"];
node168 -> node178;
node179 [label="CombineDFT_5648", push="168", pop="168", peek="168", pushType="float", popType="float", peekType="float", codeSize="228 b", stackSize="576 b", work="154"];
node168 -> node179;
node180 [label="CombineDFT_5649", push="168", pop="168", peek="168", pushType="float", popType="float", peekType="float", codeSize="228 b", stackSize="576 b", work="154"];
node168 -> node180;
node181 [label="CombineDFT_5650", push="168", pop="168", peek="168", pushType="float", popType="float", peekType="float", codeSize="228 b", stackSize="576 b", work="154"];
node168 -> node181;
node182 [label="CombineDFT_5651", push="168", pop="168", peek="168", pushType="float", popType="float", peekType="float", codeSize="228 b", stackSize="576 b", work="154"];
node168 -> node182;
node183 [label="CombineDFT_5652", push="168", pop="168", peek="168", pushType="float", popType="float", peekType="float", codeSize="228 b", stackSize="576 b", work="154"];
node168 -> node183;
node184 [label="CombineDFT_5653", push="168", pop="168", peek="168", pushType="float", popType="float", peekType="float", codeSize="228 b", stackSize="576 b", work="154"];
node168 -> node184;
node185 [label="WEIGHTED_ROUND_ROBIN_Joiner_5637", push="2688", pop="2688", peek="0", pushType="float", popType="float", peekType="void", codeSize="294 b", stackSize="544 b", work="0"];
node169 -> node185;
node170 -> node185;
node171 -> node185;
node172 -> node185;
node173 -> node185;
node174 -> node185;
node175 -> node185;
node176 -> node185;
node177 -> node185;
node178 -> node185;
node179 -> node185;
node180 -> node185;
node181 -> node185;
node182 -> node185;
node183 -> node185;
node184 -> node185;
node186 [label="WEIGHTED_ROUND_ROBIN_Splitter_5654", push="2688", pop="2688", peek="0", pushType="float", popType="float", peekType="void", codeSize="150 b", stackSize="288 b", work="0"];
node185 -> node186;
node187 [label="CombineDFT_5656", push="336", pop="336", peek="336", pushType="float", popType="float", peekType="float", codeSize="228 b", stackSize="832 b", work="308"];
node186 -> node187;
node188 [label="CombineDFT_5657", push="336", pop="336", peek="336", pushType="float", popType="float", peekType="float", codeSize="228 b", stackSize="832 b", work="308"];
node186 -> node188;
node189 [label="CombineDFT_5658", push="336", pop="336", peek="336", pushType="float", popType="float", peekType="float", codeSize="228 b", stackSize="832 b", work="308"];
node186 -> node189;
node190 [label="CombineDFT_5659", push="336", pop="336", peek="336", pushType="float", popType="float", peekType="float", codeSize="228 b", stackSize="832 b", work="308"];
node186 -> node190;
node191 [label="CombineDFT_5660", push="336", pop="336", peek="336", pushType="float", popType="float", peekType="float", codeSize="228 b", stackSize="832 b", work="308"];
node186 -> node191;
node192 [label="CombineDFT_5661", push="336", pop="336", peek="336", pushType="float", popType="float", peekType="float", codeSize="228 b", stackSize="832 b", work="308"];
node186 -> node192;
node193 [label="CombineDFT_5662", push="336", pop="336", peek="336", pushType="float", popType="float", peekType="float", codeSize="228 b", stackSize="832 b", work="308"];
node186 -> node193;
node194 [label="CombineDFT_5663", push="336", pop="336", peek="336", pushType="float", popType="float", peekType="float", codeSize="228 b", stackSize="832 b", work="308"];
node186 -> node194;
node195 [label="WEIGHTED_ROUND_ROBIN_Joiner_5655", push="2688", pop="2688", peek="0", pushType="float", popType="float", peekType="void", codeSize="150 b", stackSize="288 b", work="0"];
node187 -> node195;
node188 -> node195;
node189 -> node195;
node190 -> node195;
node191 -> node195;
node192 -> node195;
node193 -> node195;
node194 -> node195;
node196 [label="WEIGHTED_ROUND_ROBIN_Splitter_5664", push="2688", pop="2688", peek="0", pushType="float", popType="float", peekType="void", codeSize="78 b", stackSize="160 b", work="0"];
node195 -> node196;
node197 [label="CombineDFT_5666", push="672", pop="672", peek="672", pushType="float", popType="float", peekType="float", codeSize="228 b", stackSize="1344 b", work="616"];
node196 -> node197;
node198 [label="CombineDFT_5667", push="672", pop="672", peek="672", pushType="float", popType="float", peekType="float", codeSize="228 b", stackSize="1344 b", work="616"];
node196 -> node198;
node199 [label="CombineDFT_5668", push="672", pop="672", peek="672", pushType="float", popType="float", peekType="float", codeSize="228 b", stackSize="1344 b", work="616"];
node196 -> node199;
node200 [label="CombineDFT_5669", push="672", pop="672", peek="672", pushType="float", popType="float", peekType="float", codeSize="228 b", stackSize="1344 b", work="616"];
node196 -> node200;
node201 [label="WEIGHTED_ROUND_ROBIN_Joiner_5665", push="2688", pop="2688", peek="0", pushType="float", popType="float", peekType="void", codeSize="78 b", stackSize="160 b", work="0"];
node197 -> node201;
node198 -> node201;
node199 -> node201;
node200 -> node201;
node202 [label="WEIGHTED_ROUND_ROBIN_Splitter_5670", push="2688", pop="2688", peek="0", pushType="float", popType="float", peekType="void", codeSize="42 b", stackSize="96 b", work="0"];
node201 -> node202;
node203 [label="CombineDFT_5672", push="1344", pop="1344", peek="1344", pushType="float", popType="float", peekType="float", codeSize="228 b", stackSize="2368 b", work="1232"];
node202 -> node203;
node204 [label="CombineDFT_5673", push="1344", pop="1344", peek="1344", pushType="float", popType="float", peekType="float", codeSize="228 b", stackSize="2368 b", work="1232"];
node202 -> node204;
node205 [label="WEIGHTED_ROUND_ROBIN_Joiner_5671", push="2688", pop="2688", peek="0", pushType="float", popType="float", peekType="void", codeSize="42 b", stackSize="96 b", work="0"];
node203 -> node205;
node204 -> node205;
node206 [label="CombineDFT_5462", push="2688", pop="2688", peek="2688", pushType="float", popType="float", peekType="float", codeSize="228 b", stackSize="4416 b", work="2464"];
node205 -> node206;
node207 [label="WEIGHTED_ROUND_ROBIN_Joiner_5465", push="5376", pop="5376", peek="0", pushType="float", popType="float", peekType="void", codeSize="42 b", stackSize="96 b", work="0"];
node105 -> node207;
node206 -> node207;
node208 [label="FloatPrinter_5463", push="0", pop="5376", peek="5376", pushType="void", popType="float", peekType="float", codeSize="16 b", stackSize="0 b", work="6"];
node207 -> node208;
}
