digraph FFT6_2510 {
node0 [label="FFTTestSource_2387", push="704", pop="0", peek="0", pushType="complex", popType="void", peekType="void", codeSize="44 b", stackSize="1056 b", work="324"];
node1 [label="FFTReorderSimple_2388", push="704", pop="704", peek="704", pushType="complex", popType="complex", peekType="complex", codeSize="68 b", stackSize="1056 b", work="832"];
node0 -> node1;
node2 [label="WEIGHTED_ROUND_ROBIN_Splitter_2401", push="704", pop="704", peek="0", pushType="complex", popType="complex", peekType="void", codeSize="42 b", stackSize="96 b", work="0"];
node1 -> node2;
node3 [label="FFTReorderSimple_2403", push="352", pop="352", peek="352", pushType="complex", popType="complex", peekType="complex", codeSize="68 b", stackSize="1056 b", work="416"];
node2 -> node3;
node4 [label="FFTReorderSimple_2404", push="352", pop="352", peek="352", pushType="complex", popType="complex", peekType="complex", codeSize="68 b", stackSize="1056 b", work="416"];
node2 -> node4;
node5 [label="WEIGHTED_ROUND_ROBIN_Joiner_2402", push="704", pop="704", peek="0", pushType="complex", popType="complex", peekType="void", codeSize="42 b", stackSize="96 b", work="0"];
node3 -> node5;
node4 -> node5;
node6 [label="WEIGHTED_ROUND_ROBIN_Splitter_2405", push="704", pop="704", peek="0", pushType="complex", popType="complex", peekType="void", codeSize="78 b", stackSize="160 b", work="0"];
node5 -> node6;
node7 [label="FFTReorderSimple_2407", push="176", pop="176", peek="176", pushType="complex", popType="complex", peekType="complex", codeSize="68 b", stackSize="1056 b", work="208"];
node6 -> node7;
node8 [label="FFTReorderSimple_2408", push="176", pop="176", peek="176", pushType="complex", popType="complex", peekType="complex", codeSize="68 b", stackSize="1056 b", work="208"];
node6 -> node8;
node9 [label="FFTReorderSimple_2409", push="176", pop="176", peek="176", pushType="complex", popType="complex", peekType="complex", codeSize="68 b", stackSize="1056 b", work="208"];
node6 -> node9;
node10 [label="FFTReorderSimple_2410", push="176", pop="176", peek="176", pushType="complex", popType="complex", peekType="complex", codeSize="68 b", stackSize="1056 b", work="208"];
node6 -> node10;
node11 [label="WEIGHTED_ROUND_ROBIN_Joiner_2406", push="704", pop="704", peek="0", pushType="complex", popType="complex", peekType="void", codeSize="78 b", stackSize="160 b", work="0"];
node7 -> node11;
node8 -> node11;
node9 -> node11;
node10 -> node11;
node12 [label="WEIGHTED_ROUND_ROBIN_Splitter_2411", push="704", pop="704", peek="0", pushType="complex", popType="complex", peekType="void", codeSize="150 b", stackSize="288 b", work="0"];
node11 -> node12;
node13 [label="FFTReorderSimple_2413", push="88", pop="88", peek="88", pushType="complex", popType="complex", peekType="complex", codeSize="68 b", stackSize="1056 b", work="104"];
node12 -> node13;
node14 [label="FFTReorderSimple_2414", push="88", pop="88", peek="88", pushType="complex", popType="complex", peekType="complex", codeSize="68 b", stackSize="1056 b", work="104"];
node12 -> node14;
node15 [label="FFTReorderSimple_2415", push="88", pop="88", peek="88", pushType="complex", popType="complex", peekType="complex", codeSize="68 b", stackSize="1056 b", work="104"];
node12 -> node15;
node16 [label="FFTReorderSimple_2416", push="88", pop="88", peek="88", pushType="complex", popType="complex", peekType="complex", codeSize="68 b", stackSize="1056 b", work="104"];
node12 -> node16;
node17 [label="FFTReorderSimple_2417", push="88", pop="88", peek="88", pushType="complex", popType="complex", peekType="complex", codeSize="68 b", stackSize="1056 b", work="104"];
node12 -> node17;
node18 [label="FFTReorderSimple_2418", push="88", pop="88", peek="88", pushType="complex", popType="complex", peekType="complex", codeSize="68 b", stackSize="1056 b", work="104"];
node12 -> node18;
node19 [label="FFTReorderSimple_2419", push="88", pop="88", peek="88", pushType="complex", popType="complex", peekType="complex", codeSize="68 b", stackSize="1056 b", work="104"];
node12 -> node19;
node20 [label="FFTReorderSimple_2420", push="88", pop="88", peek="88", pushType="complex", popType="complex", peekType="complex", codeSize="68 b", stackSize="1056 b", work="104"];
node12 -> node20;
node21 [label="WEIGHTED_ROUND_ROBIN_Joiner_2412", push="704", pop="704", peek="0", pushType="complex", popType="complex", peekType="void", codeSize="150 b", stackSize="288 b", work="0"];
node13 -> node21;
node14 -> node21;
node15 -> node21;
node16 -> node21;
node17 -> node21;
node18 -> node21;
node19 -> node21;
node20 -> node21;
node22 [label="WEIGHTED_ROUND_ROBIN_Splitter_2421", push="704", pop="704", peek="0", pushType="complex", popType="complex", peekType="void", codeSize="294 b", stackSize="544 b", work="0"];
node21 -> node22;
node23 [label="FFTReorderSimple_2423", push="44", pop="44", peek="44", pushType="complex", popType="complex", peekType="complex", codeSize="68 b", stackSize="1056 b", work="52"];
node22 -> node23;
node24 [label="FFTReorderSimple_2424", push="44", pop="44", peek="44", pushType="complex", popType="complex", peekType="complex", codeSize="68 b", stackSize="1056 b", work="52"];
node22 -> node24;
node25 [label="FFTReorderSimple_2425", push="44", pop="44", peek="44", pushType="complex", popType="complex", peekType="complex", codeSize="68 b", stackSize="1056 b", work="52"];
node22 -> node25;
node26 [label="FFTReorderSimple_2426", push="44", pop="44", peek="44", pushType="complex", popType="complex", peekType="complex", codeSize="68 b", stackSize="1056 b", work="52"];
node22 -> node26;
node27 [label="FFTReorderSimple_2427", push="44", pop="44", peek="44", pushType="complex", popType="complex", peekType="complex", codeSize="68 b", stackSize="1056 b", work="52"];
node22 -> node27;
node28 [label="FFTReorderSimple_2428", push="44", pop="44", peek="44", pushType="complex", popType="complex", peekType="complex", codeSize="68 b", stackSize="1056 b", work="52"];
node22 -> node28;
node29 [label="FFTReorderSimple_2429", push="44", pop="44", peek="44", pushType="complex", popType="complex", peekType="complex", codeSize="68 b", stackSize="1056 b", work="52"];
node22 -> node29;
node30 [label="FFTReorderSimple_2430", push="44", pop="44", peek="44", pushType="complex", popType="complex", peekType="complex", codeSize="68 b", stackSize="1056 b", work="52"];
node22 -> node30;
node31 [label="FFTReorderSimple_2431", push="44", pop="44", peek="44", pushType="complex", popType="complex", peekType="complex", codeSize="68 b", stackSize="1056 b", work="52"];
node22 -> node31;
node32 [label="FFTReorderSimple_2432", push="44", pop="44", peek="44", pushType="complex", popType="complex", peekType="complex", codeSize="68 b", stackSize="1056 b", work="52"];
node22 -> node32;
node33 [label="FFTReorderSimple_2433", push="44", pop="44", peek="44", pushType="complex", popType="complex", peekType="complex", codeSize="68 b", stackSize="1056 b", work="52"];
node22 -> node33;
node34 [label="FFTReorderSimple_2434", push="44", pop="44", peek="44", pushType="complex", popType="complex", peekType="complex", codeSize="68 b", stackSize="1056 b", work="52"];
node22 -> node34;
node35 [label="FFTReorderSimple_2435", push="44", pop="44", peek="44", pushType="complex", popType="complex", peekType="complex", codeSize="68 b", stackSize="1056 b", work="52"];
node22 -> node35;
node36 [label="FFTReorderSimple_2436", push="44", pop="44", peek="44", pushType="complex", popType="complex", peekType="complex", codeSize="68 b", stackSize="1056 b", work="52"];
node22 -> node36;
node37 [label="FFTReorderSimple_2437", push="44", pop="44", peek="44", pushType="complex", popType="complex", peekType="complex", codeSize="68 b", stackSize="1056 b", work="52"];
node22 -> node37;
node38 [label="FFTReorderSimple_2438", push="44", pop="44", peek="44", pushType="complex", popType="complex", peekType="complex", codeSize="68 b", stackSize="1056 b", work="52"];
node22 -> node38;
node39 [label="WEIGHTED_ROUND_ROBIN_Joiner_2422", push="704", pop="704", peek="0", pushType="complex", popType="complex", peekType="void", codeSize="294 b", stackSize="544 b", work="0"];
node23 -> node39;
node24 -> node39;
node25 -> node39;
node26 -> node39;
node27 -> node39;
node28 -> node39;
node29 -> node39;
node30 -> node39;
node31 -> node39;
node32 -> node39;
node33 -> node39;
node34 -> node39;
node35 -> node39;
node36 -> node39;
node37 -> node39;
node38 -> node39;
node40 [label="WEIGHTED_ROUND_ROBIN_Splitter_2439", push="704", pop="704", peek="0", pushType="complex", popType="complex", peekType="void", codeSize="402 b", stackSize="736 b", work="0"];
node39 -> node40;
node41 [label="CombineDFT_2441", push="32", pop="32", peek="32", pushType="complex", popType="complex", peekType="complex", codeSize="394 b", stackSize="4640 b", work="159"];
node40 -> node41;
node42 [label="CombineDFT_2442", push="32", pop="32", peek="32", pushType="complex", popType="complex", peekType="complex", codeSize="394 b", stackSize="4640 b", work="159"];
node40 -> node42;
node43 [label="CombineDFT_2443", push="32", pop="32", peek="32", pushType="complex", popType="complex", peekType="complex", codeSize="394 b", stackSize="4640 b", work="159"];
node40 -> node43;
node44 [label="CombineDFT_2444", push="32", pop="32", peek="32", pushType="complex", popType="complex", peekType="complex", codeSize="394 b", stackSize="4640 b", work="159"];
node40 -> node44;
node45 [label="CombineDFT_2445", push="32", pop="32", peek="32", pushType="complex", popType="complex", peekType="complex", codeSize="394 b", stackSize="4640 b", work="159"];
node40 -> node45;
node46 [label="CombineDFT_2446", push="32", pop="32", peek="32", pushType="complex", popType="complex", peekType="complex", codeSize="394 b", stackSize="4640 b", work="159"];
node40 -> node46;
node47 [label="CombineDFT_2447", push="32", pop="32", peek="32", pushType="complex", popType="complex", peekType="complex", codeSize="394 b", stackSize="4640 b", work="159"];
node40 -> node47;
node48 [label="CombineDFT_2448", push="32", pop="32", peek="32", pushType="complex", popType="complex", peekType="complex", codeSize="394 b", stackSize="4640 b", work="159"];
node40 -> node48;
node49 [label="CombineDFT_2449", push="32", pop="32", peek="32", pushType="complex", popType="complex", peekType="complex", codeSize="394 b", stackSize="4640 b", work="159"];
node40 -> node49;
node50 [label="CombineDFT_2450", push="32", pop="32", peek="32", pushType="complex", popType="complex", peekType="complex", codeSize="394 b", stackSize="4640 b", work="159"];
node40 -> node50;
node51 [label="CombineDFT_2451", push="32", pop="32", peek="32", pushType="complex", popType="complex", peekType="complex", codeSize="394 b", stackSize="4640 b", work="159"];
node40 -> node51;
node52 [label="CombineDFT_2452", push="32", pop="32", peek="32", pushType="complex", popType="complex", peekType="complex", codeSize="394 b", stackSize="4640 b", work="159"];
node40 -> node52;
node53 [label="CombineDFT_2453", push="32", pop="32", peek="32", pushType="complex", popType="complex", peekType="complex", codeSize="394 b", stackSize="4640 b", work="159"];
node40 -> node53;
node54 [label="CombineDFT_2454", push="32", pop="32", peek="32", pushType="complex", popType="complex", peekType="complex", codeSize="394 b", stackSize="4640 b", work="159"];
node40 -> node54;
node55 [label="CombineDFT_2455", push="32", pop="32", peek="32", pushType="complex", popType="complex", peekType="complex", codeSize="394 b", stackSize="4640 b", work="159"];
node40 -> node55;
node56 [label="CombineDFT_2456", push="32", pop="32", peek="32", pushType="complex", popType="complex", peekType="complex", codeSize="394 b", stackSize="4640 b", work="159"];
node40 -> node56;
node57 [label="CombineDFT_2457", push="32", pop="32", peek="32", pushType="complex", popType="complex", peekType="complex", codeSize="394 b", stackSize="4640 b", work="159"];
node40 -> node57;
node58 [label="CombineDFT_2458", push="32", pop="32", peek="32", pushType="complex", popType="complex", peekType="complex", codeSize="394 b", stackSize="4640 b", work="159"];
node40 -> node58;
node59 [label="CombineDFT_2459", push="32", pop="32", peek="32", pushType="complex", popType="complex", peekType="complex", codeSize="394 b", stackSize="4640 b", work="159"];
node40 -> node59;
node60 [label="CombineDFT_2460", push="32", pop="32", peek="32", pushType="complex", popType="complex", peekType="complex", codeSize="394 b", stackSize="4640 b", work="159"];
node40 -> node60;
node61 [label="CombineDFT_2461", push="32", pop="32", peek="32", pushType="complex", popType="complex", peekType="complex", codeSize="394 b", stackSize="4640 b", work="159"];
node40 -> node61;
node62 [label="CombineDFT_2462", push="32", pop="32", peek="32", pushType="complex", popType="complex", peekType="complex", codeSize="394 b", stackSize="4640 b", work="159"];
node40 -> node62;
node63 [label="WEIGHTED_ROUND_ROBIN_Joiner_2440", push="704", pop="704", peek="0", pushType="complex", popType="complex", peekType="void", codeSize="402 b", stackSize="736 b", work="0"];
node41 -> node63;
node42 -> node63;
node43 -> node63;
node44 -> node63;
node45 -> node63;
node46 -> node63;
node47 -> node63;
node48 -> node63;
node49 -> node63;
node50 -> node63;
node51 -> node63;
node52 -> node63;
node53 -> node63;
node54 -> node63;
node55 -> node63;
node56 -> node63;
node57 -> node63;
node58 -> node63;
node59 -> node63;
node60 -> node63;
node61 -> node63;
node62 -> node63;
node64 [label="WEIGHTED_ROUND_ROBIN_Splitter_2463", push="704", pop="704", peek="0", pushType="complex", popType="complex", peekType="void", codeSize="294 b", stackSize="544 b", work="0"];
node63 -> node64;
node65 [label="CombineDFT_2465", push="44", pop="44", peek="44", pushType="complex", popType="complex", peekType="complex", codeSize="394 b", stackSize="5664 b", work="314"];
node64 -> node65;
node66 [label="CombineDFT_2466", push="44", pop="44", peek="44", pushType="complex", popType="complex", peekType="complex", codeSize="394 b", stackSize="5664 b", work="314"];
node64 -> node66;
node67 [label="CombineDFT_2467", push="44", pop="44", peek="44", pushType="complex", popType="complex", peekType="complex", codeSize="394 b", stackSize="5664 b", work="314"];
node64 -> node67;
node68 [label="CombineDFT_2468", push="44", pop="44", peek="44", pushType="complex", popType="complex", peekType="complex", codeSize="394 b", stackSize="5664 b", work="314"];
node64 -> node68;
node69 [label="CombineDFT_2469", push="44", pop="44", peek="44", pushType="complex", popType="complex", peekType="complex", codeSize="394 b", stackSize="5664 b", work="314"];
node64 -> node69;
node70 [label="CombineDFT_2470", push="44", pop="44", peek="44", pushType="complex", popType="complex", peekType="complex", codeSize="394 b", stackSize="5664 b", work="314"];
node64 -> node70;
node71 [label="CombineDFT_2471", push="44", pop="44", peek="44", pushType="complex", popType="complex", peekType="complex", codeSize="394 b", stackSize="5664 b", work="314"];
node64 -> node71;
node72 [label="CombineDFT_2472", push="44", pop="44", peek="44", pushType="complex", popType="complex", peekType="complex", codeSize="394 b", stackSize="5664 b", work="314"];
node64 -> node72;
node73 [label="CombineDFT_2473", push="44", pop="44", peek="44", pushType="complex", popType="complex", peekType="complex", codeSize="394 b", stackSize="5664 b", work="314"];
node64 -> node73;
node74 [label="CombineDFT_2474", push="44", pop="44", peek="44", pushType="complex", popType="complex", peekType="complex", codeSize="394 b", stackSize="5664 b", work="314"];
node64 -> node74;
node75 [label="CombineDFT_2475", push="44", pop="44", peek="44", pushType="complex", popType="complex", peekType="complex", codeSize="394 b", stackSize="5664 b", work="314"];
node64 -> node75;
node76 [label="CombineDFT_2476", push="44", pop="44", peek="44", pushType="complex", popType="complex", peekType="complex", codeSize="394 b", stackSize="5664 b", work="314"];
node64 -> node76;
node77 [label="CombineDFT_2477", push="44", pop="44", peek="44", pushType="complex", popType="complex", peekType="complex", codeSize="394 b", stackSize="5664 b", work="314"];
node64 -> node77;
node78 [label="CombineDFT_2478", push="44", pop="44", peek="44", pushType="complex", popType="complex", peekType="complex", codeSize="394 b", stackSize="5664 b", work="314"];
node64 -> node78;
node79 [label="CombineDFT_2479", push="44", pop="44", peek="44", pushType="complex", popType="complex", peekType="complex", codeSize="394 b", stackSize="5664 b", work="314"];
node64 -> node79;
node80 [label="CombineDFT_2480", push="44", pop="44", peek="44", pushType="complex", popType="complex", peekType="complex", codeSize="394 b", stackSize="5664 b", work="314"];
node64 -> node80;
node81 [label="WEIGHTED_ROUND_ROBIN_Joiner_2464", push="704", pop="704", peek="0", pushType="complex", popType="complex", peekType="void", codeSize="294 b", stackSize="544 b", work="0"];
node65 -> node81;
node66 -> node81;
node67 -> node81;
node68 -> node81;
node69 -> node81;
node70 -> node81;
node71 -> node81;
node72 -> node81;
node73 -> node81;
node74 -> node81;
node75 -> node81;
node76 -> node81;
node77 -> node81;
node78 -> node81;
node79 -> node81;
node80 -> node81;
node82 [label="WEIGHTED_ROUND_ROBIN_Splitter_2481", push="704", pop="704", peek="0", pushType="complex", popType="complex", peekType="void", codeSize="150 b", stackSize="288 b", work="0"];
node81 -> node82;
node83 [label="CombineDFT_2483", push="88", pop="88", peek="88", pushType="complex", popType="complex", peekType="complex", codeSize="394 b", stackSize="7712 b", work="624"];
node82 -> node83;
node84 [label="CombineDFT_2484", push="88", pop="88", peek="88", pushType="complex", popType="complex", peekType="complex", codeSize="394 b", stackSize="7712 b", work="624"];
node82 -> node84;
node85 [label="CombineDFT_2485", push="88", pop="88", peek="88", pushType="complex", popType="complex", peekType="complex", codeSize="394 b", stackSize="7712 b", work="624"];
node82 -> node85;
node86 [label="CombineDFT_2486", push="88", pop="88", peek="88", pushType="complex", popType="complex", peekType="complex", codeSize="394 b", stackSize="7712 b", work="624"];
node82 -> node86;
node87 [label="CombineDFT_2487", push="88", pop="88", peek="88", pushType="complex", popType="complex", peekType="complex", codeSize="394 b", stackSize="7712 b", work="624"];
node82 -> node87;
node88 [label="CombineDFT_2488", push="88", pop="88", peek="88", pushType="complex", popType="complex", peekType="complex", codeSize="394 b", stackSize="7712 b", work="624"];
node82 -> node88;
node89 [label="CombineDFT_2489", push="88", pop="88", peek="88", pushType="complex", popType="complex", peekType="complex", codeSize="394 b", stackSize="7712 b", work="624"];
node82 -> node89;
node90 [label="CombineDFT_2490", push="88", pop="88", peek="88", pushType="complex", popType="complex", peekType="complex", codeSize="394 b", stackSize="7712 b", work="624"];
node82 -> node90;
node91 [label="WEIGHTED_ROUND_ROBIN_Joiner_2482", push="704", pop="704", peek="0", pushType="complex", popType="complex", peekType="void", codeSize="150 b", stackSize="288 b", work="0"];
node83 -> node91;
node84 -> node91;
node85 -> node91;
node86 -> node91;
node87 -> node91;
node88 -> node91;
node89 -> node91;
node90 -> node91;
node92 [label="WEIGHTED_ROUND_ROBIN_Splitter_2491", push="704", pop="704", peek="0", pushType="complex", popType="complex", peekType="void", codeSize="78 b", stackSize="160 b", work="0"];
node91 -> node92;
node93 [label="CombineDFT_2493", push="176", pop="176", peek="176", pushType="complex", popType="complex", peekType="complex", codeSize="394 b", stackSize="11808 b", work="1244"];
node92 -> node93;
node94 [label="CombineDFT_2494", push="176", pop="176", peek="176", pushType="complex", popType="complex", peekType="complex", codeSize="394 b", stackSize="11808 b", work="1244"];
node92 -> node94;
node95 [label="CombineDFT_2495", push="176", pop="176", peek="176", pushType="complex", popType="complex", peekType="complex", codeSize="394 b", stackSize="11808 b", work="1244"];
node92 -> node95;
node96 [label="CombineDFT_2496", push="176", pop="176", peek="176", pushType="complex", popType="complex", peekType="complex", codeSize="394 b", stackSize="11808 b", work="1244"];
node92 -> node96;
node97 [label="WEIGHTED_ROUND_ROBIN_Joiner_2492", push="704", pop="704", peek="0", pushType="complex", popType="complex", peekType="void", codeSize="78 b", stackSize="160 b", work="0"];
node93 -> node97;
node94 -> node97;
node95 -> node97;
node96 -> node97;
node98 [label="WEIGHTED_ROUND_ROBIN_Splitter_2497", push="704", pop="704", peek="0", pushType="complex", popType="complex", peekType="void", codeSize="42 b", stackSize="96 b", work="0"];
node97 -> node98;
node99 [label="CombineDFT_2499", push="352", pop="352", peek="352", pushType="complex", popType="complex", peekType="complex", codeSize="394 b", stackSize="20000 b", work="2484"];
node98 -> node99;
node100 [label="CombineDFT_2500", push="352", pop="352", peek="352", pushType="complex", popType="complex", peekType="complex", codeSize="394 b", stackSize="20000 b", work="2484"];
node98 -> node100;
node101 [label="WEIGHTED_ROUND_ROBIN_Joiner_2498", push="704", pop="704", peek="0", pushType="complex", popType="complex", peekType="void", codeSize="42 b", stackSize="96 b", work="0"];
node99 -> node101;
node100 -> node101;
node102 [label="CombineDFT_2398", push="704", pop="704", peek="704", pushType="complex", popType="complex", peekType="complex", codeSize="394 b", stackSize="36384 b", work="4964"];
node101 -> node102;
node103 [label="CPrinter_2399", push="0", pop="704", peek="704", pushType="void", popType="complex", peekType="complex", codeSize="34 b", stackSize="512 b", work="13"];
node102 -> node103;
}
