digraph FFT6_6038 {
node0 [label="FFTTestSource_5979", push="64", pop="0", peek="0", pushType="complex", popType="void", peekType="void", codeSize="44 b", stackSize="1056 b", work="324"];
node1 [label="FFTReorderSimple_5980", push="64", pop="64", peek="64", pushType="complex", popType="complex", peekType="complex", codeSize="68 b", stackSize="1056 b", work="832"];
node0 -> node1;
node2 [label="WEIGHTED_ROUND_ROBIN_Splitter_5993", push="64", pop="64", peek="0", pushType="complex", popType="complex", peekType="void", codeSize="42 b", stackSize="96 b", work="0"];
node1 -> node2;
node3 [label="FFTReorderSimple_5995", push="32", pop="32", peek="32", pushType="complex", popType="complex", peekType="complex", codeSize="68 b", stackSize="1056 b", work="416"];
node2 -> node3;
node4 [label="FFTReorderSimple_5996", push="32", pop="32", peek="32", pushType="complex", popType="complex", peekType="complex", codeSize="68 b", stackSize="1056 b", work="416"];
node2 -> node4;
node5 [label="WEIGHTED_ROUND_ROBIN_Joiner_5994", push="64", pop="64", peek="0", pushType="complex", popType="complex", peekType="void", codeSize="42 b", stackSize="96 b", work="0"];
node3 -> node5;
node4 -> node5;
node6 [label="WEIGHTED_ROUND_ROBIN_Splitter_5997", push="64", pop="64", peek="0", pushType="complex", popType="complex", peekType="void", codeSize="42 b", stackSize="96 b", work="0"];
node5 -> node6;
node7 [label="FFTReorderSimple_5999", push="32", pop="32", peek="32", pushType="complex", popType="complex", peekType="complex", codeSize="68 b", stackSize="1056 b", work="208"];
node6 -> node7;
node8 [label="FFTReorderSimple_6000", push="32", pop="32", peek="32", pushType="complex", popType="complex", peekType="complex", codeSize="68 b", stackSize="1056 b", work="208"];
node6 -> node8;
node9 [label="WEIGHTED_ROUND_ROBIN_Joiner_5998", push="64", pop="64", peek="0", pushType="complex", popType="complex", peekType="void", codeSize="42 b", stackSize="96 b", work="0"];
node7 -> node9;
node8 -> node9;
node10 [label="WEIGHTED_ROUND_ROBIN_Splitter_6001", push="64", pop="64", peek="0", pushType="complex", popType="complex", peekType="void", codeSize="42 b", stackSize="96 b", work="0"];
node9 -> node10;
node11 [label="FFTReorderSimple_6003", push="32", pop="32", peek="32", pushType="complex", popType="complex", peekType="complex", codeSize="68 b", stackSize="1056 b", work="104"];
node10 -> node11;
node12 [label="FFTReorderSimple_6004", push="32", pop="32", peek="32", pushType="complex", popType="complex", peekType="complex", codeSize="68 b", stackSize="1056 b", work="104"];
node10 -> node12;
node13 [label="WEIGHTED_ROUND_ROBIN_Joiner_6002", push="64", pop="64", peek="0", pushType="complex", popType="complex", peekType="void", codeSize="42 b", stackSize="96 b", work="0"];
node11 -> node13;
node12 -> node13;
node14 [label="WEIGHTED_ROUND_ROBIN_Splitter_6005", push="64", pop="64", peek="0", pushType="complex", popType="complex", peekType="void", codeSize="42 b", stackSize="96 b", work="0"];
node13 -> node14;
node15 [label="FFTReorderSimple_6007", push="32", pop="32", peek="32", pushType="complex", popType="complex", peekType="complex", codeSize="68 b", stackSize="1056 b", work="52"];
node14 -> node15;
node16 [label="FFTReorderSimple_6008", push="32", pop="32", peek="32", pushType="complex", popType="complex", peekType="complex", codeSize="68 b", stackSize="1056 b", work="52"];
node14 -> node16;
node17 [label="WEIGHTED_ROUND_ROBIN_Joiner_6006", push="64", pop="64", peek="0", pushType="complex", popType="complex", peekType="void", codeSize="42 b", stackSize="96 b", work="0"];
node15 -> node17;
node16 -> node17;
node18 [label="WEIGHTED_ROUND_ROBIN_Splitter_6009", push="64", pop="64", peek="0", pushType="complex", popType="complex", peekType="void", codeSize="42 b", stackSize="96 b", work="0"];
node17 -> node18;
node19 [label="CombineDFT_6011", push="32", pop="32", peek="32", pushType="complex", popType="complex", peekType="complex", codeSize="394 b", stackSize="4640 b", work="159"];
node18 -> node19;
node20 [label="CombineDFT_6012", push="32", pop="32", peek="32", pushType="complex", popType="complex", peekType="complex", codeSize="394 b", stackSize="4640 b", work="159"];
node18 -> node20;
node21 [label="WEIGHTED_ROUND_ROBIN_Joiner_6010", push="64", pop="64", peek="0", pushType="complex", popType="complex", peekType="void", codeSize="42 b", stackSize="96 b", work="0"];
node19 -> node21;
node20 -> node21;
node22 [label="WEIGHTED_ROUND_ROBIN_Splitter_6013", push="64", pop="64", peek="0", pushType="complex", popType="complex", peekType="void", codeSize="42 b", stackSize="96 b", work="0"];
node21 -> node22;
node23 [label="CombineDFT_6015", push="32", pop="32", peek="32", pushType="complex", popType="complex", peekType="complex", codeSize="394 b", stackSize="5664 b", work="314"];
node22 -> node23;
node24 [label="CombineDFT_6016", push="32", pop="32", peek="32", pushType="complex", popType="complex", peekType="complex", codeSize="394 b", stackSize="5664 b", work="314"];
node22 -> node24;
node25 [label="WEIGHTED_ROUND_ROBIN_Joiner_6014", push="64", pop="64", peek="0", pushType="complex", popType="complex", peekType="void", codeSize="42 b", stackSize="96 b", work="0"];
node23 -> node25;
node24 -> node25;
node26 [label="WEIGHTED_ROUND_ROBIN_Splitter_6017", push="64", pop="64", peek="0", pushType="complex", popType="complex", peekType="void", codeSize="42 b", stackSize="96 b", work="0"];
node25 -> node26;
node27 [label="CombineDFT_6019", push="32", pop="32", peek="32", pushType="complex", popType="complex", peekType="complex", codeSize="394 b", stackSize="7712 b", work="624"];
node26 -> node27;
node28 [label="CombineDFT_6020", push="32", pop="32", peek="32", pushType="complex", popType="complex", peekType="complex", codeSize="394 b", stackSize="7712 b", work="624"];
node26 -> node28;
node29 [label="WEIGHTED_ROUND_ROBIN_Joiner_6018", push="64", pop="64", peek="0", pushType="complex", popType="complex", peekType="void", codeSize="42 b", stackSize="96 b", work="0"];
node27 -> node29;
node28 -> node29;
node30 [label="WEIGHTED_ROUND_ROBIN_Splitter_6021", push="64", pop="64", peek="0", pushType="complex", popType="complex", peekType="void", codeSize="42 b", stackSize="96 b", work="0"];
node29 -> node30;
node31 [label="CombineDFT_6023", push="32", pop="32", peek="32", pushType="complex", popType="complex", peekType="complex", codeSize="394 b", stackSize="11808 b", work="1244"];
node30 -> node31;
node32 [label="CombineDFT_6024", push="32", pop="32", peek="32", pushType="complex", popType="complex", peekType="complex", codeSize="394 b", stackSize="11808 b", work="1244"];
node30 -> node32;
node33 [label="WEIGHTED_ROUND_ROBIN_Joiner_6022", push="64", pop="64", peek="0", pushType="complex", popType="complex", peekType="void", codeSize="42 b", stackSize="96 b", work="0"];
node31 -> node33;
node32 -> node33;
node34 [label="WEIGHTED_ROUND_ROBIN_Splitter_6025", push="64", pop="64", peek="0", pushType="complex", popType="complex", peekType="void", codeSize="42 b", stackSize="96 b", work="0"];
node33 -> node34;
node35 [label="CombineDFT_6027", push="32", pop="32", peek="32", pushType="complex", popType="complex", peekType="complex", codeSize="394 b", stackSize="20000 b", work="2484"];
node34 -> node35;
node36 [label="CombineDFT_6028", push="32", pop="32", peek="32", pushType="complex", popType="complex", peekType="complex", codeSize="394 b", stackSize="20000 b", work="2484"];
node34 -> node36;
node37 [label="WEIGHTED_ROUND_ROBIN_Joiner_6026", push="64", pop="64", peek="0", pushType="complex", popType="complex", peekType="void", codeSize="42 b", stackSize="96 b", work="0"];
node35 -> node37;
node36 -> node37;
node38 [label="CombineDFT_5990", push="64", pop="64", peek="64", pushType="complex", popType="complex", peekType="complex", codeSize="394 b", stackSize="36384 b", work="4964"];
node37 -> node38;
node39 [label="CPrinter_5991", push="0", pop="64", peek="64", pushType="void", popType="complex", peekType="complex", codeSize="34 b", stackSize="512 b", work="13"];
node38 -> node39;
}
