digraph FFT6_449 {
node0 [label="FFTTestSource_317", push="1984", pop="0", peek="0", pushType="complex", popType="void", peekType="void", codeSize="44 b", stackSize="1056 b", work="324"];
node1 [label="FFTReorderSimple_318", push="1984", pop="1984", peek="1984", pushType="complex", popType="complex", peekType="complex", codeSize="68 b", stackSize="1056 b", work="832"];
node0 -> node1;
node2 [label="WEIGHTED_ROUND_ROBIN_Splitter_331", push="1984", pop="1984", peek="0", pushType="complex", popType="complex", peekType="void", codeSize="42 b", stackSize="96 b", work="0"];
node1 -> node2;
node3 [label="FFTReorderSimple_333", push="992", pop="992", peek="992", pushType="complex", popType="complex", peekType="complex", codeSize="68 b", stackSize="1056 b", work="416"];
node2 -> node3;
node4 [label="FFTReorderSimple_334", push="992", pop="992", peek="992", pushType="complex", popType="complex", peekType="complex", codeSize="68 b", stackSize="1056 b", work="416"];
node2 -> node4;
node5 [label="WEIGHTED_ROUND_ROBIN_Joiner_332", push="1984", pop="1984", peek="0", pushType="complex", popType="complex", peekType="void", codeSize="42 b", stackSize="96 b", work="0"];
node3 -> node5;
node4 -> node5;
node6 [label="WEIGHTED_ROUND_ROBIN_Splitter_335", push="1984", pop="1984", peek="0", pushType="complex", popType="complex", peekType="void", codeSize="78 b", stackSize="160 b", work="0"];
node5 -> node6;
node7 [label="FFTReorderSimple_337", push="496", pop="496", peek="496", pushType="complex", popType="complex", peekType="complex", codeSize="68 b", stackSize="1056 b", work="208"];
node6 -> node7;
node8 [label="FFTReorderSimple_338", push="496", pop="496", peek="496", pushType="complex", popType="complex", peekType="complex", codeSize="68 b", stackSize="1056 b", work="208"];
node6 -> node8;
node9 [label="FFTReorderSimple_339", push="496", pop="496", peek="496", pushType="complex", popType="complex", peekType="complex", codeSize="68 b", stackSize="1056 b", work="208"];
node6 -> node9;
node10 [label="FFTReorderSimple_340", push="496", pop="496", peek="496", pushType="complex", popType="complex", peekType="complex", codeSize="68 b", stackSize="1056 b", work="208"];
node6 -> node10;
node11 [label="WEIGHTED_ROUND_ROBIN_Joiner_336", push="1984", pop="1984", peek="0", pushType="complex", popType="complex", peekType="void", codeSize="78 b", stackSize="160 b", work="0"];
node7 -> node11;
node8 -> node11;
node9 -> node11;
node10 -> node11;
node12 [label="WEIGHTED_ROUND_ROBIN_Splitter_341", push="1984", pop="1984", peek="0", pushType="complex", popType="complex", peekType="void", codeSize="150 b", stackSize="288 b", work="0"];
node11 -> node12;
node13 [label="FFTReorderSimple_343", push="248", pop="248", peek="248", pushType="complex", popType="complex", peekType="complex", codeSize="68 b", stackSize="1056 b", work="104"];
node12 -> node13;
node14 [label="FFTReorderSimple_344", push="248", pop="248", peek="248", pushType="complex", popType="complex", peekType="complex", codeSize="68 b", stackSize="1056 b", work="104"];
node12 -> node14;
node15 [label="FFTReorderSimple_345", push="248", pop="248", peek="248", pushType="complex", popType="complex", peekType="complex", codeSize="68 b", stackSize="1056 b", work="104"];
node12 -> node15;
node16 [label="FFTReorderSimple_346", push="248", pop="248", peek="248", pushType="complex", popType="complex", peekType="complex", codeSize="68 b", stackSize="1056 b", work="104"];
node12 -> node16;
node17 [label="FFTReorderSimple_347", push="248", pop="248", peek="248", pushType="complex", popType="complex", peekType="complex", codeSize="68 b", stackSize="1056 b", work="104"];
node12 -> node17;
node18 [label="FFTReorderSimple_348", push="248", pop="248", peek="248", pushType="complex", popType="complex", peekType="complex", codeSize="68 b", stackSize="1056 b", work="104"];
node12 -> node18;
node19 [label="FFTReorderSimple_349", push="248", pop="248", peek="248", pushType="complex", popType="complex", peekType="complex", codeSize="68 b", stackSize="1056 b", work="104"];
node12 -> node19;
node20 [label="FFTReorderSimple_350", push="248", pop="248", peek="248", pushType="complex", popType="complex", peekType="complex", codeSize="68 b", stackSize="1056 b", work="104"];
node12 -> node20;
node21 [label="WEIGHTED_ROUND_ROBIN_Joiner_342", push="1984", pop="1984", peek="0", pushType="complex", popType="complex", peekType="void", codeSize="150 b", stackSize="288 b", work="0"];
node13 -> node21;
node14 -> node21;
node15 -> node21;
node16 -> node21;
node17 -> node21;
node18 -> node21;
node19 -> node21;
node20 -> node21;
node22 [label="WEIGHTED_ROUND_ROBIN_Splitter_351", push="1984", pop="1984", peek="0", pushType="complex", popType="complex", peekType="void", codeSize="294 b", stackSize="544 b", work="0"];
node21 -> node22;
node23 [label="FFTReorderSimple_353", push="124", pop="124", peek="124", pushType="complex", popType="complex", peekType="complex", codeSize="68 b", stackSize="1056 b", work="52"];
node22 -> node23;
node24 [label="FFTReorderSimple_354", push="124", pop="124", peek="124", pushType="complex", popType="complex", peekType="complex", codeSize="68 b", stackSize="1056 b", work="52"];
node22 -> node24;
node25 [label="FFTReorderSimple_355", push="124", pop="124", peek="124", pushType="complex", popType="complex", peekType="complex", codeSize="68 b", stackSize="1056 b", work="52"];
node22 -> node25;
node26 [label="FFTReorderSimple_356", push="124", pop="124", peek="124", pushType="complex", popType="complex", peekType="complex", codeSize="68 b", stackSize="1056 b", work="52"];
node22 -> node26;
node27 [label="FFTReorderSimple_357", push="124", pop="124", peek="124", pushType="complex", popType="complex", peekType="complex", codeSize="68 b", stackSize="1056 b", work="52"];
node22 -> node27;
node28 [label="FFTReorderSimple_358", push="124", pop="124", peek="124", pushType="complex", popType="complex", peekType="complex", codeSize="68 b", stackSize="1056 b", work="52"];
node22 -> node28;
node29 [label="FFTReorderSimple_359", push="124", pop="124", peek="124", pushType="complex", popType="complex", peekType="complex", codeSize="68 b", stackSize="1056 b", work="52"];
node22 -> node29;
node30 [label="FFTReorderSimple_360", push="124", pop="124", peek="124", pushType="complex", popType="complex", peekType="complex", codeSize="68 b", stackSize="1056 b", work="52"];
node22 -> node30;
node31 [label="FFTReorderSimple_361", push="124", pop="124", peek="124", pushType="complex", popType="complex", peekType="complex", codeSize="68 b", stackSize="1056 b", work="52"];
node22 -> node31;
node32 [label="FFTReorderSimple_362", push="124", pop="124", peek="124", pushType="complex", popType="complex", peekType="complex", codeSize="68 b", stackSize="1056 b", work="52"];
node22 -> node32;
node33 [label="FFTReorderSimple_363", push="124", pop="124", peek="124", pushType="complex", popType="complex", peekType="complex", codeSize="68 b", stackSize="1056 b", work="52"];
node22 -> node33;
node34 [label="FFTReorderSimple_364", push="124", pop="124", peek="124", pushType="complex", popType="complex", peekType="complex", codeSize="68 b", stackSize="1056 b", work="52"];
node22 -> node34;
node35 [label="FFTReorderSimple_365", push="124", pop="124", peek="124", pushType="complex", popType="complex", peekType="complex", codeSize="68 b", stackSize="1056 b", work="52"];
node22 -> node35;
node36 [label="FFTReorderSimple_366", push="124", pop="124", peek="124", pushType="complex", popType="complex", peekType="complex", codeSize="68 b", stackSize="1056 b", work="52"];
node22 -> node36;
node37 [label="FFTReorderSimple_367", push="124", pop="124", peek="124", pushType="complex", popType="complex", peekType="complex", codeSize="68 b", stackSize="1056 b", work="52"];
node22 -> node37;
node38 [label="FFTReorderSimple_368", push="124", pop="124", peek="124", pushType="complex", popType="complex", peekType="complex", codeSize="68 b", stackSize="1056 b", work="52"];
node22 -> node38;
node39 [label="WEIGHTED_ROUND_ROBIN_Joiner_352", push="1984", pop="1984", peek="0", pushType="complex", popType="complex", peekType="void", codeSize="294 b", stackSize="544 b", work="0"];
node23 -> node39;
node24 -> node39;
node25 -> node39;
node26 -> node39;
node27 -> node39;
node28 -> node39;
node29 -> node39;
node30 -> node39;
node31 -> node39;
node32 -> node39;
node33 -> node39;
node34 -> node39;
node35 -> node39;
node36 -> node39;
node37 -> node39;
node38 -> node39;
node40 [label="WEIGHTED_ROUND_ROBIN_Splitter_369", push="1984", pop="1984", peek="0", pushType="complex", popType="complex", peekType="void", codeSize="564 b", stackSize="1024 b", work="0"];
node39 -> node40;
node41 [label="CombineDFT_371", push="64", pop="64", peek="64", pushType="complex", popType="complex", peekType="complex", codeSize="394 b", stackSize="4640 b", work="159"];
node40 -> node41;
node42 [label="CombineDFT_372", push="64", pop="64", peek="64", pushType="complex", popType="complex", peekType="complex", codeSize="394 b", stackSize="4640 b", work="159"];
node40 -> node42;
node43 [label="CombineDFT_373", push="64", pop="64", peek="64", pushType="complex", popType="complex", peekType="complex", codeSize="394 b", stackSize="4640 b", work="159"];
node40 -> node43;
node44 [label="CombineDFT_374", push="64", pop="64", peek="64", pushType="complex", popType="complex", peekType="complex", codeSize="394 b", stackSize="4640 b", work="159"];
node40 -> node44;
node45 [label="CombineDFT_375", push="64", pop="64", peek="64", pushType="complex", popType="complex", peekType="complex", codeSize="394 b", stackSize="4640 b", work="159"];
node40 -> node45;
node46 [label="CombineDFT_376", push="64", pop="64", peek="64", pushType="complex", popType="complex", peekType="complex", codeSize="394 b", stackSize="4640 b", work="159"];
node40 -> node46;
node47 [label="CombineDFT_377", push="64", pop="64", peek="64", pushType="complex", popType="complex", peekType="complex", codeSize="394 b", stackSize="4640 b", work="159"];
node40 -> node47;
node48 [label="CombineDFT_378", push="64", pop="64", peek="64", pushType="complex", popType="complex", peekType="complex", codeSize="394 b", stackSize="4640 b", work="159"];
node40 -> node48;
node49 [label="CombineDFT_379", push="64", pop="64", peek="64", pushType="complex", popType="complex", peekType="complex", codeSize="394 b", stackSize="4640 b", work="159"];
node40 -> node49;
node50 [label="CombineDFT_380", push="64", pop="64", peek="64", pushType="complex", popType="complex", peekType="complex", codeSize="394 b", stackSize="4640 b", work="159"];
node40 -> node50;
node51 [label="CombineDFT_381", push="64", pop="64", peek="64", pushType="complex", popType="complex", peekType="complex", codeSize="394 b", stackSize="4640 b", work="159"];
node40 -> node51;
node52 [label="CombineDFT_382", push="64", pop="64", peek="64", pushType="complex", popType="complex", peekType="complex", codeSize="394 b", stackSize="4640 b", work="159"];
node40 -> node52;
node53 [label="CombineDFT_383", push="64", pop="64", peek="64", pushType="complex", popType="complex", peekType="complex", codeSize="394 b", stackSize="4640 b", work="159"];
node40 -> node53;
node54 [label="CombineDFT_384", push="64", pop="64", peek="64", pushType="complex", popType="complex", peekType="complex", codeSize="394 b", stackSize="4640 b", work="159"];
node40 -> node54;
node55 [label="CombineDFT_385", push="64", pop="64", peek="64", pushType="complex", popType="complex", peekType="complex", codeSize="394 b", stackSize="4640 b", work="159"];
node40 -> node55;
node56 [label="CombineDFT_386", push="64", pop="64", peek="64", pushType="complex", popType="complex", peekType="complex", codeSize="394 b", stackSize="4640 b", work="159"];
node40 -> node56;
node57 [label="CombineDFT_387", push="64", pop="64", peek="64", pushType="complex", popType="complex", peekType="complex", codeSize="394 b", stackSize="4640 b", work="159"];
node40 -> node57;
node58 [label="CombineDFT_388", push="64", pop="64", peek="64", pushType="complex", popType="complex", peekType="complex", codeSize="394 b", stackSize="4640 b", work="159"];
node40 -> node58;
node59 [label="CombineDFT_389", push="64", pop="64", peek="64", pushType="complex", popType="complex", peekType="complex", codeSize="394 b", stackSize="4640 b", work="159"];
node40 -> node59;
node60 [label="CombineDFT_390", push="64", pop="64", peek="64", pushType="complex", popType="complex", peekType="complex", codeSize="394 b", stackSize="4640 b", work="159"];
node40 -> node60;
node61 [label="CombineDFT_391", push="64", pop="64", peek="64", pushType="complex", popType="complex", peekType="complex", codeSize="394 b", stackSize="4640 b", work="159"];
node40 -> node61;
node62 [label="CombineDFT_392", push="64", pop="64", peek="64", pushType="complex", popType="complex", peekType="complex", codeSize="394 b", stackSize="4640 b", work="159"];
node40 -> node62;
node63 [label="CombineDFT_393", push="64", pop="64", peek="64", pushType="complex", popType="complex", peekType="complex", codeSize="394 b", stackSize="4640 b", work="159"];
node40 -> node63;
node64 [label="CombineDFT_394", push="64", pop="64", peek="64", pushType="complex", popType="complex", peekType="complex", codeSize="394 b", stackSize="4640 b", work="159"];
node40 -> node64;
node65 [label="CombineDFT_395", push="64", pop="64", peek="64", pushType="complex", popType="complex", peekType="complex", codeSize="394 b", stackSize="4640 b", work="159"];
node40 -> node65;
node66 [label="CombineDFT_396", push="64", pop="64", peek="64", pushType="complex", popType="complex", peekType="complex", codeSize="394 b", stackSize="4640 b", work="159"];
node40 -> node66;
node67 [label="CombineDFT_397", push="64", pop="64", peek="64", pushType="complex", popType="complex", peekType="complex", codeSize="394 b", stackSize="4640 b", work="159"];
node40 -> node67;
node68 [label="CombineDFT_398", push="64", pop="64", peek="64", pushType="complex", popType="complex", peekType="complex", codeSize="394 b", stackSize="4640 b", work="159"];
node40 -> node68;
node69 [label="CombineDFT_399", push="64", pop="64", peek="64", pushType="complex", popType="complex", peekType="complex", codeSize="394 b", stackSize="4640 b", work="159"];
node40 -> node69;
node70 [label="CombineDFT_400", push="64", pop="64", peek="64", pushType="complex", popType="complex", peekType="complex", codeSize="394 b", stackSize="4640 b", work="159"];
node40 -> node70;
node71 [label="CombineDFT_401", push="64", pop="64", peek="64", pushType="complex", popType="complex", peekType="complex", codeSize="394 b", stackSize="4640 b", work="159"];
node40 -> node71;
node72 [label="WEIGHTED_ROUND_ROBIN_Joiner_370", push="1984", pop="1984", peek="0", pushType="complex", popType="complex", peekType="void", codeSize="564 b", stackSize="1024 b", work="0"];
node41 -> node72;
node42 -> node72;
node43 -> node72;
node44 -> node72;
node45 -> node72;
node46 -> node72;
node47 -> node72;
node48 -> node72;
node49 -> node72;
node50 -> node72;
node51 -> node72;
node52 -> node72;
node53 -> node72;
node54 -> node72;
node55 -> node72;
node56 -> node72;
node57 -> node72;
node58 -> node72;
node59 -> node72;
node60 -> node72;
node61 -> node72;
node62 -> node72;
node63 -> node72;
node64 -> node72;
node65 -> node72;
node66 -> node72;
node67 -> node72;
node68 -> node72;
node69 -> node72;
node70 -> node72;
node71 -> node72;
node73 [label="WEIGHTED_ROUND_ROBIN_Splitter_402", push="1984", pop="1984", peek="0", pushType="complex", popType="complex", peekType="void", codeSize="294 b", stackSize="544 b", work="0"];
node72 -> node73;
node74 [label="CombineDFT_404", push="124", pop="124", peek="124", pushType="complex", popType="complex", peekType="complex", codeSize="394 b", stackSize="5664 b", work="314"];
node73 -> node74;
node75 [label="CombineDFT_405", push="124", pop="124", peek="124", pushType="complex", popType="complex", peekType="complex", codeSize="394 b", stackSize="5664 b", work="314"];
node73 -> node75;
node76 [label="CombineDFT_406", push="124", pop="124", peek="124", pushType="complex", popType="complex", peekType="complex", codeSize="394 b", stackSize="5664 b", work="314"];
node73 -> node76;
node77 [label="CombineDFT_407", push="124", pop="124", peek="124", pushType="complex", popType="complex", peekType="complex", codeSize="394 b", stackSize="5664 b", work="314"];
node73 -> node77;
node78 [label="CombineDFT_408", push="124", pop="124", peek="124", pushType="complex", popType="complex", peekType="complex", codeSize="394 b", stackSize="5664 b", work="314"];
node73 -> node78;
node79 [label="CombineDFT_409", push="124", pop="124", peek="124", pushType="complex", popType="complex", peekType="complex", codeSize="394 b", stackSize="5664 b", work="314"];
node73 -> node79;
node80 [label="CombineDFT_410", push="124", pop="124", peek="124", pushType="complex", popType="complex", peekType="complex", codeSize="394 b", stackSize="5664 b", work="314"];
node73 -> node80;
node81 [label="CombineDFT_411", push="124", pop="124", peek="124", pushType="complex", popType="complex", peekType="complex", codeSize="394 b", stackSize="5664 b", work="314"];
node73 -> node81;
node82 [label="CombineDFT_412", push="124", pop="124", peek="124", pushType="complex", popType="complex", peekType="complex", codeSize="394 b", stackSize="5664 b", work="314"];
node73 -> node82;
node83 [label="CombineDFT_413", push="124", pop="124", peek="124", pushType="complex", popType="complex", peekType="complex", codeSize="394 b", stackSize="5664 b", work="314"];
node73 -> node83;
node84 [label="CombineDFT_414", push="124", pop="124", peek="124", pushType="complex", popType="complex", peekType="complex", codeSize="394 b", stackSize="5664 b", work="314"];
node73 -> node84;
node85 [label="CombineDFT_415", push="124", pop="124", peek="124", pushType="complex", popType="complex", peekType="complex", codeSize="394 b", stackSize="5664 b", work="314"];
node73 -> node85;
node86 [label="CombineDFT_416", push="124", pop="124", peek="124", pushType="complex", popType="complex", peekType="complex", codeSize="394 b", stackSize="5664 b", work="314"];
node73 -> node86;
node87 [label="CombineDFT_417", push="124", pop="124", peek="124", pushType="complex", popType="complex", peekType="complex", codeSize="394 b", stackSize="5664 b", work="314"];
node73 -> node87;
node88 [label="CombineDFT_418", push="124", pop="124", peek="124", pushType="complex", popType="complex", peekType="complex", codeSize="394 b", stackSize="5664 b", work="314"];
node73 -> node88;
node89 [label="CombineDFT_419", push="124", pop="124", peek="124", pushType="complex", popType="complex", peekType="complex", codeSize="394 b", stackSize="5664 b", work="314"];
node73 -> node89;
node90 [label="WEIGHTED_ROUND_ROBIN_Joiner_403", push="1984", pop="1984", peek="0", pushType="complex", popType="complex", peekType="void", codeSize="294 b", stackSize="544 b", work="0"];
node74 -> node90;
node75 -> node90;
node76 -> node90;
node77 -> node90;
node78 -> node90;
node79 -> node90;
node80 -> node90;
node81 -> node90;
node82 -> node90;
node83 -> node90;
node84 -> node90;
node85 -> node90;
node86 -> node90;
node87 -> node90;
node88 -> node90;
node89 -> node90;
node91 [label="WEIGHTED_ROUND_ROBIN_Splitter_420", push="1984", pop="1984", peek="0", pushType="complex", popType="complex", peekType="void", codeSize="150 b", stackSize="288 b", work="0"];
node90 -> node91;
node92 [label="CombineDFT_422", push="248", pop="248", peek="248", pushType="complex", popType="complex", peekType="complex", codeSize="394 b", stackSize="7712 b", work="624"];
node91 -> node92;
node93 [label="CombineDFT_423", push="248", pop="248", peek="248", pushType="complex", popType="complex", peekType="complex", codeSize="394 b", stackSize="7712 b", work="624"];
node91 -> node93;
node94 [label="CombineDFT_424", push="248", pop="248", peek="248", pushType="complex", popType="complex", peekType="complex", codeSize="394 b", stackSize="7712 b", work="624"];
node91 -> node94;
node95 [label="CombineDFT_425", push="248", pop="248", peek="248", pushType="complex", popType="complex", peekType="complex", codeSize="394 b", stackSize="7712 b", work="624"];
node91 -> node95;
node96 [label="CombineDFT_426", push="248", pop="248", peek="248", pushType="complex", popType="complex", peekType="complex", codeSize="394 b", stackSize="7712 b", work="624"];
node91 -> node96;
node97 [label="CombineDFT_427", push="248", pop="248", peek="248", pushType="complex", popType="complex", peekType="complex", codeSize="394 b", stackSize="7712 b", work="624"];
node91 -> node97;
node98 [label="CombineDFT_428", push="248", pop="248", peek="248", pushType="complex", popType="complex", peekType="complex", codeSize="394 b", stackSize="7712 b", work="624"];
node91 -> node98;
node99 [label="CombineDFT_429", push="248", pop="248", peek="248", pushType="complex", popType="complex", peekType="complex", codeSize="394 b", stackSize="7712 b", work="624"];
node91 -> node99;
node100 [label="WEIGHTED_ROUND_ROBIN_Joiner_421", push="1984", pop="1984", peek="0", pushType="complex", popType="complex", peekType="void", codeSize="150 b", stackSize="288 b", work="0"];
node92 -> node100;
node93 -> node100;
node94 -> node100;
node95 -> node100;
node96 -> node100;
node97 -> node100;
node98 -> node100;
node99 -> node100;
node101 [label="WEIGHTED_ROUND_ROBIN_Splitter_430", push="1984", pop="1984", peek="0", pushType="complex", popType="complex", peekType="void", codeSize="78 b", stackSize="160 b", work="0"];
node100 -> node101;
node102 [label="CombineDFT_432", push="496", pop="496", peek="496", pushType="complex", popType="complex", peekType="complex", codeSize="394 b", stackSize="11808 b", work="1244"];
node101 -> node102;
node103 [label="CombineDFT_433", push="496", pop="496", peek="496", pushType="complex", popType="complex", peekType="complex", codeSize="394 b", stackSize="11808 b", work="1244"];
node101 -> node103;
node104 [label="CombineDFT_434", push="496", pop="496", peek="496", pushType="complex", popType="complex", peekType="complex", codeSize="394 b", stackSize="11808 b", work="1244"];
node101 -> node104;
node105 [label="CombineDFT_435", push="496", pop="496", peek="496", pushType="complex", popType="complex", peekType="complex", codeSize="394 b", stackSize="11808 b", work="1244"];
node101 -> node105;
node106 [label="WEIGHTED_ROUND_ROBIN_Joiner_431", push="1984", pop="1984", peek="0", pushType="complex", popType="complex", peekType="void", codeSize="78 b", stackSize="160 b", work="0"];
node102 -> node106;
node103 -> node106;
node104 -> node106;
node105 -> node106;
node107 [label="WEIGHTED_ROUND_ROBIN_Splitter_436", push="1984", pop="1984", peek="0", pushType="complex", popType="complex", peekType="void", codeSize="42 b", stackSize="96 b", work="0"];
node106 -> node107;
node108 [label="CombineDFT_438", push="992", pop="992", peek="992", pushType="complex", popType="complex", peekType="complex", codeSize="394 b", stackSize="20000 b", work="2484"];
node107 -> node108;
node109 [label="CombineDFT_439", push="992", pop="992", peek="992", pushType="complex", popType="complex", peekType="complex", codeSize="394 b", stackSize="20000 b", work="2484"];
node107 -> node109;
node110 [label="WEIGHTED_ROUND_ROBIN_Joiner_437", push="1984", pop="1984", peek="0", pushType="complex", popType="complex", peekType="void", codeSize="42 b", stackSize="96 b", work="0"];
node108 -> node110;
node109 -> node110;
node111 [label="CombineDFT_328", push="1984", pop="1984", peek="1984", pushType="complex", popType="complex", peekType="complex", codeSize="394 b", stackSize="36384 b", work="4964"];
node110 -> node111;
node112 [label="CPrinter_329", push="0", pop="1984", peek="1984", pushType="void", popType="complex", peekType="complex", codeSize="34 b", stackSize="512 b", work="13"];
node111 -> node112;
}
