digraph FFT5_9524 {
node0 [label="WEIGHTED_ROUND_ROBIN_Splitter_9497", push="0", pop="0", peek="0", pushType="void", popType="void", peekType="void", codeSize="30 b", stackSize="32 b", work="0"];
node1 [label="source_9499", push="24", pop="0", peek="0", pushType="complex", popType="void", peekType="void", codeSize="84 b", stackSize="512 b", work="42"];
node0 -> node1;
node2 [label="source_9500", push="24", pop="0", peek="0", pushType="complex", popType="void", peekType="void", codeSize="84 b", stackSize="512 b", work="42"];
node0 -> node2;
node3 [label="WEIGHTED_ROUND_ROBIN_Joiner_9498", push="48", pop="48", peek="0", pushType="complex", popType="complex", peekType="void", codeSize="42 b", stackSize="96 b", work="0"];
node1 -> node3;
node2 -> node3;
node4 [label="WEIGHTED_ROUND_ROBIN_Splitter_9340", push="48", pop="48", peek="0", pushType="complex", popType="complex", peekType="void", codeSize="30 b", stackSize="32 b", work="0"];
node3 -> node4;
node5 [label="WEIGHTED_ROUND_ROBIN_Splitter_9342", push="24", pop="24", peek="0", pushType="complex", popType="complex", peekType="void", codeSize="30 b", stackSize="32 b", work="0"];
node4 -> node5;
node6 [label="WEIGHTED_ROUND_ROBIN_Splitter_9344", push="12", pop="12", peek="0", pushType="complex", popType="complex", peekType="void", codeSize="30 b", stackSize="32 b", work="0"];
node5 -> node6;
node7 [label="WEIGHTED_ROUND_ROBIN_Splitter_9346", push="6", pop="6", peek="0", pushType="complex", popType="complex", peekType="void", codeSize="30 b", stackSize="32 b", work="0"];
node6 -> node7;
node8 [label="Identity_9170", push="3", pop="3", peek="3", pushType="complex", popType="complex", peekType="complex", codeSize="12 b", stackSize="512 b", work="6"];
node7 -> node8;
node9 [label="Identity_9172", push="3", pop="3", peek="3", pushType="complex", popType="complex", peekType="complex", codeSize="12 b", stackSize="512 b", work="6"];
node7 -> node9;
node10 [label="WEIGHTED_ROUND_ROBIN_Joiner_9347", push="6", pop="6", peek="0", pushType="complex", popType="complex", peekType="void", codeSize="30 b", stackSize="32 b", work="0"];
node8 -> node10;
node9 -> node10;
node11 [label="WEIGHTED_ROUND_ROBIN_Splitter_9348", push="6", pop="6", peek="0", pushType="complex", popType="complex", peekType="void", codeSize="30 b", stackSize="32 b", work="0"];
node6 -> node11;
node12 [label="Identity_9176", push="3", pop="3", peek="3", pushType="complex", popType="complex", peekType="complex", codeSize="12 b", stackSize="512 b", work="6"];
node11 -> node12;
node13 [label="Identity_9178", push="3", pop="3", peek="3", pushType="complex", popType="complex", peekType="complex", codeSize="12 b", stackSize="512 b", work="6"];
node11 -> node13;
node14 [label="WEIGHTED_ROUND_ROBIN_Joiner_9349", push="6", pop="6", peek="0", pushType="complex", popType="complex", peekType="void", codeSize="30 b", stackSize="32 b", work="0"];
node12 -> node14;
node13 -> node14;
node15 [label="WEIGHTED_ROUND_ROBIN_Joiner_9345", push="12", pop="12", peek="0", pushType="complex", popType="complex", peekType="void", codeSize="42 b", stackSize="96 b", work="0"];
node10 -> node15;
node14 -> node15;
node16 [label="WEIGHTED_ROUND_ROBIN_Splitter_9350", push="12", pop="12", peek="0", pushType="complex", popType="complex", peekType="void", codeSize="30 b", stackSize="32 b", work="0"];
node5 -> node16;
node17 [label="WEIGHTED_ROUND_ROBIN_Splitter_9352", push="6", pop="6", peek="0", pushType="complex", popType="complex", peekType="void", codeSize="30 b", stackSize="32 b", work="0"];
node16 -> node17;
node18 [label="Identity_9184", push="3", pop="3", peek="3", pushType="complex", popType="complex", peekType="complex", codeSize="12 b", stackSize="512 b", work="6"];
node17 -> node18;
node19 [label="Identity_9186", push="3", pop="3", peek="3", pushType="complex", popType="complex", peekType="complex", codeSize="12 b", stackSize="512 b", work="6"];
node17 -> node19;
node20 [label="WEIGHTED_ROUND_ROBIN_Joiner_9353", push="6", pop="6", peek="0", pushType="complex", popType="complex", peekType="void", codeSize="30 b", stackSize="32 b", work="0"];
node18 -> node20;
node19 -> node20;
node21 [label="WEIGHTED_ROUND_ROBIN_Splitter_9354", push="6", pop="6", peek="0", pushType="complex", popType="complex", peekType="void", codeSize="30 b", stackSize="32 b", work="0"];
node16 -> node21;
node22 [label="Identity_9190", push="3", pop="3", peek="3", pushType="complex", popType="complex", peekType="complex", codeSize="12 b", stackSize="512 b", work="6"];
node21 -> node22;
node23 [label="Identity_9192", push="3", pop="3", peek="3", pushType="complex", popType="complex", peekType="complex", codeSize="12 b", stackSize="512 b", work="6"];
node21 -> node23;
node24 [label="WEIGHTED_ROUND_ROBIN_Joiner_9355", push="6", pop="6", peek="0", pushType="complex", popType="complex", peekType="void", codeSize="30 b", stackSize="32 b", work="0"];
node22 -> node24;
node23 -> node24;
node25 [label="WEIGHTED_ROUND_ROBIN_Joiner_9351", push="12", pop="12", peek="0", pushType="complex", popType="complex", peekType="void", codeSize="42 b", stackSize="96 b", work="0"];
node20 -> node25;
node24 -> node25;
node26 [label="WEIGHTED_ROUND_ROBIN_Joiner_9343", push="24", pop="24", peek="0", pushType="complex", popType="complex", peekType="void", codeSize="42 b", stackSize="96 b", work="0"];
node15 -> node26;
node25 -> node26;
node27 [label="WEIGHTED_ROUND_ROBIN_Splitter_9356", push="24", pop="24", peek="0", pushType="complex", popType="complex", peekType="void", codeSize="30 b", stackSize="32 b", work="0"];
node4 -> node27;
node28 [label="WEIGHTED_ROUND_ROBIN_Splitter_9358", push="12", pop="12", peek="0", pushType="complex", popType="complex", peekType="void", codeSize="30 b", stackSize="32 b", work="0"];
node27 -> node28;
node29 [label="WEIGHTED_ROUND_ROBIN_Splitter_9360", push="6", pop="6", peek="0", pushType="complex", popType="complex", peekType="void", codeSize="30 b", stackSize="32 b", work="0"];
node28 -> node29;
node30 [label="Identity_9200", push="3", pop="3", peek="3", pushType="complex", popType="complex", peekType="complex", codeSize="12 b", stackSize="512 b", work="6"];
node29 -> node30;
node31 [label="Identity_9202", push="3", pop="3", peek="3", pushType="complex", popType="complex", peekType="complex", codeSize="12 b", stackSize="512 b", work="6"];
node29 -> node31;
node32 [label="WEIGHTED_ROUND_ROBIN_Joiner_9361", push="6", pop="6", peek="0", pushType="complex", popType="complex", peekType="void", codeSize="30 b", stackSize="32 b", work="0"];
node30 -> node32;
node31 -> node32;
node33 [label="WEIGHTED_ROUND_ROBIN_Splitter_9362", push="6", pop="6", peek="0", pushType="complex", popType="complex", peekType="void", codeSize="30 b", stackSize="32 b", work="0"];
node28 -> node33;
node34 [label="Identity_9206", push="3", pop="3", peek="3", pushType="complex", popType="complex", peekType="complex", codeSize="12 b", stackSize="512 b", work="6"];
node33 -> node34;
node35 [label="Identity_9208", push="3", pop="3", peek="3", pushType="complex", popType="complex", peekType="complex", codeSize="12 b", stackSize="512 b", work="6"];
node33 -> node35;
node36 [label="WEIGHTED_ROUND_ROBIN_Joiner_9363", push="6", pop="6", peek="0", pushType="complex", popType="complex", peekType="void", codeSize="30 b", stackSize="32 b", work="0"];
node34 -> node36;
node35 -> node36;
node37 [label="WEIGHTED_ROUND_ROBIN_Joiner_9359", push="12", pop="12", peek="0", pushType="complex", popType="complex", peekType="void", codeSize="42 b", stackSize="96 b", work="0"];
node32 -> node37;
node36 -> node37;
node38 [label="WEIGHTED_ROUND_ROBIN_Splitter_9364", push="12", pop="12", peek="0", pushType="complex", popType="complex", peekType="void", codeSize="30 b", stackSize="32 b", work="0"];
node27 -> node38;
node39 [label="WEIGHTED_ROUND_ROBIN_Splitter_9366", push="6", pop="6", peek="0", pushType="complex", popType="complex", peekType="void", codeSize="30 b", stackSize="32 b", work="0"];
node38 -> node39;
node40 [label="Identity_9214", push="3", pop="3", peek="3", pushType="complex", popType="complex", peekType="complex", codeSize="12 b", stackSize="512 b", work="6"];
node39 -> node40;
node41 [label="Identity_9216", push="3", pop="3", peek="3", pushType="complex", popType="complex", peekType="complex", codeSize="12 b", stackSize="512 b", work="6"];
node39 -> node41;
node42 [label="WEIGHTED_ROUND_ROBIN_Joiner_9367", push="6", pop="6", peek="0", pushType="complex", popType="complex", peekType="void", codeSize="30 b", stackSize="32 b", work="0"];
node40 -> node42;
node41 -> node42;
node43 [label="WEIGHTED_ROUND_ROBIN_Splitter_9368", push="6", pop="6", peek="0", pushType="complex", popType="complex", peekType="void", codeSize="30 b", stackSize="32 b", work="0"];
node38 -> node43;
node44 [label="Identity_9220", push="3", pop="3", peek="3", pushType="complex", popType="complex", peekType="complex", codeSize="12 b", stackSize="512 b", work="6"];
node43 -> node44;
node45 [label="Identity_9222", push="3", pop="3", peek="3", pushType="complex", popType="complex", peekType="complex", codeSize="12 b", stackSize="512 b", work="6"];
node43 -> node45;
node46 [label="WEIGHTED_ROUND_ROBIN_Joiner_9369", push="6", pop="6", peek="0", pushType="complex", popType="complex", peekType="void", codeSize="30 b", stackSize="32 b", work="0"];
node44 -> node46;
node45 -> node46;
node47 [label="WEIGHTED_ROUND_ROBIN_Joiner_9365", push="12", pop="12", peek="0", pushType="complex", popType="complex", peekType="void", codeSize="42 b", stackSize="96 b", work="0"];
node42 -> node47;
node46 -> node47;
node48 [label="WEIGHTED_ROUND_ROBIN_Joiner_9357", push="24", pop="24", peek="0", pushType="complex", popType="complex", peekType="void", codeSize="42 b", stackSize="96 b", work="0"];
node37 -> node48;
node47 -> node48;
node49 [label="WEIGHTED_ROUND_ROBIN_Joiner_9341", push="48", pop="48", peek="0", pushType="complex", popType="complex", peekType="void", codeSize="42 b", stackSize="96 b", work="0"];
node26 -> node49;
node48 -> node49;
node50 [label="WEIGHTED_ROUND_ROBIN_Splitter_9484", push="48", pop="48", peek="0", pushType="complex", popType="complex", peekType="void", codeSize="42 b", stackSize="96 b", work="0"];
node49 -> node50;
node51 [label="WEIGHTED_ROUND_ROBIN_Splitter_9485", push="24", pop="24", peek="0", pushType="complex", popType="complex", peekType="void", codeSize="78 b", stackSize="160 b", work="0"];
node50 -> node51;
node52 [label="Pre_CollapsedDataParallel_1_9317", push="6", pop="6", peek="6", pushType="complex", popType="complex", peekType="complex", codeSize="40 b", stackSize="64 b", work="23"];
node51 -> node52;
node53 [label="butterfly_9224", push="6", pop="6", peek="6", pushType="complex", popType="complex", peekType="complex", codeSize="216 b", stackSize="3072 b", work="100"];
node52 -> node53;
node54 [label="Post_CollapsedDataParallel_2_9318", push="6", pop="6", peek="6", pushType="complex", popType="complex", peekType="complex", codeSize="36 b", stackSize="32 b", work="21"];
node53 -> node54;
node55 [label="Pre_CollapsedDataParallel_1_9320", push="6", pop="6", peek="6", pushType="complex", popType="complex", peekType="complex", codeSize="40 b", stackSize="64 b", work="23"];
node51 -> node55;
node56 [label="butterfly_9225", push="6", pop="6", peek="6", pushType="complex", popType="complex", peekType="complex", codeSize="216 b", stackSize="3072 b", work="100"];
node55 -> node56;
node57 [label="Post_CollapsedDataParallel_2_9321", push="6", pop="6", peek="6", pushType="complex", popType="complex", peekType="complex", codeSize="36 b", stackSize="32 b", work="21"];
node56 -> node57;
node58 [label="Pre_CollapsedDataParallel_1_9323", push="6", pop="6", peek="6", pushType="complex", popType="complex", peekType="complex", codeSize="40 b", stackSize="64 b", work="23"];
node51 -> node58;
node59 [label="butterfly_9226", push="6", pop="6", peek="6", pushType="complex", popType="complex", peekType="complex", codeSize="216 b", stackSize="3072 b", work="100"];
node58 -> node59;
node60 [label="Post_CollapsedDataParallel_2_9324", push="6", pop="6", peek="6", pushType="complex", popType="complex", peekType="complex", codeSize="36 b", stackSize="32 b", work="21"];
node59 -> node60;
node61 [label="Pre_CollapsedDataParallel_1_9326", push="6", pop="6", peek="6", pushType="complex", popType="complex", peekType="complex", codeSize="40 b", stackSize="64 b", work="23"];
node51 -> node61;
node62 [label="butterfly_9227", push="6", pop="6", peek="6", pushType="complex", popType="complex", peekType="complex", codeSize="216 b", stackSize="3072 b", work="100"];
node61 -> node62;
node63 [label="Post_CollapsedDataParallel_2_9327", push="6", pop="6", peek="6", pushType="complex", popType="complex", peekType="complex", codeSize="36 b", stackSize="32 b", work="21"];
node62 -> node63;
node64 [label="WEIGHTED_ROUND_ROBIN_Joiner_9486", push="24", pop="24", peek="0", pushType="complex", popType="complex", peekType="void", codeSize="78 b", stackSize="160 b", work="0"];
node54 -> node64;
node57 -> node64;
node60 -> node64;
node63 -> node64;
node65 [label="WEIGHTED_ROUND_ROBIN_Splitter_9487", push="24", pop="24", peek="0", pushType="complex", popType="complex", peekType="void", codeSize="78 b", stackSize="160 b", work="0"];
node50 -> node65;
node66 [label="Pre_CollapsedDataParallel_1_9329", push="6", pop="6", peek="6", pushType="complex", popType="complex", peekType="complex", codeSize="40 b", stackSize="64 b", work="23"];
node65 -> node66;
node67 [label="butterfly_9228", push="6", pop="6", peek="6", pushType="complex", popType="complex", peekType="complex", codeSize="216 b", stackSize="3072 b", work="100"];
node66 -> node67;
node68 [label="Post_CollapsedDataParallel_2_9330", push="6", pop="6", peek="6", pushType="complex", popType="complex", peekType="complex", codeSize="36 b", stackSize="32 b", work="21"];
node67 -> node68;
node69 [label="Pre_CollapsedDataParallel_1_9332", push="6", pop="6", peek="6", pushType="complex", popType="complex", peekType="complex", codeSize="40 b", stackSize="64 b", work="23"];
node65 -> node69;
node70 [label="butterfly_9229", push="6", pop="6", peek="6", pushType="complex", popType="complex", peekType="complex", codeSize="216 b", stackSize="3072 b", work="100"];
node69 -> node70;
node71 [label="Post_CollapsedDataParallel_2_9333", push="6", pop="6", peek="6", pushType="complex", popType="complex", peekType="complex", codeSize="36 b", stackSize="32 b", work="21"];
node70 -> node71;
node72 [label="Pre_CollapsedDataParallel_1_9335", push="6", pop="6", peek="6", pushType="complex", popType="complex", peekType="complex", codeSize="40 b", stackSize="64 b", work="23"];
node65 -> node72;
node73 [label="butterfly_9230", push="6", pop="6", peek="6", pushType="complex", popType="complex", peekType="complex", codeSize="216 b", stackSize="3072 b", work="100"];
node72 -> node73;
node74 [label="Post_CollapsedDataParallel_2_9336", push="6", pop="6", peek="6", pushType="complex", popType="complex", peekType="complex", codeSize="36 b", stackSize="32 b", work="21"];
node73 -> node74;
node75 [label="Pre_CollapsedDataParallel_1_9338", push="6", pop="6", peek="6", pushType="complex", popType="complex", peekType="complex", codeSize="40 b", stackSize="64 b", work="23"];
node65 -> node75;
node76 [label="butterfly_9231", push="6", pop="6", peek="6", pushType="complex", popType="complex", peekType="complex", codeSize="216 b", stackSize="3072 b", work="100"];
node75 -> node76;
node77 [label="Post_CollapsedDataParallel_2_9339", push="6", pop="6", peek="6", pushType="complex", popType="complex", peekType="complex", codeSize="36 b", stackSize="32 b", work="21"];
node76 -> node77;
node78 [label="WEIGHTED_ROUND_ROBIN_Joiner_9488", push="24", pop="24", peek="0", pushType="complex", popType="complex", peekType="void", codeSize="78 b", stackSize="160 b", work="0"];
node68 -> node78;
node71 -> node78;
node74 -> node78;
node77 -> node78;
node79 [label="WEIGHTED_ROUND_ROBIN_Joiner_9489", push="48", pop="48", peek="0", pushType="complex", popType="complex", peekType="void", codeSize="42 b", stackSize="96 b", work="0"];
node64 -> node79;
node78 -> node79;
node80 [label="WEIGHTED_ROUND_ROBIN_Splitter_9490", push="48", pop="48", peek="0", pushType="complex", popType="complex", peekType="void", codeSize="42 b", stackSize="96 b", work="0"];
node79 -> node80;
node81 [label="WEIGHTED_ROUND_ROBIN_Splitter_9491", push="24", pop="24", peek="0", pushType="complex", popType="complex", peekType="void", codeSize="42 b", stackSize="96 b", work="0"];
node80 -> node81;
node82 [label="WEIGHTED_ROUND_ROBIN_Splitter_9374", push="12", pop="12", peek="0", pushType="complex", popType="complex", peekType="void", codeSize="30 b", stackSize="32 b", work="0"];
node81 -> node82;
node83 [label="butterfly_9233", push="6", pop="6", peek="6", pushType="complex", popType="complex", peekType="complex", codeSize="216 b", stackSize="3072 b", work="100"];
node82 -> node83;
node84 [label="butterfly_9234", push="6", pop="6", peek="6", pushType="complex", popType="complex", peekType="complex", codeSize="216 b", stackSize="3072 b", work="100"];
node82 -> node84;
node85 [label="WEIGHTED_ROUND_ROBIN_Joiner_9375", push="12", pop="12", peek="0", pushType="complex", popType="complex", peekType="void", codeSize="30 b", stackSize="32 b", work="0"];
node83 -> node85;
node84 -> node85;
node86 [label="WEIGHTED_ROUND_ROBIN_Splitter_9376", push="12", pop="12", peek="0", pushType="complex", popType="complex", peekType="void", codeSize="30 b", stackSize="32 b", work="0"];
node81 -> node86;
node87 [label="butterfly_9235", push="6", pop="6", peek="6", pushType="complex", popType="complex", peekType="complex", codeSize="216 b", stackSize="3072 b", work="100"];
node86 -> node87;
node88 [label="butterfly_9236", push="6", pop="6", peek="6", pushType="complex", popType="complex", peekType="complex", codeSize="216 b", stackSize="3072 b", work="100"];
node86 -> node88;
node89 [label="WEIGHTED_ROUND_ROBIN_Joiner_9377", push="12", pop="12", peek="0", pushType="complex", popType="complex", peekType="void", codeSize="30 b", stackSize="32 b", work="0"];
node87 -> node89;
node88 -> node89;
node90 [label="WEIGHTED_ROUND_ROBIN_Joiner_9492", push="24", pop="24", peek="0", pushType="complex", popType="complex", peekType="void", codeSize="42 b", stackSize="96 b", work="0"];
node85 -> node90;
node89 -> node90;
node91 [label="WEIGHTED_ROUND_ROBIN_Splitter_9493", push="24", pop="24", peek="0", pushType="complex", popType="complex", peekType="void", codeSize="42 b", stackSize="96 b", work="0"];
node80 -> node91;
node92 [label="WEIGHTED_ROUND_ROBIN_Splitter_9378", push="12", pop="12", peek="0", pushType="complex", popType="complex", peekType="void", codeSize="30 b", stackSize="32 b", work="0"];
node91 -> node92;
node93 [label="butterfly_9237", push="6", pop="6", peek="6", pushType="complex", popType="complex", peekType="complex", codeSize="216 b", stackSize="3072 b", work="100"];
node92 -> node93;
node94 [label="butterfly_9238", push="6", pop="6", peek="6", pushType="complex", popType="complex", peekType="complex", codeSize="216 b", stackSize="3072 b", work="100"];
node92 -> node94;
node95 [label="WEIGHTED_ROUND_ROBIN_Joiner_9379", push="12", pop="12", peek="0", pushType="complex", popType="complex", peekType="void", codeSize="30 b", stackSize="32 b", work="0"];
node93 -> node95;
node94 -> node95;
node96 [label="WEIGHTED_ROUND_ROBIN_Splitter_9380", push="12", pop="12", peek="0", pushType="complex", popType="complex", peekType="void", codeSize="30 b", stackSize="32 b", work="0"];
node91 -> node96;
node97 [label="butterfly_9239", push="6", pop="6", peek="6", pushType="complex", popType="complex", peekType="complex", codeSize="216 b", stackSize="3072 b", work="100"];
node96 -> node97;
node98 [label="butterfly_9240", push="6", pop="6", peek="6", pushType="complex", popType="complex", peekType="complex", codeSize="216 b", stackSize="3072 b", work="100"];
node96 -> node98;
node99 [label="WEIGHTED_ROUND_ROBIN_Joiner_9381", push="12", pop="12", peek="0", pushType="complex", popType="complex", peekType="void", codeSize="30 b", stackSize="32 b", work="0"];
node97 -> node99;
node98 -> node99;
node100 [label="WEIGHTED_ROUND_ROBIN_Joiner_9494", push="24", pop="24", peek="0", pushType="complex", popType="complex", peekType="void", codeSize="42 b", stackSize="96 b", work="0"];
node95 -> node100;
node99 -> node100;
node101 [label="WEIGHTED_ROUND_ROBIN_Joiner_9495", push="48", pop="48", peek="0", pushType="complex", popType="complex", peekType="void", codeSize="42 b", stackSize="96 b", work="0"];
node90 -> node101;
node100 -> node101;
node102 [label="WEIGHTED_ROUND_ROBIN_Splitter_9382", push="48", pop="48", peek="0", pushType="complex", popType="complex", peekType="void", codeSize="42 b", stackSize="96 b", work="0"];
node101 -> node102;
node103 [label="WEIGHTED_ROUND_ROBIN_Splitter_9384", push="24", pop="24", peek="0", pushType="complex", popType="complex", peekType="void", codeSize="54 b", stackSize="32 b", work="0"];
node102 -> node103;
node104 [label="butterfly_9242", push="6", pop="6", peek="6", pushType="complex", popType="complex", peekType="complex", codeSize="216 b", stackSize="3072 b", work="100"];
node103 -> node104;
node105 [label="butterfly_9243", push="6", pop="6", peek="6", pushType="complex", popType="complex", peekType="complex", codeSize="216 b", stackSize="3072 b", work="100"];
node103 -> node105;
node106 [label="butterfly_9244", push="6", pop="6", peek="6", pushType="complex", popType="complex", peekType="complex", codeSize="216 b", stackSize="3072 b", work="100"];
node103 -> node106;
node107 [label="butterfly_9245", push="6", pop="6", peek="6", pushType="complex", popType="complex", peekType="complex", codeSize="216 b", stackSize="3072 b", work="100"];
node103 -> node107;
node108 [label="WEIGHTED_ROUND_ROBIN_Joiner_9385", push="24", pop="24", peek="0", pushType="complex", popType="complex", peekType="void", codeSize="54 b", stackSize="32 b", work="0"];
node104 -> node108;
node105 -> node108;
node106 -> node108;
node107 -> node108;
node109 [label="WEIGHTED_ROUND_ROBIN_Splitter_9386", push="24", pop="24", peek="0", pushType="complex", popType="complex", peekType="void", codeSize="54 b", stackSize="32 b", work="0"];
node102 -> node109;
node110 [label="butterfly_9246", push="6", pop="6", peek="6", pushType="complex", popType="complex", peekType="complex", codeSize="216 b", stackSize="3072 b", work="100"];
node109 -> node110;
node111 [label="butterfly_9247", push="6", pop="6", peek="6", pushType="complex", popType="complex", peekType="complex", codeSize="216 b", stackSize="3072 b", work="100"];
node109 -> node111;
node112 [label="butterfly_9248", push="6", pop="6", peek="6", pushType="complex", popType="complex", peekType="complex", codeSize="216 b", stackSize="3072 b", work="100"];
node109 -> node112;
node113 [label="butterfly_9249", push="6", pop="6", peek="6", pushType="complex", popType="complex", peekType="complex", codeSize="216 b", stackSize="3072 b", work="100"];
node109 -> node113;
node114 [label="WEIGHTED_ROUND_ROBIN_Joiner_9387", push="24", pop="24", peek="0", pushType="complex", popType="complex", peekType="void", codeSize="54 b", stackSize="32 b", work="0"];
node110 -> node114;
node111 -> node114;
node112 -> node114;
node113 -> node114;
node115 [label="WEIGHTED_ROUND_ROBIN_Joiner_9383", push="48", pop="48", peek="0", pushType="complex", popType="complex", peekType="void", codeSize="42 b", stackSize="96 b", work="0"];
node108 -> node115;
node114 -> node115;
node116 [label="WEIGHTED_ROUND_ROBIN_Splitter_9501", push="48", pop="48", peek="0", pushType="complex", popType="complex", peekType="void", codeSize="42 b", stackSize="32 b", work="0"];
node115 -> node116;
node117 [label="magnitude_9503", push="16", pop="16", peek="16", pushType="float", popType="complex", peekType="complex", codeSize="63 b", stackSize="512 b", work="327"];
node116 -> node117;
node118 [label="magnitude_9504", push="16", pop="16", peek="16", pushType="float", popType="complex", peekType="complex", codeSize="63 b", stackSize="512 b", work="327"];
node116 -> node118;
node119 [label="magnitude_9505", push="16", pop="16", peek="16", pushType="float", popType="complex", peekType="complex", codeSize="63 b", stackSize="512 b", work="327"];
node116 -> node119;
node120 [label="WEIGHTED_ROUND_ROBIN_Joiner_9502", push="48", pop="48", peek="0", pushType="float", popType="float", peekType="void", codeSize="42 b", stackSize="32 b", work="0"];
node117 -> node120;
node118 -> node120;
node119 -> node120;
node121 [label="sink_9251", push="0", pop="48", peek="48", pushType="void", popType="float", peekType="float", codeSize="16 b", stackSize="0 b", work="6"];
node120 -> node121;
}
