digraph FFT6_5701 {
node0 [label="FFTTestSource_5623", push="320", pop="0", peek="0", pushType="complex", popType="void", peekType="void", codeSize="44 b", stackSize="1056 b", work="324"];
node1 [label="FFTReorderSimple_5624", push="320", pop="320", peek="320", pushType="complex", popType="complex", peekType="complex", codeSize="68 b", stackSize="1056 b", work="832"];
node0 -> node1;
node2 [label="WEIGHTED_ROUND_ROBIN_Splitter_5637", push="320", pop="320", peek="0", pushType="complex", popType="complex", peekType="void", codeSize="42 b", stackSize="96 b", work="0"];
node1 -> node2;
node3 [label="FFTReorderSimple_5639", push="160", pop="160", peek="160", pushType="complex", popType="complex", peekType="complex", codeSize="68 b", stackSize="1056 b", work="416"];
node2 -> node3;
node4 [label="FFTReorderSimple_5640", push="160", pop="160", peek="160", pushType="complex", popType="complex", peekType="complex", codeSize="68 b", stackSize="1056 b", work="416"];
node2 -> node4;
node5 [label="WEIGHTED_ROUND_ROBIN_Joiner_5638", push="320", pop="320", peek="0", pushType="complex", popType="complex", peekType="void", codeSize="42 b", stackSize="96 b", work="0"];
node3 -> node5;
node4 -> node5;
node6 [label="WEIGHTED_ROUND_ROBIN_Splitter_5641", push="320", pop="320", peek="0", pushType="complex", popType="complex", peekType="void", codeSize="78 b", stackSize="160 b", work="0"];
node5 -> node6;
node7 [label="FFTReorderSimple_5643", push="80", pop="80", peek="80", pushType="complex", popType="complex", peekType="complex", codeSize="68 b", stackSize="1056 b", work="208"];
node6 -> node7;
node8 [label="FFTReorderSimple_5644", push="80", pop="80", peek="80", pushType="complex", popType="complex", peekType="complex", codeSize="68 b", stackSize="1056 b", work="208"];
node6 -> node8;
node9 [label="FFTReorderSimple_5645", push="80", pop="80", peek="80", pushType="complex", popType="complex", peekType="complex", codeSize="68 b", stackSize="1056 b", work="208"];
node6 -> node9;
node10 [label="FFTReorderSimple_5646", push="80", pop="80", peek="80", pushType="complex", popType="complex", peekType="complex", codeSize="68 b", stackSize="1056 b", work="208"];
node6 -> node10;
node11 [label="WEIGHTED_ROUND_ROBIN_Joiner_5642", push="320", pop="320", peek="0", pushType="complex", popType="complex", peekType="void", codeSize="78 b", stackSize="160 b", work="0"];
node7 -> node11;
node8 -> node11;
node9 -> node11;
node10 -> node11;
node12 [label="WEIGHTED_ROUND_ROBIN_Splitter_5647", push="320", pop="320", peek="0", pushType="complex", popType="complex", peekType="void", codeSize="96 b", stackSize="192 b", work="0"];
node11 -> node12;
node13 [label="FFTReorderSimple_5649", push="64", pop="64", peek="64", pushType="complex", popType="complex", peekType="complex", codeSize="68 b", stackSize="1056 b", work="104"];
node12 -> node13;
node14 [label="FFTReorderSimple_5650", push="64", pop="64", peek="64", pushType="complex", popType="complex", peekType="complex", codeSize="68 b", stackSize="1056 b", work="104"];
node12 -> node14;
node15 [label="FFTReorderSimple_5651", push="64", pop="64", peek="64", pushType="complex", popType="complex", peekType="complex", codeSize="68 b", stackSize="1056 b", work="104"];
node12 -> node15;
node16 [label="FFTReorderSimple_5652", push="64", pop="64", peek="64", pushType="complex", popType="complex", peekType="complex", codeSize="68 b", stackSize="1056 b", work="104"];
node12 -> node16;
node17 [label="FFTReorderSimple_5653", push="64", pop="64", peek="64", pushType="complex", popType="complex", peekType="complex", codeSize="68 b", stackSize="1056 b", work="104"];
node12 -> node17;
node18 [label="WEIGHTED_ROUND_ROBIN_Joiner_5648", push="320", pop="320", peek="0", pushType="complex", popType="complex", peekType="void", codeSize="96 b", stackSize="192 b", work="0"];
node13 -> node18;
node14 -> node18;
node15 -> node18;
node16 -> node18;
node17 -> node18;
node19 [label="WEIGHTED_ROUND_ROBIN_Splitter_5654", push="320", pop="320", peek="0", pushType="complex", popType="complex", peekType="void", codeSize="96 b", stackSize="192 b", work="0"];
node18 -> node19;
node20 [label="FFTReorderSimple_5656", push="64", pop="64", peek="64", pushType="complex", popType="complex", peekType="complex", codeSize="68 b", stackSize="1056 b", work="52"];
node19 -> node20;
node21 [label="FFTReorderSimple_5657", push="64", pop="64", peek="64", pushType="complex", popType="complex", peekType="complex", codeSize="68 b", stackSize="1056 b", work="52"];
node19 -> node21;
node22 [label="FFTReorderSimple_5658", push="64", pop="64", peek="64", pushType="complex", popType="complex", peekType="complex", codeSize="68 b", stackSize="1056 b", work="52"];
node19 -> node22;
node23 [label="FFTReorderSimple_5659", push="64", pop="64", peek="64", pushType="complex", popType="complex", peekType="complex", codeSize="68 b", stackSize="1056 b", work="52"];
node19 -> node23;
node24 [label="FFTReorderSimple_5660", push="64", pop="64", peek="64", pushType="complex", popType="complex", peekType="complex", codeSize="68 b", stackSize="1056 b", work="52"];
node19 -> node24;
node25 [label="WEIGHTED_ROUND_ROBIN_Joiner_5655", push="320", pop="320", peek="0", pushType="complex", popType="complex", peekType="void", codeSize="96 b", stackSize="192 b", work="0"];
node20 -> node25;
node21 -> node25;
node22 -> node25;
node23 -> node25;
node24 -> node25;
node26 [label="WEIGHTED_ROUND_ROBIN_Splitter_5661", push="320", pop="320", peek="0", pushType="complex", popType="complex", peekType="void", codeSize="96 b", stackSize="192 b", work="0"];
node25 -> node26;
node27 [label="CombineDFT_5663", push="64", pop="64", peek="64", pushType="complex", popType="complex", peekType="complex", codeSize="394 b", stackSize="4640 b", work="159"];
node26 -> node27;
node28 [label="CombineDFT_5664", push="64", pop="64", peek="64", pushType="complex", popType="complex", peekType="complex", codeSize="394 b", stackSize="4640 b", work="159"];
node26 -> node28;
node29 [label="CombineDFT_5665", push="64", pop="64", peek="64", pushType="complex", popType="complex", peekType="complex", codeSize="394 b", stackSize="4640 b", work="159"];
node26 -> node29;
node30 [label="CombineDFT_5666", push="64", pop="64", peek="64", pushType="complex", popType="complex", peekType="complex", codeSize="394 b", stackSize="4640 b", work="159"];
node26 -> node30;
node31 [label="CombineDFT_5667", push="64", pop="64", peek="64", pushType="complex", popType="complex", peekType="complex", codeSize="394 b", stackSize="4640 b", work="159"];
node26 -> node31;
node32 [label="WEIGHTED_ROUND_ROBIN_Joiner_5662", push="320", pop="320", peek="0", pushType="complex", popType="complex", peekType="void", codeSize="96 b", stackSize="192 b", work="0"];
node27 -> node32;
node28 -> node32;
node29 -> node32;
node30 -> node32;
node31 -> node32;
node33 [label="WEIGHTED_ROUND_ROBIN_Splitter_5668", push="320", pop="320", peek="0", pushType="complex", popType="complex", peekType="void", codeSize="96 b", stackSize="192 b", work="0"];
node32 -> node33;
node34 [label="CombineDFT_5670", push="64", pop="64", peek="64", pushType="complex", popType="complex", peekType="complex", codeSize="394 b", stackSize="5664 b", work="314"];
node33 -> node34;
node35 [label="CombineDFT_5671", push="64", pop="64", peek="64", pushType="complex", popType="complex", peekType="complex", codeSize="394 b", stackSize="5664 b", work="314"];
node33 -> node35;
node36 [label="CombineDFT_5672", push="64", pop="64", peek="64", pushType="complex", popType="complex", peekType="complex", codeSize="394 b", stackSize="5664 b", work="314"];
node33 -> node36;
node37 [label="CombineDFT_5673", push="64", pop="64", peek="64", pushType="complex", popType="complex", peekType="complex", codeSize="394 b", stackSize="5664 b", work="314"];
node33 -> node37;
node38 [label="CombineDFT_5674", push="64", pop="64", peek="64", pushType="complex", popType="complex", peekType="complex", codeSize="394 b", stackSize="5664 b", work="314"];
node33 -> node38;
node39 [label="WEIGHTED_ROUND_ROBIN_Joiner_5669", push="320", pop="320", peek="0", pushType="complex", popType="complex", peekType="void", codeSize="96 b", stackSize="192 b", work="0"];
node34 -> node39;
node35 -> node39;
node36 -> node39;
node37 -> node39;
node38 -> node39;
node40 [label="WEIGHTED_ROUND_ROBIN_Splitter_5675", push="320", pop="320", peek="0", pushType="complex", popType="complex", peekType="void", codeSize="96 b", stackSize="192 b", work="0"];
node39 -> node40;
node41 [label="CombineDFT_5677", push="64", pop="64", peek="64", pushType="complex", popType="complex", peekType="complex", codeSize="394 b", stackSize="7712 b", work="624"];
node40 -> node41;
node42 [label="CombineDFT_5678", push="64", pop="64", peek="64", pushType="complex", popType="complex", peekType="complex", codeSize="394 b", stackSize="7712 b", work="624"];
node40 -> node42;
node43 [label="CombineDFT_5679", push="64", pop="64", peek="64", pushType="complex", popType="complex", peekType="complex", codeSize="394 b", stackSize="7712 b", work="624"];
node40 -> node43;
node44 [label="CombineDFT_5680", push="64", pop="64", peek="64", pushType="complex", popType="complex", peekType="complex", codeSize="394 b", stackSize="7712 b", work="624"];
node40 -> node44;
node45 [label="CombineDFT_5681", push="64", pop="64", peek="64", pushType="complex", popType="complex", peekType="complex", codeSize="394 b", stackSize="7712 b", work="624"];
node40 -> node45;
node46 [label="WEIGHTED_ROUND_ROBIN_Joiner_5676", push="320", pop="320", peek="0", pushType="complex", popType="complex", peekType="void", codeSize="96 b", stackSize="192 b", work="0"];
node41 -> node46;
node42 -> node46;
node43 -> node46;
node44 -> node46;
node45 -> node46;
node47 [label="WEIGHTED_ROUND_ROBIN_Splitter_5682", push="320", pop="320", peek="0", pushType="complex", popType="complex", peekType="void", codeSize="78 b", stackSize="160 b", work="0"];
node46 -> node47;
node48 [label="CombineDFT_5684", push="80", pop="80", peek="80", pushType="complex", popType="complex", peekType="complex", codeSize="394 b", stackSize="11808 b", work="1244"];
node47 -> node48;
node49 [label="CombineDFT_5685", push="80", pop="80", peek="80", pushType="complex", popType="complex", peekType="complex", codeSize="394 b", stackSize="11808 b", work="1244"];
node47 -> node49;
node50 [label="CombineDFT_5686", push="80", pop="80", peek="80", pushType="complex", popType="complex", peekType="complex", codeSize="394 b", stackSize="11808 b", work="1244"];
node47 -> node50;
node51 [label="CombineDFT_5687", push="80", pop="80", peek="80", pushType="complex", popType="complex", peekType="complex", codeSize="394 b", stackSize="11808 b", work="1244"];
node47 -> node51;
node52 [label="WEIGHTED_ROUND_ROBIN_Joiner_5683", push="320", pop="320", peek="0", pushType="complex", popType="complex", peekType="void", codeSize="78 b", stackSize="160 b", work="0"];
node48 -> node52;
node49 -> node52;
node50 -> node52;
node51 -> node52;
node53 [label="WEIGHTED_ROUND_ROBIN_Splitter_5688", push="320", pop="320", peek="0", pushType="complex", popType="complex", peekType="void", codeSize="42 b", stackSize="96 b", work="0"];
node52 -> node53;
node54 [label="CombineDFT_5690", push="160", pop="160", peek="160", pushType="complex", popType="complex", peekType="complex", codeSize="394 b", stackSize="20000 b", work="2484"];
node53 -> node54;
node55 [label="CombineDFT_5691", push="160", pop="160", peek="160", pushType="complex", popType="complex", peekType="complex", codeSize="394 b", stackSize="20000 b", work="2484"];
node53 -> node55;
node56 [label="WEIGHTED_ROUND_ROBIN_Joiner_5689", push="320", pop="320", peek="0", pushType="complex", popType="complex", peekType="void", codeSize="42 b", stackSize="96 b", work="0"];
node54 -> node56;
node55 -> node56;
node57 [label="CombineDFT_5634", push="320", pop="320", peek="320", pushType="complex", popType="complex", peekType="complex", codeSize="394 b", stackSize="36384 b", work="4964"];
node56 -> node57;
node58 [label="CPrinter_5635", push="0", pop="320", peek="320", pushType="void", popType="complex", peekType="complex", codeSize="34 b", stackSize="512 b", work="13"];
node57 -> node58;
}
