digraph FFT2_11015 {
node0 [label="WEIGHTED_ROUND_ROBIN_Splitter_10851", push="0", pop="0", peek="0", pushType="void", popType="void", peekType="void", codeSize="30 b", stackSize="32 b", work="0"];
node1 [label="FFTTestSource_10853", push="128", pop="0", peek="0", pushType="float", popType="void", peekType="void", codeSize="40 b", stackSize="32 b", work="632"];
node0 -> node1;
node2 [label="FFTTestSource_10854", push="128", pop="0", peek="0", pushType="float", popType="void", peekType="void", codeSize="40 b", stackSize="32 b", work="632"];
node0 -> node2;
node3 [label="WEIGHTED_ROUND_ROBIN_Joiner_10852", push="256", pop="256", peek="0", pushType="float", popType="float", peekType="void", codeSize="42 b", stackSize="96 b", work="0"];
node1 -> node3;
node2 -> node3;
node4 [label="WEIGHTED_ROUND_ROBIN_Splitter_10843", push="256", pop="256", peek="0", pushType="float", popType="float", peekType="void", codeSize="42 b", stackSize="96 b", work="0"];
node3 -> node4;
node5 [label="FFTReorderSimple_10820", push="128", pop="128", peek="128", pushType="float", popType="float", peekType="float", codeSize="114 b", stackSize="32 b", work="1472"];
node4 -> node5;
node6 [label="WEIGHTED_ROUND_ROBIN_Splitter_10855", push="128", pop="128", peek="0", pushType="float", popType="float", peekType="void", codeSize="42 b", stackSize="96 b", work="0"];
node5 -> node6;
node7 [label="FFTReorderSimple_10857", push="64", pop="64", peek="64", pushType="float", popType="float", peekType="float", codeSize="114 b", stackSize="32 b", work="736"];
node6 -> node7;
node8 [label="FFTReorderSimple_10858", push="64", pop="64", peek="64", pushType="float", popType="float", peekType="float", codeSize="114 b", stackSize="32 b", work="736"];
node6 -> node8;
node9 [label="WEIGHTED_ROUND_ROBIN_Joiner_10856", push="128", pop="128", peek="0", pushType="float", popType="float", peekType="void", codeSize="42 b", stackSize="96 b", work="0"];
node7 -> node9;
node8 -> node9;
node10 [label="WEIGHTED_ROUND_ROBIN_Splitter_10859", push="128", pop="128", peek="0", pushType="float", popType="float", peekType="void", codeSize="78 b", stackSize="160 b", work="0"];
node9 -> node10;
node11 [label="FFTReorderSimple_10861", push="32", pop="32", peek="32", pushType="float", popType="float", peekType="float", codeSize="114 b", stackSize="32 b", work="368"];
node10 -> node11;
node12 [label="FFTReorderSimple_10862", push="32", pop="32", peek="32", pushType="float", popType="float", peekType="float", codeSize="114 b", stackSize="32 b", work="368"];
node10 -> node12;
node13 [label="FFTReorderSimple_10863", push="32", pop="32", peek="32", pushType="float", popType="float", peekType="float", codeSize="114 b", stackSize="32 b", work="368"];
node10 -> node13;
node14 [label="FFTReorderSimple_10864", push="32", pop="32", peek="32", pushType="float", popType="float", peekType="float", codeSize="114 b", stackSize="32 b", work="368"];
node10 -> node14;
node15 [label="WEIGHTED_ROUND_ROBIN_Joiner_10860", push="128", pop="128", peek="0", pushType="float", popType="float", peekType="void", codeSize="78 b", stackSize="160 b", work="0"];
node11 -> node15;
node12 -> node15;
node13 -> node15;
node14 -> node15;
node16 [label="WEIGHTED_ROUND_ROBIN_Splitter_10865", push="128", pop="128", peek="0", pushType="float", popType="float", peekType="void", codeSize="150 b", stackSize="288 b", work="0"];
node15 -> node16;
node17 [label="FFTReorderSimple_10867", push="16", pop="16", peek="16", pushType="float", popType="float", peekType="float", codeSize="114 b", stackSize="32 b", work="184"];
node16 -> node17;
node18 [label="FFTReorderSimple_10868", push="16", pop="16", peek="16", pushType="float", popType="float", peekType="float", codeSize="114 b", stackSize="32 b", work="184"];
node16 -> node18;
node19 [label="FFTReorderSimple_10869", push="16", pop="16", peek="16", pushType="float", popType="float", peekType="float", codeSize="114 b", stackSize="32 b", work="184"];
node16 -> node19;
node20 [label="FFTReorderSimple_10870", push="16", pop="16", peek="16", pushType="float", popType="float", peekType="float", codeSize="114 b", stackSize="32 b", work="184"];
node16 -> node20;
node21 [label="FFTReorderSimple_10871", push="16", pop="16", peek="16", pushType="float", popType="float", peekType="float", codeSize="114 b", stackSize="32 b", work="184"];
node16 -> node21;
node22 [label="FFTReorderSimple_10872", push="16", pop="16", peek="16", pushType="float", popType="float", peekType="float", codeSize="114 b", stackSize="32 b", work="184"];
node16 -> node22;
node23 [label="FFTReorderSimple_10873", push="16", pop="16", peek="16", pushType="float", popType="float", peekType="float", codeSize="114 b", stackSize="32 b", work="184"];
node16 -> node23;
node24 [label="FFTReorderSimple_10874", push="16", pop="16", peek="16", pushType="float", popType="float", peekType="float", codeSize="114 b", stackSize="32 b", work="184"];
node16 -> node24;
node25 [label="WEIGHTED_ROUND_ROBIN_Joiner_10866", push="128", pop="128", peek="0", pushType="float", popType="float", peekType="void", codeSize="150 b", stackSize="288 b", work="0"];
node17 -> node25;
node18 -> node25;
node19 -> node25;
node20 -> node25;
node21 -> node25;
node22 -> node25;
node23 -> node25;
node24 -> node25;
node26 [label="WEIGHTED_ROUND_ROBIN_Splitter_10875", push="128", pop="128", peek="0", pushType="float", popType="float", peekType="void", codeSize="150 b", stackSize="288 b", work="0"];
node25 -> node26;
node27 [label="FFTReorderSimple_10877", push="16", pop="16", peek="16", pushType="float", popType="float", peekType="float", codeSize="114 b", stackSize="32 b", work="92"];
node26 -> node27;
node28 [label="FFTReorderSimple_10878", push="16", pop="16", peek="16", pushType="float", popType="float", peekType="float", codeSize="114 b", stackSize="32 b", work="92"];
node26 -> node28;
node29 [label="FFTReorderSimple_10879", push="16", pop="16", peek="16", pushType="float", popType="float", peekType="float", codeSize="114 b", stackSize="32 b", work="92"];
node26 -> node29;
node30 [label="FFTReorderSimple_10880", push="16", pop="16", peek="16", pushType="float", popType="float", peekType="float", codeSize="114 b", stackSize="32 b", work="92"];
node26 -> node30;
node31 [label="FFTReorderSimple_10881", push="16", pop="16", peek="16", pushType="float", popType="float", peekType="float", codeSize="114 b", stackSize="32 b", work="92"];
node26 -> node31;
node32 [label="FFTReorderSimple_10882", push="16", pop="16", peek="16", pushType="float", popType="float", peekType="float", codeSize="114 b", stackSize="32 b", work="92"];
node26 -> node32;
node33 [label="FFTReorderSimple_10883", push="16", pop="16", peek="16", pushType="float", popType="float", peekType="float", codeSize="114 b", stackSize="32 b", work="92"];
node26 -> node33;
node34 [label="FFTReorderSimple_10884", push="16", pop="16", peek="16", pushType="float", popType="float", peekType="float", codeSize="114 b", stackSize="32 b", work="92"];
node26 -> node34;
node35 [label="WEIGHTED_ROUND_ROBIN_Joiner_10876", push="128", pop="128", peek="0", pushType="float", popType="float", peekType="void", codeSize="150 b", stackSize="288 b", work="0"];
node27 -> node35;
node28 -> node35;
node29 -> node35;
node30 -> node35;
node31 -> node35;
node32 -> node35;
node33 -> node35;
node34 -> node35;
node36 [label="WEIGHTED_ROUND_ROBIN_Splitter_10885", push="128", pop="128", peek="0", pushType="float", popType="float", peekType="void", codeSize="150 b", stackSize="288 b", work="0"];
node35 -> node36;
node37 [label="CombineDFT_10887", push="16", pop="16", peek="16", pushType="float", popType="float", peekType="float", codeSize="228 b", stackSize="448 b", work="77"];
node36 -> node37;
node38 [label="CombineDFT_10888", push="16", pop="16", peek="16", pushType="float", popType="float", peekType="float", codeSize="228 b", stackSize="448 b", work="77"];
node36 -> node38;
node39 [label="CombineDFT_10889", push="16", pop="16", peek="16", pushType="float", popType="float", peekType="float", codeSize="228 b", stackSize="448 b", work="77"];
node36 -> node39;
node40 [label="CombineDFT_10890", push="16", pop="16", peek="16", pushType="float", popType="float", peekType="float", codeSize="228 b", stackSize="448 b", work="77"];
node36 -> node40;
node41 [label="CombineDFT_10891", push="16", pop="16", peek="16", pushType="float", popType="float", peekType="float", codeSize="228 b", stackSize="448 b", work="77"];
node36 -> node41;
node42 [label="CombineDFT_10892", push="16", pop="16", peek="16", pushType="float", popType="float", peekType="float", codeSize="228 b", stackSize="448 b", work="77"];
node36 -> node42;
node43 [label="CombineDFT_10893", push="16", pop="16", peek="16", pushType="float", popType="float", peekType="float", codeSize="228 b", stackSize="448 b", work="77"];
node36 -> node43;
node44 [label="CombineDFT_10894", push="16", pop="16", peek="16", pushType="float", popType="float", peekType="float", codeSize="228 b", stackSize="448 b", work="77"];
node36 -> node44;
node45 [label="WEIGHTED_ROUND_ROBIN_Joiner_10886", push="128", pop="128", peek="0", pushType="float", popType="float", peekType="void", codeSize="150 b", stackSize="288 b", work="0"];
node37 -> node45;
node38 -> node45;
node39 -> node45;
node40 -> node45;
node41 -> node45;
node42 -> node45;
node43 -> node45;
node44 -> node45;
node46 [label="WEIGHTED_ROUND_ROBIN_Splitter_10895", push="128", pop="128", peek="0", pushType="float", popType="float", peekType="void", codeSize="150 b", stackSize="288 b", work="0"];
node45 -> node46;
node47 [label="CombineDFT_10897", push="16", pop="16", peek="16", pushType="float", popType="float", peekType="float", codeSize="228 b", stackSize="576 b", work="154"];
node46 -> node47;
node48 [label="CombineDFT_10898", push="16", pop="16", peek="16", pushType="float", popType="float", peekType="float", codeSize="228 b", stackSize="576 b", work="154"];
node46 -> node48;
node49 [label="CombineDFT_10899", push="16", pop="16", peek="16", pushType="float", popType="float", peekType="float", codeSize="228 b", stackSize="576 b", work="154"];
node46 -> node49;
node50 [label="CombineDFT_10900", push="16", pop="16", peek="16", pushType="float", popType="float", peekType="float", codeSize="228 b", stackSize="576 b", work="154"];
node46 -> node50;
node51 [label="CombineDFT_10901", push="16", pop="16", peek="16", pushType="float", popType="float", peekType="float", codeSize="228 b", stackSize="576 b", work="154"];
node46 -> node51;
node52 [label="CombineDFT_10902", push="16", pop="16", peek="16", pushType="float", popType="float", peekType="float", codeSize="228 b", stackSize="576 b", work="154"];
node46 -> node52;
node53 [label="CombineDFT_10903", push="16", pop="16", peek="16", pushType="float", popType="float", peekType="float", codeSize="228 b", stackSize="576 b", work="154"];
node46 -> node53;
node54 [label="CombineDFT_10904", push="16", pop="16", peek="16", pushType="float", popType="float", peekType="float", codeSize="228 b", stackSize="576 b", work="154"];
node46 -> node54;
node55 [label="WEIGHTED_ROUND_ROBIN_Joiner_10896", push="128", pop="128", peek="0", pushType="float", popType="float", peekType="void", codeSize="150 b", stackSize="288 b", work="0"];
node47 -> node55;
node48 -> node55;
node49 -> node55;
node50 -> node55;
node51 -> node55;
node52 -> node55;
node53 -> node55;
node54 -> node55;
node56 [label="WEIGHTED_ROUND_ROBIN_Splitter_10905", push="128", pop="128", peek="0", pushType="float", popType="float", peekType="void", codeSize="150 b", stackSize="288 b", work="0"];
node55 -> node56;
node57 [label="CombineDFT_10907", push="16", pop="16", peek="16", pushType="float", popType="float", peekType="float", codeSize="228 b", stackSize="832 b", work="308"];
node56 -> node57;
node58 [label="CombineDFT_10908", push="16", pop="16", peek="16", pushType="float", popType="float", peekType="float", codeSize="228 b", stackSize="832 b", work="308"];
node56 -> node58;
node59 [label="CombineDFT_10909", push="16", pop="16", peek="16", pushType="float", popType="float", peekType="float", codeSize="228 b", stackSize="832 b", work="308"];
node56 -> node59;
node60 [label="CombineDFT_10910", push="16", pop="16", peek="16", pushType="float", popType="float", peekType="float", codeSize="228 b", stackSize="832 b", work="308"];
node56 -> node60;
node61 [label="CombineDFT_10911", push="16", pop="16", peek="16", pushType="float", popType="float", peekType="float", codeSize="228 b", stackSize="832 b", work="308"];
node56 -> node61;
node62 [label="CombineDFT_10912", push="16", pop="16", peek="16", pushType="float", popType="float", peekType="float", codeSize="228 b", stackSize="832 b", work="308"];
node56 -> node62;
node63 [label="CombineDFT_10913", push="16", pop="16", peek="16", pushType="float", popType="float", peekType="float", codeSize="228 b", stackSize="832 b", work="308"];
node56 -> node63;
node64 [label="CombineDFT_10914", push="16", pop="16", peek="16", pushType="float", popType="float", peekType="float", codeSize="228 b", stackSize="832 b", work="308"];
node56 -> node64;
node65 [label="WEIGHTED_ROUND_ROBIN_Joiner_10906", push="128", pop="128", peek="0", pushType="float", popType="float", peekType="void", codeSize="150 b", stackSize="288 b", work="0"];
node57 -> node65;
node58 -> node65;
node59 -> node65;
node60 -> node65;
node61 -> node65;
node62 -> node65;
node63 -> node65;
node64 -> node65;
node66 [label="WEIGHTED_ROUND_ROBIN_Splitter_10915", push="128", pop="128", peek="0", pushType="float", popType="float", peekType="void", codeSize="78 b", stackSize="160 b", work="0"];
node65 -> node66;
node67 [label="CombineDFT_10917", push="32", pop="32", peek="32", pushType="float", popType="float", peekType="float", codeSize="228 b", stackSize="1344 b", work="616"];
node66 -> node67;
node68 [label="CombineDFT_10918", push="32", pop="32", peek="32", pushType="float", popType="float", peekType="float", codeSize="228 b", stackSize="1344 b", work="616"];
node66 -> node68;
node69 [label="CombineDFT_10919", push="32", pop="32", peek="32", pushType="float", popType="float", peekType="float", codeSize="228 b", stackSize="1344 b", work="616"];
node66 -> node69;
node70 [label="CombineDFT_10920", push="32", pop="32", peek="32", pushType="float", popType="float", peekType="float", codeSize="228 b", stackSize="1344 b", work="616"];
node66 -> node70;
node71 [label="WEIGHTED_ROUND_ROBIN_Joiner_10916", push="128", pop="128", peek="0", pushType="float", popType="float", peekType="void", codeSize="78 b", stackSize="160 b", work="0"];
node67 -> node71;
node68 -> node71;
node69 -> node71;
node70 -> node71;
node72 [label="WEIGHTED_ROUND_ROBIN_Splitter_10921", push="128", pop="128", peek="0", pushType="float", popType="float", peekType="void", codeSize="42 b", stackSize="96 b", work="0"];
node71 -> node72;
node73 [label="CombineDFT_10923", push="64", pop="64", peek="64", pushType="float", popType="float", peekType="float", codeSize="228 b", stackSize="2368 b", work="1232"];
node72 -> node73;
node74 [label="CombineDFT_10924", push="64", pop="64", peek="64", pushType="float", popType="float", peekType="float", codeSize="228 b", stackSize="2368 b", work="1232"];
node72 -> node74;
node75 [label="WEIGHTED_ROUND_ROBIN_Joiner_10922", push="128", pop="128", peek="0", pushType="float", popType="float", peekType="void", codeSize="42 b", stackSize="96 b", work="0"];
node73 -> node75;
node74 -> node75;
node76 [label="CombineDFT_10830", push="128", pop="128", peek="128", pushType="float", popType="float", peekType="float", codeSize="228 b", stackSize="4416 b", work="2464"];
node75 -> node76;
node77 [label="FFTReorderSimple_10831", push="128", pop="128", peek="128", pushType="float", popType="float", peekType="float", codeSize="114 b", stackSize="32 b", work="1472"];
node4 -> node77;
node78 [label="WEIGHTED_ROUND_ROBIN_Splitter_10925", push="128", pop="128", peek="0", pushType="float", popType="float", peekType="void", codeSize="42 b", stackSize="96 b", work="0"];
node77 -> node78;
node79 [label="FFTReorderSimple_10927", push="64", pop="64", peek="64", pushType="float", popType="float", peekType="float", codeSize="114 b", stackSize="32 b", work="736"];
node78 -> node79;
node80 [label="FFTReorderSimple_10928", push="64", pop="64", peek="64", pushType="float", popType="float", peekType="float", codeSize="114 b", stackSize="32 b", work="736"];
node78 -> node80;
node81 [label="WEIGHTED_ROUND_ROBIN_Joiner_10926", push="128", pop="128", peek="0", pushType="float", popType="float", peekType="void", codeSize="42 b", stackSize="96 b", work="0"];
node79 -> node81;
node80 -> node81;
node82 [label="WEIGHTED_ROUND_ROBIN_Splitter_10929", push="128", pop="128", peek="0", pushType="float", popType="float", peekType="void", codeSize="78 b", stackSize="160 b", work="0"];
node81 -> node82;
node83 [label="FFTReorderSimple_10931", push="32", pop="32", peek="32", pushType="float", popType="float", peekType="float", codeSize="114 b", stackSize="32 b", work="368"];
node82 -> node83;
node84 [label="FFTReorderSimple_10932", push="32", pop="32", peek="32", pushType="float", popType="float", peekType="float", codeSize="114 b", stackSize="32 b", work="368"];
node82 -> node84;
node85 [label="FFTReorderSimple_10933", push="32", pop="32", peek="32", pushType="float", popType="float", peekType="float", codeSize="114 b", stackSize="32 b", work="368"];
node82 -> node85;
node86 [label="FFTReorderSimple_10934", push="32", pop="32", peek="32", pushType="float", popType="float", peekType="float", codeSize="114 b", stackSize="32 b", work="368"];
node82 -> node86;
node87 [label="WEIGHTED_ROUND_ROBIN_Joiner_10930", push="128", pop="128", peek="0", pushType="float", popType="float", peekType="void", codeSize="78 b", stackSize="160 b", work="0"];
node83 -> node87;
node84 -> node87;
node85 -> node87;
node86 -> node87;
node88 [label="WEIGHTED_ROUND_ROBIN_Splitter_10935", push="128", pop="128", peek="0", pushType="float", popType="float", peekType="void", codeSize="150 b", stackSize="288 b", work="0"];
node87 -> node88;
node89 [label="FFTReorderSimple_10937", push="16", pop="16", peek="16", pushType="float", popType="float", peekType="float", codeSize="114 b", stackSize="32 b", work="184"];
node88 -> node89;
node90 [label="FFTReorderSimple_10938", push="16", pop="16", peek="16", pushType="float", popType="float", peekType="float", codeSize="114 b", stackSize="32 b", work="184"];
node88 -> node90;
node91 [label="FFTReorderSimple_10939", push="16", pop="16", peek="16", pushType="float", popType="float", peekType="float", codeSize="114 b", stackSize="32 b", work="184"];
node88 -> node91;
node92 [label="FFTReorderSimple_10940", push="16", pop="16", peek="16", pushType="float", popType="float", peekType="float", codeSize="114 b", stackSize="32 b", work="184"];
node88 -> node92;
node93 [label="FFTReorderSimple_10941", push="16", pop="16", peek="16", pushType="float", popType="float", peekType="float", codeSize="114 b", stackSize="32 b", work="184"];
node88 -> node93;
node94 [label="FFTReorderSimple_10942", push="16", pop="16", peek="16", pushType="float", popType="float", peekType="float", codeSize="114 b", stackSize="32 b", work="184"];
node88 -> node94;
node95 [label="FFTReorderSimple_10943", push="16", pop="16", peek="16", pushType="float", popType="float", peekType="float", codeSize="114 b", stackSize="32 b", work="184"];
node88 -> node95;
node96 [label="FFTReorderSimple_10944", push="16", pop="16", peek="16", pushType="float", popType="float", peekType="float", codeSize="114 b", stackSize="32 b", work="184"];
node88 -> node96;
node97 [label="WEIGHTED_ROUND_ROBIN_Joiner_10936", push="128", pop="128", peek="0", pushType="float", popType="float", peekType="void", codeSize="150 b", stackSize="288 b", work="0"];
node89 -> node97;
node90 -> node97;
node91 -> node97;
node92 -> node97;
node93 -> node97;
node94 -> node97;
node95 -> node97;
node96 -> node97;
node98 [label="WEIGHTED_ROUND_ROBIN_Splitter_10945", push="128", pop="128", peek="0", pushType="float", popType="float", peekType="void", codeSize="150 b", stackSize="288 b", work="0"];
node97 -> node98;
node99 [label="FFTReorderSimple_10947", push="16", pop="16", peek="16", pushType="float", popType="float", peekType="float", codeSize="114 b", stackSize="32 b", work="92"];
node98 -> node99;
node100 [label="FFTReorderSimple_10948", push="16", pop="16", peek="16", pushType="float", popType="float", peekType="float", codeSize="114 b", stackSize="32 b", work="92"];
node98 -> node100;
node101 [label="FFTReorderSimple_10949", push="16", pop="16", peek="16", pushType="float", popType="float", peekType="float", codeSize="114 b", stackSize="32 b", work="92"];
node98 -> node101;
node102 [label="FFTReorderSimple_10950", push="16", pop="16", peek="16", pushType="float", popType="float", peekType="float", codeSize="114 b", stackSize="32 b", work="92"];
node98 -> node102;
node103 [label="FFTReorderSimple_10951", push="16", pop="16", peek="16", pushType="float", popType="float", peekType="float", codeSize="114 b", stackSize="32 b", work="92"];
node98 -> node103;
node104 [label="FFTReorderSimple_10952", push="16", pop="16", peek="16", pushType="float", popType="float", peekType="float", codeSize="114 b", stackSize="32 b", work="92"];
node98 -> node104;
node105 [label="FFTReorderSimple_10953", push="16", pop="16", peek="16", pushType="float", popType="float", peekType="float", codeSize="114 b", stackSize="32 b", work="92"];
node98 -> node105;
node106 [label="FFTReorderSimple_10954", push="16", pop="16", peek="16", pushType="float", popType="float", peekType="float", codeSize="114 b", stackSize="32 b", work="92"];
node98 -> node106;
node107 [label="WEIGHTED_ROUND_ROBIN_Joiner_10946", push="128", pop="128", peek="0", pushType="float", popType="float", peekType="void", codeSize="150 b", stackSize="288 b", work="0"];
node99 -> node107;
node100 -> node107;
node101 -> node107;
node102 -> node107;
node103 -> node107;
node104 -> node107;
node105 -> node107;
node106 -> node107;
node108 [label="WEIGHTED_ROUND_ROBIN_Splitter_10955", push="128", pop="128", peek="0", pushType="float", popType="float", peekType="void", codeSize="150 b", stackSize="288 b", work="0"];
node107 -> node108;
node109 [label="CombineDFT_10957", push="16", pop="16", peek="16", pushType="float", popType="float", peekType="float", codeSize="228 b", stackSize="448 b", work="77"];
node108 -> node109;
node110 [label="CombineDFT_10958", push="16", pop="16", peek="16", pushType="float", popType="float", peekType="float", codeSize="228 b", stackSize="448 b", work="77"];
node108 -> node110;
node111 [label="CombineDFT_10959", push="16", pop="16", peek="16", pushType="float", popType="float", peekType="float", codeSize="228 b", stackSize="448 b", work="77"];
node108 -> node111;
node112 [label="CombineDFT_10960", push="16", pop="16", peek="16", pushType="float", popType="float", peekType="float", codeSize="228 b", stackSize="448 b", work="77"];
node108 -> node112;
node113 [label="CombineDFT_10961", push="16", pop="16", peek="16", pushType="float", popType="float", peekType="float", codeSize="228 b", stackSize="448 b", work="77"];
node108 -> node113;
node114 [label="CombineDFT_10962", push="16", pop="16", peek="16", pushType="float", popType="float", peekType="float", codeSize="228 b", stackSize="448 b", work="77"];
node108 -> node114;
node115 [label="CombineDFT_10963", push="16", pop="16", peek="16", pushType="float", popType="float", peekType="float", codeSize="228 b", stackSize="448 b", work="77"];
node108 -> node115;
node116 [label="CombineDFT_10964", push="16", pop="16", peek="16", pushType="float", popType="float", peekType="float", codeSize="228 b", stackSize="448 b", work="77"];
node108 -> node116;
node117 [label="WEIGHTED_ROUND_ROBIN_Joiner_10956", push="128", pop="128", peek="0", pushType="float", popType="float", peekType="void", codeSize="150 b", stackSize="288 b", work="0"];
node109 -> node117;
node110 -> node117;
node111 -> node117;
node112 -> node117;
node113 -> node117;
node114 -> node117;
node115 -> node117;
node116 -> node117;
node118 [label="WEIGHTED_ROUND_ROBIN_Splitter_10965", push="128", pop="128", peek="0", pushType="float", popType="float", peekType="void", codeSize="150 b", stackSize="288 b", work="0"];
node117 -> node118;
node119 [label="CombineDFT_10967", push="16", pop="16", peek="16", pushType="float", popType="float", peekType="float", codeSize="228 b", stackSize="576 b", work="154"];
node118 -> node119;
node120 [label="CombineDFT_10968", push="16", pop="16", peek="16", pushType="float", popType="float", peekType="float", codeSize="228 b", stackSize="576 b", work="154"];
node118 -> node120;
node121 [label="CombineDFT_10969", push="16", pop="16", peek="16", pushType="float", popType="float", peekType="float", codeSize="228 b", stackSize="576 b", work="154"];
node118 -> node121;
node122 [label="CombineDFT_10970", push="16", pop="16", peek="16", pushType="float", popType="float", peekType="float", codeSize="228 b", stackSize="576 b", work="154"];
node118 -> node122;
node123 [label="CombineDFT_10971", push="16", pop="16", peek="16", pushType="float", popType="float", peekType="float", codeSize="228 b", stackSize="576 b", work="154"];
node118 -> node123;
node124 [label="CombineDFT_10972", push="16", pop="16", peek="16", pushType="float", popType="float", peekType="float", codeSize="228 b", stackSize="576 b", work="154"];
node118 -> node124;
node125 [label="CombineDFT_10973", push="16", pop="16", peek="16", pushType="float", popType="float", peekType="float", codeSize="228 b", stackSize="576 b", work="154"];
node118 -> node125;
node126 [label="CombineDFT_10974", push="16", pop="16", peek="16", pushType="float", popType="float", peekType="float", codeSize="228 b", stackSize="576 b", work="154"];
node118 -> node126;
node127 [label="WEIGHTED_ROUND_ROBIN_Joiner_10966", push="128", pop="128", peek="0", pushType="float", popType="float", peekType="void", codeSize="150 b", stackSize="288 b", work="0"];
node119 -> node127;
node120 -> node127;
node121 -> node127;
node122 -> node127;
node123 -> node127;
node124 -> node127;
node125 -> node127;
node126 -> node127;
node128 [label="WEIGHTED_ROUND_ROBIN_Splitter_10975", push="128", pop="128", peek="0", pushType="float", popType="float", peekType="void", codeSize="150 b", stackSize="288 b", work="0"];
node127 -> node128;
node129 [label="CombineDFT_10977", push="16", pop="16", peek="16", pushType="float", popType="float", peekType="float", codeSize="228 b", stackSize="832 b", work="308"];
node128 -> node129;
node130 [label="CombineDFT_10978", push="16", pop="16", peek="16", pushType="float", popType="float", peekType="float", codeSize="228 b", stackSize="832 b", work="308"];
node128 -> node130;
node131 [label="CombineDFT_10979", push="16", pop="16", peek="16", pushType="float", popType="float", peekType="float", codeSize="228 b", stackSize="832 b", work="308"];
node128 -> node131;
node132 [label="CombineDFT_10980", push="16", pop="16", peek="16", pushType="float", popType="float", peekType="float", codeSize="228 b", stackSize="832 b", work="308"];
node128 -> node132;
node133 [label="CombineDFT_10981", push="16", pop="16", peek="16", pushType="float", popType="float", peekType="float", codeSize="228 b", stackSize="832 b", work="308"];
node128 -> node133;
node134 [label="CombineDFT_10982", push="16", pop="16", peek="16", pushType="float", popType="float", peekType="float", codeSize="228 b", stackSize="832 b", work="308"];
node128 -> node134;
node135 [label="CombineDFT_10983", push="16", pop="16", peek="16", pushType="float", popType="float", peekType="float", codeSize="228 b", stackSize="832 b", work="308"];
node128 -> node135;
node136 [label="CombineDFT_10984", push="16", pop="16", peek="16", pushType="float", popType="float", peekType="float", codeSize="228 b", stackSize="832 b", work="308"];
node128 -> node136;
node137 [label="WEIGHTED_ROUND_ROBIN_Joiner_10976", push="128", pop="128", peek="0", pushType="float", popType="float", peekType="void", codeSize="150 b", stackSize="288 b", work="0"];
node129 -> node137;
node130 -> node137;
node131 -> node137;
node132 -> node137;
node133 -> node137;
node134 -> node137;
node135 -> node137;
node136 -> node137;
node138 [label="WEIGHTED_ROUND_ROBIN_Splitter_10985", push="128", pop="128", peek="0", pushType="float", popType="float", peekType="void", codeSize="78 b", stackSize="160 b", work="0"];
node137 -> node138;
node139 [label="CombineDFT_10987", push="32", pop="32", peek="32", pushType="float", popType="float", peekType="float", codeSize="228 b", stackSize="1344 b", work="616"];
node138 -> node139;
node140 [label="CombineDFT_10988", push="32", pop="32", peek="32", pushType="float", popType="float", peekType="float", codeSize="228 b", stackSize="1344 b", work="616"];
node138 -> node140;
node141 [label="CombineDFT_10989", push="32", pop="32", peek="32", pushType="float", popType="float", peekType="float", codeSize="228 b", stackSize="1344 b", work="616"];
node138 -> node141;
node142 [label="CombineDFT_10990", push="32", pop="32", peek="32", pushType="float", popType="float", peekType="float", codeSize="228 b", stackSize="1344 b", work="616"];
node138 -> node142;
node143 [label="WEIGHTED_ROUND_ROBIN_Joiner_10986", push="128", pop="128", peek="0", pushType="float", popType="float", peekType="void", codeSize="78 b", stackSize="160 b", work="0"];
node139 -> node143;
node140 -> node143;
node141 -> node143;
node142 -> node143;
node144 [label="WEIGHTED_ROUND_ROBIN_Splitter_10991", push="128", pop="128", peek="0", pushType="float", popType="float", peekType="void", codeSize="42 b", stackSize="96 b", work="0"];
node143 -> node144;
node145 [label="CombineDFT_10993", push="64", pop="64", peek="64", pushType="float", popType="float", peekType="float", codeSize="228 b", stackSize="2368 b", work="1232"];
node144 -> node145;
node146 [label="CombineDFT_10994", push="64", pop="64", peek="64", pushType="float", popType="float", peekType="float", codeSize="228 b", stackSize="2368 b", work="1232"];
node144 -> node146;
node147 [label="WEIGHTED_ROUND_ROBIN_Joiner_10992", push="128", pop="128", peek="0", pushType="float", popType="float", peekType="void", codeSize="42 b", stackSize="96 b", work="0"];
node145 -> node147;
node146 -> node147;
node148 [label="CombineDFT_10841", push="128", pop="128", peek="128", pushType="float", popType="float", peekType="float", codeSize="228 b", stackSize="4416 b", work="2464"];
node147 -> node148;
node149 [label="WEIGHTED_ROUND_ROBIN_Joiner_10844", push="256", pop="256", peek="0", pushType="float", popType="float", peekType="void", codeSize="42 b", stackSize="96 b", work="0"];
node76 -> node149;
node148 -> node149;
node150 [label="FloatPrinter_10842", push="0", pop="256", peek="256", pushType="void", popType="float", peekType="float", codeSize="16 b", stackSize="0 b", work="6"];
node149 -> node150;
}
