digraph FFT3_7138 {
node0 [label="FloatSource_6588", push="576", pop="0", peek="0", pushType="float", popType="void", peekType="void", codeSize="64 b", stackSize="0 b", work="22"];
node1 [label="Pre_CollapsedDataParallel_1_6889", push="576", pop="576", peek="576", pushType="float", popType="float", peekType="float", codeSize="64 b", stackSize="160 b", work="723"];
node0 -> node1;
node2 [label="WEIGHTED_ROUND_ROBIN_Splitter_7031", push="576", pop="576", peek="0", pushType="float", popType="float", peekType="void", codeSize="168 b", stackSize="320 b", work="0"];
node1 -> node2;
node3 [label="Butterfly_7033", push="64", pop="64", peek="64", pushType="float", popType="float", peekType="float", codeSize="98 b", stackSize="192 b", work="44"];
node2 -> node3;
node4 [label="Butterfly_7034", push="64", pop="64", peek="64", pushType="float", popType="float", peekType="float", codeSize="98 b", stackSize="192 b", work="44"];
node2 -> node4;
node5 [label="Butterfly_7035", push="64", pop="64", peek="64", pushType="float", popType="float", peekType="float", codeSize="98 b", stackSize="192 b", work="44"];
node2 -> node5;
node6 [label="Butterfly_7036", push="64", pop="64", peek="64", pushType="float", popType="float", peekType="float", codeSize="98 b", stackSize="192 b", work="44"];
node2 -> node6;
node7 [label="Butterfly_7037", push="64", pop="64", peek="64", pushType="float", popType="float", peekType="float", codeSize="98 b", stackSize="192 b", work="44"];
node2 -> node7;
node8 [label="Butterfly_7038", push="64", pop="64", peek="64", pushType="float", popType="float", peekType="float", codeSize="98 b", stackSize="192 b", work="44"];
node2 -> node8;
node9 [label="Butterfly_7039", push="64", pop="64", peek="64", pushType="float", popType="float", peekType="float", codeSize="98 b", stackSize="192 b", work="44"];
node2 -> node9;
node10 [label="Butterfly_7040", push="64", pop="64", peek="64", pushType="float", popType="float", peekType="float", codeSize="98 b", stackSize="192 b", work="44"];
node2 -> node10;
node11 [label="Butterfly_7041", push="64", pop="64", peek="64", pushType="float", popType="float", peekType="float", codeSize="98 b", stackSize="192 b", work="44"];
node2 -> node11;
node12 [label="WEIGHTED_ROUND_ROBIN_Joiner_7032", push="576", pop="576", peek="0", pushType="float", popType="float", peekType="void", codeSize="168 b", stackSize="320 b", work="0"];
node3 -> node12;
node4 -> node12;
node5 -> node12;
node6 -> node12;
node7 -> node12;
node8 -> node12;
node9 -> node12;
node10 -> node12;
node11 -> node12;
node13 [label="Post_CollapsedDataParallel_2_6890", push="576", pop="576", peek="576", pushType="float", popType="float", peekType="float", codeSize="68 b", stackSize="160 b", work="745"];
node12 -> node13;
node14 [label="WEIGHTED_ROUND_ROBIN_Splitter_6933", push="576", pop="576", peek="0", pushType="float", popType="float", peekType="void", codeSize="42 b", stackSize="96 b", work="0"];
node13 -> node14;
node15 [label="Pre_CollapsedDataParallel_1_6892", push="288", pop="288", peek="288", pushType="float", popType="float", peekType="float", codeSize="64 b", stackSize="160 b", work="363"];
node14 -> node15;
node16 [label="WEIGHTED_ROUND_ROBIN_Splitter_7042", push="288", pop="288", peek="0", pushType="float", popType="float", peekType="void", codeSize="150 b", stackSize="288 b", work="0"];
node15 -> node16;
node17 [label="Butterfly_7044", push="36", pop="36", peek="36", pushType="float", popType="float", peekType="float", codeSize="98 b", stackSize="192 b", work="44"];
node16 -> node17;
node18 [label="Butterfly_7045", push="36", pop="36", peek="36", pushType="float", popType="float", peekType="float", codeSize="98 b", stackSize="192 b", work="44"];
node16 -> node18;
node19 [label="Butterfly_7046", push="36", pop="36", peek="36", pushType="float", popType="float", peekType="float", codeSize="98 b", stackSize="192 b", work="44"];
node16 -> node19;
node20 [label="Butterfly_7047", push="36", pop="36", peek="36", pushType="float", popType="float", peekType="float", codeSize="98 b", stackSize="192 b", work="44"];
node16 -> node20;
node21 [label="Butterfly_7048", push="36", pop="36", peek="36", pushType="float", popType="float", peekType="float", codeSize="98 b", stackSize="192 b", work="44"];
node16 -> node21;
node22 [label="Butterfly_7049", push="36", pop="36", peek="36", pushType="float", popType="float", peekType="float", codeSize="98 b", stackSize="192 b", work="44"];
node16 -> node22;
node23 [label="Butterfly_7050", push="36", pop="36", peek="36", pushType="float", popType="float", peekType="float", codeSize="98 b", stackSize="192 b", work="44"];
node16 -> node23;
node24 [label="Butterfly_7051", push="36", pop="36", peek="36", pushType="float", popType="float", peekType="float", codeSize="98 b", stackSize="192 b", work="44"];
node16 -> node24;
node25 [label="WEIGHTED_ROUND_ROBIN_Joiner_7043", push="288", pop="288", peek="0", pushType="float", popType="float", peekType="void", codeSize="150 b", stackSize="288 b", work="0"];
node17 -> node25;
node18 -> node25;
node19 -> node25;
node20 -> node25;
node21 -> node25;
node22 -> node25;
node23 -> node25;
node24 -> node25;
node26 [label="Post_CollapsedDataParallel_2_6893", push="288", pop="288", peek="288", pushType="float", popType="float", peekType="float", codeSize="68 b", stackSize="160 b", work="377"];
node25 -> node26;
node27 [label="WEIGHTED_ROUND_ROBIN_Splitter_7013", push="288", pop="288", peek="0", pushType="float", popType="float", peekType="void", codeSize="42 b", stackSize="96 b", work="0"];
node26 -> node27;
node28 [label="Pre_CollapsedDataParallel_1_6898", push="144", pop="144", peek="144", pushType="float", popType="float", peekType="float", codeSize="64 b", stackSize="160 b", work="183"];
node27 -> node28;
node29 [label="WEIGHTED_ROUND_ROBIN_Splitter_7052", push="144", pop="144", peek="0", pushType="float", popType="float", peekType="void", codeSize="78 b", stackSize="160 b", work="0"];
node28 -> node29;
node30 [label="Butterfly_7054", push="36", pop="36", peek="36", pushType="float", popType="float", peekType="float", codeSize="98 b", stackSize="192 b", work="44"];
node29 -> node30;
node31 [label="Butterfly_7055", push="36", pop="36", peek="36", pushType="float", popType="float", peekType="float", codeSize="98 b", stackSize="192 b", work="44"];
node29 -> node31;
node32 [label="Butterfly_7056", push="36", pop="36", peek="36", pushType="float", popType="float", peekType="float", codeSize="98 b", stackSize="192 b", work="44"];
node29 -> node32;
node33 [label="Butterfly_7057", push="36", pop="36", peek="36", pushType="float", popType="float", peekType="float", codeSize="98 b", stackSize="192 b", work="44"];
node29 -> node33;
node34 [label="WEIGHTED_ROUND_ROBIN_Joiner_7053", push="144", pop="144", peek="0", pushType="float", popType="float", peekType="void", codeSize="78 b", stackSize="160 b", work="0"];
node30 -> node34;
node31 -> node34;
node32 -> node34;
node33 -> node34;
node35 [label="Post_CollapsedDataParallel_2_6899", push="144", pop="144", peek="144", pushType="float", popType="float", peekType="float", codeSize="68 b", stackSize="160 b", work="193"];
node34 -> node35;
node36 [label="Pre_CollapsedDataParallel_1_6901", push="144", pop="144", peek="144", pushType="float", popType="float", peekType="float", codeSize="64 b", stackSize="160 b", work="183"];
node27 -> node36;
node37 [label="WEIGHTED_ROUND_ROBIN_Splitter_7058", push="144", pop="144", peek="0", pushType="float", popType="float", peekType="void", codeSize="78 b", stackSize="160 b", work="0"];
node36 -> node37;
node38 [label="Butterfly_7060", push="36", pop="36", peek="36", pushType="float", popType="float", peekType="float", codeSize="98 b", stackSize="192 b", work="44"];
node37 -> node38;
node39 [label="Butterfly_7061", push="36", pop="36", peek="36", pushType="float", popType="float", peekType="float", codeSize="98 b", stackSize="192 b", work="44"];
node37 -> node39;
node40 [label="Butterfly_7062", push="36", pop="36", peek="36", pushType="float", popType="float", peekType="float", codeSize="98 b", stackSize="192 b", work="44"];
node37 -> node40;
node41 [label="Butterfly_7063", push="36", pop="36", peek="36", pushType="float", popType="float", peekType="float", codeSize="98 b", stackSize="192 b", work="44"];
node37 -> node41;
node42 [label="WEIGHTED_ROUND_ROBIN_Joiner_7059", push="144", pop="144", peek="0", pushType="float", popType="float", peekType="void", codeSize="78 b", stackSize="160 b", work="0"];
node38 -> node42;
node39 -> node42;
node40 -> node42;
node41 -> node42;
node43 [label="Post_CollapsedDataParallel_2_6902", push="144", pop="144", peek="144", pushType="float", popType="float", peekType="float", codeSize="68 b", stackSize="160 b", work="193"];
node42 -> node43;
node44 [label="WEIGHTED_ROUND_ROBIN_Joiner_7014", push="288", pop="288", peek="0", pushType="float", popType="float", peekType="void", codeSize="42 b", stackSize="96 b", work="0"];
node35 -> node44;
node43 -> node44;
node45 [label="Pre_CollapsedDataParallel_1_6895", push="288", pop="288", peek="288", pushType="float", popType="float", peekType="float", codeSize="64 b", stackSize="160 b", work="363"];
node14 -> node45;
node46 [label="WEIGHTED_ROUND_ROBIN_Splitter_7064", push="288", pop="288", peek="0", pushType="float", popType="float", peekType="void", codeSize="150 b", stackSize="288 b", work="0"];
node45 -> node46;
node47 [label="Butterfly_7066", push="36", pop="36", peek="36", pushType="float", popType="float", peekType="float", codeSize="98 b", stackSize="192 b", work="44"];
node46 -> node47;
node48 [label="Butterfly_7067", push="36", pop="36", peek="36", pushType="float", popType="float", peekType="float", codeSize="98 b", stackSize="192 b", work="44"];
node46 -> node48;
node49 [label="Butterfly_7068", push="36", pop="36", peek="36", pushType="float", popType="float", peekType="float", codeSize="98 b", stackSize="192 b", work="44"];
node46 -> node49;
node50 [label="Butterfly_7069", push="36", pop="36", peek="36", pushType="float", popType="float", peekType="float", codeSize="98 b", stackSize="192 b", work="44"];
node46 -> node50;
node51 [label="Butterfly_7070", push="36", pop="36", peek="36", pushType="float", popType="float", peekType="float", codeSize="98 b", stackSize="192 b", work="44"];
node46 -> node51;
node52 [label="Butterfly_7071", push="36", pop="36", peek="36", pushType="float", popType="float", peekType="float", codeSize="98 b", stackSize="192 b", work="44"];
node46 -> node52;
node53 [label="Butterfly_7072", push="36", pop="36", peek="36", pushType="float", popType="float", peekType="float", codeSize="98 b", stackSize="192 b", work="44"];
node46 -> node53;
node54 [label="Butterfly_7073", push="36", pop="36", peek="36", pushType="float", popType="float", peekType="float", codeSize="98 b", stackSize="192 b", work="44"];
node46 -> node54;
node55 [label="WEIGHTED_ROUND_ROBIN_Joiner_7065", push="288", pop="288", peek="0", pushType="float", popType="float", peekType="void", codeSize="150 b", stackSize="288 b", work="0"];
node47 -> node55;
node48 -> node55;
node49 -> node55;
node50 -> node55;
node51 -> node55;
node52 -> node55;
node53 -> node55;
node54 -> node55;
node56 [label="Post_CollapsedDataParallel_2_6896", push="288", pop="288", peek="288", pushType="float", popType="float", peekType="float", codeSize="68 b", stackSize="160 b", work="377"];
node55 -> node56;
node57 [label="WEIGHTED_ROUND_ROBIN_Splitter_7015", push="288", pop="288", peek="0", pushType="float", popType="float", peekType="void", codeSize="42 b", stackSize="96 b", work="0"];
node56 -> node57;
node58 [label="Pre_CollapsedDataParallel_1_6904", push="144", pop="144", peek="144", pushType="float", popType="float", peekType="float", codeSize="64 b", stackSize="160 b", work="183"];
node57 -> node58;
node59 [label="WEIGHTED_ROUND_ROBIN_Splitter_7074", push="144", pop="144", peek="0", pushType="float", popType="float", peekType="void", codeSize="78 b", stackSize="160 b", work="0"];
node58 -> node59;
node60 [label="Butterfly_7076", push="36", pop="36", peek="36", pushType="float", popType="float", peekType="float", codeSize="98 b", stackSize="192 b", work="44"];
node59 -> node60;
node61 [label="Butterfly_7077", push="36", pop="36", peek="36", pushType="float", popType="float", peekType="float", codeSize="98 b", stackSize="192 b", work="44"];
node59 -> node61;
node62 [label="Butterfly_7078", push="36", pop="36", peek="36", pushType="float", popType="float", peekType="float", codeSize="98 b", stackSize="192 b", work="44"];
node59 -> node62;
node63 [label="Butterfly_7079", push="36", pop="36", peek="36", pushType="float", popType="float", peekType="float", codeSize="98 b", stackSize="192 b", work="44"];
node59 -> node63;
node64 [label="WEIGHTED_ROUND_ROBIN_Joiner_7075", push="144", pop="144", peek="0", pushType="float", popType="float", peekType="void", codeSize="78 b", stackSize="160 b", work="0"];
node60 -> node64;
node61 -> node64;
node62 -> node64;
node63 -> node64;
node65 [label="Post_CollapsedDataParallel_2_6905", push="144", pop="144", peek="144", pushType="float", popType="float", peekType="float", codeSize="68 b", stackSize="160 b", work="193"];
node64 -> node65;
node66 [label="Pre_CollapsedDataParallel_1_6907", push="144", pop="144", peek="144", pushType="float", popType="float", peekType="float", codeSize="64 b", stackSize="160 b", work="183"];
node57 -> node66;
node67 [label="WEIGHTED_ROUND_ROBIN_Splitter_7080", push="144", pop="144", peek="0", pushType="float", popType="float", peekType="void", codeSize="78 b", stackSize="160 b", work="0"];
node66 -> node67;
node68 [label="Butterfly_7082", push="36", pop="36", peek="36", pushType="float", popType="float", peekType="float", codeSize="98 b", stackSize="192 b", work="44"];
node67 -> node68;
node69 [label="Butterfly_7083", push="36", pop="36", peek="36", pushType="float", popType="float", peekType="float", codeSize="98 b", stackSize="192 b", work="44"];
node67 -> node69;
node70 [label="Butterfly_7084", push="36", pop="36", peek="36", pushType="float", popType="float", peekType="float", codeSize="98 b", stackSize="192 b", work="44"];
node67 -> node70;
node71 [label="Butterfly_7085", push="36", pop="36", peek="36", pushType="float", popType="float", peekType="float", codeSize="98 b", stackSize="192 b", work="44"];
node67 -> node71;
node72 [label="WEIGHTED_ROUND_ROBIN_Joiner_7081", push="144", pop="144", peek="0", pushType="float", popType="float", peekType="void", codeSize="78 b", stackSize="160 b", work="0"];
node68 -> node72;
node69 -> node72;
node70 -> node72;
node71 -> node72;
node73 [label="Post_CollapsedDataParallel_2_6908", push="144", pop="144", peek="144", pushType="float", popType="float", peekType="float", codeSize="68 b", stackSize="160 b", work="193"];
node72 -> node73;
node74 [label="WEIGHTED_ROUND_ROBIN_Joiner_7016", push="288", pop="288", peek="0", pushType="float", popType="float", peekType="void", codeSize="42 b", stackSize="96 b", work="0"];
node65 -> node74;
node73 -> node74;
node75 [label="WEIGHTED_ROUND_ROBIN_Joiner_7017", push="576", pop="576", peek="0", pushType="float", popType="float", peekType="void", codeSize="42 b", stackSize="96 b", work="0"];
node44 -> node75;
node74 -> node75;
node76 [label="WEIGHTED_ROUND_ROBIN_Splitter_7018", push="576", pop="576", peek="0", pushType="float", popType="float", peekType="void", codeSize="42 b", stackSize="96 b", work="0"];
node75 -> node76;
node77 [label="WEIGHTED_ROUND_ROBIN_Splitter_7019", push="288", pop="288", peek="0", pushType="float", popType="float", peekType="void", codeSize="78 b", stackSize="160 b", work="0"];
node76 -> node77;
node78 [label="Pre_CollapsedDataParallel_1_6910", push="72", pop="72", peek="72", pushType="float", popType="float", peekType="float", codeSize="64 b", stackSize="160 b", work="93"];
node77 -> node78;
node79 [label="WEIGHTED_ROUND_ROBIN_Splitter_7086", push="72", pop="72", peek="0", pushType="float", popType="float", peekType="void", codeSize="42 b", stackSize="96 b", work="0"];
node78 -> node79;
node80 [label="Butterfly_7088", push="36", pop="36", peek="36", pushType="float", popType="float", peekType="float", codeSize="98 b", stackSize="192 b", work="44"];
node79 -> node80;
node81 [label="Butterfly_7089", push="36", pop="36", peek="36", pushType="float", popType="float", peekType="float", codeSize="98 b", stackSize="192 b", work="44"];
node79 -> node81;
node82 [label="WEIGHTED_ROUND_ROBIN_Joiner_7087", push="72", pop="72", peek="0", pushType="float", popType="float", peekType="void", codeSize="42 b", stackSize="96 b", work="0"];
node80 -> node82;
node81 -> node82;
node83 [label="Post_CollapsedDataParallel_2_6911", push="72", pop="72", peek="72", pushType="float", popType="float", peekType="float", codeSize="68 b", stackSize="160 b", work="101"];
node82 -> node83;
node84 [label="Pre_CollapsedDataParallel_1_6913", push="72", pop="72", peek="72", pushType="float", popType="float", peekType="float", codeSize="64 b", stackSize="160 b", work="93"];
node77 -> node84;
node85 [label="WEIGHTED_ROUND_ROBIN_Splitter_7090", push="72", pop="72", peek="0", pushType="float", popType="float", peekType="void", codeSize="42 b", stackSize="96 b", work="0"];
node84 -> node85;
node86 [label="Butterfly_7092", push="36", pop="36", peek="36", pushType="float", popType="float", peekType="float", codeSize="98 b", stackSize="192 b", work="44"];
node85 -> node86;
node87 [label="Butterfly_7093", push="36", pop="36", peek="36", pushType="float", popType="float", peekType="float", codeSize="98 b", stackSize="192 b", work="44"];
node85 -> node87;
node88 [label="WEIGHTED_ROUND_ROBIN_Joiner_7091", push="72", pop="72", peek="0", pushType="float", popType="float", peekType="void", codeSize="42 b", stackSize="96 b", work="0"];
node86 -> node88;
node87 -> node88;
node89 [label="Post_CollapsedDataParallel_2_6914", push="72", pop="72", peek="72", pushType="float", popType="float", peekType="float", codeSize="68 b", stackSize="160 b", work="101"];
node88 -> node89;
node90 [label="Pre_CollapsedDataParallel_1_6916", push="72", pop="72", peek="72", pushType="float", popType="float", peekType="float", codeSize="64 b", stackSize="160 b", work="93"];
node77 -> node90;
node91 [label="WEIGHTED_ROUND_ROBIN_Splitter_7094", push="72", pop="72", peek="0", pushType="float", popType="float", peekType="void", codeSize="42 b", stackSize="96 b", work="0"];
node90 -> node91;
node92 [label="Butterfly_7096", push="36", pop="36", peek="36", pushType="float", popType="float", peekType="float", codeSize="98 b", stackSize="192 b", work="44"];
node91 -> node92;
node93 [label="Butterfly_7097", push="36", pop="36", peek="36", pushType="float", popType="float", peekType="float", codeSize="98 b", stackSize="192 b", work="44"];
node91 -> node93;
node94 [label="WEIGHTED_ROUND_ROBIN_Joiner_7095", push="72", pop="72", peek="0", pushType="float", popType="float", peekType="void", codeSize="42 b", stackSize="96 b", work="0"];
node92 -> node94;
node93 -> node94;
node95 [label="Post_CollapsedDataParallel_2_6917", push="72", pop="72", peek="72", pushType="float", popType="float", peekType="float", codeSize="68 b", stackSize="160 b", work="101"];
node94 -> node95;
node96 [label="Pre_CollapsedDataParallel_1_6919", push="72", pop="72", peek="72", pushType="float", popType="float", peekType="float", codeSize="64 b", stackSize="160 b", work="93"];
node77 -> node96;
node97 [label="WEIGHTED_ROUND_ROBIN_Splitter_7098", push="72", pop="72", peek="0", pushType="float", popType="float", peekType="void", codeSize="42 b", stackSize="96 b", work="0"];
node96 -> node97;
node98 [label="Butterfly_7100", push="36", pop="36", peek="36", pushType="float", popType="float", peekType="float", codeSize="98 b", stackSize="192 b", work="44"];
node97 -> node98;
node99 [label="Butterfly_7101", push="36", pop="36", peek="36", pushType="float", popType="float", peekType="float", codeSize="98 b", stackSize="192 b", work="44"];
node97 -> node99;
node100 [label="WEIGHTED_ROUND_ROBIN_Joiner_7099", push="72", pop="72", peek="0", pushType="float", popType="float", peekType="void", codeSize="42 b", stackSize="96 b", work="0"];
node98 -> node100;
node99 -> node100;
node101 [label="Post_CollapsedDataParallel_2_6920", push="72", pop="72", peek="72", pushType="float", popType="float", peekType="float", codeSize="68 b", stackSize="160 b", work="101"];
node100 -> node101;
node102 [label="WEIGHTED_ROUND_ROBIN_Joiner_7020", push="288", pop="288", peek="0", pushType="float", popType="float", peekType="void", codeSize="78 b", stackSize="160 b", work="0"];
node83 -> node102;
node89 -> node102;
node95 -> node102;
node101 -> node102;
node103 [label="WEIGHTED_ROUND_ROBIN_Splitter_7021", push="288", pop="288", peek="0", pushType="float", popType="float", peekType="void", codeSize="78 b", stackSize="160 b", work="0"];
node76 -> node103;
node104 [label="Pre_CollapsedDataParallel_1_6922", push="72", pop="72", peek="72", pushType="float", popType="float", peekType="float", codeSize="64 b", stackSize="160 b", work="93"];
node103 -> node104;
node105 [label="WEIGHTED_ROUND_ROBIN_Splitter_7102", push="72", pop="72", peek="0", pushType="float", popType="float", peekType="void", codeSize="42 b", stackSize="96 b", work="0"];
node104 -> node105;
node106 [label="Butterfly_7104", push="36", pop="36", peek="36", pushType="float", popType="float", peekType="float", codeSize="98 b", stackSize="192 b", work="44"];
node105 -> node106;
node107 [label="Butterfly_7105", push="36", pop="36", peek="36", pushType="float", popType="float", peekType="float", codeSize="98 b", stackSize="192 b", work="44"];
node105 -> node107;
node108 [label="WEIGHTED_ROUND_ROBIN_Joiner_7103", push="72", pop="72", peek="0", pushType="float", popType="float", peekType="void", codeSize="42 b", stackSize="96 b", work="0"];
node106 -> node108;
node107 -> node108;
node109 [label="Post_CollapsedDataParallel_2_6923", push="72", pop="72", peek="72", pushType="float", popType="float", peekType="float", codeSize="68 b", stackSize="160 b", work="101"];
node108 -> node109;
node110 [label="Pre_CollapsedDataParallel_1_6925", push="72", pop="72", peek="72", pushType="float", popType="float", peekType="float", codeSize="64 b", stackSize="160 b", work="93"];
node103 -> node110;
node111 [label="WEIGHTED_ROUND_ROBIN_Splitter_7106", push="72", pop="72", peek="0", pushType="float", popType="float", peekType="void", codeSize="42 b", stackSize="96 b", work="0"];
node110 -> node111;
node112 [label="Butterfly_7108", push="36", pop="36", peek="36", pushType="float", popType="float", peekType="float", codeSize="98 b", stackSize="192 b", work="44"];
node111 -> node112;
node113 [label="Butterfly_7109", push="36", pop="36", peek="36", pushType="float", popType="float", peekType="float", codeSize="98 b", stackSize="192 b", work="44"];
node111 -> node113;
node114 [label="WEIGHTED_ROUND_ROBIN_Joiner_7107", push="72", pop="72", peek="0", pushType="float", popType="float", peekType="void", codeSize="42 b", stackSize="96 b", work="0"];
node112 -> node114;
node113 -> node114;
node115 [label="Post_CollapsedDataParallel_2_6926", push="72", pop="72", peek="72", pushType="float", popType="float", peekType="float", codeSize="68 b", stackSize="160 b", work="101"];
node114 -> node115;
node116 [label="Pre_CollapsedDataParallel_1_6928", push="72", pop="72", peek="72", pushType="float", popType="float", peekType="float", codeSize="64 b", stackSize="160 b", work="93"];
node103 -> node116;
node117 [label="WEIGHTED_ROUND_ROBIN_Splitter_7110", push="72", pop="72", peek="0", pushType="float", popType="float", peekType="void", codeSize="42 b", stackSize="96 b", work="0"];
node116 -> node117;
node118 [label="Butterfly_7112", push="36", pop="36", peek="36", pushType="float", popType="float", peekType="float", codeSize="98 b", stackSize="192 b", work="44"];
node117 -> node118;
node119 [label="Butterfly_7113", push="36", pop="36", peek="36", pushType="float", popType="float", peekType="float", codeSize="98 b", stackSize="192 b", work="44"];
node117 -> node119;
node120 [label="WEIGHTED_ROUND_ROBIN_Joiner_7111", push="72", pop="72", peek="0", pushType="float", popType="float", peekType="void", codeSize="42 b", stackSize="96 b", work="0"];
node118 -> node120;
node119 -> node120;
node121 [label="Post_CollapsedDataParallel_2_6929", push="72", pop="72", peek="72", pushType="float", popType="float", peekType="float", codeSize="68 b", stackSize="160 b", work="101"];
node120 -> node121;
node122 [label="Pre_CollapsedDataParallel_1_6931", push="72", pop="72", peek="72", pushType="float", popType="float", peekType="float", codeSize="64 b", stackSize="160 b", work="93"];
node103 -> node122;
node123 [label="WEIGHTED_ROUND_ROBIN_Splitter_7114", push="72", pop="72", peek="0", pushType="float", popType="float", peekType="void", codeSize="42 b", stackSize="96 b", work="0"];
node122 -> node123;
node124 [label="Butterfly_7116", push="36", pop="36", peek="36", pushType="float", popType="float", peekType="float", codeSize="98 b", stackSize="192 b", work="44"];
node123 -> node124;
node125 [label="Butterfly_7117", push="36", pop="36", peek="36", pushType="float", popType="float", peekType="float", codeSize="98 b", stackSize="192 b", work="44"];
node123 -> node125;
node126 [label="WEIGHTED_ROUND_ROBIN_Joiner_7115", push="72", pop="72", peek="0", pushType="float", popType="float", peekType="void", codeSize="42 b", stackSize="96 b", work="0"];
node124 -> node126;
node125 -> node126;
node127 [label="Post_CollapsedDataParallel_2_6932", push="72", pop="72", peek="72", pushType="float", popType="float", peekType="float", codeSize="68 b", stackSize="160 b", work="101"];
node126 -> node127;
node128 [label="WEIGHTED_ROUND_ROBIN_Joiner_7022", push="288", pop="288", peek="0", pushType="float", popType="float", peekType="void", codeSize="78 b", stackSize="160 b", work="0"];
node109 -> node128;
node115 -> node128;
node121 -> node128;
node127 -> node128;
node129 [label="WEIGHTED_ROUND_ROBIN_Joiner_7023", push="576", pop="576", peek="0", pushType="float", popType="float", peekType="void", codeSize="42 b", stackSize="96 b", work="0"];
node102 -> node129;
node128 -> node129;
node130 [label="WEIGHTED_ROUND_ROBIN_Splitter_7024", push="576", pop="576", peek="0", pushType="float", popType="float", peekType="void", codeSize="42 b", stackSize="96 b", work="0"];
node129 -> node130;
node131 [label="WEIGHTED_ROUND_ROBIN_Splitter_7025", push="288", pop="288", peek="0", pushType="float", popType="float", peekType="void", codeSize="150 b", stackSize="288 b", work="0"];
node130 -> node131;
node132 [label="Butterfly_6653", push="36", pop="36", peek="36", pushType="float", popType="float", peekType="float", codeSize="98 b", stackSize="192 b", work="44"];
node131 -> node132;
node133 [label="Butterfly_6654", push="36", pop="36", peek="36", pushType="float", popType="float", peekType="float", codeSize="98 b", stackSize="192 b", work="44"];
node131 -> node133;
node134 [label="Butterfly_6655", push="36", pop="36", peek="36", pushType="float", popType="float", peekType="float", codeSize="98 b", stackSize="192 b", work="44"];
node131 -> node134;
node135 [label="Butterfly_6656", push="36", pop="36", peek="36", pushType="float", popType="float", peekType="float", codeSize="98 b", stackSize="192 b", work="44"];
node131 -> node135;
node136 [label="Butterfly_6657", push="36", pop="36", peek="36", pushType="float", popType="float", peekType="float", codeSize="98 b", stackSize="192 b", work="44"];
node131 -> node136;
node137 [label="Butterfly_6658", push="36", pop="36", peek="36", pushType="float", popType="float", peekType="float", codeSize="98 b", stackSize="192 b", work="44"];
node131 -> node137;
node138 [label="Butterfly_6659", push="36", pop="36", peek="36", pushType="float", popType="float", peekType="float", codeSize="98 b", stackSize="192 b", work="44"];
node131 -> node138;
node139 [label="Butterfly_6660", push="36", pop="36", peek="36", pushType="float", popType="float", peekType="float", codeSize="98 b", stackSize="192 b", work="44"];
node131 -> node139;
node140 [label="WEIGHTED_ROUND_ROBIN_Joiner_7026", push="288", pop="288", peek="0", pushType="float", popType="float", peekType="void", codeSize="150 b", stackSize="288 b", work="0"];
node132 -> node140;
node133 -> node140;
node134 -> node140;
node135 -> node140;
node136 -> node140;
node137 -> node140;
node138 -> node140;
node139 -> node140;
node141 [label="WEIGHTED_ROUND_ROBIN_Splitter_7027", push="288", pop="288", peek="0", pushType="float", popType="float", peekType="void", codeSize="150 b", stackSize="288 b", work="0"];
node130 -> node141;
node142 [label="Butterfly_6661", push="36", pop="36", peek="36", pushType="float", popType="float", peekType="float", codeSize="98 b", stackSize="192 b", work="44"];
node141 -> node142;
node143 [label="Butterfly_6662", push="36", pop="36", peek="36", pushType="float", popType="float", peekType="float", codeSize="98 b", stackSize="192 b", work="44"];
node141 -> node143;
node144 [label="Butterfly_6663", push="36", pop="36", peek="36", pushType="float", popType="float", peekType="float", codeSize="98 b", stackSize="192 b", work="44"];
node141 -> node144;
node145 [label="Butterfly_6664", push="36", pop="36", peek="36", pushType="float", popType="float", peekType="float", codeSize="98 b", stackSize="192 b", work="44"];
node141 -> node145;
node146 [label="Butterfly_6665", push="36", pop="36", peek="36", pushType="float", popType="float", peekType="float", codeSize="98 b", stackSize="192 b", work="44"];
node141 -> node146;
node147 [label="Butterfly_6666", push="36", pop="36", peek="36", pushType="float", popType="float", peekType="float", codeSize="98 b", stackSize="192 b", work="44"];
node141 -> node147;
node148 [label="Butterfly_6667", push="36", pop="36", peek="36", pushType="float", popType="float", peekType="float", codeSize="98 b", stackSize="192 b", work="44"];
node141 -> node148;
node149 [label="Butterfly_6668", push="36", pop="36", peek="36", pushType="float", popType="float", peekType="float", codeSize="98 b", stackSize="192 b", work="44"];
node141 -> node149;
node150 [label="WEIGHTED_ROUND_ROBIN_Joiner_7028", push="288", pop="288", peek="0", pushType="float", popType="float", peekType="void", codeSize="150 b", stackSize="288 b", work="0"];
node142 -> node150;
node143 -> node150;
node144 -> node150;
node145 -> node150;
node146 -> node150;
node147 -> node150;
node148 -> node150;
node149 -> node150;
node151 [label="WEIGHTED_ROUND_ROBIN_Joiner_7029", push="576", pop="576", peek="0", pushType="float", popType="float", peekType="void", codeSize="42 b", stackSize="96 b", work="0"];
node140 -> node151;
node150 -> node151;
node152 [label="BitReverse_6669", push="576", pop="576", peek="576", pushType="float", popType="float", peekType="float", codeSize="118 b", stackSize="160 b", work="2080"];
node151 -> node152;
node153 [label="FloatPrinter_6670", push="0", pop="576", peek="576", pushType="void", popType="float", peekType="float", codeSize="32 b", stackSize="0 b", work="12"];
node152 -> node153;
}
