digraph MatrixMultBlock_8535 {
node0 [label="BlockFloatSource_8055", push="3780", pop="0", peek="0", pushType="float", popType="void", peekType="void", codeSize="26 b", stackSize="0 b", work="14"];
node1 [label="WEIGHTED_ROUND_ROBIN_Splitter_8184", push="3780", pop="3780", peek="0", pushType="float", popType="float", peekType="void", codeSize="42 b", stackSize="96 b", work="0"];
node0 -> node1;
node2 [label="WEIGHTED_ROUND_ROBIN_Splitter_8192", push="2160", pop="2160", peek="0", pushType="float", popType="float", peekType="void", codeSize="222 b", stackSize="416 b", work="0"];
node1 -> node2;
node3 [label="Post_CollapsedDataParallel_1_8194", push="180", pop="180", peek="180", pushType="float", popType="float", peekType="float", codeSize="54 b", stackSize="96 b", work="143"];
node2 -> node3;
node4 [label="Post_CollapsedDataParallel_1_8195", push="180", pop="180", peek="180", pushType="float", popType="float", peekType="float", codeSize="54 b", stackSize="96 b", work="143"];
node2 -> node4;
node5 [label="Post_CollapsedDataParallel_1_8196", push="180", pop="180", peek="180", pushType="float", popType="float", peekType="float", codeSize="54 b", stackSize="96 b", work="143"];
node2 -> node5;
node6 [label="Post_CollapsedDataParallel_1_8197", push="180", pop="180", peek="180", pushType="float", popType="float", peekType="float", codeSize="54 b", stackSize="96 b", work="143"];
node2 -> node6;
node7 [label="Post_CollapsedDataParallel_1_8198", push="180", pop="180", peek="180", pushType="float", popType="float", peekType="float", codeSize="54 b", stackSize="96 b", work="143"];
node2 -> node7;
node8 [label="Post_CollapsedDataParallel_1_8199", push="180", pop="180", peek="180", pushType="float", popType="float", peekType="float", codeSize="54 b", stackSize="96 b", work="143"];
node2 -> node8;
node9 [label="Post_CollapsedDataParallel_1_8200", push="180", pop="180", peek="180", pushType="float", popType="float", peekType="float", codeSize="54 b", stackSize="96 b", work="143"];
node2 -> node9;
node10 [label="Post_CollapsedDataParallel_1_8201", push="180", pop="180", peek="180", pushType="float", popType="float", peekType="float", codeSize="54 b", stackSize="96 b", work="143"];
node2 -> node10;
node11 [label="Post_CollapsedDataParallel_1_8202", push="180", pop="180", peek="180", pushType="float", popType="float", peekType="float", codeSize="54 b", stackSize="96 b", work="143"];
node2 -> node11;
node12 [label="Post_CollapsedDataParallel_1_8203", push="180", pop="180", peek="180", pushType="float", popType="float", peekType="float", codeSize="54 b", stackSize="96 b", work="143"];
node2 -> node12;
node13 [label="Post_CollapsedDataParallel_1_8204", push="180", pop="180", peek="180", pushType="float", popType="float", peekType="float", codeSize="54 b", stackSize="96 b", work="143"];
node2 -> node13;
node14 [label="Post_CollapsedDataParallel_1_8205", push="180", pop="180", peek="180", pushType="float", popType="float", peekType="float", codeSize="54 b", stackSize="96 b", work="143"];
node2 -> node14;
node15 [label="WEIGHTED_ROUND_ROBIN_Joiner_8193", push="2160", pop="2160", peek="0", pushType="float", popType="float", peekType="void", codeSize="222 b", stackSize="416 b", work="0"];
node3 -> node15;
node4 -> node15;
node5 -> node15;
node6 -> node15;
node7 -> node15;
node8 -> node15;
node9 -> node15;
node10 -> node15;
node11 -> node15;
node12 -> node15;
node13 -> node15;
node14 -> node15;
node16 [label="Identity_8059", push="2160", pop="2160", peek="2160", pushType="float", popType="float", peekType="float", codeSize="12 b", stackSize="32 b", work="6"];
node15 -> node16;
node17 [label="WEIGHTED_ROUND_ROBIN_Splitter_8206", push="2160", pop="2160", peek="0", pushType="float", popType="float", peekType="void", codeSize="60 b", stackSize="128 b", work="0"];
node16 -> node17;
node18 [label="Pre_CollapsedDataParallel_2_8208", push="720", pop="720", peek="720", pushType="float", popType="float", peekType="float", codeSize="50 b", stackSize="96 b", work="489"];
node17 -> node18;
node19 [label="Pre_CollapsedDataParallel_2_8209", push="720", pop="720", peek="720", pushType="float", popType="float", peekType="float", codeSize="50 b", stackSize="96 b", work="489"];
node17 -> node19;
node20 [label="Pre_CollapsedDataParallel_2_8210", push="720", pop="720", peek="720", pushType="float", popType="float", peekType="float", codeSize="50 b", stackSize="96 b", work="489"];
node17 -> node20;
node21 [label="WEIGHTED_ROUND_ROBIN_Joiner_8207", push="2160", pop="2160", peek="0", pushType="float", popType="float", peekType="void", codeSize="60 b", stackSize="128 b", work="0"];
node18 -> node21;
node19 -> node21;
node20 -> node21;
node22 [label="WEIGHTED_ROUND_ROBIN_Splitter_8211", push="2160", pop="2160", peek="0", pushType="float", popType="float", peekType="void", codeSize="1626 b", stackSize="32 b", work="0"];
node21 -> node22;
node23 [label="AutoGeneratedExpander_8213", push="48", pop="16", peek="16", pushType="float", popType="float", peekType="float", codeSize="32 b", stackSize="32 b", work="27"];
node22 -> node23;
node24 [label="AutoGeneratedExpander_8214", push="48", pop="16", peek="16", pushType="float", popType="float", peekType="float", codeSize="32 b", stackSize="32 b", work="27"];
node22 -> node24;
node25 [label="AutoGeneratedExpander_8215", push="48", pop="16", peek="16", pushType="float", popType="float", peekType="float", codeSize="32 b", stackSize="32 b", work="27"];
node22 -> node25;
node26 [label="AutoGeneratedExpander_8216", push="48", pop="16", peek="16", pushType="float", popType="float", peekType="float", codeSize="32 b", stackSize="32 b", work="27"];
node22 -> node26;
node27 [label="AutoGeneratedExpander_8217", push="48", pop="16", peek="16", pushType="float", popType="float", peekType="float", codeSize="32 b", stackSize="32 b", work="27"];
node22 -> node27;
node28 [label="AutoGeneratedExpander_8218", push="48", pop="16", peek="16", pushType="float", popType="float", peekType="float", codeSize="32 b", stackSize="32 b", work="27"];
node22 -> node28;
node29 [label="AutoGeneratedExpander_8219", push="48", pop="16", peek="16", pushType="float", popType="float", peekType="float", codeSize="32 b", stackSize="32 b", work="27"];
node22 -> node29;
node30 [label="AutoGeneratedExpander_8220", push="48", pop="16", peek="16", pushType="float", popType="float", peekType="float", codeSize="32 b", stackSize="32 b", work="27"];
node22 -> node30;
node31 [label="AutoGeneratedExpander_8221", push="48", pop="16", peek="16", pushType="float", popType="float", peekType="float", codeSize="32 b", stackSize="32 b", work="27"];
node22 -> node31;
node32 [label="AutoGeneratedExpander_8222", push="48", pop="16", peek="16", pushType="float", popType="float", peekType="float", codeSize="32 b", stackSize="32 b", work="27"];
node22 -> node32;
node33 [label="AutoGeneratedExpander_8223", push="48", pop="16", peek="16", pushType="float", popType="float", peekType="float", codeSize="32 b", stackSize="32 b", work="27"];
node22 -> node33;
node34 [label="AutoGeneratedExpander_8224", push="48", pop="16", peek="16", pushType="float", popType="float", peekType="float", codeSize="32 b", stackSize="32 b", work="27"];
node22 -> node34;
node35 [label="AutoGeneratedExpander_8225", push="48", pop="16", peek="16", pushType="float", popType="float", peekType="float", codeSize="32 b", stackSize="32 b", work="27"];
node22 -> node35;
node36 [label="AutoGeneratedExpander_8226", push="48", pop="16", peek="16", pushType="float", popType="float", peekType="float", codeSize="32 b", stackSize="32 b", work="27"];
node22 -> node36;
node37 [label="AutoGeneratedExpander_8227", push="48", pop="16", peek="16", pushType="float", popType="float", peekType="float", codeSize="32 b", stackSize="32 b", work="27"];
node22 -> node37;
node38 [label="AutoGeneratedExpander_8228", push="48", pop="16", peek="16", pushType="float", popType="float", peekType="float", codeSize="32 b", stackSize="32 b", work="27"];
node22 -> node38;
node39 [label="AutoGeneratedExpander_8229", push="48", pop="16", peek="16", pushType="float", popType="float", peekType="float", codeSize="32 b", stackSize="32 b", work="27"];
node22 -> node39;
node40 [label="AutoGeneratedExpander_8230", push="48", pop="16", peek="16", pushType="float", popType="float", peekType="float", codeSize="32 b", stackSize="32 b", work="27"];
node22 -> node40;
node41 [label="AutoGeneratedExpander_8231", push="48", pop="16", peek="16", pushType="float", popType="float", peekType="float", codeSize="32 b", stackSize="32 b", work="27"];
node22 -> node41;
node42 [label="AutoGeneratedExpander_8232", push="48", pop="16", peek="16", pushType="float", popType="float", peekType="float", codeSize="32 b", stackSize="32 b", work="27"];
node22 -> node42;
node43 [label="AutoGeneratedExpander_8233", push="48", pop="16", peek="16", pushType="float", popType="float", peekType="float", codeSize="32 b", stackSize="32 b", work="27"];
node22 -> node43;
node44 [label="AutoGeneratedExpander_8234", push="48", pop="16", peek="16", pushType="float", popType="float", peekType="float", codeSize="32 b", stackSize="32 b", work="27"];
node22 -> node44;
node45 [label="AutoGeneratedExpander_8235", push="48", pop="16", peek="16", pushType="float", popType="float", peekType="float", codeSize="32 b", stackSize="32 b", work="27"];
node22 -> node45;
node46 [label="AutoGeneratedExpander_8236", push="48", pop="16", peek="16", pushType="float", popType="float", peekType="float", codeSize="32 b", stackSize="32 b", work="27"];
node22 -> node46;
node47 [label="AutoGeneratedExpander_8237", push="48", pop="16", peek="16", pushType="float", popType="float", peekType="float", codeSize="32 b", stackSize="32 b", work="27"];
node22 -> node47;
node48 [label="AutoGeneratedExpander_8238", push="48", pop="16", peek="16", pushType="float", popType="float", peekType="float", codeSize="32 b", stackSize="32 b", work="27"];
node22 -> node48;
node49 [label="AutoGeneratedExpander_8239", push="48", pop="16", peek="16", pushType="float", popType="float", peekType="float", codeSize="32 b", stackSize="32 b", work="27"];
node22 -> node49;
node50 [label="AutoGeneratedExpander_8240", push="48", pop="16", peek="16", pushType="float", popType="float", peekType="float", codeSize="32 b", stackSize="32 b", work="27"];
node22 -> node50;
node51 [label="AutoGeneratedExpander_8241", push="48", pop="16", peek="16", pushType="float", popType="float", peekType="float", codeSize="32 b", stackSize="32 b", work="27"];
node22 -> node51;
node52 [label="AutoGeneratedExpander_8242", push="48", pop="16", peek="16", pushType="float", popType="float", peekType="float", codeSize="32 b", stackSize="32 b", work="27"];
node22 -> node52;
node53 [label="AutoGeneratedExpander_8243", push="48", pop="16", peek="16", pushType="float", popType="float", peekType="float", codeSize="32 b", stackSize="32 b", work="27"];
node22 -> node53;
node54 [label="AutoGeneratedExpander_8244", push="48", pop="16", peek="16", pushType="float", popType="float", peekType="float", codeSize="32 b", stackSize="32 b", work="27"];
node22 -> node54;
node55 [label="AutoGeneratedExpander_8245", push="48", pop="16", peek="16", pushType="float", popType="float", peekType="float", codeSize="32 b", stackSize="32 b", work="27"];
node22 -> node55;
node56 [label="AutoGeneratedExpander_8246", push="48", pop="16", peek="16", pushType="float", popType="float", peekType="float", codeSize="32 b", stackSize="32 b", work="27"];
node22 -> node56;
node57 [label="AutoGeneratedExpander_8247", push="48", pop="16", peek="16", pushType="float", popType="float", peekType="float", codeSize="32 b", stackSize="32 b", work="27"];
node22 -> node57;
node58 [label="AutoGeneratedExpander_8248", push="48", pop="16", peek="16", pushType="float", popType="float", peekType="float", codeSize="32 b", stackSize="32 b", work="27"];
node22 -> node58;
node59 [label="AutoGeneratedExpander_8249", push="48", pop="16", peek="16", pushType="float", popType="float", peekType="float", codeSize="32 b", stackSize="32 b", work="27"];
node22 -> node59;
node60 [label="AutoGeneratedExpander_8250", push="48", pop="16", peek="16", pushType="float", popType="float", peekType="float", codeSize="32 b", stackSize="32 b", work="27"];
node22 -> node60;
node61 [label="AutoGeneratedExpander_8251", push="48", pop="16", peek="16", pushType="float", popType="float", peekType="float", codeSize="32 b", stackSize="32 b", work="27"];
node22 -> node61;
node62 [label="AutoGeneratedExpander_8252", push="48", pop="16", peek="16", pushType="float", popType="float", peekType="float", codeSize="32 b", stackSize="32 b", work="27"];
node22 -> node62;
node63 [label="AutoGeneratedExpander_8253", push="48", pop="16", peek="16", pushType="float", popType="float", peekType="float", codeSize="32 b", stackSize="32 b", work="27"];
node22 -> node63;
node64 [label="AutoGeneratedExpander_8254", push="48", pop="16", peek="16", pushType="float", popType="float", peekType="float", codeSize="32 b", stackSize="32 b", work="27"];
node22 -> node64;
node65 [label="AutoGeneratedExpander_8255", push="48", pop="16", peek="16", pushType="float", popType="float", peekType="float", codeSize="32 b", stackSize="32 b", work="27"];
node22 -> node65;
node66 [label="AutoGeneratedExpander_8256", push="48", pop="16", peek="16", pushType="float", popType="float", peekType="float", codeSize="32 b", stackSize="32 b", work="27"];
node22 -> node66;
node67 [label="AutoGeneratedExpander_8257", push="48", pop="16", peek="16", pushType="float", popType="float", peekType="float", codeSize="32 b", stackSize="32 b", work="27"];
node22 -> node67;
node68 [label="AutoGeneratedExpander_8258", push="48", pop="16", peek="16", pushType="float", popType="float", peekType="float", codeSize="32 b", stackSize="32 b", work="27"];
node22 -> node68;
node69 [label="AutoGeneratedExpander_8259", push="48", pop="16", peek="16", pushType="float", popType="float", peekType="float", codeSize="32 b", stackSize="32 b", work="27"];
node22 -> node69;
node70 [label="AutoGeneratedExpander_8260", push="48", pop="16", peek="16", pushType="float", popType="float", peekType="float", codeSize="32 b", stackSize="32 b", work="27"];
node22 -> node70;
node71 [label="AutoGeneratedExpander_8261", push="48", pop="16", peek="16", pushType="float", popType="float", peekType="float", codeSize="32 b", stackSize="32 b", work="27"];
node22 -> node71;
node72 [label="AutoGeneratedExpander_8262", push="48", pop="16", peek="16", pushType="float", popType="float", peekType="float", codeSize="32 b", stackSize="32 b", work="27"];
node22 -> node72;
node73 [label="AutoGeneratedExpander_8263", push="48", pop="16", peek="16", pushType="float", popType="float", peekType="float", codeSize="32 b", stackSize="32 b", work="27"];
node22 -> node73;
node74 [label="AutoGeneratedExpander_8264", push="48", pop="16", peek="16", pushType="float", popType="float", peekType="float", codeSize="32 b", stackSize="32 b", work="27"];
node22 -> node74;
node75 [label="AutoGeneratedExpander_8265", push="48", pop="16", peek="16", pushType="float", popType="float", peekType="float", codeSize="32 b", stackSize="32 b", work="27"];
node22 -> node75;
node76 [label="AutoGeneratedExpander_8266", push="48", pop="16", peek="16", pushType="float", popType="float", peekType="float", codeSize="32 b", stackSize="32 b", work="27"];
node22 -> node76;
node77 [label="AutoGeneratedExpander_8267", push="48", pop="16", peek="16", pushType="float", popType="float", peekType="float", codeSize="32 b", stackSize="32 b", work="27"];
node22 -> node77;
node78 [label="AutoGeneratedExpander_8268", push="48", pop="16", peek="16", pushType="float", popType="float", peekType="float", codeSize="32 b", stackSize="32 b", work="27"];
node22 -> node78;
node79 [label="AutoGeneratedExpander_8269", push="48", pop="16", peek="16", pushType="float", popType="float", peekType="float", codeSize="32 b", stackSize="32 b", work="27"];
node22 -> node79;
node80 [label="AutoGeneratedExpander_8270", push="48", pop="16", peek="16", pushType="float", popType="float", peekType="float", codeSize="32 b", stackSize="32 b", work="27"];
node22 -> node80;
node81 [label="AutoGeneratedExpander_8271", push="48", pop="16", peek="16", pushType="float", popType="float", peekType="float", codeSize="32 b", stackSize="32 b", work="27"];
node22 -> node81;
node82 [label="AutoGeneratedExpander_8272", push="48", pop="16", peek="16", pushType="float", popType="float", peekType="float", codeSize="32 b", stackSize="32 b", work="27"];
node22 -> node82;
node83 [label="AutoGeneratedExpander_8273", push="48", pop="16", peek="16", pushType="float", popType="float", peekType="float", codeSize="32 b", stackSize="32 b", work="27"];
node22 -> node83;
node84 [label="AutoGeneratedExpander_8274", push="48", pop="16", peek="16", pushType="float", popType="float", peekType="float", codeSize="32 b", stackSize="32 b", work="27"];
node22 -> node84;
node85 [label="AutoGeneratedExpander_8275", push="48", pop="16", peek="16", pushType="float", popType="float", peekType="float", codeSize="32 b", stackSize="32 b", work="27"];
node22 -> node85;
node86 [label="AutoGeneratedExpander_8276", push="48", pop="16", peek="16", pushType="float", popType="float", peekType="float", codeSize="32 b", stackSize="32 b", work="27"];
node22 -> node86;
node87 [label="AutoGeneratedExpander_8277", push="48", pop="16", peek="16", pushType="float", popType="float", peekType="float", codeSize="32 b", stackSize="32 b", work="27"];
node22 -> node87;
node88 [label="AutoGeneratedExpander_8278", push="48", pop="16", peek="16", pushType="float", popType="float", peekType="float", codeSize="32 b", stackSize="32 b", work="27"];
node22 -> node88;
node89 [label="AutoGeneratedExpander_8279", push="48", pop="16", peek="16", pushType="float", popType="float", peekType="float", codeSize="32 b", stackSize="32 b", work="27"];
node22 -> node89;
node90 [label="AutoGeneratedExpander_8280", push="48", pop="16", peek="16", pushType="float", popType="float", peekType="float", codeSize="32 b", stackSize="32 b", work="27"];
node22 -> node90;
node91 [label="AutoGeneratedExpander_8281", push="48", pop="16", peek="16", pushType="float", popType="float", peekType="float", codeSize="32 b", stackSize="32 b", work="27"];
node22 -> node91;
node92 [label="AutoGeneratedExpander_8282", push="48", pop="16", peek="16", pushType="float", popType="float", peekType="float", codeSize="32 b", stackSize="32 b", work="27"];
node22 -> node92;
node93 [label="AutoGeneratedExpander_8283", push="48", pop="16", peek="16", pushType="float", popType="float", peekType="float", codeSize="32 b", stackSize="32 b", work="27"];
node22 -> node93;
node94 [label="AutoGeneratedExpander_8284", push="48", pop="16", peek="16", pushType="float", popType="float", peekType="float", codeSize="32 b", stackSize="32 b", work="27"];
node22 -> node94;
node95 [label="AutoGeneratedExpander_8285", push="48", pop="16", peek="16", pushType="float", popType="float", peekType="float", codeSize="32 b", stackSize="32 b", work="27"];
node22 -> node95;
node96 [label="AutoGeneratedExpander_8286", push="48", pop="16", peek="16", pushType="float", popType="float", peekType="float", codeSize="32 b", stackSize="32 b", work="27"];
node22 -> node96;
node97 [label="AutoGeneratedExpander_8287", push="48", pop="16", peek="16", pushType="float", popType="float", peekType="float", codeSize="32 b", stackSize="32 b", work="27"];
node22 -> node97;
node98 [label="AutoGeneratedExpander_8288", push="48", pop="16", peek="16", pushType="float", popType="float", peekType="float", codeSize="32 b", stackSize="32 b", work="27"];
node22 -> node98;
node99 [label="AutoGeneratedExpander_8289", push="48", pop="16", peek="16", pushType="float", popType="float", peekType="float", codeSize="32 b", stackSize="32 b", work="27"];
node22 -> node99;
node100 [label="AutoGeneratedExpander_8290", push="48", pop="16", peek="16", pushType="float", popType="float", peekType="float", codeSize="32 b", stackSize="32 b", work="27"];
node22 -> node100;
node101 [label="AutoGeneratedExpander_8291", push="48", pop="16", peek="16", pushType="float", popType="float", peekType="float", codeSize="32 b", stackSize="32 b", work="27"];
node22 -> node101;
node102 [label="AutoGeneratedExpander_8292", push="48", pop="16", peek="16", pushType="float", popType="float", peekType="float", codeSize="32 b", stackSize="32 b", work="27"];
node22 -> node102;
node103 [label="AutoGeneratedExpander_8293", push="48", pop="16", peek="16", pushType="float", popType="float", peekType="float", codeSize="32 b", stackSize="32 b", work="27"];
node22 -> node103;
node104 [label="AutoGeneratedExpander_8294", push="48", pop="16", peek="16", pushType="float", popType="float", peekType="float", codeSize="32 b", stackSize="32 b", work="27"];
node22 -> node104;
node105 [label="AutoGeneratedExpander_8295", push="48", pop="16", peek="16", pushType="float", popType="float", peekType="float", codeSize="32 b", stackSize="32 b", work="27"];
node22 -> node105;
node106 [label="AutoGeneratedExpander_8296", push="48", pop="16", peek="16", pushType="float", popType="float", peekType="float", codeSize="32 b", stackSize="32 b", work="27"];
node22 -> node106;
node107 [label="AutoGeneratedExpander_8297", push="48", pop="16", peek="16", pushType="float", popType="float", peekType="float", codeSize="32 b", stackSize="32 b", work="27"];
node22 -> node107;
node108 [label="AutoGeneratedExpander_8298", push="48", pop="16", peek="16", pushType="float", popType="float", peekType="float", codeSize="32 b", stackSize="32 b", work="27"];
node22 -> node108;
node109 [label="AutoGeneratedExpander_8299", push="48", pop="16", peek="16", pushType="float", popType="float", peekType="float", codeSize="32 b", stackSize="32 b", work="27"];
node22 -> node109;
node110 [label="AutoGeneratedExpander_8300", push="48", pop="16", peek="16", pushType="float", popType="float", peekType="float", codeSize="32 b", stackSize="32 b", work="27"];
node22 -> node110;
node111 [label="AutoGeneratedExpander_8301", push="48", pop="16", peek="16", pushType="float", popType="float", peekType="float", codeSize="32 b", stackSize="32 b", work="27"];
node22 -> node111;
node112 [label="AutoGeneratedExpander_8302", push="48", pop="16", peek="16", pushType="float", popType="float", peekType="float", codeSize="32 b", stackSize="32 b", work="27"];
node22 -> node112;
node113 [label="AutoGeneratedExpander_8303", push="48", pop="16", peek="16", pushType="float", popType="float", peekType="float", codeSize="32 b", stackSize="32 b", work="27"];
node22 -> node113;
node114 [label="AutoGeneratedExpander_8304", push="48", pop="16", peek="16", pushType="float", popType="float", peekType="float", codeSize="32 b", stackSize="32 b", work="27"];
node22 -> node114;
node115 [label="AutoGeneratedExpander_8305", push="48", pop="16", peek="16", pushType="float", popType="float", peekType="float", codeSize="32 b", stackSize="32 b", work="27"];
node22 -> node115;
node116 [label="AutoGeneratedExpander_8306", push="48", pop="16", peek="16", pushType="float", popType="float", peekType="float", codeSize="32 b", stackSize="32 b", work="27"];
node22 -> node116;
node117 [label="AutoGeneratedExpander_8307", push="48", pop="16", peek="16", pushType="float", popType="float", peekType="float", codeSize="32 b", stackSize="32 b", work="27"];
node22 -> node117;
node118 [label="AutoGeneratedExpander_8308", push="48", pop="16", peek="16", pushType="float", popType="float", peekType="float", codeSize="32 b", stackSize="32 b", work="27"];
node22 -> node118;
node119 [label="AutoGeneratedExpander_8309", push="48", pop="16", peek="16", pushType="float", popType="float", peekType="float", codeSize="32 b", stackSize="32 b", work="27"];
node22 -> node119;
node120 [label="AutoGeneratedExpander_8310", push="48", pop="16", peek="16", pushType="float", popType="float", peekType="float", codeSize="32 b", stackSize="32 b", work="27"];
node22 -> node120;
node121 [label="AutoGeneratedExpander_8311", push="48", pop="16", peek="16", pushType="float", popType="float", peekType="float", codeSize="32 b", stackSize="32 b", work="27"];
node22 -> node121;
node122 [label="AutoGeneratedExpander_8312", push="48", pop="16", peek="16", pushType="float", popType="float", peekType="float", codeSize="32 b", stackSize="32 b", work="27"];
node22 -> node122;
node123 [label="AutoGeneratedExpander_8313", push="48", pop="16", peek="16", pushType="float", popType="float", peekType="float", codeSize="32 b", stackSize="32 b", work="27"];
node22 -> node123;
node124 [label="AutoGeneratedExpander_8314", push="48", pop="16", peek="16", pushType="float", popType="float", peekType="float", codeSize="32 b", stackSize="32 b", work="27"];
node22 -> node124;
node125 [label="AutoGeneratedExpander_8315", push="48", pop="16", peek="16", pushType="float", popType="float", peekType="float", codeSize="32 b", stackSize="32 b", work="27"];
node22 -> node125;
node126 [label="AutoGeneratedExpander_8316", push="48", pop="16", peek="16", pushType="float", popType="float", peekType="float", codeSize="32 b", stackSize="32 b", work="27"];
node22 -> node126;
node127 [label="AutoGeneratedExpander_8317", push="48", pop="16", peek="16", pushType="float", popType="float", peekType="float", codeSize="32 b", stackSize="32 b", work="27"];
node22 -> node127;
node128 [label="AutoGeneratedExpander_8318", push="48", pop="16", peek="16", pushType="float", popType="float", peekType="float", codeSize="32 b", stackSize="32 b", work="27"];
node22 -> node128;
node129 [label="AutoGeneratedExpander_8319", push="48", pop="16", peek="16", pushType="float", popType="float", peekType="float", codeSize="32 b", stackSize="32 b", work="27"];
node22 -> node129;
node130 [label="AutoGeneratedExpander_8320", push="48", pop="16", peek="16", pushType="float", popType="float", peekType="float", codeSize="32 b", stackSize="32 b", work="27"];
node22 -> node130;
node131 [label="AutoGeneratedExpander_8321", push="48", pop="16", peek="16", pushType="float", popType="float", peekType="float", codeSize="32 b", stackSize="32 b", work="27"];
node22 -> node131;
node132 [label="AutoGeneratedExpander_8322", push="48", pop="16", peek="16", pushType="float", popType="float", peekType="float", codeSize="32 b", stackSize="32 b", work="27"];
node22 -> node132;
node133 [label="AutoGeneratedExpander_8323", push="48", pop="16", peek="16", pushType="float", popType="float", peekType="float", codeSize="32 b", stackSize="32 b", work="27"];
node22 -> node133;
node134 [label="AutoGeneratedExpander_8324", push="48", pop="16", peek="16", pushType="float", popType="float", peekType="float", codeSize="32 b", stackSize="32 b", work="27"];
node22 -> node134;
node135 [label="AutoGeneratedExpander_8325", push="48", pop="16", peek="16", pushType="float", popType="float", peekType="float", codeSize="32 b", stackSize="32 b", work="27"];
node22 -> node135;
node136 [label="AutoGeneratedExpander_8326", push="48", pop="16", peek="16", pushType="float", popType="float", peekType="float", codeSize="32 b", stackSize="32 b", work="27"];
node22 -> node136;
node137 [label="AutoGeneratedExpander_8327", push="48", pop="16", peek="16", pushType="float", popType="float", peekType="float", codeSize="32 b", stackSize="32 b", work="27"];
node22 -> node137;
node138 [label="AutoGeneratedExpander_8328", push="48", pop="16", peek="16", pushType="float", popType="float", peekType="float", codeSize="32 b", stackSize="32 b", work="27"];
node22 -> node138;
node139 [label="AutoGeneratedExpander_8329", push="48", pop="16", peek="16", pushType="float", popType="float", peekType="float", codeSize="32 b", stackSize="32 b", work="27"];
node22 -> node139;
node140 [label="AutoGeneratedExpander_8330", push="48", pop="16", peek="16", pushType="float", popType="float", peekType="float", codeSize="32 b", stackSize="32 b", work="27"];
node22 -> node140;
node141 [label="AutoGeneratedExpander_8331", push="48", pop="16", peek="16", pushType="float", popType="float", peekType="float", codeSize="32 b", stackSize="32 b", work="27"];
node22 -> node141;
node142 [label="AutoGeneratedExpander_8332", push="48", pop="16", peek="16", pushType="float", popType="float", peekType="float", codeSize="32 b", stackSize="32 b", work="27"];
node22 -> node142;
node143 [label="AutoGeneratedExpander_8333", push="48", pop="16", peek="16", pushType="float", popType="float", peekType="float", codeSize="32 b", stackSize="32 b", work="27"];
node22 -> node143;
node144 [label="AutoGeneratedExpander_8334", push="48", pop="16", peek="16", pushType="float", popType="float", peekType="float", codeSize="32 b", stackSize="32 b", work="27"];
node22 -> node144;
node145 [label="AutoGeneratedExpander_8335", push="48", pop="16", peek="16", pushType="float", popType="float", peekType="float", codeSize="32 b", stackSize="32 b", work="27"];
node22 -> node145;
node146 [label="AutoGeneratedExpander_8336", push="48", pop="16", peek="16", pushType="float", popType="float", peekType="float", codeSize="32 b", stackSize="32 b", work="27"];
node22 -> node146;
node147 [label="AutoGeneratedExpander_8337", push="48", pop="16", peek="16", pushType="float", popType="float", peekType="float", codeSize="32 b", stackSize="32 b", work="27"];
node22 -> node147;
node148 [label="AutoGeneratedExpander_8338", push="48", pop="16", peek="16", pushType="float", popType="float", peekType="float", codeSize="32 b", stackSize="32 b", work="27"];
node22 -> node148;
node149 [label="AutoGeneratedExpander_8339", push="48", pop="16", peek="16", pushType="float", popType="float", peekType="float", codeSize="32 b", stackSize="32 b", work="27"];
node22 -> node149;
node150 [label="AutoGeneratedExpander_8340", push="48", pop="16", peek="16", pushType="float", popType="float", peekType="float", codeSize="32 b", stackSize="32 b", work="27"];
node22 -> node150;
node151 [label="AutoGeneratedExpander_8341", push="48", pop="16", peek="16", pushType="float", popType="float", peekType="float", codeSize="32 b", stackSize="32 b", work="27"];
node22 -> node151;
node152 [label="AutoGeneratedExpander_8342", push="48", pop="16", peek="16", pushType="float", popType="float", peekType="float", codeSize="32 b", stackSize="32 b", work="27"];
node22 -> node152;
node153 [label="AutoGeneratedExpander_8343", push="48", pop="16", peek="16", pushType="float", popType="float", peekType="float", codeSize="32 b", stackSize="32 b", work="27"];
node22 -> node153;
node154 [label="AutoGeneratedExpander_8344", push="48", pop="16", peek="16", pushType="float", popType="float", peekType="float", codeSize="32 b", stackSize="32 b", work="27"];
node22 -> node154;
node155 [label="AutoGeneratedExpander_8345", push="48", pop="16", peek="16", pushType="float", popType="float", peekType="float", codeSize="32 b", stackSize="32 b", work="27"];
node22 -> node155;
node156 [label="AutoGeneratedExpander_8346", push="48", pop="16", peek="16", pushType="float", popType="float", peekType="float", codeSize="32 b", stackSize="32 b", work="27"];
node22 -> node156;
node157 [label="AutoGeneratedExpander_8347", push="48", pop="16", peek="16", pushType="float", popType="float", peekType="float", codeSize="32 b", stackSize="32 b", work="27"];
node22 -> node157;
node158 [label="WEIGHTED_ROUND_ROBIN_Joiner_8212", push="6480", pop="6480", peek="0", pushType="float", popType="float", peekType="void", codeSize="2436 b", stackSize="4352 b", work="0"];
node23 -> node158;
node24 -> node158;
node25 -> node158;
node26 -> node158;
node27 -> node158;
node28 -> node158;
node29 -> node158;
node30 -> node158;
node31 -> node158;
node32 -> node158;
node33 -> node158;
node34 -> node158;
node35 -> node158;
node36 -> node158;
node37 -> node158;
node38 -> node158;
node39 -> node158;
node40 -> node158;
node41 -> node158;
node42 -> node158;
node43 -> node158;
node44 -> node158;
node45 -> node158;
node46 -> node158;
node47 -> node158;
node48 -> node158;
node49 -> node158;
node50 -> node158;
node51 -> node158;
node52 -> node158;
node53 -> node158;
node54 -> node158;
node55 -> node158;
node56 -> node158;
node57 -> node158;
node58 -> node158;
node59 -> node158;
node60 -> node158;
node61 -> node158;
node62 -> node158;
node63 -> node158;
node64 -> node158;
node65 -> node158;
node66 -> node158;
node67 -> node158;
node68 -> node158;
node69 -> node158;
node70 -> node158;
node71 -> node158;
node72 -> node158;
node73 -> node158;
node74 -> node158;
node75 -> node158;
node76 -> node158;
node77 -> node158;
node78 -> node158;
node79 -> node158;
node80 -> node158;
node81 -> node158;
node82 -> node158;
node83 -> node158;
node84 -> node158;
node85 -> node158;
node86 -> node158;
node87 -> node158;
node88 -> node158;
node89 -> node158;
node90 -> node158;
node91 -> node158;
node92 -> node158;
node93 -> node158;
node94 -> node158;
node95 -> node158;
node96 -> node158;
node97 -> node158;
node98 -> node158;
node99 -> node158;
node100 -> node158;
node101 -> node158;
node102 -> node158;
node103 -> node158;
node104 -> node158;
node105 -> node158;
node106 -> node158;
node107 -> node158;
node108 -> node158;
node109 -> node158;
node110 -> node158;
node111 -> node158;
node112 -> node158;
node113 -> node158;
node114 -> node158;
node115 -> node158;
node116 -> node158;
node117 -> node158;
node118 -> node158;
node119 -> node158;
node120 -> node158;
node121 -> node158;
node122 -> node158;
node123 -> node158;
node124 -> node158;
node125 -> node158;
node126 -> node158;
node127 -> node158;
node128 -> node158;
node129 -> node158;
node130 -> node158;
node131 -> node158;
node132 -> node158;
node133 -> node158;
node134 -> node158;
node135 -> node158;
node136 -> node158;
node137 -> node158;
node138 -> node158;
node139 -> node158;
node140 -> node158;
node141 -> node158;
node142 -> node158;
node143 -> node158;
node144 -> node158;
node145 -> node158;
node146 -> node158;
node147 -> node158;
node148 -> node158;
node149 -> node158;
node150 -> node158;
node151 -> node158;
node152 -> node158;
node153 -> node158;
node154 -> node158;
node155 -> node158;
node156 -> node158;
node157 -> node158;
node159 [label="Identity_8062", push="6480", pop="6480", peek="6480", pushType="float", popType="float", peekType="float", codeSize="12 b", stackSize="32 b", work="6"];
node158 -> node159;
node160 [label="WEIGHTED_ROUND_ROBIN_Splitter_8348", push="6480", pop="6480", peek="0", pushType="float", popType="float", peekType="void", codeSize="60 b", stackSize="128 b", work="0"];
node159 -> node160;
node161 [label="Pre_CollapsedDataParallel_2_8350", push="2160", pop="2160", peek="2160", pushType="float", popType="float", peekType="float", codeSize="50 b", stackSize="96 b", work="1449"];
node160 -> node161;
node162 [label="Pre_CollapsedDataParallel_2_8351", push="2160", pop="2160", peek="2160", pushType="float", popType="float", peekType="float", codeSize="50 b", stackSize="96 b", work="1449"];
node160 -> node162;
node163 [label="Pre_CollapsedDataParallel_2_8352", push="2160", pop="2160", peek="2160", pushType="float", popType="float", peekType="float", codeSize="50 b", stackSize="96 b", work="1449"];
node160 -> node163;
node164 [label="WEIGHTED_ROUND_ROBIN_Joiner_8349", push="6480", pop="6480", peek="0", pushType="float", popType="float", peekType="void", codeSize="60 b", stackSize="128 b", work="0"];
node161 -> node164;
node162 -> node164;
node163 -> node164;
node165 [label="Identity_8066", push="1620", pop="1620", peek="1620", pushType="float", popType="float", peekType="float", codeSize="12 b", stackSize="32 b", work="6"];
node1 -> node165;
node166 [label="Pre_CollapsedDataParallel_2_8178", push="1620", pop="1620", peek="1620", pushType="float", popType="float", peekType="float", codeSize="50 b", stackSize="96 b", work="1101"];
node165 -> node166;
node167 [label="WEIGHTED_ROUND_ROBIN_Splitter_8353", push="1620", pop="1620", peek="0", pushType="float", popType="float", peekType="void", codeSize="168 b", stackSize="320 b", work="0"];
node166 -> node167;
node168 [label="Post_CollapsedDataParallel_1_8355", push="180", pop="180", peek="180", pushType="float", popType="float", peekType="float", codeSize="54 b", stackSize="96 b", work="143"];
node167 -> node168;
node169 [label="Post_CollapsedDataParallel_1_8356", push="180", pop="180", peek="180", pushType="float", popType="float", peekType="float", codeSize="54 b", stackSize="96 b", work="143"];
node167 -> node169;
node170 [label="Post_CollapsedDataParallel_1_8357", push="180", pop="180", peek="180", pushType="float", popType="float", peekType="float", codeSize="54 b", stackSize="96 b", work="143"];
node167 -> node170;
node171 [label="Post_CollapsedDataParallel_1_8358", push="180", pop="180", peek="180", pushType="float", popType="float", peekType="float", codeSize="54 b", stackSize="96 b", work="143"];
node167 -> node171;
node172 [label="Post_CollapsedDataParallel_1_8359", push="180", pop="180", peek="180", pushType="float", popType="float", peekType="float", codeSize="54 b", stackSize="96 b", work="143"];
node167 -> node172;
node173 [label="Post_CollapsedDataParallel_1_8360", push="180", pop="180", peek="180", pushType="float", popType="float", peekType="float", codeSize="54 b", stackSize="96 b", work="143"];
node167 -> node173;
node174 [label="Post_CollapsedDataParallel_1_8361", push="180", pop="180", peek="180", pushType="float", popType="float", peekType="float", codeSize="54 b", stackSize="96 b", work="143"];
node167 -> node174;
node175 [label="Post_CollapsedDataParallel_1_8362", push="180", pop="180", peek="180", pushType="float", popType="float", peekType="float", codeSize="54 b", stackSize="96 b", work="143"];
node167 -> node175;
node176 [label="Post_CollapsedDataParallel_1_8363", push="180", pop="180", peek="180", pushType="float", popType="float", peekType="float", codeSize="54 b", stackSize="96 b", work="143"];
node167 -> node176;
node177 [label="WEIGHTED_ROUND_ROBIN_Joiner_8354", push="1620", pop="1620", peek="0", pushType="float", popType="float", peekType="void", codeSize="168 b", stackSize="320 b", work="0"];
node168 -> node177;
node169 -> node177;
node170 -> node177;
node171 -> node177;
node172 -> node177;
node173 -> node177;
node174 -> node177;
node175 -> node177;
node176 -> node177;
node178 [label="Identity_8075", push="1620", pop="1620", peek="1620", pushType="float", popType="float", peekType="float", codeSize="12 b", stackSize="32 b", work="6"];
node177 -> node178;
node179 [label="WEIGHTED_ROUND_ROBIN_Splitter_8364", push="1620", pop="1620", peek="0", pushType="float", popType="float", peekType="void", codeSize="60 b", stackSize="128 b", work="0"];
node178 -> node179;
node180 [label="Pre_CollapsedDataParallel_2_8366", push="540", pop="540", peek="540", pushType="float", popType="float", peekType="float", codeSize="50 b", stackSize="96 b", work="369"];
node179 -> node180;
node181 [label="Pre_CollapsedDataParallel_2_8367", push="540", pop="540", peek="540", pushType="float", popType="float", peekType="float", codeSize="50 b", stackSize="96 b", work="369"];
node179 -> node181;
node182 [label="Pre_CollapsedDataParallel_2_8368", push="540", pop="540", peek="540", pushType="float", popType="float", peekType="float", codeSize="50 b", stackSize="96 b", work="369"];
node179 -> node182;
node183 [label="WEIGHTED_ROUND_ROBIN_Joiner_8365", push="1620", pop="1620", peek="0", pushType="float", popType="float", peekType="void", codeSize="60 b", stackSize="128 b", work="0"];
node180 -> node183;
node181 -> node183;
node182 -> node183;
node184 [label="WEIGHTED_ROUND_ROBIN_Splitter_8369", push="1620", pop="1620", peek="0", pushType="float", popType="float", peekType="void", codeSize="1302 b", stackSize="32 b", work="0"];
node183 -> node184;
node185 [label="AutoGeneratedExpander_8371", push="45", pop="15", peek="15", pushType="float", popType="float", peekType="float", codeSize="32 b", stackSize="32 b", work="27"];
node184 -> node185;
node186 [label="AutoGeneratedExpander_8372", push="45", pop="15", peek="15", pushType="float", popType="float", peekType="float", codeSize="32 b", stackSize="32 b", work="27"];
node184 -> node186;
node187 [label="AutoGeneratedExpander_8373", push="45", pop="15", peek="15", pushType="float", popType="float", peekType="float", codeSize="32 b", stackSize="32 b", work="27"];
node184 -> node187;
node188 [label="AutoGeneratedExpander_8374", push="45", pop="15", peek="15", pushType="float", popType="float", peekType="float", codeSize="32 b", stackSize="32 b", work="27"];
node184 -> node188;
node189 [label="AutoGeneratedExpander_8375", push="45", pop="15", peek="15", pushType="float", popType="float", peekType="float", codeSize="32 b", stackSize="32 b", work="27"];
node184 -> node189;
node190 [label="AutoGeneratedExpander_8376", push="45", pop="15", peek="15", pushType="float", popType="float", peekType="float", codeSize="32 b", stackSize="32 b", work="27"];
node184 -> node190;
node191 [label="AutoGeneratedExpander_8377", push="45", pop="15", peek="15", pushType="float", popType="float", peekType="float", codeSize="32 b", stackSize="32 b", work="27"];
node184 -> node191;
node192 [label="AutoGeneratedExpander_8378", push="45", pop="15", peek="15", pushType="float", popType="float", peekType="float", codeSize="32 b", stackSize="32 b", work="27"];
node184 -> node192;
node193 [label="AutoGeneratedExpander_8379", push="45", pop="15", peek="15", pushType="float", popType="float", peekType="float", codeSize="32 b", stackSize="32 b", work="27"];
node184 -> node193;
node194 [label="AutoGeneratedExpander_8380", push="45", pop="15", peek="15", pushType="float", popType="float", peekType="float", codeSize="32 b", stackSize="32 b", work="27"];
node184 -> node194;
node195 [label="AutoGeneratedExpander_8381", push="45", pop="15", peek="15", pushType="float", popType="float", peekType="float", codeSize="32 b", stackSize="32 b", work="27"];
node184 -> node195;
node196 [label="AutoGeneratedExpander_8382", push="45", pop="15", peek="15", pushType="float", popType="float", peekType="float", codeSize="32 b", stackSize="32 b", work="27"];
node184 -> node196;
node197 [label="AutoGeneratedExpander_8383", push="45", pop="15", peek="15", pushType="float", popType="float", peekType="float", codeSize="32 b", stackSize="32 b", work="27"];
node184 -> node197;
node198 [label="AutoGeneratedExpander_8384", push="45", pop="15", peek="15", pushType="float", popType="float", peekType="float", codeSize="32 b", stackSize="32 b", work="27"];
node184 -> node198;
node199 [label="AutoGeneratedExpander_8385", push="45", pop="15", peek="15", pushType="float", popType="float", peekType="float", codeSize="32 b", stackSize="32 b", work="27"];
node184 -> node199;
node200 [label="AutoGeneratedExpander_8386", push="45", pop="15", peek="15", pushType="float", popType="float", peekType="float", codeSize="32 b", stackSize="32 b", work="27"];
node184 -> node200;
node201 [label="AutoGeneratedExpander_8387", push="45", pop="15", peek="15", pushType="float", popType="float", peekType="float", codeSize="32 b", stackSize="32 b", work="27"];
node184 -> node201;
node202 [label="AutoGeneratedExpander_8388", push="45", pop="15", peek="15", pushType="float", popType="float", peekType="float", codeSize="32 b", stackSize="32 b", work="27"];
node184 -> node202;
node203 [label="AutoGeneratedExpander_8389", push="45", pop="15", peek="15", pushType="float", popType="float", peekType="float", codeSize="32 b", stackSize="32 b", work="27"];
node184 -> node203;
node204 [label="AutoGeneratedExpander_8390", push="45", pop="15", peek="15", pushType="float", popType="float", peekType="float", codeSize="32 b", stackSize="32 b", work="27"];
node184 -> node204;
node205 [label="AutoGeneratedExpander_8391", push="45", pop="15", peek="15", pushType="float", popType="float", peekType="float", codeSize="32 b", stackSize="32 b", work="27"];
node184 -> node205;
node206 [label="AutoGeneratedExpander_8392", push="45", pop="15", peek="15", pushType="float", popType="float", peekType="float", codeSize="32 b", stackSize="32 b", work="27"];
node184 -> node206;
node207 [label="AutoGeneratedExpander_8393", push="45", pop="15", peek="15", pushType="float", popType="float", peekType="float", codeSize="32 b", stackSize="32 b", work="27"];
node184 -> node207;
node208 [label="AutoGeneratedExpander_8394", push="45", pop="15", peek="15", pushType="float", popType="float", peekType="float", codeSize="32 b", stackSize="32 b", work="27"];
node184 -> node208;
node209 [label="AutoGeneratedExpander_8395", push="45", pop="15", peek="15", pushType="float", popType="float", peekType="float", codeSize="32 b", stackSize="32 b", work="27"];
node184 -> node209;
node210 [label="AutoGeneratedExpander_8396", push="45", pop="15", peek="15", pushType="float", popType="float", peekType="float", codeSize="32 b", stackSize="32 b", work="27"];
node184 -> node210;
node211 [label="AutoGeneratedExpander_8397", push="45", pop="15", peek="15", pushType="float", popType="float", peekType="float", codeSize="32 b", stackSize="32 b", work="27"];
node184 -> node211;
node212 [label="AutoGeneratedExpander_8398", push="45", pop="15", peek="15", pushType="float", popType="float", peekType="float", codeSize="32 b", stackSize="32 b", work="27"];
node184 -> node212;
node213 [label="AutoGeneratedExpander_8399", push="45", pop="15", peek="15", pushType="float", popType="float", peekType="float", codeSize="32 b", stackSize="32 b", work="27"];
node184 -> node213;
node214 [label="AutoGeneratedExpander_8400", push="45", pop="15", peek="15", pushType="float", popType="float", peekType="float", codeSize="32 b", stackSize="32 b", work="27"];
node184 -> node214;
node215 [label="AutoGeneratedExpander_8401", push="45", pop="15", peek="15", pushType="float", popType="float", peekType="float", codeSize="32 b", stackSize="32 b", work="27"];
node184 -> node215;
node216 [label="AutoGeneratedExpander_8402", push="45", pop="15", peek="15", pushType="float", popType="float", peekType="float", codeSize="32 b", stackSize="32 b", work="27"];
node184 -> node216;
node217 [label="AutoGeneratedExpander_8403", push="45", pop="15", peek="15", pushType="float", popType="float", peekType="float", codeSize="32 b", stackSize="32 b", work="27"];
node184 -> node217;
node218 [label="AutoGeneratedExpander_8404", push="45", pop="15", peek="15", pushType="float", popType="float", peekType="float", codeSize="32 b", stackSize="32 b", work="27"];
node184 -> node218;
node219 [label="AutoGeneratedExpander_8405", push="45", pop="15", peek="15", pushType="float", popType="float", peekType="float", codeSize="32 b", stackSize="32 b", work="27"];
node184 -> node219;
node220 [label="AutoGeneratedExpander_8406", push="45", pop="15", peek="15", pushType="float", popType="float", peekType="float", codeSize="32 b", stackSize="32 b", work="27"];
node184 -> node220;
node221 [label="AutoGeneratedExpander_8407", push="45", pop="15", peek="15", pushType="float", popType="float", peekType="float", codeSize="32 b", stackSize="32 b", work="27"];
node184 -> node221;
node222 [label="AutoGeneratedExpander_8408", push="45", pop="15", peek="15", pushType="float", popType="float", peekType="float", codeSize="32 b", stackSize="32 b", work="27"];
node184 -> node222;
node223 [label="AutoGeneratedExpander_8409", push="45", pop="15", peek="15", pushType="float", popType="float", peekType="float", codeSize="32 b", stackSize="32 b", work="27"];
node184 -> node223;
node224 [label="AutoGeneratedExpander_8410", push="45", pop="15", peek="15", pushType="float", popType="float", peekType="float", codeSize="32 b", stackSize="32 b", work="27"];
node184 -> node224;
node225 [label="AutoGeneratedExpander_8411", push="45", pop="15", peek="15", pushType="float", popType="float", peekType="float", codeSize="32 b", stackSize="32 b", work="27"];
node184 -> node225;
node226 [label="AutoGeneratedExpander_8412", push="45", pop="15", peek="15", pushType="float", popType="float", peekType="float", codeSize="32 b", stackSize="32 b", work="27"];
node184 -> node226;
node227 [label="AutoGeneratedExpander_8413", push="45", pop="15", peek="15", pushType="float", popType="float", peekType="float", codeSize="32 b", stackSize="32 b", work="27"];
node184 -> node227;
node228 [label="AutoGeneratedExpander_8414", push="45", pop="15", peek="15", pushType="float", popType="float", peekType="float", codeSize="32 b", stackSize="32 b", work="27"];
node184 -> node228;
node229 [label="AutoGeneratedExpander_8415", push="45", pop="15", peek="15", pushType="float", popType="float", peekType="float", codeSize="32 b", stackSize="32 b", work="27"];
node184 -> node229;
node230 [label="AutoGeneratedExpander_8416", push="45", pop="15", peek="15", pushType="float", popType="float", peekType="float", codeSize="32 b", stackSize="32 b", work="27"];
node184 -> node230;
node231 [label="AutoGeneratedExpander_8417", push="45", pop="15", peek="15", pushType="float", popType="float", peekType="float", codeSize="32 b", stackSize="32 b", work="27"];
node184 -> node231;
node232 [label="AutoGeneratedExpander_8418", push="45", pop="15", peek="15", pushType="float", popType="float", peekType="float", codeSize="32 b", stackSize="32 b", work="27"];
node184 -> node232;
node233 [label="AutoGeneratedExpander_8419", push="45", pop="15", peek="15", pushType="float", popType="float", peekType="float", codeSize="32 b", stackSize="32 b", work="27"];
node184 -> node233;
node234 [label="AutoGeneratedExpander_8420", push="45", pop="15", peek="15", pushType="float", popType="float", peekType="float", codeSize="32 b", stackSize="32 b", work="27"];
node184 -> node234;
node235 [label="AutoGeneratedExpander_8421", push="45", pop="15", peek="15", pushType="float", popType="float", peekType="float", codeSize="32 b", stackSize="32 b", work="27"];
node184 -> node235;
node236 [label="AutoGeneratedExpander_8422", push="45", pop="15", peek="15", pushType="float", popType="float", peekType="float", codeSize="32 b", stackSize="32 b", work="27"];
node184 -> node236;
node237 [label="AutoGeneratedExpander_8423", push="45", pop="15", peek="15", pushType="float", popType="float", peekType="float", codeSize="32 b", stackSize="32 b", work="27"];
node184 -> node237;
node238 [label="AutoGeneratedExpander_8424", push="45", pop="15", peek="15", pushType="float", popType="float", peekType="float", codeSize="32 b", stackSize="32 b", work="27"];
node184 -> node238;
node239 [label="AutoGeneratedExpander_8425", push="45", pop="15", peek="15", pushType="float", popType="float", peekType="float", codeSize="32 b", stackSize="32 b", work="27"];
node184 -> node239;
node240 [label="AutoGeneratedExpander_8426", push="45", pop="15", peek="15", pushType="float", popType="float", peekType="float", codeSize="32 b", stackSize="32 b", work="27"];
node184 -> node240;
node241 [label="AutoGeneratedExpander_8427", push="45", pop="15", peek="15", pushType="float", popType="float", peekType="float", codeSize="32 b", stackSize="32 b", work="27"];
node184 -> node241;
node242 [label="AutoGeneratedExpander_8428", push="45", pop="15", peek="15", pushType="float", popType="float", peekType="float", codeSize="32 b", stackSize="32 b", work="27"];
node184 -> node242;
node243 [label="AutoGeneratedExpander_8429", push="45", pop="15", peek="15", pushType="float", popType="float", peekType="float", codeSize="32 b", stackSize="32 b", work="27"];
node184 -> node243;
node244 [label="AutoGeneratedExpander_8430", push="45", pop="15", peek="15", pushType="float", popType="float", peekType="float", codeSize="32 b", stackSize="32 b", work="27"];
node184 -> node244;
node245 [label="AutoGeneratedExpander_8431", push="45", pop="15", peek="15", pushType="float", popType="float", peekType="float", codeSize="32 b", stackSize="32 b", work="27"];
node184 -> node245;
node246 [label="AutoGeneratedExpander_8432", push="45", pop="15", peek="15", pushType="float", popType="float", peekType="float", codeSize="32 b", stackSize="32 b", work="27"];
node184 -> node246;
node247 [label="AutoGeneratedExpander_8433", push="45", pop="15", peek="15", pushType="float", popType="float", peekType="float", codeSize="32 b", stackSize="32 b", work="27"];
node184 -> node247;
node248 [label="AutoGeneratedExpander_8434", push="45", pop="15", peek="15", pushType="float", popType="float", peekType="float", codeSize="32 b", stackSize="32 b", work="27"];
node184 -> node248;
node249 [label="AutoGeneratedExpander_8435", push="45", pop="15", peek="15", pushType="float", popType="float", peekType="float", codeSize="32 b", stackSize="32 b", work="27"];
node184 -> node249;
node250 [label="AutoGeneratedExpander_8436", push="45", pop="15", peek="15", pushType="float", popType="float", peekType="float", codeSize="32 b", stackSize="32 b", work="27"];
node184 -> node250;
node251 [label="AutoGeneratedExpander_8437", push="45", pop="15", peek="15", pushType="float", popType="float", peekType="float", codeSize="32 b", stackSize="32 b", work="27"];
node184 -> node251;
node252 [label="AutoGeneratedExpander_8438", push="45", pop="15", peek="15", pushType="float", popType="float", peekType="float", codeSize="32 b", stackSize="32 b", work="27"];
node184 -> node252;
node253 [label="AutoGeneratedExpander_8439", push="45", pop="15", peek="15", pushType="float", popType="float", peekType="float", codeSize="32 b", stackSize="32 b", work="27"];
node184 -> node253;
node254 [label="AutoGeneratedExpander_8440", push="45", pop="15", peek="15", pushType="float", popType="float", peekType="float", codeSize="32 b", stackSize="32 b", work="27"];
node184 -> node254;
node255 [label="AutoGeneratedExpander_8441", push="45", pop="15", peek="15", pushType="float", popType="float", peekType="float", codeSize="32 b", stackSize="32 b", work="27"];
node184 -> node255;
node256 [label="AutoGeneratedExpander_8442", push="45", pop="15", peek="15", pushType="float", popType="float", peekType="float", codeSize="32 b", stackSize="32 b", work="27"];
node184 -> node256;
node257 [label="AutoGeneratedExpander_8443", push="45", pop="15", peek="15", pushType="float", popType="float", peekType="float", codeSize="32 b", stackSize="32 b", work="27"];
node184 -> node257;
node258 [label="AutoGeneratedExpander_8444", push="45", pop="15", peek="15", pushType="float", popType="float", peekType="float", codeSize="32 b", stackSize="32 b", work="27"];
node184 -> node258;
node259 [label="AutoGeneratedExpander_8445", push="45", pop="15", peek="15", pushType="float", popType="float", peekType="float", codeSize="32 b", stackSize="32 b", work="27"];
node184 -> node259;
node260 [label="AutoGeneratedExpander_8446", push="45", pop="15", peek="15", pushType="float", popType="float", peekType="float", codeSize="32 b", stackSize="32 b", work="27"];
node184 -> node260;
node261 [label="AutoGeneratedExpander_8447", push="45", pop="15", peek="15", pushType="float", popType="float", peekType="float", codeSize="32 b", stackSize="32 b", work="27"];
node184 -> node261;
node262 [label="AutoGeneratedExpander_8448", push="45", pop="15", peek="15", pushType="float", popType="float", peekType="float", codeSize="32 b", stackSize="32 b", work="27"];
node184 -> node262;
node263 [label="AutoGeneratedExpander_8449", push="45", pop="15", peek="15", pushType="float", popType="float", peekType="float", codeSize="32 b", stackSize="32 b", work="27"];
node184 -> node263;
node264 [label="AutoGeneratedExpander_8450", push="45", pop="15", peek="15", pushType="float", popType="float", peekType="float", codeSize="32 b", stackSize="32 b", work="27"];
node184 -> node264;
node265 [label="AutoGeneratedExpander_8451", push="45", pop="15", peek="15", pushType="float", popType="float", peekType="float", codeSize="32 b", stackSize="32 b", work="27"];
node184 -> node265;
node266 [label="AutoGeneratedExpander_8452", push="45", pop="15", peek="15", pushType="float", popType="float", peekType="float", codeSize="32 b", stackSize="32 b", work="27"];
node184 -> node266;
node267 [label="AutoGeneratedExpander_8453", push="45", pop="15", peek="15", pushType="float", popType="float", peekType="float", codeSize="32 b", stackSize="32 b", work="27"];
node184 -> node267;
node268 [label="AutoGeneratedExpander_8454", push="45", pop="15", peek="15", pushType="float", popType="float", peekType="float", codeSize="32 b", stackSize="32 b", work="27"];
node184 -> node268;
node269 [label="AutoGeneratedExpander_8455", push="45", pop="15", peek="15", pushType="float", popType="float", peekType="float", codeSize="32 b", stackSize="32 b", work="27"];
node184 -> node269;
node270 [label="AutoGeneratedExpander_8456", push="45", pop="15", peek="15", pushType="float", popType="float", peekType="float", codeSize="32 b", stackSize="32 b", work="27"];
node184 -> node270;
node271 [label="AutoGeneratedExpander_8457", push="45", pop="15", peek="15", pushType="float", popType="float", peekType="float", codeSize="32 b", stackSize="32 b", work="27"];
node184 -> node271;
node272 [label="AutoGeneratedExpander_8458", push="45", pop="15", peek="15", pushType="float", popType="float", peekType="float", codeSize="32 b", stackSize="32 b", work="27"];
node184 -> node272;
node273 [label="AutoGeneratedExpander_8459", push="45", pop="15", peek="15", pushType="float", popType="float", peekType="float", codeSize="32 b", stackSize="32 b", work="27"];
node184 -> node273;
node274 [label="AutoGeneratedExpander_8460", push="45", pop="15", peek="15", pushType="float", popType="float", peekType="float", codeSize="32 b", stackSize="32 b", work="27"];
node184 -> node274;
node275 [label="AutoGeneratedExpander_8461", push="45", pop="15", peek="15", pushType="float", popType="float", peekType="float", codeSize="32 b", stackSize="32 b", work="27"];
node184 -> node275;
node276 [label="AutoGeneratedExpander_8462", push="45", pop="15", peek="15", pushType="float", popType="float", peekType="float", codeSize="32 b", stackSize="32 b", work="27"];
node184 -> node276;
node277 [label="AutoGeneratedExpander_8463", push="45", pop="15", peek="15", pushType="float", popType="float", peekType="float", codeSize="32 b", stackSize="32 b", work="27"];
node184 -> node277;
node278 [label="AutoGeneratedExpander_8464", push="45", pop="15", peek="15", pushType="float", popType="float", peekType="float", codeSize="32 b", stackSize="32 b", work="27"];
node184 -> node278;
node279 [label="AutoGeneratedExpander_8465", push="45", pop="15", peek="15", pushType="float", popType="float", peekType="float", codeSize="32 b", stackSize="32 b", work="27"];
node184 -> node279;
node280 [label="AutoGeneratedExpander_8466", push="45", pop="15", peek="15", pushType="float", popType="float", peekType="float", codeSize="32 b", stackSize="32 b", work="27"];
node184 -> node280;
node281 [label="AutoGeneratedExpander_8467", push="45", pop="15", peek="15", pushType="float", popType="float", peekType="float", codeSize="32 b", stackSize="32 b", work="27"];
node184 -> node281;
node282 [label="AutoGeneratedExpander_8468", push="45", pop="15", peek="15", pushType="float", popType="float", peekType="float", codeSize="32 b", stackSize="32 b", work="27"];
node184 -> node282;
node283 [label="AutoGeneratedExpander_8469", push="45", pop="15", peek="15", pushType="float", popType="float", peekType="float", codeSize="32 b", stackSize="32 b", work="27"];
node184 -> node283;
node284 [label="AutoGeneratedExpander_8470", push="45", pop="15", peek="15", pushType="float", popType="float", peekType="float", codeSize="32 b", stackSize="32 b", work="27"];
node184 -> node284;
node285 [label="AutoGeneratedExpander_8471", push="45", pop="15", peek="15", pushType="float", popType="float", peekType="float", codeSize="32 b", stackSize="32 b", work="27"];
node184 -> node285;
node286 [label="AutoGeneratedExpander_8472", push="45", pop="15", peek="15", pushType="float", popType="float", peekType="float", codeSize="32 b", stackSize="32 b", work="27"];
node184 -> node286;
node287 [label="AutoGeneratedExpander_8473", push="45", pop="15", peek="15", pushType="float", popType="float", peekType="float", codeSize="32 b", stackSize="32 b", work="27"];
node184 -> node287;
node288 [label="AutoGeneratedExpander_8474", push="45", pop="15", peek="15", pushType="float", popType="float", peekType="float", codeSize="32 b", stackSize="32 b", work="27"];
node184 -> node288;
node289 [label="AutoGeneratedExpander_8475", push="45", pop="15", peek="15", pushType="float", popType="float", peekType="float", codeSize="32 b", stackSize="32 b", work="27"];
node184 -> node289;
node290 [label="AutoGeneratedExpander_8476", push="45", pop="15", peek="15", pushType="float", popType="float", peekType="float", codeSize="32 b", stackSize="32 b", work="27"];
node184 -> node290;
node291 [label="AutoGeneratedExpander_8477", push="45", pop="15", peek="15", pushType="float", popType="float", peekType="float", codeSize="32 b", stackSize="32 b", work="27"];
node184 -> node291;
node292 [label="AutoGeneratedExpander_8478", push="45", pop="15", peek="15", pushType="float", popType="float", peekType="float", codeSize="32 b", stackSize="32 b", work="27"];
node184 -> node292;
node293 [label="WEIGHTED_ROUND_ROBIN_Joiner_8370", push="4860", pop="4860", peek="0", pushType="float", popType="float", peekType="void", codeSize="1950 b", stackSize="3488 b", work="0"];
node185 -> node293;
node186 -> node293;
node187 -> node293;
node188 -> node293;
node189 -> node293;
node190 -> node293;
node191 -> node293;
node192 -> node293;
node193 -> node293;
node194 -> node293;
node195 -> node293;
node196 -> node293;
node197 -> node293;
node198 -> node293;
node199 -> node293;
node200 -> node293;
node201 -> node293;
node202 -> node293;
node203 -> node293;
node204 -> node293;
node205 -> node293;
node206 -> node293;
node207 -> node293;
node208 -> node293;
node209 -> node293;
node210 -> node293;
node211 -> node293;
node212 -> node293;
node213 -> node293;
node214 -> node293;
node215 -> node293;
node216 -> node293;
node217 -> node293;
node218 -> node293;
node219 -> node293;
node220 -> node293;
node221 -> node293;
node222 -> node293;
node223 -> node293;
node224 -> node293;
node225 -> node293;
node226 -> node293;
node227 -> node293;
node228 -> node293;
node229 -> node293;
node230 -> node293;
node231 -> node293;
node232 -> node293;
node233 -> node293;
node234 -> node293;
node235 -> node293;
node236 -> node293;
node237 -> node293;
node238 -> node293;
node239 -> node293;
node240 -> node293;
node241 -> node293;
node242 -> node293;
node243 -> node293;
node244 -> node293;
node245 -> node293;
node246 -> node293;
node247 -> node293;
node248 -> node293;
node249 -> node293;
node250 -> node293;
node251 -> node293;
node252 -> node293;
node253 -> node293;
node254 -> node293;
node255 -> node293;
node256 -> node293;
node257 -> node293;
node258 -> node293;
node259 -> node293;
node260 -> node293;
node261 -> node293;
node262 -> node293;
node263 -> node293;
node264 -> node293;
node265 -> node293;
node266 -> node293;
node267 -> node293;
node268 -> node293;
node269 -> node293;
node270 -> node293;
node271 -> node293;
node272 -> node293;
node273 -> node293;
node274 -> node293;
node275 -> node293;
node276 -> node293;
node277 -> node293;
node278 -> node293;
node279 -> node293;
node280 -> node293;
node281 -> node293;
node282 -> node293;
node283 -> node293;
node284 -> node293;
node285 -> node293;
node286 -> node293;
node287 -> node293;
node288 -> node293;
node289 -> node293;
node290 -> node293;
node291 -> node293;
node292 -> node293;
node294 [label="Identity_8078", push="4860", pop="4860", peek="4860", pushType="float", popType="float", peekType="float", codeSize="12 b", stackSize="32 b", work="6"];
node293 -> node294;
node295 [label="Pre_CollapsedDataParallel_2_8181", push="4860", pop="4860", peek="4860", pushType="float", popType="float", peekType="float", codeSize="50 b", stackSize="96 b", work="3249"];
node294 -> node295;
node296 [label="WEIGHTED_ROUND_ROBIN_Joiner_8185", push="11340", pop="11340", peek="0", pushType="float", popType="float", peekType="void", codeSize="42 b", stackSize="96 b", work="0"];
node164 -> node296;
node295 -> node296;
node297 [label="WEIGHTED_ROUND_ROBIN_Splitter_8479", push="11340", pop="11340", peek="0", pushType="float", popType="float", peekType="void", codeSize="492 b", stackSize="896 b", work="0"];
node296 -> node297;
node298 [label="BlockMultiply_8481", push="180", pop="420", peek="420", pushType="float", popType="float", peekType="float", codeSize="102 b", stackSize="256 b", work="1024"];
node297 -> node298;
node299 [label="BlockMultiply_8482", push="180", pop="420", peek="420", pushType="float", popType="float", peekType="float", codeSize="102 b", stackSize="256 b", work="1024"];
node297 -> node299;
node300 [label="BlockMultiply_8483", push="180", pop="420", peek="420", pushType="float", popType="float", peekType="float", codeSize="102 b", stackSize="256 b", work="1024"];
node297 -> node300;
node301 [label="BlockMultiply_8484", push="180", pop="420", peek="420", pushType="float", popType="float", peekType="float", codeSize="102 b", stackSize="256 b", work="1024"];
node297 -> node301;
node302 [label="BlockMultiply_8485", push="180", pop="420", peek="420", pushType="float", popType="float", peekType="float", codeSize="102 b", stackSize="256 b", work="1024"];
node297 -> node302;
node303 [label="BlockMultiply_8486", push="180", pop="420", peek="420", pushType="float", popType="float", peekType="float", codeSize="102 b", stackSize="256 b", work="1024"];
node297 -> node303;
node304 [label="BlockMultiply_8487", push="180", pop="420", peek="420", pushType="float", popType="float", peekType="float", codeSize="102 b", stackSize="256 b", work="1024"];
node297 -> node304;
node305 [label="BlockMultiply_8488", push="180", pop="420", peek="420", pushType="float", popType="float", peekType="float", codeSize="102 b", stackSize="256 b", work="1024"];
node297 -> node305;
node306 [label="BlockMultiply_8489", push="180", pop="420", peek="420", pushType="float", popType="float", peekType="float", codeSize="102 b", stackSize="256 b", work="1024"];
node297 -> node306;
node307 [label="BlockMultiply_8490", push="180", pop="420", peek="420", pushType="float", popType="float", peekType="float", codeSize="102 b", stackSize="256 b", work="1024"];
node297 -> node307;
node308 [label="BlockMultiply_8491", push="180", pop="420", peek="420", pushType="float", popType="float", peekType="float", codeSize="102 b", stackSize="256 b", work="1024"];
node297 -> node308;
node309 [label="BlockMultiply_8492", push="180", pop="420", peek="420", pushType="float", popType="float", peekType="float", codeSize="102 b", stackSize="256 b", work="1024"];
node297 -> node309;
node310 [label="BlockMultiply_8493", push="180", pop="420", peek="420", pushType="float", popType="float", peekType="float", codeSize="102 b", stackSize="256 b", work="1024"];
node297 -> node310;
node311 [label="BlockMultiply_8494", push="180", pop="420", peek="420", pushType="float", popType="float", peekType="float", codeSize="102 b", stackSize="256 b", work="1024"];
node297 -> node311;
node312 [label="BlockMultiply_8495", push="180", pop="420", peek="420", pushType="float", popType="float", peekType="float", codeSize="102 b", stackSize="256 b", work="1024"];
node297 -> node312;
node313 [label="BlockMultiply_8496", push="180", pop="420", peek="420", pushType="float", popType="float", peekType="float", codeSize="102 b", stackSize="256 b", work="1024"];
node297 -> node313;
node314 [label="BlockMultiply_8497", push="180", pop="420", peek="420", pushType="float", popType="float", peekType="float", codeSize="102 b", stackSize="256 b", work="1024"];
node297 -> node314;
node315 [label="BlockMultiply_8498", push="180", pop="420", peek="420", pushType="float", popType="float", peekType="float", codeSize="102 b", stackSize="256 b", work="1024"];
node297 -> node315;
node316 [label="BlockMultiply_8499", push="180", pop="420", peek="420", pushType="float", popType="float", peekType="float", codeSize="102 b", stackSize="256 b", work="1024"];
node297 -> node316;
node317 [label="BlockMultiply_8500", push="180", pop="420", peek="420", pushType="float", popType="float", peekType="float", codeSize="102 b", stackSize="256 b", work="1024"];
node297 -> node317;
node318 [label="BlockMultiply_8501", push="180", pop="420", peek="420", pushType="float", popType="float", peekType="float", codeSize="102 b", stackSize="256 b", work="1024"];
node297 -> node318;
node319 [label="BlockMultiply_8502", push="180", pop="420", peek="420", pushType="float", popType="float", peekType="float", codeSize="102 b", stackSize="256 b", work="1024"];
node297 -> node319;
node320 [label="BlockMultiply_8503", push="180", pop="420", peek="420", pushType="float", popType="float", peekType="float", codeSize="102 b", stackSize="256 b", work="1024"];
node297 -> node320;
node321 [label="BlockMultiply_8504", push="180", pop="420", peek="420", pushType="float", popType="float", peekType="float", codeSize="102 b", stackSize="256 b", work="1024"];
node297 -> node321;
node322 [label="BlockMultiply_8505", push="180", pop="420", peek="420", pushType="float", popType="float", peekType="float", codeSize="102 b", stackSize="256 b", work="1024"];
node297 -> node322;
node323 [label="BlockMultiply_8506", push="180", pop="420", peek="420", pushType="float", popType="float", peekType="float", codeSize="102 b", stackSize="256 b", work="1024"];
node297 -> node323;
node324 [label="BlockMultiply_8507", push="180", pop="420", peek="420", pushType="float", popType="float", peekType="float", codeSize="102 b", stackSize="256 b", work="1024"];
node297 -> node324;
node325 [label="WEIGHTED_ROUND_ROBIN_Joiner_8480", push="4860", pop="4860", peek="0", pushType="float", popType="float", peekType="void", codeSize="492 b", stackSize="896 b", work="0"];
node298 -> node325;
node299 -> node325;
node300 -> node325;
node301 -> node325;
node302 -> node325;
node303 -> node325;
node304 -> node325;
node305 -> node325;
node306 -> node325;
node307 -> node325;
node308 -> node325;
node309 -> node325;
node310 -> node325;
node311 -> node325;
node312 -> node325;
node313 -> node325;
node314 -> node325;
node315 -> node325;
node316 -> node325;
node317 -> node325;
node318 -> node325;
node319 -> node325;
node320 -> node325;
node321 -> node325;
node322 -> node325;
node323 -> node325;
node324 -> node325;
node326 [label="BlockAdd_8082", push="1620", pop="4860", peek="4860", pushType="float", popType="float", peekType="float", codeSize="189 b", stackSize="96 b", work="468"];
node325 -> node326;
node327 [label="WEIGHTED_ROUND_ROBIN_Splitter_8508", push="1620", pop="1620", peek="0", pushType="float", popType="float", peekType="void", codeSize="168 b", stackSize="320 b", work="0"];
node326 -> node327;
node328 [label="Post_CollapsedDataParallel_1_8510", push="180", pop="180", peek="180", pushType="float", popType="float", peekType="float", codeSize="54 b", stackSize="96 b", work="141"];
node327 -> node328;
node329 [label="Post_CollapsedDataParallel_1_8511", push="180", pop="180", peek="180", pushType="float", popType="float", peekType="float", codeSize="54 b", stackSize="96 b", work="141"];
node327 -> node329;
node330 [label="Post_CollapsedDataParallel_1_8512", push="180", pop="180", peek="180", pushType="float", popType="float", peekType="float", codeSize="54 b", stackSize="96 b", work="141"];
node327 -> node330;
node331 [label="Post_CollapsedDataParallel_1_8513", push="180", pop="180", peek="180", pushType="float", popType="float", peekType="float", codeSize="54 b", stackSize="96 b", work="141"];
node327 -> node331;
node332 [label="Post_CollapsedDataParallel_1_8514", push="180", pop="180", peek="180", pushType="float", popType="float", peekType="float", codeSize="54 b", stackSize="96 b", work="141"];
node327 -> node332;
node333 [label="Post_CollapsedDataParallel_1_8515", push="180", pop="180", peek="180", pushType="float", popType="float", peekType="float", codeSize="54 b", stackSize="96 b", work="141"];
node327 -> node333;
node334 [label="Post_CollapsedDataParallel_1_8516", push="180", pop="180", peek="180", pushType="float", popType="float", peekType="float", codeSize="54 b", stackSize="96 b", work="141"];
node327 -> node334;
node335 [label="Post_CollapsedDataParallel_1_8517", push="180", pop="180", peek="180", pushType="float", popType="float", peekType="float", codeSize="54 b", stackSize="96 b", work="141"];
node327 -> node335;
node336 [label="Post_CollapsedDataParallel_1_8518", push="180", pop="180", peek="180", pushType="float", popType="float", peekType="float", codeSize="54 b", stackSize="96 b", work="141"];
node327 -> node336;
node337 [label="WEIGHTED_ROUND_ROBIN_Joiner_8509", push="1620", pop="1620", peek="0", pushType="float", popType="float", peekType="void", codeSize="168 b", stackSize="320 b", work="0"];
node328 -> node337;
node329 -> node337;
node330 -> node337;
node331 -> node337;
node332 -> node337;
node333 -> node337;
node334 -> node337;
node335 -> node337;
node336 -> node337;
node338 [label="Identity_8084", push="1620", pop="1620", peek="1620", pushType="float", popType="float", peekType="float", codeSize="12 b", stackSize="32 b", work="6"];
node337 -> node338;
node339 [label="WEIGHTED_ROUND_ROBIN_Splitter_8519", push="1620", pop="1620", peek="0", pushType="float", popType="float", peekType="void", codeSize="60 b", stackSize="128 b", work="0"];
node338 -> node339;
node340 [label="Pre_CollapsedDataParallel_2_8521", push="540", pop="540", peek="540", pushType="float", popType="float", peekType="float", codeSize="50 b", stackSize="96 b", work="371"];
node339 -> node340;
node341 [label="Pre_CollapsedDataParallel_2_8522", push="540", pop="540", peek="540", pushType="float", popType="float", peekType="float", codeSize="50 b", stackSize="96 b", work="371"];
node339 -> node341;
node342 [label="Pre_CollapsedDataParallel_2_8523", push="540", pop="540", peek="540", pushType="float", popType="float", peekType="float", codeSize="50 b", stackSize="96 b", work="371"];
node339 -> node342;
node343 [label="WEIGHTED_ROUND_ROBIN_Joiner_8520", push="1620", pop="1620", peek="0", pushType="float", popType="float", peekType="void", codeSize="60 b", stackSize="128 b", work="0"];
node340 -> node343;
node341 -> node343;
node342 -> node343;
node344 [label="Printer_8088", push="0", pop="1620", peek="1620", pushType="void", popType="float", peekType="float", codeSize="16 b", stackSize="0 b", work="6"];
node343 -> node344;
}
