digraph MatrixMultBlock_21383 {
node0 [label="BlockFloatSource_20919", push="29988", pop="0", peek="0", pushType="float", popType="void", peekType="void", codeSize="26 b", stackSize="0 b", work="14"];
node1 [label="WEIGHTED_ROUND_ROBIN_Splitter_21048", push="29988", pop="29988", peek="0", pushType="float", popType="float", peekType="void", codeSize="42 b", stackSize="96 b", work="0"];
node0 -> node1;
node2 [label="WEIGHTED_ROUND_ROBIN_Splitter_21056", push="17136", pop="17136", peek="0", pushType="float", popType="float", peekType="void", codeSize="222 b", stackSize="416 b", work="0"];
node1 -> node2;
node3 [label="Post_CollapsedDataParallel_1_21058", push="1428", pop="1428", peek="1428", pushType="float", popType="float", peekType="float", codeSize="54 b", stackSize="96 b", work="143"];
node2 -> node3;
node4 [label="Post_CollapsedDataParallel_1_21059", push="1428", pop="1428", peek="1428", pushType="float", popType="float", peekType="float", codeSize="54 b", stackSize="96 b", work="143"];
node2 -> node4;
node5 [label="Post_CollapsedDataParallel_1_21060", push="1428", pop="1428", peek="1428", pushType="float", popType="float", peekType="float", codeSize="54 b", stackSize="96 b", work="143"];
node2 -> node5;
node6 [label="Post_CollapsedDataParallel_1_21061", push="1428", pop="1428", peek="1428", pushType="float", popType="float", peekType="float", codeSize="54 b", stackSize="96 b", work="143"];
node2 -> node6;
node7 [label="Post_CollapsedDataParallel_1_21062", push="1428", pop="1428", peek="1428", pushType="float", popType="float", peekType="float", codeSize="54 b", stackSize="96 b", work="143"];
node2 -> node7;
node8 [label="Post_CollapsedDataParallel_1_21063", push="1428", pop="1428", peek="1428", pushType="float", popType="float", peekType="float", codeSize="54 b", stackSize="96 b", work="143"];
node2 -> node8;
node9 [label="Post_CollapsedDataParallel_1_21064", push="1428", pop="1428", peek="1428", pushType="float", popType="float", peekType="float", codeSize="54 b", stackSize="96 b", work="143"];
node2 -> node9;
node10 [label="Post_CollapsedDataParallel_1_21065", push="1428", pop="1428", peek="1428", pushType="float", popType="float", peekType="float", codeSize="54 b", stackSize="96 b", work="143"];
node2 -> node10;
node11 [label="Post_CollapsedDataParallel_1_21066", push="1428", pop="1428", peek="1428", pushType="float", popType="float", peekType="float", codeSize="54 b", stackSize="96 b", work="143"];
node2 -> node11;
node12 [label="Post_CollapsedDataParallel_1_21067", push="1428", pop="1428", peek="1428", pushType="float", popType="float", peekType="float", codeSize="54 b", stackSize="96 b", work="143"];
node2 -> node12;
node13 [label="Post_CollapsedDataParallel_1_21068", push="1428", pop="1428", peek="1428", pushType="float", popType="float", peekType="float", codeSize="54 b", stackSize="96 b", work="143"];
node2 -> node13;
node14 [label="Post_CollapsedDataParallel_1_21069", push="1428", pop="1428", peek="1428", pushType="float", popType="float", peekType="float", codeSize="54 b", stackSize="96 b", work="143"];
node2 -> node14;
node15 [label="WEIGHTED_ROUND_ROBIN_Joiner_21057", push="17136", pop="17136", peek="0", pushType="float", popType="float", peekType="void", codeSize="222 b", stackSize="416 b", work="0"];
node3 -> node15;
node4 -> node15;
node5 -> node15;
node6 -> node15;
node7 -> node15;
node8 -> node15;
node9 -> node15;
node10 -> node15;
node11 -> node15;
node12 -> node15;
node13 -> node15;
node14 -> node15;
node16 [label="Identity_20923", push="17136", pop="17136", peek="17136", pushType="float", popType="float", peekType="float", codeSize="12 b", stackSize="32 b", work="6"];
node15 -> node16;
node17 [label="WEIGHTED_ROUND_ROBIN_Splitter_21070", push="17136", pop="17136", peek="0", pushType="float", popType="float", peekType="void", codeSize="60 b", stackSize="128 b", work="0"];
node16 -> node17;
node18 [label="Pre_CollapsedDataParallel_2_21072", push="5712", pop="5712", peek="5712", pushType="float", popType="float", peekType="float", codeSize="50 b", stackSize="96 b", work="489"];
node17 -> node18;
node19 [label="Pre_CollapsedDataParallel_2_21073", push="5712", pop="5712", peek="5712", pushType="float", popType="float", peekType="float", codeSize="50 b", stackSize="96 b", work="489"];
node17 -> node19;
node20 [label="Pre_CollapsedDataParallel_2_21074", push="5712", pop="5712", peek="5712", pushType="float", popType="float", peekType="float", codeSize="50 b", stackSize="96 b", work="489"];
node17 -> node20;
node21 [label="WEIGHTED_ROUND_ROBIN_Joiner_21071", push="17136", pop="17136", peek="0", pushType="float", popType="float", peekType="void", codeSize="60 b", stackSize="128 b", work="0"];
node18 -> node21;
node19 -> node21;
node20 -> node21;
node22 [label="WEIGHTED_ROUND_ROBIN_Splitter_21075", push="17136", pop="17136", peek="0", pushType="float", popType="float", peekType="void", codeSize="1434 b", stackSize="32 b", work="0"];
node21 -> node22;
node23 [label="AutoGeneratedExpander_21077", push="432", pop="144", peek="144", pushType="float", popType="float", peekType="float", codeSize="32 b", stackSize="32 b", work="27"];
node22 -> node23;
node24 [label="AutoGeneratedExpander_21078", push="432", pop="144", peek="144", pushType="float", popType="float", peekType="float", codeSize="32 b", stackSize="32 b", work="27"];
node22 -> node24;
node25 [label="AutoGeneratedExpander_21079", push="432", pop="144", peek="144", pushType="float", popType="float", peekType="float", codeSize="32 b", stackSize="32 b", work="27"];
node22 -> node25;
node26 [label="AutoGeneratedExpander_21080", push="432", pop="144", peek="144", pushType="float", popType="float", peekType="float", codeSize="32 b", stackSize="32 b", work="27"];
node22 -> node26;
node27 [label="AutoGeneratedExpander_21081", push="432", pop="144", peek="144", pushType="float", popType="float", peekType="float", codeSize="32 b", stackSize="32 b", work="27"];
node22 -> node27;
node28 [label="AutoGeneratedExpander_21082", push="432", pop="144", peek="144", pushType="float", popType="float", peekType="float", codeSize="32 b", stackSize="32 b", work="27"];
node22 -> node28;
node29 [label="AutoGeneratedExpander_21083", push="432", pop="144", peek="144", pushType="float", popType="float", peekType="float", codeSize="32 b", stackSize="32 b", work="27"];
node22 -> node29;
node30 [label="AutoGeneratedExpander_21084", push="432", pop="144", peek="144", pushType="float", popType="float", peekType="float", codeSize="32 b", stackSize="32 b", work="27"];
node22 -> node30;
node31 [label="AutoGeneratedExpander_21085", push="432", pop="144", peek="144", pushType="float", popType="float", peekType="float", codeSize="32 b", stackSize="32 b", work="27"];
node22 -> node31;
node32 [label="AutoGeneratedExpander_21086", push="432", pop="144", peek="144", pushType="float", popType="float", peekType="float", codeSize="32 b", stackSize="32 b", work="27"];
node22 -> node32;
node33 [label="AutoGeneratedExpander_21087", push="432", pop="144", peek="144", pushType="float", popType="float", peekType="float", codeSize="32 b", stackSize="32 b", work="27"];
node22 -> node33;
node34 [label="AutoGeneratedExpander_21088", push="432", pop="144", peek="144", pushType="float", popType="float", peekType="float", codeSize="32 b", stackSize="32 b", work="27"];
node22 -> node34;
node35 [label="AutoGeneratedExpander_21089", push="432", pop="144", peek="144", pushType="float", popType="float", peekType="float", codeSize="32 b", stackSize="32 b", work="27"];
node22 -> node35;
node36 [label="AutoGeneratedExpander_21090", push="432", pop="144", peek="144", pushType="float", popType="float", peekType="float", codeSize="32 b", stackSize="32 b", work="27"];
node22 -> node36;
node37 [label="AutoGeneratedExpander_21091", push="432", pop="144", peek="144", pushType="float", popType="float", peekType="float", codeSize="32 b", stackSize="32 b", work="27"];
node22 -> node37;
node38 [label="AutoGeneratedExpander_21092", push="432", pop="144", peek="144", pushType="float", popType="float", peekType="float", codeSize="32 b", stackSize="32 b", work="27"];
node22 -> node38;
node39 [label="AutoGeneratedExpander_21093", push="432", pop="144", peek="144", pushType="float", popType="float", peekType="float", codeSize="32 b", stackSize="32 b", work="27"];
node22 -> node39;
node40 [label="AutoGeneratedExpander_21094", push="432", pop="144", peek="144", pushType="float", popType="float", peekType="float", codeSize="32 b", stackSize="32 b", work="27"];
node22 -> node40;
node41 [label="AutoGeneratedExpander_21095", push="432", pop="144", peek="144", pushType="float", popType="float", peekType="float", codeSize="32 b", stackSize="32 b", work="27"];
node22 -> node41;
node42 [label="AutoGeneratedExpander_21096", push="432", pop="144", peek="144", pushType="float", popType="float", peekType="float", codeSize="32 b", stackSize="32 b", work="27"];
node22 -> node42;
node43 [label="AutoGeneratedExpander_21097", push="432", pop="144", peek="144", pushType="float", popType="float", peekType="float", codeSize="32 b", stackSize="32 b", work="27"];
node22 -> node43;
node44 [label="AutoGeneratedExpander_21098", push="432", pop="144", peek="144", pushType="float", popType="float", peekType="float", codeSize="32 b", stackSize="32 b", work="27"];
node22 -> node44;
node45 [label="AutoGeneratedExpander_21099", push="432", pop="144", peek="144", pushType="float", popType="float", peekType="float", codeSize="32 b", stackSize="32 b", work="27"];
node22 -> node45;
node46 [label="AutoGeneratedExpander_21100", push="432", pop="144", peek="144", pushType="float", popType="float", peekType="float", codeSize="32 b", stackSize="32 b", work="27"];
node22 -> node46;
node47 [label="AutoGeneratedExpander_21101", push="432", pop="144", peek="144", pushType="float", popType="float", peekType="float", codeSize="32 b", stackSize="32 b", work="27"];
node22 -> node47;
node48 [label="AutoGeneratedExpander_21102", push="432", pop="144", peek="144", pushType="float", popType="float", peekType="float", codeSize="32 b", stackSize="32 b", work="27"];
node22 -> node48;
node49 [label="AutoGeneratedExpander_21103", push="432", pop="144", peek="144", pushType="float", popType="float", peekType="float", codeSize="32 b", stackSize="32 b", work="27"];
node22 -> node49;
node50 [label="AutoGeneratedExpander_21104", push="432", pop="144", peek="144", pushType="float", popType="float", peekType="float", codeSize="32 b", stackSize="32 b", work="27"];
node22 -> node50;
node51 [label="AutoGeneratedExpander_21105", push="432", pop="144", peek="144", pushType="float", popType="float", peekType="float", codeSize="32 b", stackSize="32 b", work="27"];
node22 -> node51;
node52 [label="AutoGeneratedExpander_21106", push="432", pop="144", peek="144", pushType="float", popType="float", peekType="float", codeSize="32 b", stackSize="32 b", work="27"];
node22 -> node52;
node53 [label="AutoGeneratedExpander_21107", push="432", pop="144", peek="144", pushType="float", popType="float", peekType="float", codeSize="32 b", stackSize="32 b", work="27"];
node22 -> node53;
node54 [label="AutoGeneratedExpander_21108", push="432", pop="144", peek="144", pushType="float", popType="float", peekType="float", codeSize="32 b", stackSize="32 b", work="27"];
node22 -> node54;
node55 [label="AutoGeneratedExpander_21109", push="432", pop="144", peek="144", pushType="float", popType="float", peekType="float", codeSize="32 b", stackSize="32 b", work="27"];
node22 -> node55;
node56 [label="AutoGeneratedExpander_21110", push="432", pop="144", peek="144", pushType="float", popType="float", peekType="float", codeSize="32 b", stackSize="32 b", work="27"];
node22 -> node56;
node57 [label="AutoGeneratedExpander_21111", push="432", pop="144", peek="144", pushType="float", popType="float", peekType="float", codeSize="32 b", stackSize="32 b", work="27"];
node22 -> node57;
node58 [label="AutoGeneratedExpander_21112", push="432", pop="144", peek="144", pushType="float", popType="float", peekType="float", codeSize="32 b", stackSize="32 b", work="27"];
node22 -> node58;
node59 [label="AutoGeneratedExpander_21113", push="432", pop="144", peek="144", pushType="float", popType="float", peekType="float", codeSize="32 b", stackSize="32 b", work="27"];
node22 -> node59;
node60 [label="AutoGeneratedExpander_21114", push="432", pop="144", peek="144", pushType="float", popType="float", peekType="float", codeSize="32 b", stackSize="32 b", work="27"];
node22 -> node60;
node61 [label="AutoGeneratedExpander_21115", push="432", pop="144", peek="144", pushType="float", popType="float", peekType="float", codeSize="32 b", stackSize="32 b", work="27"];
node22 -> node61;
node62 [label="AutoGeneratedExpander_21116", push="432", pop="144", peek="144", pushType="float", popType="float", peekType="float", codeSize="32 b", stackSize="32 b", work="27"];
node22 -> node62;
node63 [label="AutoGeneratedExpander_21117", push="432", pop="144", peek="144", pushType="float", popType="float", peekType="float", codeSize="32 b", stackSize="32 b", work="27"];
node22 -> node63;
node64 [label="AutoGeneratedExpander_21118", push="432", pop="144", peek="144", pushType="float", popType="float", peekType="float", codeSize="32 b", stackSize="32 b", work="27"];
node22 -> node64;
node65 [label="AutoGeneratedExpander_21119", push="432", pop="144", peek="144", pushType="float", popType="float", peekType="float", codeSize="32 b", stackSize="32 b", work="27"];
node22 -> node65;
node66 [label="AutoGeneratedExpander_21120", push="432", pop="144", peek="144", pushType="float", popType="float", peekType="float", codeSize="32 b", stackSize="32 b", work="27"];
node22 -> node66;
node67 [label="AutoGeneratedExpander_21121", push="432", pop="144", peek="144", pushType="float", popType="float", peekType="float", codeSize="32 b", stackSize="32 b", work="27"];
node22 -> node67;
node68 [label="AutoGeneratedExpander_21122", push="432", pop="144", peek="144", pushType="float", popType="float", peekType="float", codeSize="32 b", stackSize="32 b", work="27"];
node22 -> node68;
node69 [label="AutoGeneratedExpander_21123", push="432", pop="144", peek="144", pushType="float", popType="float", peekType="float", codeSize="32 b", stackSize="32 b", work="27"];
node22 -> node69;
node70 [label="AutoGeneratedExpander_21124", push="432", pop="144", peek="144", pushType="float", popType="float", peekType="float", codeSize="32 b", stackSize="32 b", work="27"];
node22 -> node70;
node71 [label="AutoGeneratedExpander_21125", push="432", pop="144", peek="144", pushType="float", popType="float", peekType="float", codeSize="32 b", stackSize="32 b", work="27"];
node22 -> node71;
node72 [label="AutoGeneratedExpander_21126", push="432", pop="144", peek="144", pushType="float", popType="float", peekType="float", codeSize="32 b", stackSize="32 b", work="27"];
node22 -> node72;
node73 [label="AutoGeneratedExpander_21127", push="432", pop="144", peek="144", pushType="float", popType="float", peekType="float", codeSize="32 b", stackSize="32 b", work="27"];
node22 -> node73;
node74 [label="AutoGeneratedExpander_21128", push="432", pop="144", peek="144", pushType="float", popType="float", peekType="float", codeSize="32 b", stackSize="32 b", work="27"];
node22 -> node74;
node75 [label="AutoGeneratedExpander_21129", push="432", pop="144", peek="144", pushType="float", popType="float", peekType="float", codeSize="32 b", stackSize="32 b", work="27"];
node22 -> node75;
node76 [label="AutoGeneratedExpander_21130", push="432", pop="144", peek="144", pushType="float", popType="float", peekType="float", codeSize="32 b", stackSize="32 b", work="27"];
node22 -> node76;
node77 [label="AutoGeneratedExpander_21131", push="432", pop="144", peek="144", pushType="float", popType="float", peekType="float", codeSize="32 b", stackSize="32 b", work="27"];
node22 -> node77;
node78 [label="AutoGeneratedExpander_21132", push="432", pop="144", peek="144", pushType="float", popType="float", peekType="float", codeSize="32 b", stackSize="32 b", work="27"];
node22 -> node78;
node79 [label="AutoGeneratedExpander_21133", push="432", pop="144", peek="144", pushType="float", popType="float", peekType="float", codeSize="32 b", stackSize="32 b", work="27"];
node22 -> node79;
node80 [label="AutoGeneratedExpander_21134", push="432", pop="144", peek="144", pushType="float", popType="float", peekType="float", codeSize="32 b", stackSize="32 b", work="27"];
node22 -> node80;
node81 [label="AutoGeneratedExpander_21135", push="432", pop="144", peek="144", pushType="float", popType="float", peekType="float", codeSize="32 b", stackSize="32 b", work="27"];
node22 -> node81;
node82 [label="AutoGeneratedExpander_21136", push="432", pop="144", peek="144", pushType="float", popType="float", peekType="float", codeSize="32 b", stackSize="32 b", work="27"];
node22 -> node82;
node83 [label="AutoGeneratedExpander_21137", push="432", pop="144", peek="144", pushType="float", popType="float", peekType="float", codeSize="32 b", stackSize="32 b", work="27"];
node22 -> node83;
node84 [label="AutoGeneratedExpander_21138", push="432", pop="144", peek="144", pushType="float", popType="float", peekType="float", codeSize="32 b", stackSize="32 b", work="27"];
node22 -> node84;
node85 [label="AutoGeneratedExpander_21139", push="432", pop="144", peek="144", pushType="float", popType="float", peekType="float", codeSize="32 b", stackSize="32 b", work="27"];
node22 -> node85;
node86 [label="AutoGeneratedExpander_21140", push="432", pop="144", peek="144", pushType="float", popType="float", peekType="float", codeSize="32 b", stackSize="32 b", work="27"];
node22 -> node86;
node87 [label="AutoGeneratedExpander_21141", push="432", pop="144", peek="144", pushType="float", popType="float", peekType="float", codeSize="32 b", stackSize="32 b", work="27"];
node22 -> node87;
node88 [label="AutoGeneratedExpander_21142", push="432", pop="144", peek="144", pushType="float", popType="float", peekType="float", codeSize="32 b", stackSize="32 b", work="27"];
node22 -> node88;
node89 [label="AutoGeneratedExpander_21143", push="432", pop="144", peek="144", pushType="float", popType="float", peekType="float", codeSize="32 b", stackSize="32 b", work="27"];
node22 -> node89;
node90 [label="AutoGeneratedExpander_21144", push="432", pop="144", peek="144", pushType="float", popType="float", peekType="float", codeSize="32 b", stackSize="32 b", work="27"];
node22 -> node90;
node91 [label="AutoGeneratedExpander_21145", push="432", pop="144", peek="144", pushType="float", popType="float", peekType="float", codeSize="32 b", stackSize="32 b", work="27"];
node22 -> node91;
node92 [label="AutoGeneratedExpander_21146", push="432", pop="144", peek="144", pushType="float", popType="float", peekType="float", codeSize="32 b", stackSize="32 b", work="27"];
node22 -> node92;
node93 [label="AutoGeneratedExpander_21147", push="432", pop="144", peek="144", pushType="float", popType="float", peekType="float", codeSize="32 b", stackSize="32 b", work="27"];
node22 -> node93;
node94 [label="AutoGeneratedExpander_21148", push="432", pop="144", peek="144", pushType="float", popType="float", peekType="float", codeSize="32 b", stackSize="32 b", work="27"];
node22 -> node94;
node95 [label="AutoGeneratedExpander_21149", push="432", pop="144", peek="144", pushType="float", popType="float", peekType="float", codeSize="32 b", stackSize="32 b", work="27"];
node22 -> node95;
node96 [label="AutoGeneratedExpander_21150", push="432", pop="144", peek="144", pushType="float", popType="float", peekType="float", codeSize="32 b", stackSize="32 b", work="27"];
node22 -> node96;
node97 [label="AutoGeneratedExpander_21151", push="432", pop="144", peek="144", pushType="float", popType="float", peekType="float", codeSize="32 b", stackSize="32 b", work="27"];
node22 -> node97;
node98 [label="AutoGeneratedExpander_21152", push="432", pop="144", peek="144", pushType="float", popType="float", peekType="float", codeSize="32 b", stackSize="32 b", work="27"];
node22 -> node98;
node99 [label="AutoGeneratedExpander_21153", push="432", pop="144", peek="144", pushType="float", popType="float", peekType="float", codeSize="32 b", stackSize="32 b", work="27"];
node22 -> node99;
node100 [label="AutoGeneratedExpander_21154", push="432", pop="144", peek="144", pushType="float", popType="float", peekType="float", codeSize="32 b", stackSize="32 b", work="27"];
node22 -> node100;
node101 [label="AutoGeneratedExpander_21155", push="432", pop="144", peek="144", pushType="float", popType="float", peekType="float", codeSize="32 b", stackSize="32 b", work="27"];
node22 -> node101;
node102 [label="AutoGeneratedExpander_21156", push="432", pop="144", peek="144", pushType="float", popType="float", peekType="float", codeSize="32 b", stackSize="32 b", work="27"];
node22 -> node102;
node103 [label="AutoGeneratedExpander_21157", push="432", pop="144", peek="144", pushType="float", popType="float", peekType="float", codeSize="32 b", stackSize="32 b", work="27"];
node22 -> node103;
node104 [label="AutoGeneratedExpander_21158", push="432", pop="144", peek="144", pushType="float", popType="float", peekType="float", codeSize="32 b", stackSize="32 b", work="27"];
node22 -> node104;
node105 [label="AutoGeneratedExpander_21159", push="432", pop="144", peek="144", pushType="float", popType="float", peekType="float", codeSize="32 b", stackSize="32 b", work="27"];
node22 -> node105;
node106 [label="AutoGeneratedExpander_21160", push="432", pop="144", peek="144", pushType="float", popType="float", peekType="float", codeSize="32 b", stackSize="32 b", work="27"];
node22 -> node106;
node107 [label="AutoGeneratedExpander_21161", push="432", pop="144", peek="144", pushType="float", popType="float", peekType="float", codeSize="32 b", stackSize="32 b", work="27"];
node22 -> node107;
node108 [label="AutoGeneratedExpander_21162", push="432", pop="144", peek="144", pushType="float", popType="float", peekType="float", codeSize="32 b", stackSize="32 b", work="27"];
node22 -> node108;
node109 [label="AutoGeneratedExpander_21163", push="432", pop="144", peek="144", pushType="float", popType="float", peekType="float", codeSize="32 b", stackSize="32 b", work="27"];
node22 -> node109;
node110 [label="AutoGeneratedExpander_21164", push="432", pop="144", peek="144", pushType="float", popType="float", peekType="float", codeSize="32 b", stackSize="32 b", work="27"];
node22 -> node110;
node111 [label="AutoGeneratedExpander_21165", push="432", pop="144", peek="144", pushType="float", popType="float", peekType="float", codeSize="32 b", stackSize="32 b", work="27"];
node22 -> node111;
node112 [label="AutoGeneratedExpander_21166", push="432", pop="144", peek="144", pushType="float", popType="float", peekType="float", codeSize="32 b", stackSize="32 b", work="27"];
node22 -> node112;
node113 [label="AutoGeneratedExpander_21167", push="432", pop="144", peek="144", pushType="float", popType="float", peekType="float", codeSize="32 b", stackSize="32 b", work="27"];
node22 -> node113;
node114 [label="AutoGeneratedExpander_21168", push="432", pop="144", peek="144", pushType="float", popType="float", peekType="float", codeSize="32 b", stackSize="32 b", work="27"];
node22 -> node114;
node115 [label="AutoGeneratedExpander_21169", push="432", pop="144", peek="144", pushType="float", popType="float", peekType="float", codeSize="32 b", stackSize="32 b", work="27"];
node22 -> node115;
node116 [label="AutoGeneratedExpander_21170", push="432", pop="144", peek="144", pushType="float", popType="float", peekType="float", codeSize="32 b", stackSize="32 b", work="27"];
node22 -> node116;
node117 [label="AutoGeneratedExpander_21171", push="432", pop="144", peek="144", pushType="float", popType="float", peekType="float", codeSize="32 b", stackSize="32 b", work="27"];
node22 -> node117;
node118 [label="AutoGeneratedExpander_21172", push="432", pop="144", peek="144", pushType="float", popType="float", peekType="float", codeSize="32 b", stackSize="32 b", work="27"];
node22 -> node118;
node119 [label="AutoGeneratedExpander_21173", push="432", pop="144", peek="144", pushType="float", popType="float", peekType="float", codeSize="32 b", stackSize="32 b", work="27"];
node22 -> node119;
node120 [label="AutoGeneratedExpander_21174", push="432", pop="144", peek="144", pushType="float", popType="float", peekType="float", codeSize="32 b", stackSize="32 b", work="27"];
node22 -> node120;
node121 [label="AutoGeneratedExpander_21175", push="432", pop="144", peek="144", pushType="float", popType="float", peekType="float", codeSize="32 b", stackSize="32 b", work="27"];
node22 -> node121;
node122 [label="AutoGeneratedExpander_21176", push="432", pop="144", peek="144", pushType="float", popType="float", peekType="float", codeSize="32 b", stackSize="32 b", work="27"];
node22 -> node122;
node123 [label="AutoGeneratedExpander_21177", push="432", pop="144", peek="144", pushType="float", popType="float", peekType="float", codeSize="32 b", stackSize="32 b", work="27"];
node22 -> node123;
node124 [label="AutoGeneratedExpander_21178", push="432", pop="144", peek="144", pushType="float", popType="float", peekType="float", codeSize="32 b", stackSize="32 b", work="27"];
node22 -> node124;
node125 [label="AutoGeneratedExpander_21179", push="432", pop="144", peek="144", pushType="float", popType="float", peekType="float", codeSize="32 b", stackSize="32 b", work="27"];
node22 -> node125;
node126 [label="AutoGeneratedExpander_21180", push="432", pop="144", peek="144", pushType="float", popType="float", peekType="float", codeSize="32 b", stackSize="32 b", work="27"];
node22 -> node126;
node127 [label="AutoGeneratedExpander_21181", push="432", pop="144", peek="144", pushType="float", popType="float", peekType="float", codeSize="32 b", stackSize="32 b", work="27"];
node22 -> node127;
node128 [label="AutoGeneratedExpander_21182", push="432", pop="144", peek="144", pushType="float", popType="float", peekType="float", codeSize="32 b", stackSize="32 b", work="27"];
node22 -> node128;
node129 [label="AutoGeneratedExpander_21183", push="432", pop="144", peek="144", pushType="float", popType="float", peekType="float", codeSize="32 b", stackSize="32 b", work="27"];
node22 -> node129;
node130 [label="AutoGeneratedExpander_21184", push="432", pop="144", peek="144", pushType="float", popType="float", peekType="float", codeSize="32 b", stackSize="32 b", work="27"];
node22 -> node130;
node131 [label="AutoGeneratedExpander_21185", push="432", pop="144", peek="144", pushType="float", popType="float", peekType="float", codeSize="32 b", stackSize="32 b", work="27"];
node22 -> node131;
node132 [label="AutoGeneratedExpander_21186", push="432", pop="144", peek="144", pushType="float", popType="float", peekType="float", codeSize="32 b", stackSize="32 b", work="27"];
node22 -> node132;
node133 [label="AutoGeneratedExpander_21187", push="432", pop="144", peek="144", pushType="float", popType="float", peekType="float", codeSize="32 b", stackSize="32 b", work="27"];
node22 -> node133;
node134 [label="AutoGeneratedExpander_21188", push="432", pop="144", peek="144", pushType="float", popType="float", peekType="float", codeSize="32 b", stackSize="32 b", work="27"];
node22 -> node134;
node135 [label="AutoGeneratedExpander_21189", push="432", pop="144", peek="144", pushType="float", popType="float", peekType="float", codeSize="32 b", stackSize="32 b", work="27"];
node22 -> node135;
node136 [label="AutoGeneratedExpander_21190", push="432", pop="144", peek="144", pushType="float", popType="float", peekType="float", codeSize="32 b", stackSize="32 b", work="27"];
node22 -> node136;
node137 [label="AutoGeneratedExpander_21191", push="432", pop="144", peek="144", pushType="float", popType="float", peekType="float", codeSize="32 b", stackSize="32 b", work="27"];
node22 -> node137;
node138 [label="AutoGeneratedExpander_21192", push="432", pop="144", peek="144", pushType="float", popType="float", peekType="float", codeSize="32 b", stackSize="32 b", work="27"];
node22 -> node138;
node139 [label="AutoGeneratedExpander_21193", push="432", pop="144", peek="144", pushType="float", popType="float", peekType="float", codeSize="32 b", stackSize="32 b", work="27"];
node22 -> node139;
node140 [label="AutoGeneratedExpander_21194", push="432", pop="144", peek="144", pushType="float", popType="float", peekType="float", codeSize="32 b", stackSize="32 b", work="27"];
node22 -> node140;
node141 [label="AutoGeneratedExpander_21195", push="432", pop="144", peek="144", pushType="float", popType="float", peekType="float", codeSize="32 b", stackSize="32 b", work="27"];
node22 -> node141;
node142 [label="WEIGHTED_ROUND_ROBIN_Joiner_21076", push="51408", pop="51408", peek="0", pushType="float", popType="float", peekType="void", codeSize="2148 b", stackSize="3840 b", work="0"];
node23 -> node142;
node24 -> node142;
node25 -> node142;
node26 -> node142;
node27 -> node142;
node28 -> node142;
node29 -> node142;
node30 -> node142;
node31 -> node142;
node32 -> node142;
node33 -> node142;
node34 -> node142;
node35 -> node142;
node36 -> node142;
node37 -> node142;
node38 -> node142;
node39 -> node142;
node40 -> node142;
node41 -> node142;
node42 -> node142;
node43 -> node142;
node44 -> node142;
node45 -> node142;
node46 -> node142;
node47 -> node142;
node48 -> node142;
node49 -> node142;
node50 -> node142;
node51 -> node142;
node52 -> node142;
node53 -> node142;
node54 -> node142;
node55 -> node142;
node56 -> node142;
node57 -> node142;
node58 -> node142;
node59 -> node142;
node60 -> node142;
node61 -> node142;
node62 -> node142;
node63 -> node142;
node64 -> node142;
node65 -> node142;
node66 -> node142;
node67 -> node142;
node68 -> node142;
node69 -> node142;
node70 -> node142;
node71 -> node142;
node72 -> node142;
node73 -> node142;
node74 -> node142;
node75 -> node142;
node76 -> node142;
node77 -> node142;
node78 -> node142;
node79 -> node142;
node80 -> node142;
node81 -> node142;
node82 -> node142;
node83 -> node142;
node84 -> node142;
node85 -> node142;
node86 -> node142;
node87 -> node142;
node88 -> node142;
node89 -> node142;
node90 -> node142;
node91 -> node142;
node92 -> node142;
node93 -> node142;
node94 -> node142;
node95 -> node142;
node96 -> node142;
node97 -> node142;
node98 -> node142;
node99 -> node142;
node100 -> node142;
node101 -> node142;
node102 -> node142;
node103 -> node142;
node104 -> node142;
node105 -> node142;
node106 -> node142;
node107 -> node142;
node108 -> node142;
node109 -> node142;
node110 -> node142;
node111 -> node142;
node112 -> node142;
node113 -> node142;
node114 -> node142;
node115 -> node142;
node116 -> node142;
node117 -> node142;
node118 -> node142;
node119 -> node142;
node120 -> node142;
node121 -> node142;
node122 -> node142;
node123 -> node142;
node124 -> node142;
node125 -> node142;
node126 -> node142;
node127 -> node142;
node128 -> node142;
node129 -> node142;
node130 -> node142;
node131 -> node142;
node132 -> node142;
node133 -> node142;
node134 -> node142;
node135 -> node142;
node136 -> node142;
node137 -> node142;
node138 -> node142;
node139 -> node142;
node140 -> node142;
node141 -> node142;
node143 [label="Identity_20926", push="51408", pop="51408", peek="51408", pushType="float", popType="float", peekType="float", codeSize="12 b", stackSize="32 b", work="6"];
node142 -> node143;
node144 [label="WEIGHTED_ROUND_ROBIN_Splitter_21196", push="51408", pop="51408", peek="0", pushType="float", popType="float", peekType="void", codeSize="60 b", stackSize="128 b", work="0"];
node143 -> node144;
node145 [label="Pre_CollapsedDataParallel_2_21198", push="17136", pop="17136", peek="17136", pushType="float", popType="float", peekType="float", codeSize="50 b", stackSize="96 b", work="1449"];
node144 -> node145;
node146 [label="Pre_CollapsedDataParallel_2_21199", push="17136", pop="17136", peek="17136", pushType="float", popType="float", peekType="float", codeSize="50 b", stackSize="96 b", work="1449"];
node144 -> node146;
node147 [label="Pre_CollapsedDataParallel_2_21200", push="17136", pop="17136", peek="17136", pushType="float", popType="float", peekType="float", codeSize="50 b", stackSize="96 b", work="1449"];
node144 -> node147;
node148 [label="WEIGHTED_ROUND_ROBIN_Joiner_21197", push="51408", pop="51408", peek="0", pushType="float", popType="float", peekType="void", codeSize="60 b", stackSize="128 b", work="0"];
node145 -> node148;
node146 -> node148;
node147 -> node148;
node149 [label="Identity_20930", push="12852", pop="12852", peek="12852", pushType="float", popType="float", peekType="float", codeSize="12 b", stackSize="32 b", work="6"];
node1 -> node149;
node150 [label="Pre_CollapsedDataParallel_2_21042", push="12852", pop="12852", peek="12852", pushType="float", popType="float", peekType="float", codeSize="50 b", stackSize="96 b", work="1101"];
node149 -> node150;
node151 [label="WEIGHTED_ROUND_ROBIN_Splitter_21201", push="12852", pop="12852", peek="0", pushType="float", popType="float", peekType="void", codeSize="168 b", stackSize="320 b", work="0"];
node150 -> node151;
node152 [label="Post_CollapsedDataParallel_1_21203", push="1428", pop="1428", peek="1428", pushType="float", popType="float", peekType="float", codeSize="54 b", stackSize="96 b", work="143"];
node151 -> node152;
node153 [label="Post_CollapsedDataParallel_1_21204", push="1428", pop="1428", peek="1428", pushType="float", popType="float", peekType="float", codeSize="54 b", stackSize="96 b", work="143"];
node151 -> node153;
node154 [label="Post_CollapsedDataParallel_1_21205", push="1428", pop="1428", peek="1428", pushType="float", popType="float", peekType="float", codeSize="54 b", stackSize="96 b", work="143"];
node151 -> node154;
node155 [label="Post_CollapsedDataParallel_1_21206", push="1428", pop="1428", peek="1428", pushType="float", popType="float", peekType="float", codeSize="54 b", stackSize="96 b", work="143"];
node151 -> node155;
node156 [label="Post_CollapsedDataParallel_1_21207", push="1428", pop="1428", peek="1428", pushType="float", popType="float", peekType="float", codeSize="54 b", stackSize="96 b", work="143"];
node151 -> node156;
node157 [label="Post_CollapsedDataParallel_1_21208", push="1428", pop="1428", peek="1428", pushType="float", popType="float", peekType="float", codeSize="54 b", stackSize="96 b", work="143"];
node151 -> node157;
node158 [label="Post_CollapsedDataParallel_1_21209", push="1428", pop="1428", peek="1428", pushType="float", popType="float", peekType="float", codeSize="54 b", stackSize="96 b", work="143"];
node151 -> node158;
node159 [label="Post_CollapsedDataParallel_1_21210", push="1428", pop="1428", peek="1428", pushType="float", popType="float", peekType="float", codeSize="54 b", stackSize="96 b", work="143"];
node151 -> node159;
node160 [label="Post_CollapsedDataParallel_1_21211", push="1428", pop="1428", peek="1428", pushType="float", popType="float", peekType="float", codeSize="54 b", stackSize="96 b", work="143"];
node151 -> node160;
node161 [label="WEIGHTED_ROUND_ROBIN_Joiner_21202", push="12852", pop="12852", peek="0", pushType="float", popType="float", peekType="void", codeSize="168 b", stackSize="320 b", work="0"];
node152 -> node161;
node153 -> node161;
node154 -> node161;
node155 -> node161;
node156 -> node161;
node157 -> node161;
node158 -> node161;
node159 -> node161;
node160 -> node161;
node162 [label="Identity_20939", push="12852", pop="12852", peek="12852", pushType="float", popType="float", peekType="float", codeSize="12 b", stackSize="32 b", work="6"];
node161 -> node162;
node163 [label="WEIGHTED_ROUND_ROBIN_Splitter_21212", push="12852", pop="12852", peek="0", pushType="float", popType="float", peekType="void", codeSize="60 b", stackSize="128 b", work="0"];
node162 -> node163;
node164 [label="Pre_CollapsedDataParallel_2_21214", push="4284", pop="4284", peek="4284", pushType="float", popType="float", peekType="float", codeSize="50 b", stackSize="96 b", work="369"];
node163 -> node164;
node165 [label="Pre_CollapsedDataParallel_2_21215", push="4284", pop="4284", peek="4284", pushType="float", popType="float", peekType="float", codeSize="50 b", stackSize="96 b", work="369"];
node163 -> node165;
node166 [label="Pre_CollapsedDataParallel_2_21216", push="4284", pop="4284", peek="4284", pushType="float", popType="float", peekType="float", codeSize="50 b", stackSize="96 b", work="369"];
node163 -> node166;
node167 [label="WEIGHTED_ROUND_ROBIN_Joiner_21213", push="12852", pop="12852", peek="0", pushType="float", popType="float", peekType="void", codeSize="60 b", stackSize="128 b", work="0"];
node164 -> node167;
node165 -> node167;
node166 -> node167;
node168 [label="WEIGHTED_ROUND_ROBIN_Splitter_21217", push="12852", pop="12852", peek="0", pushType="float", popType="float", peekType="void", codeSize="1302 b", stackSize="32 b", work="0"];
node167 -> node168;
node169 [label="AutoGeneratedExpander_21219", push="357", pop="119", peek="119", pushType="float", popType="float", peekType="float", codeSize="32 b", stackSize="32 b", work="27"];
node168 -> node169;
node170 [label="AutoGeneratedExpander_21220", push="357", pop="119", peek="119", pushType="float", popType="float", peekType="float", codeSize="32 b", stackSize="32 b", work="27"];
node168 -> node170;
node171 [label="AutoGeneratedExpander_21221", push="357", pop="119", peek="119", pushType="float", popType="float", peekType="float", codeSize="32 b", stackSize="32 b", work="27"];
node168 -> node171;
node172 [label="AutoGeneratedExpander_21222", push="357", pop="119", peek="119", pushType="float", popType="float", peekType="float", codeSize="32 b", stackSize="32 b", work="27"];
node168 -> node172;
node173 [label="AutoGeneratedExpander_21223", push="357", pop="119", peek="119", pushType="float", popType="float", peekType="float", codeSize="32 b", stackSize="32 b", work="27"];
node168 -> node173;
node174 [label="AutoGeneratedExpander_21224", push="357", pop="119", peek="119", pushType="float", popType="float", peekType="float", codeSize="32 b", stackSize="32 b", work="27"];
node168 -> node174;
node175 [label="AutoGeneratedExpander_21225", push="357", pop="119", peek="119", pushType="float", popType="float", peekType="float", codeSize="32 b", stackSize="32 b", work="27"];
node168 -> node175;
node176 [label="AutoGeneratedExpander_21226", push="357", pop="119", peek="119", pushType="float", popType="float", peekType="float", codeSize="32 b", stackSize="32 b", work="27"];
node168 -> node176;
node177 [label="AutoGeneratedExpander_21227", push="357", pop="119", peek="119", pushType="float", popType="float", peekType="float", codeSize="32 b", stackSize="32 b", work="27"];
node168 -> node177;
node178 [label="AutoGeneratedExpander_21228", push="357", pop="119", peek="119", pushType="float", popType="float", peekType="float", codeSize="32 b", stackSize="32 b", work="27"];
node168 -> node178;
node179 [label="AutoGeneratedExpander_21229", push="357", pop="119", peek="119", pushType="float", popType="float", peekType="float", codeSize="32 b", stackSize="32 b", work="27"];
node168 -> node179;
node180 [label="AutoGeneratedExpander_21230", push="357", pop="119", peek="119", pushType="float", popType="float", peekType="float", codeSize="32 b", stackSize="32 b", work="27"];
node168 -> node180;
node181 [label="AutoGeneratedExpander_21231", push="357", pop="119", peek="119", pushType="float", popType="float", peekType="float", codeSize="32 b", stackSize="32 b", work="27"];
node168 -> node181;
node182 [label="AutoGeneratedExpander_21232", push="357", pop="119", peek="119", pushType="float", popType="float", peekType="float", codeSize="32 b", stackSize="32 b", work="27"];
node168 -> node182;
node183 [label="AutoGeneratedExpander_21233", push="357", pop="119", peek="119", pushType="float", popType="float", peekType="float", codeSize="32 b", stackSize="32 b", work="27"];
node168 -> node183;
node184 [label="AutoGeneratedExpander_21234", push="357", pop="119", peek="119", pushType="float", popType="float", peekType="float", codeSize="32 b", stackSize="32 b", work="27"];
node168 -> node184;
node185 [label="AutoGeneratedExpander_21235", push="357", pop="119", peek="119", pushType="float", popType="float", peekType="float", codeSize="32 b", stackSize="32 b", work="27"];
node168 -> node185;
node186 [label="AutoGeneratedExpander_21236", push="357", pop="119", peek="119", pushType="float", popType="float", peekType="float", codeSize="32 b", stackSize="32 b", work="27"];
node168 -> node186;
node187 [label="AutoGeneratedExpander_21237", push="357", pop="119", peek="119", pushType="float", popType="float", peekType="float", codeSize="32 b", stackSize="32 b", work="27"];
node168 -> node187;
node188 [label="AutoGeneratedExpander_21238", push="357", pop="119", peek="119", pushType="float", popType="float", peekType="float", codeSize="32 b", stackSize="32 b", work="27"];
node168 -> node188;
node189 [label="AutoGeneratedExpander_21239", push="357", pop="119", peek="119", pushType="float", popType="float", peekType="float", codeSize="32 b", stackSize="32 b", work="27"];
node168 -> node189;
node190 [label="AutoGeneratedExpander_21240", push="357", pop="119", peek="119", pushType="float", popType="float", peekType="float", codeSize="32 b", stackSize="32 b", work="27"];
node168 -> node190;
node191 [label="AutoGeneratedExpander_21241", push="357", pop="119", peek="119", pushType="float", popType="float", peekType="float", codeSize="32 b", stackSize="32 b", work="27"];
node168 -> node191;
node192 [label="AutoGeneratedExpander_21242", push="357", pop="119", peek="119", pushType="float", popType="float", peekType="float", codeSize="32 b", stackSize="32 b", work="27"];
node168 -> node192;
node193 [label="AutoGeneratedExpander_21243", push="357", pop="119", peek="119", pushType="float", popType="float", peekType="float", codeSize="32 b", stackSize="32 b", work="27"];
node168 -> node193;
node194 [label="AutoGeneratedExpander_21244", push="357", pop="119", peek="119", pushType="float", popType="float", peekType="float", codeSize="32 b", stackSize="32 b", work="27"];
node168 -> node194;
node195 [label="AutoGeneratedExpander_21245", push="357", pop="119", peek="119", pushType="float", popType="float", peekType="float", codeSize="32 b", stackSize="32 b", work="27"];
node168 -> node195;
node196 [label="AutoGeneratedExpander_21246", push="357", pop="119", peek="119", pushType="float", popType="float", peekType="float", codeSize="32 b", stackSize="32 b", work="27"];
node168 -> node196;
node197 [label="AutoGeneratedExpander_21247", push="357", pop="119", peek="119", pushType="float", popType="float", peekType="float", codeSize="32 b", stackSize="32 b", work="27"];
node168 -> node197;
node198 [label="AutoGeneratedExpander_21248", push="357", pop="119", peek="119", pushType="float", popType="float", peekType="float", codeSize="32 b", stackSize="32 b", work="27"];
node168 -> node198;
node199 [label="AutoGeneratedExpander_21249", push="357", pop="119", peek="119", pushType="float", popType="float", peekType="float", codeSize="32 b", stackSize="32 b", work="27"];
node168 -> node199;
node200 [label="AutoGeneratedExpander_21250", push="357", pop="119", peek="119", pushType="float", popType="float", peekType="float", codeSize="32 b", stackSize="32 b", work="27"];
node168 -> node200;
node201 [label="AutoGeneratedExpander_21251", push="357", pop="119", peek="119", pushType="float", popType="float", peekType="float", codeSize="32 b", stackSize="32 b", work="27"];
node168 -> node201;
node202 [label="AutoGeneratedExpander_21252", push="357", pop="119", peek="119", pushType="float", popType="float", peekType="float", codeSize="32 b", stackSize="32 b", work="27"];
node168 -> node202;
node203 [label="AutoGeneratedExpander_21253", push="357", pop="119", peek="119", pushType="float", popType="float", peekType="float", codeSize="32 b", stackSize="32 b", work="27"];
node168 -> node203;
node204 [label="AutoGeneratedExpander_21254", push="357", pop="119", peek="119", pushType="float", popType="float", peekType="float", codeSize="32 b", stackSize="32 b", work="27"];
node168 -> node204;
node205 [label="AutoGeneratedExpander_21255", push="357", pop="119", peek="119", pushType="float", popType="float", peekType="float", codeSize="32 b", stackSize="32 b", work="27"];
node168 -> node205;
node206 [label="AutoGeneratedExpander_21256", push="357", pop="119", peek="119", pushType="float", popType="float", peekType="float", codeSize="32 b", stackSize="32 b", work="27"];
node168 -> node206;
node207 [label="AutoGeneratedExpander_21257", push="357", pop="119", peek="119", pushType="float", popType="float", peekType="float", codeSize="32 b", stackSize="32 b", work="27"];
node168 -> node207;
node208 [label="AutoGeneratedExpander_21258", push="357", pop="119", peek="119", pushType="float", popType="float", peekType="float", codeSize="32 b", stackSize="32 b", work="27"];
node168 -> node208;
node209 [label="AutoGeneratedExpander_21259", push="357", pop="119", peek="119", pushType="float", popType="float", peekType="float", codeSize="32 b", stackSize="32 b", work="27"];
node168 -> node209;
node210 [label="AutoGeneratedExpander_21260", push="357", pop="119", peek="119", pushType="float", popType="float", peekType="float", codeSize="32 b", stackSize="32 b", work="27"];
node168 -> node210;
node211 [label="AutoGeneratedExpander_21261", push="357", pop="119", peek="119", pushType="float", popType="float", peekType="float", codeSize="32 b", stackSize="32 b", work="27"];
node168 -> node211;
node212 [label="AutoGeneratedExpander_21262", push="357", pop="119", peek="119", pushType="float", popType="float", peekType="float", codeSize="32 b", stackSize="32 b", work="27"];
node168 -> node212;
node213 [label="AutoGeneratedExpander_21263", push="357", pop="119", peek="119", pushType="float", popType="float", peekType="float", codeSize="32 b", stackSize="32 b", work="27"];
node168 -> node213;
node214 [label="AutoGeneratedExpander_21264", push="357", pop="119", peek="119", pushType="float", popType="float", peekType="float", codeSize="32 b", stackSize="32 b", work="27"];
node168 -> node214;
node215 [label="AutoGeneratedExpander_21265", push="357", pop="119", peek="119", pushType="float", popType="float", peekType="float", codeSize="32 b", stackSize="32 b", work="27"];
node168 -> node215;
node216 [label="AutoGeneratedExpander_21266", push="357", pop="119", peek="119", pushType="float", popType="float", peekType="float", codeSize="32 b", stackSize="32 b", work="27"];
node168 -> node216;
node217 [label="AutoGeneratedExpander_21267", push="357", pop="119", peek="119", pushType="float", popType="float", peekType="float", codeSize="32 b", stackSize="32 b", work="27"];
node168 -> node217;
node218 [label="AutoGeneratedExpander_21268", push="357", pop="119", peek="119", pushType="float", popType="float", peekType="float", codeSize="32 b", stackSize="32 b", work="27"];
node168 -> node218;
node219 [label="AutoGeneratedExpander_21269", push="357", pop="119", peek="119", pushType="float", popType="float", peekType="float", codeSize="32 b", stackSize="32 b", work="27"];
node168 -> node219;
node220 [label="AutoGeneratedExpander_21270", push="357", pop="119", peek="119", pushType="float", popType="float", peekType="float", codeSize="32 b", stackSize="32 b", work="27"];
node168 -> node220;
node221 [label="AutoGeneratedExpander_21271", push="357", pop="119", peek="119", pushType="float", popType="float", peekType="float", codeSize="32 b", stackSize="32 b", work="27"];
node168 -> node221;
node222 [label="AutoGeneratedExpander_21272", push="357", pop="119", peek="119", pushType="float", popType="float", peekType="float", codeSize="32 b", stackSize="32 b", work="27"];
node168 -> node222;
node223 [label="AutoGeneratedExpander_21273", push="357", pop="119", peek="119", pushType="float", popType="float", peekType="float", codeSize="32 b", stackSize="32 b", work="27"];
node168 -> node223;
node224 [label="AutoGeneratedExpander_21274", push="357", pop="119", peek="119", pushType="float", popType="float", peekType="float", codeSize="32 b", stackSize="32 b", work="27"];
node168 -> node224;
node225 [label="AutoGeneratedExpander_21275", push="357", pop="119", peek="119", pushType="float", popType="float", peekType="float", codeSize="32 b", stackSize="32 b", work="27"];
node168 -> node225;
node226 [label="AutoGeneratedExpander_21276", push="357", pop="119", peek="119", pushType="float", popType="float", peekType="float", codeSize="32 b", stackSize="32 b", work="27"];
node168 -> node226;
node227 [label="AutoGeneratedExpander_21277", push="357", pop="119", peek="119", pushType="float", popType="float", peekType="float", codeSize="32 b", stackSize="32 b", work="27"];
node168 -> node227;
node228 [label="AutoGeneratedExpander_21278", push="357", pop="119", peek="119", pushType="float", popType="float", peekType="float", codeSize="32 b", stackSize="32 b", work="27"];
node168 -> node228;
node229 [label="AutoGeneratedExpander_21279", push="357", pop="119", peek="119", pushType="float", popType="float", peekType="float", codeSize="32 b", stackSize="32 b", work="27"];
node168 -> node229;
node230 [label="AutoGeneratedExpander_21280", push="357", pop="119", peek="119", pushType="float", popType="float", peekType="float", codeSize="32 b", stackSize="32 b", work="27"];
node168 -> node230;
node231 [label="AutoGeneratedExpander_21281", push="357", pop="119", peek="119", pushType="float", popType="float", peekType="float", codeSize="32 b", stackSize="32 b", work="27"];
node168 -> node231;
node232 [label="AutoGeneratedExpander_21282", push="357", pop="119", peek="119", pushType="float", popType="float", peekType="float", codeSize="32 b", stackSize="32 b", work="27"];
node168 -> node232;
node233 [label="AutoGeneratedExpander_21283", push="357", pop="119", peek="119", pushType="float", popType="float", peekType="float", codeSize="32 b", stackSize="32 b", work="27"];
node168 -> node233;
node234 [label="AutoGeneratedExpander_21284", push="357", pop="119", peek="119", pushType="float", popType="float", peekType="float", codeSize="32 b", stackSize="32 b", work="27"];
node168 -> node234;
node235 [label="AutoGeneratedExpander_21285", push="357", pop="119", peek="119", pushType="float", popType="float", peekType="float", codeSize="32 b", stackSize="32 b", work="27"];
node168 -> node235;
node236 [label="AutoGeneratedExpander_21286", push="357", pop="119", peek="119", pushType="float", popType="float", peekType="float", codeSize="32 b", stackSize="32 b", work="27"];
node168 -> node236;
node237 [label="AutoGeneratedExpander_21287", push="357", pop="119", peek="119", pushType="float", popType="float", peekType="float", codeSize="32 b", stackSize="32 b", work="27"];
node168 -> node237;
node238 [label="AutoGeneratedExpander_21288", push="357", pop="119", peek="119", pushType="float", popType="float", peekType="float", codeSize="32 b", stackSize="32 b", work="27"];
node168 -> node238;
node239 [label="AutoGeneratedExpander_21289", push="357", pop="119", peek="119", pushType="float", popType="float", peekType="float", codeSize="32 b", stackSize="32 b", work="27"];
node168 -> node239;
node240 [label="AutoGeneratedExpander_21290", push="357", pop="119", peek="119", pushType="float", popType="float", peekType="float", codeSize="32 b", stackSize="32 b", work="27"];
node168 -> node240;
node241 [label="AutoGeneratedExpander_21291", push="357", pop="119", peek="119", pushType="float", popType="float", peekType="float", codeSize="32 b", stackSize="32 b", work="27"];
node168 -> node241;
node242 [label="AutoGeneratedExpander_21292", push="357", pop="119", peek="119", pushType="float", popType="float", peekType="float", codeSize="32 b", stackSize="32 b", work="27"];
node168 -> node242;
node243 [label="AutoGeneratedExpander_21293", push="357", pop="119", peek="119", pushType="float", popType="float", peekType="float", codeSize="32 b", stackSize="32 b", work="27"];
node168 -> node243;
node244 [label="AutoGeneratedExpander_21294", push="357", pop="119", peek="119", pushType="float", popType="float", peekType="float", codeSize="32 b", stackSize="32 b", work="27"];
node168 -> node244;
node245 [label="AutoGeneratedExpander_21295", push="357", pop="119", peek="119", pushType="float", popType="float", peekType="float", codeSize="32 b", stackSize="32 b", work="27"];
node168 -> node245;
node246 [label="AutoGeneratedExpander_21296", push="357", pop="119", peek="119", pushType="float", popType="float", peekType="float", codeSize="32 b", stackSize="32 b", work="27"];
node168 -> node246;
node247 [label="AutoGeneratedExpander_21297", push="357", pop="119", peek="119", pushType="float", popType="float", peekType="float", codeSize="32 b", stackSize="32 b", work="27"];
node168 -> node247;
node248 [label="AutoGeneratedExpander_21298", push="357", pop="119", peek="119", pushType="float", popType="float", peekType="float", codeSize="32 b", stackSize="32 b", work="27"];
node168 -> node248;
node249 [label="AutoGeneratedExpander_21299", push="357", pop="119", peek="119", pushType="float", popType="float", peekType="float", codeSize="32 b", stackSize="32 b", work="27"];
node168 -> node249;
node250 [label="AutoGeneratedExpander_21300", push="357", pop="119", peek="119", pushType="float", popType="float", peekType="float", codeSize="32 b", stackSize="32 b", work="27"];
node168 -> node250;
node251 [label="AutoGeneratedExpander_21301", push="357", pop="119", peek="119", pushType="float", popType="float", peekType="float", codeSize="32 b", stackSize="32 b", work="27"];
node168 -> node251;
node252 [label="AutoGeneratedExpander_21302", push="357", pop="119", peek="119", pushType="float", popType="float", peekType="float", codeSize="32 b", stackSize="32 b", work="27"];
node168 -> node252;
node253 [label="AutoGeneratedExpander_21303", push="357", pop="119", peek="119", pushType="float", popType="float", peekType="float", codeSize="32 b", stackSize="32 b", work="27"];
node168 -> node253;
node254 [label="AutoGeneratedExpander_21304", push="357", pop="119", peek="119", pushType="float", popType="float", peekType="float", codeSize="32 b", stackSize="32 b", work="27"];
node168 -> node254;
node255 [label="AutoGeneratedExpander_21305", push="357", pop="119", peek="119", pushType="float", popType="float", peekType="float", codeSize="32 b", stackSize="32 b", work="27"];
node168 -> node255;
node256 [label="AutoGeneratedExpander_21306", push="357", pop="119", peek="119", pushType="float", popType="float", peekType="float", codeSize="32 b", stackSize="32 b", work="27"];
node168 -> node256;
node257 [label="AutoGeneratedExpander_21307", push="357", pop="119", peek="119", pushType="float", popType="float", peekType="float", codeSize="32 b", stackSize="32 b", work="27"];
node168 -> node257;
node258 [label="AutoGeneratedExpander_21308", push="357", pop="119", peek="119", pushType="float", popType="float", peekType="float", codeSize="32 b", stackSize="32 b", work="27"];
node168 -> node258;
node259 [label="AutoGeneratedExpander_21309", push="357", pop="119", peek="119", pushType="float", popType="float", peekType="float", codeSize="32 b", stackSize="32 b", work="27"];
node168 -> node259;
node260 [label="AutoGeneratedExpander_21310", push="357", pop="119", peek="119", pushType="float", popType="float", peekType="float", codeSize="32 b", stackSize="32 b", work="27"];
node168 -> node260;
node261 [label="AutoGeneratedExpander_21311", push="357", pop="119", peek="119", pushType="float", popType="float", peekType="float", codeSize="32 b", stackSize="32 b", work="27"];
node168 -> node261;
node262 [label="AutoGeneratedExpander_21312", push="357", pop="119", peek="119", pushType="float", popType="float", peekType="float", codeSize="32 b", stackSize="32 b", work="27"];
node168 -> node262;
node263 [label="AutoGeneratedExpander_21313", push="357", pop="119", peek="119", pushType="float", popType="float", peekType="float", codeSize="32 b", stackSize="32 b", work="27"];
node168 -> node263;
node264 [label="AutoGeneratedExpander_21314", push="357", pop="119", peek="119", pushType="float", popType="float", peekType="float", codeSize="32 b", stackSize="32 b", work="27"];
node168 -> node264;
node265 [label="AutoGeneratedExpander_21315", push="357", pop="119", peek="119", pushType="float", popType="float", peekType="float", codeSize="32 b", stackSize="32 b", work="27"];
node168 -> node265;
node266 [label="AutoGeneratedExpander_21316", push="357", pop="119", peek="119", pushType="float", popType="float", peekType="float", codeSize="32 b", stackSize="32 b", work="27"];
node168 -> node266;
node267 [label="AutoGeneratedExpander_21317", push="357", pop="119", peek="119", pushType="float", popType="float", peekType="float", codeSize="32 b", stackSize="32 b", work="27"];
node168 -> node267;
node268 [label="AutoGeneratedExpander_21318", push="357", pop="119", peek="119", pushType="float", popType="float", peekType="float", codeSize="32 b", stackSize="32 b", work="27"];
node168 -> node268;
node269 [label="AutoGeneratedExpander_21319", push="357", pop="119", peek="119", pushType="float", popType="float", peekType="float", codeSize="32 b", stackSize="32 b", work="27"];
node168 -> node269;
node270 [label="AutoGeneratedExpander_21320", push="357", pop="119", peek="119", pushType="float", popType="float", peekType="float", codeSize="32 b", stackSize="32 b", work="27"];
node168 -> node270;
node271 [label="AutoGeneratedExpander_21321", push="357", pop="119", peek="119", pushType="float", popType="float", peekType="float", codeSize="32 b", stackSize="32 b", work="27"];
node168 -> node271;
node272 [label="AutoGeneratedExpander_21322", push="357", pop="119", peek="119", pushType="float", popType="float", peekType="float", codeSize="32 b", stackSize="32 b", work="27"];
node168 -> node272;
node273 [label="AutoGeneratedExpander_21323", push="357", pop="119", peek="119", pushType="float", popType="float", peekType="float", codeSize="32 b", stackSize="32 b", work="27"];
node168 -> node273;
node274 [label="AutoGeneratedExpander_21324", push="357", pop="119", peek="119", pushType="float", popType="float", peekType="float", codeSize="32 b", stackSize="32 b", work="27"];
node168 -> node274;
node275 [label="AutoGeneratedExpander_21325", push="357", pop="119", peek="119", pushType="float", popType="float", peekType="float", codeSize="32 b", stackSize="32 b", work="27"];
node168 -> node275;
node276 [label="AutoGeneratedExpander_21326", push="357", pop="119", peek="119", pushType="float", popType="float", peekType="float", codeSize="32 b", stackSize="32 b", work="27"];
node168 -> node276;
node277 [label="WEIGHTED_ROUND_ROBIN_Joiner_21218", push="38556", pop="38556", peek="0", pushType="float", popType="float", peekType="void", codeSize="1950 b", stackSize="3488 b", work="0"];
node169 -> node277;
node170 -> node277;
node171 -> node277;
node172 -> node277;
node173 -> node277;
node174 -> node277;
node175 -> node277;
node176 -> node277;
node177 -> node277;
node178 -> node277;
node179 -> node277;
node180 -> node277;
node181 -> node277;
node182 -> node277;
node183 -> node277;
node184 -> node277;
node185 -> node277;
node186 -> node277;
node187 -> node277;
node188 -> node277;
node189 -> node277;
node190 -> node277;
node191 -> node277;
node192 -> node277;
node193 -> node277;
node194 -> node277;
node195 -> node277;
node196 -> node277;
node197 -> node277;
node198 -> node277;
node199 -> node277;
node200 -> node277;
node201 -> node277;
node202 -> node277;
node203 -> node277;
node204 -> node277;
node205 -> node277;
node206 -> node277;
node207 -> node277;
node208 -> node277;
node209 -> node277;
node210 -> node277;
node211 -> node277;
node212 -> node277;
node213 -> node277;
node214 -> node277;
node215 -> node277;
node216 -> node277;
node217 -> node277;
node218 -> node277;
node219 -> node277;
node220 -> node277;
node221 -> node277;
node222 -> node277;
node223 -> node277;
node224 -> node277;
node225 -> node277;
node226 -> node277;
node227 -> node277;
node228 -> node277;
node229 -> node277;
node230 -> node277;
node231 -> node277;
node232 -> node277;
node233 -> node277;
node234 -> node277;
node235 -> node277;
node236 -> node277;
node237 -> node277;
node238 -> node277;
node239 -> node277;
node240 -> node277;
node241 -> node277;
node242 -> node277;
node243 -> node277;
node244 -> node277;
node245 -> node277;
node246 -> node277;
node247 -> node277;
node248 -> node277;
node249 -> node277;
node250 -> node277;
node251 -> node277;
node252 -> node277;
node253 -> node277;
node254 -> node277;
node255 -> node277;
node256 -> node277;
node257 -> node277;
node258 -> node277;
node259 -> node277;
node260 -> node277;
node261 -> node277;
node262 -> node277;
node263 -> node277;
node264 -> node277;
node265 -> node277;
node266 -> node277;
node267 -> node277;
node268 -> node277;
node269 -> node277;
node270 -> node277;
node271 -> node277;
node272 -> node277;
node273 -> node277;
node274 -> node277;
node275 -> node277;
node276 -> node277;
node278 [label="Identity_20942", push="38556", pop="38556", peek="38556", pushType="float", popType="float", peekType="float", codeSize="12 b", stackSize="32 b", work="6"];
node277 -> node278;
node279 [label="Pre_CollapsedDataParallel_2_21045", push="38556", pop="38556", peek="38556", pushType="float", popType="float", peekType="float", codeSize="50 b", stackSize="96 b", work="3249"];
node278 -> node279;
node280 [label="WEIGHTED_ROUND_ROBIN_Joiner_21049", push="89964", pop="89964", peek="0", pushType="float", popType="float", peekType="void", codeSize="42 b", stackSize="96 b", work="0"];
node148 -> node280;
node279 -> node280;
node281 [label="WEIGHTED_ROUND_ROBIN_Splitter_21327", push="89964", pop="89964", peek="0", pushType="float", popType="float", peekType="void", codeSize="492 b", stackSize="896 b", work="0"];
node280 -> node281;
node282 [label="BlockMultiply_21329", push="1428", pop="3332", peek="3332", pushType="float", popType="float", peekType="float", codeSize="102 b", stackSize="256 b", work="1024"];
node281 -> node282;
node283 [label="BlockMultiply_21330", push="1428", pop="3332", peek="3332", pushType="float", popType="float", peekType="float", codeSize="102 b", stackSize="256 b", work="1024"];
node281 -> node283;
node284 [label="BlockMultiply_21331", push="1428", pop="3332", peek="3332", pushType="float", popType="float", peekType="float", codeSize="102 b", stackSize="256 b", work="1024"];
node281 -> node284;
node285 [label="BlockMultiply_21332", push="1428", pop="3332", peek="3332", pushType="float", popType="float", peekType="float", codeSize="102 b", stackSize="256 b", work="1024"];
node281 -> node285;
node286 [label="BlockMultiply_21333", push="1428", pop="3332", peek="3332", pushType="float", popType="float", peekType="float", codeSize="102 b", stackSize="256 b", work="1024"];
node281 -> node286;
node287 [label="BlockMultiply_21334", push="1428", pop="3332", peek="3332", pushType="float", popType="float", peekType="float", codeSize="102 b", stackSize="256 b", work="1024"];
node281 -> node287;
node288 [label="BlockMultiply_21335", push="1428", pop="3332", peek="3332", pushType="float", popType="float", peekType="float", codeSize="102 b", stackSize="256 b", work="1024"];
node281 -> node288;
node289 [label="BlockMultiply_21336", push="1428", pop="3332", peek="3332", pushType="float", popType="float", peekType="float", codeSize="102 b", stackSize="256 b", work="1024"];
node281 -> node289;
node290 [label="BlockMultiply_21337", push="1428", pop="3332", peek="3332", pushType="float", popType="float", peekType="float", codeSize="102 b", stackSize="256 b", work="1024"];
node281 -> node290;
node291 [label="BlockMultiply_21338", push="1428", pop="3332", peek="3332", pushType="float", popType="float", peekType="float", codeSize="102 b", stackSize="256 b", work="1024"];
node281 -> node291;
node292 [label="BlockMultiply_21339", push="1428", pop="3332", peek="3332", pushType="float", popType="float", peekType="float", codeSize="102 b", stackSize="256 b", work="1024"];
node281 -> node292;
node293 [label="BlockMultiply_21340", push="1428", pop="3332", peek="3332", pushType="float", popType="float", peekType="float", codeSize="102 b", stackSize="256 b", work="1024"];
node281 -> node293;
node294 [label="BlockMultiply_21341", push="1428", pop="3332", peek="3332", pushType="float", popType="float", peekType="float", codeSize="102 b", stackSize="256 b", work="1024"];
node281 -> node294;
node295 [label="BlockMultiply_21342", push="1428", pop="3332", peek="3332", pushType="float", popType="float", peekType="float", codeSize="102 b", stackSize="256 b", work="1024"];
node281 -> node295;
node296 [label="BlockMultiply_21343", push="1428", pop="3332", peek="3332", pushType="float", popType="float", peekType="float", codeSize="102 b", stackSize="256 b", work="1024"];
node281 -> node296;
node297 [label="BlockMultiply_21344", push="1428", pop="3332", peek="3332", pushType="float", popType="float", peekType="float", codeSize="102 b", stackSize="256 b", work="1024"];
node281 -> node297;
node298 [label="BlockMultiply_21345", push="1428", pop="3332", peek="3332", pushType="float", popType="float", peekType="float", codeSize="102 b", stackSize="256 b", work="1024"];
node281 -> node298;
node299 [label="BlockMultiply_21346", push="1428", pop="3332", peek="3332", pushType="float", popType="float", peekType="float", codeSize="102 b", stackSize="256 b", work="1024"];
node281 -> node299;
node300 [label="BlockMultiply_21347", push="1428", pop="3332", peek="3332", pushType="float", popType="float", peekType="float", codeSize="102 b", stackSize="256 b", work="1024"];
node281 -> node300;
node301 [label="BlockMultiply_21348", push="1428", pop="3332", peek="3332", pushType="float", popType="float", peekType="float", codeSize="102 b", stackSize="256 b", work="1024"];
node281 -> node301;
node302 [label="BlockMultiply_21349", push="1428", pop="3332", peek="3332", pushType="float", popType="float", peekType="float", codeSize="102 b", stackSize="256 b", work="1024"];
node281 -> node302;
node303 [label="BlockMultiply_21350", push="1428", pop="3332", peek="3332", pushType="float", popType="float", peekType="float", codeSize="102 b", stackSize="256 b", work="1024"];
node281 -> node303;
node304 [label="BlockMultiply_21351", push="1428", pop="3332", peek="3332", pushType="float", popType="float", peekType="float", codeSize="102 b", stackSize="256 b", work="1024"];
node281 -> node304;
node305 [label="BlockMultiply_21352", push="1428", pop="3332", peek="3332", pushType="float", popType="float", peekType="float", codeSize="102 b", stackSize="256 b", work="1024"];
node281 -> node305;
node306 [label="BlockMultiply_21353", push="1428", pop="3332", peek="3332", pushType="float", popType="float", peekType="float", codeSize="102 b", stackSize="256 b", work="1024"];
node281 -> node306;
node307 [label="BlockMultiply_21354", push="1428", pop="3332", peek="3332", pushType="float", popType="float", peekType="float", codeSize="102 b", stackSize="256 b", work="1024"];
node281 -> node307;
node308 [label="BlockMultiply_21355", push="1428", pop="3332", peek="3332", pushType="float", popType="float", peekType="float", codeSize="102 b", stackSize="256 b", work="1024"];
node281 -> node308;
node309 [label="WEIGHTED_ROUND_ROBIN_Joiner_21328", push="38556", pop="38556", peek="0", pushType="float", popType="float", peekType="void", codeSize="492 b", stackSize="896 b", work="0"];
node282 -> node309;
node283 -> node309;
node284 -> node309;
node285 -> node309;
node286 -> node309;
node287 -> node309;
node288 -> node309;
node289 -> node309;
node290 -> node309;
node291 -> node309;
node292 -> node309;
node293 -> node309;
node294 -> node309;
node295 -> node309;
node296 -> node309;
node297 -> node309;
node298 -> node309;
node299 -> node309;
node300 -> node309;
node301 -> node309;
node302 -> node309;
node303 -> node309;
node304 -> node309;
node305 -> node309;
node306 -> node309;
node307 -> node309;
node308 -> node309;
node310 [label="BlockAdd_20946", push="12852", pop="38556", peek="38556", pushType="float", popType="float", peekType="float", codeSize="189 b", stackSize="96 b", work="468"];
node309 -> node310;
node311 [label="WEIGHTED_ROUND_ROBIN_Splitter_21356", push="12852", pop="12852", peek="0", pushType="float", popType="float", peekType="void", codeSize="168 b", stackSize="320 b", work="0"];
node310 -> node311;
node312 [label="Post_CollapsedDataParallel_1_21358", push="1428", pop="1428", peek="1428", pushType="float", popType="float", peekType="float", codeSize="54 b", stackSize="96 b", work="141"];
node311 -> node312;
node313 [label="Post_CollapsedDataParallel_1_21359", push="1428", pop="1428", peek="1428", pushType="float", popType="float", peekType="float", codeSize="54 b", stackSize="96 b", work="141"];
node311 -> node313;
node314 [label="Post_CollapsedDataParallel_1_21360", push="1428", pop="1428", peek="1428", pushType="float", popType="float", peekType="float", codeSize="54 b", stackSize="96 b", work="141"];
node311 -> node314;
node315 [label="Post_CollapsedDataParallel_1_21361", push="1428", pop="1428", peek="1428", pushType="float", popType="float", peekType="float", codeSize="54 b", stackSize="96 b", work="141"];
node311 -> node315;
node316 [label="Post_CollapsedDataParallel_1_21362", push="1428", pop="1428", peek="1428", pushType="float", popType="float", peekType="float", codeSize="54 b", stackSize="96 b", work="141"];
node311 -> node316;
node317 [label="Post_CollapsedDataParallel_1_21363", push="1428", pop="1428", peek="1428", pushType="float", popType="float", peekType="float", codeSize="54 b", stackSize="96 b", work="141"];
node311 -> node317;
node318 [label="Post_CollapsedDataParallel_1_21364", push="1428", pop="1428", peek="1428", pushType="float", popType="float", peekType="float", codeSize="54 b", stackSize="96 b", work="141"];
node311 -> node318;
node319 [label="Post_CollapsedDataParallel_1_21365", push="1428", pop="1428", peek="1428", pushType="float", popType="float", peekType="float", codeSize="54 b", stackSize="96 b", work="141"];
node311 -> node319;
node320 [label="Post_CollapsedDataParallel_1_21366", push="1428", pop="1428", peek="1428", pushType="float", popType="float", peekType="float", codeSize="54 b", stackSize="96 b", work="141"];
node311 -> node320;
node321 [label="WEIGHTED_ROUND_ROBIN_Joiner_21357", push="12852", pop="12852", peek="0", pushType="float", popType="float", peekType="void", codeSize="168 b", stackSize="320 b", work="0"];
node312 -> node321;
node313 -> node321;
node314 -> node321;
node315 -> node321;
node316 -> node321;
node317 -> node321;
node318 -> node321;
node319 -> node321;
node320 -> node321;
node322 [label="Identity_20948", push="12852", pop="12852", peek="12852", pushType="float", popType="float", peekType="float", codeSize="12 b", stackSize="32 b", work="6"];
node321 -> node322;
node323 [label="WEIGHTED_ROUND_ROBIN_Splitter_21367", push="12852", pop="12852", peek="0", pushType="float", popType="float", peekType="void", codeSize="60 b", stackSize="128 b", work="0"];
node322 -> node323;
node324 [label="Pre_CollapsedDataParallel_2_21369", push="4284", pop="4284", peek="4284", pushType="float", popType="float", peekType="float", codeSize="50 b", stackSize="96 b", work="371"];
node323 -> node324;
node325 [label="Pre_CollapsedDataParallel_2_21370", push="4284", pop="4284", peek="4284", pushType="float", popType="float", peekType="float", codeSize="50 b", stackSize="96 b", work="371"];
node323 -> node325;
node326 [label="Pre_CollapsedDataParallel_2_21371", push="4284", pop="4284", peek="4284", pushType="float", popType="float", peekType="float", codeSize="50 b", stackSize="96 b", work="371"];
node323 -> node326;
node327 [label="WEIGHTED_ROUND_ROBIN_Joiner_21368", push="12852", pop="12852", peek="0", pushType="float", popType="float", peekType="void", codeSize="60 b", stackSize="128 b", work="0"];
node324 -> node327;
node325 -> node327;
node326 -> node327;
node328 [label="Printer_20952", push="0", pop="12852", peek="12852", pushType="void", popType="float", peekType="float", codeSize="16 b", stackSize="0 b", work="6"];
node327 -> node328;
}
