digraph MatrixMultBlock_22169 {
node0 [label="BlockFloatSource_21706", push="14868", pop="0", peek="0", pushType="float", popType="void", peekType="void", codeSize="26 b", stackSize="0 b", work="14"];
node1 [label="WEIGHTED_ROUND_ROBIN_Splitter_21835", push="14868", pop="14868", peek="0", pushType="float", popType="float", peekType="void", codeSize="42 b", stackSize="96 b", work="0"];
node0 -> node1;
node2 [label="WEIGHTED_ROUND_ROBIN_Splitter_21843", push="8496", pop="8496", peek="0", pushType="float", popType="float", peekType="void", codeSize="222 b", stackSize="416 b", work="0"];
node1 -> node2;
node3 [label="Post_CollapsedDataParallel_1_21845", push="708", pop="708", peek="708", pushType="float", popType="float", peekType="float", codeSize="54 b", stackSize="96 b", work="143"];
node2 -> node3;
node4 [label="Post_CollapsedDataParallel_1_21846", push="708", pop="708", peek="708", pushType="float", popType="float", peekType="float", codeSize="54 b", stackSize="96 b", work="143"];
node2 -> node4;
node5 [label="Post_CollapsedDataParallel_1_21847", push="708", pop="708", peek="708", pushType="float", popType="float", peekType="float", codeSize="54 b", stackSize="96 b", work="143"];
node2 -> node5;
node6 [label="Post_CollapsedDataParallel_1_21848", push="708", pop="708", peek="708", pushType="float", popType="float", peekType="float", codeSize="54 b", stackSize="96 b", work="143"];
node2 -> node6;
node7 [label="Post_CollapsedDataParallel_1_21849", push="708", pop="708", peek="708", pushType="float", popType="float", peekType="float", codeSize="54 b", stackSize="96 b", work="143"];
node2 -> node7;
node8 [label="Post_CollapsedDataParallel_1_21850", push="708", pop="708", peek="708", pushType="float", popType="float", peekType="float", codeSize="54 b", stackSize="96 b", work="143"];
node2 -> node8;
node9 [label="Post_CollapsedDataParallel_1_21851", push="708", pop="708", peek="708", pushType="float", popType="float", peekType="float", codeSize="54 b", stackSize="96 b", work="143"];
node2 -> node9;
node10 [label="Post_CollapsedDataParallel_1_21852", push="708", pop="708", peek="708", pushType="float", popType="float", peekType="float", codeSize="54 b", stackSize="96 b", work="143"];
node2 -> node10;
node11 [label="Post_CollapsedDataParallel_1_21853", push="708", pop="708", peek="708", pushType="float", popType="float", peekType="float", codeSize="54 b", stackSize="96 b", work="143"];
node2 -> node11;
node12 [label="Post_CollapsedDataParallel_1_21854", push="708", pop="708", peek="708", pushType="float", popType="float", peekType="float", codeSize="54 b", stackSize="96 b", work="143"];
node2 -> node12;
node13 [label="Post_CollapsedDataParallel_1_21855", push="708", pop="708", peek="708", pushType="float", popType="float", peekType="float", codeSize="54 b", stackSize="96 b", work="143"];
node2 -> node13;
node14 [label="Post_CollapsedDataParallel_1_21856", push="708", pop="708", peek="708", pushType="float", popType="float", peekType="float", codeSize="54 b", stackSize="96 b", work="143"];
node2 -> node14;
node15 [label="WEIGHTED_ROUND_ROBIN_Joiner_21844", push="8496", pop="8496", peek="0", pushType="float", popType="float", peekType="void", codeSize="222 b", stackSize="416 b", work="0"];
node3 -> node15;
node4 -> node15;
node5 -> node15;
node6 -> node15;
node7 -> node15;
node8 -> node15;
node9 -> node15;
node10 -> node15;
node11 -> node15;
node12 -> node15;
node13 -> node15;
node14 -> node15;
node16 [label="Identity_21710", push="8496", pop="8496", peek="8496", pushType="float", popType="float", peekType="float", codeSize="12 b", stackSize="32 b", work="6"];
node15 -> node16;
node17 [label="WEIGHTED_ROUND_ROBIN_Splitter_21857", push="8496", pop="8496", peek="0", pushType="float", popType="float", peekType="void", codeSize="60 b", stackSize="128 b", work="0"];
node16 -> node17;
node18 [label="Pre_CollapsedDataParallel_2_21859", push="2832", pop="2832", peek="2832", pushType="float", popType="float", peekType="float", codeSize="50 b", stackSize="96 b", work="489"];
node17 -> node18;
node19 [label="Pre_CollapsedDataParallel_2_21860", push="2832", pop="2832", peek="2832", pushType="float", popType="float", peekType="float", codeSize="50 b", stackSize="96 b", work="489"];
node17 -> node19;
node20 [label="Pre_CollapsedDataParallel_2_21861", push="2832", pop="2832", peek="2832", pushType="float", popType="float", peekType="float", codeSize="50 b", stackSize="96 b", work="489"];
node17 -> node20;
node21 [label="WEIGHTED_ROUND_ROBIN_Joiner_21858", push="8496", pop="8496", peek="0", pushType="float", popType="float", peekType="void", codeSize="60 b", stackSize="128 b", work="0"];
node18 -> node21;
node19 -> node21;
node20 -> node21;
node22 [label="WEIGHTED_ROUND_ROBIN_Splitter_21862", push="8496", pop="8496", peek="0", pushType="float", popType="float", peekType="void", codeSize="1422 b", stackSize="32 b", work="0"];
node21 -> node22;
node23 [label="AutoGeneratedExpander_21864", push="216", pop="72", peek="72", pushType="float", popType="float", peekType="float", codeSize="32 b", stackSize="32 b", work="27"];
node22 -> node23;
node24 [label="AutoGeneratedExpander_21865", push="216", pop="72", peek="72", pushType="float", popType="float", peekType="float", codeSize="32 b", stackSize="32 b", work="27"];
node22 -> node24;
node25 [label="AutoGeneratedExpander_21866", push="216", pop="72", peek="72", pushType="float", popType="float", peekType="float", codeSize="32 b", stackSize="32 b", work="27"];
node22 -> node25;
node26 [label="AutoGeneratedExpander_21867", push="216", pop="72", peek="72", pushType="float", popType="float", peekType="float", codeSize="32 b", stackSize="32 b", work="27"];
node22 -> node26;
node27 [label="AutoGeneratedExpander_21868", push="216", pop="72", peek="72", pushType="float", popType="float", peekType="float", codeSize="32 b", stackSize="32 b", work="27"];
node22 -> node27;
node28 [label="AutoGeneratedExpander_21869", push="216", pop="72", peek="72", pushType="float", popType="float", peekType="float", codeSize="32 b", stackSize="32 b", work="27"];
node22 -> node28;
node29 [label="AutoGeneratedExpander_21870", push="216", pop="72", peek="72", pushType="float", popType="float", peekType="float", codeSize="32 b", stackSize="32 b", work="27"];
node22 -> node29;
node30 [label="AutoGeneratedExpander_21871", push="216", pop="72", peek="72", pushType="float", popType="float", peekType="float", codeSize="32 b", stackSize="32 b", work="27"];
node22 -> node30;
node31 [label="AutoGeneratedExpander_21872", push="216", pop="72", peek="72", pushType="float", popType="float", peekType="float", codeSize="32 b", stackSize="32 b", work="27"];
node22 -> node31;
node32 [label="AutoGeneratedExpander_21873", push="216", pop="72", peek="72", pushType="float", popType="float", peekType="float", codeSize="32 b", stackSize="32 b", work="27"];
node22 -> node32;
node33 [label="AutoGeneratedExpander_21874", push="216", pop="72", peek="72", pushType="float", popType="float", peekType="float", codeSize="32 b", stackSize="32 b", work="27"];
node22 -> node33;
node34 [label="AutoGeneratedExpander_21875", push="216", pop="72", peek="72", pushType="float", popType="float", peekType="float", codeSize="32 b", stackSize="32 b", work="27"];
node22 -> node34;
node35 [label="AutoGeneratedExpander_21876", push="216", pop="72", peek="72", pushType="float", popType="float", peekType="float", codeSize="32 b", stackSize="32 b", work="27"];
node22 -> node35;
node36 [label="AutoGeneratedExpander_21877", push="216", pop="72", peek="72", pushType="float", popType="float", peekType="float", codeSize="32 b", stackSize="32 b", work="27"];
node22 -> node36;
node37 [label="AutoGeneratedExpander_21878", push="216", pop="72", peek="72", pushType="float", popType="float", peekType="float", codeSize="32 b", stackSize="32 b", work="27"];
node22 -> node37;
node38 [label="AutoGeneratedExpander_21879", push="216", pop="72", peek="72", pushType="float", popType="float", peekType="float", codeSize="32 b", stackSize="32 b", work="27"];
node22 -> node38;
node39 [label="AutoGeneratedExpander_21880", push="216", pop="72", peek="72", pushType="float", popType="float", peekType="float", codeSize="32 b", stackSize="32 b", work="27"];
node22 -> node39;
node40 [label="AutoGeneratedExpander_21881", push="216", pop="72", peek="72", pushType="float", popType="float", peekType="float", codeSize="32 b", stackSize="32 b", work="27"];
node22 -> node40;
node41 [label="AutoGeneratedExpander_21882", push="216", pop="72", peek="72", pushType="float", popType="float", peekType="float", codeSize="32 b", stackSize="32 b", work="27"];
node22 -> node41;
node42 [label="AutoGeneratedExpander_21883", push="216", pop="72", peek="72", pushType="float", popType="float", peekType="float", codeSize="32 b", stackSize="32 b", work="27"];
node22 -> node42;
node43 [label="AutoGeneratedExpander_21884", push="216", pop="72", peek="72", pushType="float", popType="float", peekType="float", codeSize="32 b", stackSize="32 b", work="27"];
node22 -> node43;
node44 [label="AutoGeneratedExpander_21885", push="216", pop="72", peek="72", pushType="float", popType="float", peekType="float", codeSize="32 b", stackSize="32 b", work="27"];
node22 -> node44;
node45 [label="AutoGeneratedExpander_21886", push="216", pop="72", peek="72", pushType="float", popType="float", peekType="float", codeSize="32 b", stackSize="32 b", work="27"];
node22 -> node45;
node46 [label="AutoGeneratedExpander_21887", push="216", pop="72", peek="72", pushType="float", popType="float", peekType="float", codeSize="32 b", stackSize="32 b", work="27"];
node22 -> node46;
node47 [label="AutoGeneratedExpander_21888", push="216", pop="72", peek="72", pushType="float", popType="float", peekType="float", codeSize="32 b", stackSize="32 b", work="27"];
node22 -> node47;
node48 [label="AutoGeneratedExpander_21889", push="216", pop="72", peek="72", pushType="float", popType="float", peekType="float", codeSize="32 b", stackSize="32 b", work="27"];
node22 -> node48;
node49 [label="AutoGeneratedExpander_21890", push="216", pop="72", peek="72", pushType="float", popType="float", peekType="float", codeSize="32 b", stackSize="32 b", work="27"];
node22 -> node49;
node50 [label="AutoGeneratedExpander_21891", push="216", pop="72", peek="72", pushType="float", popType="float", peekType="float", codeSize="32 b", stackSize="32 b", work="27"];
node22 -> node50;
node51 [label="AutoGeneratedExpander_21892", push="216", pop="72", peek="72", pushType="float", popType="float", peekType="float", codeSize="32 b", stackSize="32 b", work="27"];
node22 -> node51;
node52 [label="AutoGeneratedExpander_21893", push="216", pop="72", peek="72", pushType="float", popType="float", peekType="float", codeSize="32 b", stackSize="32 b", work="27"];
node22 -> node52;
node53 [label="AutoGeneratedExpander_21894", push="216", pop="72", peek="72", pushType="float", popType="float", peekType="float", codeSize="32 b", stackSize="32 b", work="27"];
node22 -> node53;
node54 [label="AutoGeneratedExpander_21895", push="216", pop="72", peek="72", pushType="float", popType="float", peekType="float", codeSize="32 b", stackSize="32 b", work="27"];
node22 -> node54;
node55 [label="AutoGeneratedExpander_21896", push="216", pop="72", peek="72", pushType="float", popType="float", peekType="float", codeSize="32 b", stackSize="32 b", work="27"];
node22 -> node55;
node56 [label="AutoGeneratedExpander_21897", push="216", pop="72", peek="72", pushType="float", popType="float", peekType="float", codeSize="32 b", stackSize="32 b", work="27"];
node22 -> node56;
node57 [label="AutoGeneratedExpander_21898", push="216", pop="72", peek="72", pushType="float", popType="float", peekType="float", codeSize="32 b", stackSize="32 b", work="27"];
node22 -> node57;
node58 [label="AutoGeneratedExpander_21899", push="216", pop="72", peek="72", pushType="float", popType="float", peekType="float", codeSize="32 b", stackSize="32 b", work="27"];
node22 -> node58;
node59 [label="AutoGeneratedExpander_21900", push="216", pop="72", peek="72", pushType="float", popType="float", peekType="float", codeSize="32 b", stackSize="32 b", work="27"];
node22 -> node59;
node60 [label="AutoGeneratedExpander_21901", push="216", pop="72", peek="72", pushType="float", popType="float", peekType="float", codeSize="32 b", stackSize="32 b", work="27"];
node22 -> node60;
node61 [label="AutoGeneratedExpander_21902", push="216", pop="72", peek="72", pushType="float", popType="float", peekType="float", codeSize="32 b", stackSize="32 b", work="27"];
node22 -> node61;
node62 [label="AutoGeneratedExpander_21903", push="216", pop="72", peek="72", pushType="float", popType="float", peekType="float", codeSize="32 b", stackSize="32 b", work="27"];
node22 -> node62;
node63 [label="AutoGeneratedExpander_21904", push="216", pop="72", peek="72", pushType="float", popType="float", peekType="float", codeSize="32 b", stackSize="32 b", work="27"];
node22 -> node63;
node64 [label="AutoGeneratedExpander_21905", push="216", pop="72", peek="72", pushType="float", popType="float", peekType="float", codeSize="32 b", stackSize="32 b", work="27"];
node22 -> node64;
node65 [label="AutoGeneratedExpander_21906", push="216", pop="72", peek="72", pushType="float", popType="float", peekType="float", codeSize="32 b", stackSize="32 b", work="27"];
node22 -> node65;
node66 [label="AutoGeneratedExpander_21907", push="216", pop="72", peek="72", pushType="float", popType="float", peekType="float", codeSize="32 b", stackSize="32 b", work="27"];
node22 -> node66;
node67 [label="AutoGeneratedExpander_21908", push="216", pop="72", peek="72", pushType="float", popType="float", peekType="float", codeSize="32 b", stackSize="32 b", work="27"];
node22 -> node67;
node68 [label="AutoGeneratedExpander_21909", push="216", pop="72", peek="72", pushType="float", popType="float", peekType="float", codeSize="32 b", stackSize="32 b", work="27"];
node22 -> node68;
node69 [label="AutoGeneratedExpander_21910", push="216", pop="72", peek="72", pushType="float", popType="float", peekType="float", codeSize="32 b", stackSize="32 b", work="27"];
node22 -> node69;
node70 [label="AutoGeneratedExpander_21911", push="216", pop="72", peek="72", pushType="float", popType="float", peekType="float", codeSize="32 b", stackSize="32 b", work="27"];
node22 -> node70;
node71 [label="AutoGeneratedExpander_21912", push="216", pop="72", peek="72", pushType="float", popType="float", peekType="float", codeSize="32 b", stackSize="32 b", work="27"];
node22 -> node71;
node72 [label="AutoGeneratedExpander_21913", push="216", pop="72", peek="72", pushType="float", popType="float", peekType="float", codeSize="32 b", stackSize="32 b", work="27"];
node22 -> node72;
node73 [label="AutoGeneratedExpander_21914", push="216", pop="72", peek="72", pushType="float", popType="float", peekType="float", codeSize="32 b", stackSize="32 b", work="27"];
node22 -> node73;
node74 [label="AutoGeneratedExpander_21915", push="216", pop="72", peek="72", pushType="float", popType="float", peekType="float", codeSize="32 b", stackSize="32 b", work="27"];
node22 -> node74;
node75 [label="AutoGeneratedExpander_21916", push="216", pop="72", peek="72", pushType="float", popType="float", peekType="float", codeSize="32 b", stackSize="32 b", work="27"];
node22 -> node75;
node76 [label="AutoGeneratedExpander_21917", push="216", pop="72", peek="72", pushType="float", popType="float", peekType="float", codeSize="32 b", stackSize="32 b", work="27"];
node22 -> node76;
node77 [label="AutoGeneratedExpander_21918", push="216", pop="72", peek="72", pushType="float", popType="float", peekType="float", codeSize="32 b", stackSize="32 b", work="27"];
node22 -> node77;
node78 [label="AutoGeneratedExpander_21919", push="216", pop="72", peek="72", pushType="float", popType="float", peekType="float", codeSize="32 b", stackSize="32 b", work="27"];
node22 -> node78;
node79 [label="AutoGeneratedExpander_21920", push="216", pop="72", peek="72", pushType="float", popType="float", peekType="float", codeSize="32 b", stackSize="32 b", work="27"];
node22 -> node79;
node80 [label="AutoGeneratedExpander_21921", push="216", pop="72", peek="72", pushType="float", popType="float", peekType="float", codeSize="32 b", stackSize="32 b", work="27"];
node22 -> node80;
node81 [label="AutoGeneratedExpander_21922", push="216", pop="72", peek="72", pushType="float", popType="float", peekType="float", codeSize="32 b", stackSize="32 b", work="27"];
node22 -> node81;
node82 [label="AutoGeneratedExpander_21923", push="216", pop="72", peek="72", pushType="float", popType="float", peekType="float", codeSize="32 b", stackSize="32 b", work="27"];
node22 -> node82;
node83 [label="AutoGeneratedExpander_21924", push="216", pop="72", peek="72", pushType="float", popType="float", peekType="float", codeSize="32 b", stackSize="32 b", work="27"];
node22 -> node83;
node84 [label="AutoGeneratedExpander_21925", push="216", pop="72", peek="72", pushType="float", popType="float", peekType="float", codeSize="32 b", stackSize="32 b", work="27"];
node22 -> node84;
node85 [label="AutoGeneratedExpander_21926", push="216", pop="72", peek="72", pushType="float", popType="float", peekType="float", codeSize="32 b", stackSize="32 b", work="27"];
node22 -> node85;
node86 [label="AutoGeneratedExpander_21927", push="216", pop="72", peek="72", pushType="float", popType="float", peekType="float", codeSize="32 b", stackSize="32 b", work="27"];
node22 -> node86;
node87 [label="AutoGeneratedExpander_21928", push="216", pop="72", peek="72", pushType="float", popType="float", peekType="float", codeSize="32 b", stackSize="32 b", work="27"];
node22 -> node87;
node88 [label="AutoGeneratedExpander_21929", push="216", pop="72", peek="72", pushType="float", popType="float", peekType="float", codeSize="32 b", stackSize="32 b", work="27"];
node22 -> node88;
node89 [label="AutoGeneratedExpander_21930", push="216", pop="72", peek="72", pushType="float", popType="float", peekType="float", codeSize="32 b", stackSize="32 b", work="27"];
node22 -> node89;
node90 [label="AutoGeneratedExpander_21931", push="216", pop="72", peek="72", pushType="float", popType="float", peekType="float", codeSize="32 b", stackSize="32 b", work="27"];
node22 -> node90;
node91 [label="AutoGeneratedExpander_21932", push="216", pop="72", peek="72", pushType="float", popType="float", peekType="float", codeSize="32 b", stackSize="32 b", work="27"];
node22 -> node91;
node92 [label="AutoGeneratedExpander_21933", push="216", pop="72", peek="72", pushType="float", popType="float", peekType="float", codeSize="32 b", stackSize="32 b", work="27"];
node22 -> node92;
node93 [label="AutoGeneratedExpander_21934", push="216", pop="72", peek="72", pushType="float", popType="float", peekType="float", codeSize="32 b", stackSize="32 b", work="27"];
node22 -> node93;
node94 [label="AutoGeneratedExpander_21935", push="216", pop="72", peek="72", pushType="float", popType="float", peekType="float", codeSize="32 b", stackSize="32 b", work="27"];
node22 -> node94;
node95 [label="AutoGeneratedExpander_21936", push="216", pop="72", peek="72", pushType="float", popType="float", peekType="float", codeSize="32 b", stackSize="32 b", work="27"];
node22 -> node95;
node96 [label="AutoGeneratedExpander_21937", push="216", pop="72", peek="72", pushType="float", popType="float", peekType="float", codeSize="32 b", stackSize="32 b", work="27"];
node22 -> node96;
node97 [label="AutoGeneratedExpander_21938", push="216", pop="72", peek="72", pushType="float", popType="float", peekType="float", codeSize="32 b", stackSize="32 b", work="27"];
node22 -> node97;
node98 [label="AutoGeneratedExpander_21939", push="216", pop="72", peek="72", pushType="float", popType="float", peekType="float", codeSize="32 b", stackSize="32 b", work="27"];
node22 -> node98;
node99 [label="AutoGeneratedExpander_21940", push="216", pop="72", peek="72", pushType="float", popType="float", peekType="float", codeSize="32 b", stackSize="32 b", work="27"];
node22 -> node99;
node100 [label="AutoGeneratedExpander_21941", push="216", pop="72", peek="72", pushType="float", popType="float", peekType="float", codeSize="32 b", stackSize="32 b", work="27"];
node22 -> node100;
node101 [label="AutoGeneratedExpander_21942", push="216", pop="72", peek="72", pushType="float", popType="float", peekType="float", codeSize="32 b", stackSize="32 b", work="27"];
node22 -> node101;
node102 [label="AutoGeneratedExpander_21943", push="216", pop="72", peek="72", pushType="float", popType="float", peekType="float", codeSize="32 b", stackSize="32 b", work="27"];
node22 -> node102;
node103 [label="AutoGeneratedExpander_21944", push="216", pop="72", peek="72", pushType="float", popType="float", peekType="float", codeSize="32 b", stackSize="32 b", work="27"];
node22 -> node103;
node104 [label="AutoGeneratedExpander_21945", push="216", pop="72", peek="72", pushType="float", popType="float", peekType="float", codeSize="32 b", stackSize="32 b", work="27"];
node22 -> node104;
node105 [label="AutoGeneratedExpander_21946", push="216", pop="72", peek="72", pushType="float", popType="float", peekType="float", codeSize="32 b", stackSize="32 b", work="27"];
node22 -> node105;
node106 [label="AutoGeneratedExpander_21947", push="216", pop="72", peek="72", pushType="float", popType="float", peekType="float", codeSize="32 b", stackSize="32 b", work="27"];
node22 -> node106;
node107 [label="AutoGeneratedExpander_21948", push="216", pop="72", peek="72", pushType="float", popType="float", peekType="float", codeSize="32 b", stackSize="32 b", work="27"];
node22 -> node107;
node108 [label="AutoGeneratedExpander_21949", push="216", pop="72", peek="72", pushType="float", popType="float", peekType="float", codeSize="32 b", stackSize="32 b", work="27"];
node22 -> node108;
node109 [label="AutoGeneratedExpander_21950", push="216", pop="72", peek="72", pushType="float", popType="float", peekType="float", codeSize="32 b", stackSize="32 b", work="27"];
node22 -> node109;
node110 [label="AutoGeneratedExpander_21951", push="216", pop="72", peek="72", pushType="float", popType="float", peekType="float", codeSize="32 b", stackSize="32 b", work="27"];
node22 -> node110;
node111 [label="AutoGeneratedExpander_21952", push="216", pop="72", peek="72", pushType="float", popType="float", peekType="float", codeSize="32 b", stackSize="32 b", work="27"];
node22 -> node111;
node112 [label="AutoGeneratedExpander_21953", push="216", pop="72", peek="72", pushType="float", popType="float", peekType="float", codeSize="32 b", stackSize="32 b", work="27"];
node22 -> node112;
node113 [label="AutoGeneratedExpander_21954", push="216", pop="72", peek="72", pushType="float", popType="float", peekType="float", codeSize="32 b", stackSize="32 b", work="27"];
node22 -> node113;
node114 [label="AutoGeneratedExpander_21955", push="216", pop="72", peek="72", pushType="float", popType="float", peekType="float", codeSize="32 b", stackSize="32 b", work="27"];
node22 -> node114;
node115 [label="AutoGeneratedExpander_21956", push="216", pop="72", peek="72", pushType="float", popType="float", peekType="float", codeSize="32 b", stackSize="32 b", work="27"];
node22 -> node115;
node116 [label="AutoGeneratedExpander_21957", push="216", pop="72", peek="72", pushType="float", popType="float", peekType="float", codeSize="32 b", stackSize="32 b", work="27"];
node22 -> node116;
node117 [label="AutoGeneratedExpander_21958", push="216", pop="72", peek="72", pushType="float", popType="float", peekType="float", codeSize="32 b", stackSize="32 b", work="27"];
node22 -> node117;
node118 [label="AutoGeneratedExpander_21959", push="216", pop="72", peek="72", pushType="float", popType="float", peekType="float", codeSize="32 b", stackSize="32 b", work="27"];
node22 -> node118;
node119 [label="AutoGeneratedExpander_21960", push="216", pop="72", peek="72", pushType="float", popType="float", peekType="float", codeSize="32 b", stackSize="32 b", work="27"];
node22 -> node119;
node120 [label="AutoGeneratedExpander_21961", push="216", pop="72", peek="72", pushType="float", popType="float", peekType="float", codeSize="32 b", stackSize="32 b", work="27"];
node22 -> node120;
node121 [label="AutoGeneratedExpander_21962", push="216", pop="72", peek="72", pushType="float", popType="float", peekType="float", codeSize="32 b", stackSize="32 b", work="27"];
node22 -> node121;
node122 [label="AutoGeneratedExpander_21963", push="216", pop="72", peek="72", pushType="float", popType="float", peekType="float", codeSize="32 b", stackSize="32 b", work="27"];
node22 -> node122;
node123 [label="AutoGeneratedExpander_21964", push="216", pop="72", peek="72", pushType="float", popType="float", peekType="float", codeSize="32 b", stackSize="32 b", work="27"];
node22 -> node123;
node124 [label="AutoGeneratedExpander_21965", push="216", pop="72", peek="72", pushType="float", popType="float", peekType="float", codeSize="32 b", stackSize="32 b", work="27"];
node22 -> node124;
node125 [label="AutoGeneratedExpander_21966", push="216", pop="72", peek="72", pushType="float", popType="float", peekType="float", codeSize="32 b", stackSize="32 b", work="27"];
node22 -> node125;
node126 [label="AutoGeneratedExpander_21967", push="216", pop="72", peek="72", pushType="float", popType="float", peekType="float", codeSize="32 b", stackSize="32 b", work="27"];
node22 -> node126;
node127 [label="AutoGeneratedExpander_21968", push="216", pop="72", peek="72", pushType="float", popType="float", peekType="float", codeSize="32 b", stackSize="32 b", work="27"];
node22 -> node127;
node128 [label="AutoGeneratedExpander_21969", push="216", pop="72", peek="72", pushType="float", popType="float", peekType="float", codeSize="32 b", stackSize="32 b", work="27"];
node22 -> node128;
node129 [label="AutoGeneratedExpander_21970", push="216", pop="72", peek="72", pushType="float", popType="float", peekType="float", codeSize="32 b", stackSize="32 b", work="27"];
node22 -> node129;
node130 [label="AutoGeneratedExpander_21971", push="216", pop="72", peek="72", pushType="float", popType="float", peekType="float", codeSize="32 b", stackSize="32 b", work="27"];
node22 -> node130;
node131 [label="AutoGeneratedExpander_21972", push="216", pop="72", peek="72", pushType="float", popType="float", peekType="float", codeSize="32 b", stackSize="32 b", work="27"];
node22 -> node131;
node132 [label="AutoGeneratedExpander_21973", push="216", pop="72", peek="72", pushType="float", popType="float", peekType="float", codeSize="32 b", stackSize="32 b", work="27"];
node22 -> node132;
node133 [label="AutoGeneratedExpander_21974", push="216", pop="72", peek="72", pushType="float", popType="float", peekType="float", codeSize="32 b", stackSize="32 b", work="27"];
node22 -> node133;
node134 [label="AutoGeneratedExpander_21975", push="216", pop="72", peek="72", pushType="float", popType="float", peekType="float", codeSize="32 b", stackSize="32 b", work="27"];
node22 -> node134;
node135 [label="AutoGeneratedExpander_21976", push="216", pop="72", peek="72", pushType="float", popType="float", peekType="float", codeSize="32 b", stackSize="32 b", work="27"];
node22 -> node135;
node136 [label="AutoGeneratedExpander_21977", push="216", pop="72", peek="72", pushType="float", popType="float", peekType="float", codeSize="32 b", stackSize="32 b", work="27"];
node22 -> node136;
node137 [label="AutoGeneratedExpander_21978", push="216", pop="72", peek="72", pushType="float", popType="float", peekType="float", codeSize="32 b", stackSize="32 b", work="27"];
node22 -> node137;
node138 [label="AutoGeneratedExpander_21979", push="216", pop="72", peek="72", pushType="float", popType="float", peekType="float", codeSize="32 b", stackSize="32 b", work="27"];
node22 -> node138;
node139 [label="AutoGeneratedExpander_21980", push="216", pop="72", peek="72", pushType="float", popType="float", peekType="float", codeSize="32 b", stackSize="32 b", work="27"];
node22 -> node139;
node140 [label="AutoGeneratedExpander_21981", push="216", pop="72", peek="72", pushType="float", popType="float", peekType="float", codeSize="32 b", stackSize="32 b", work="27"];
node22 -> node140;
node141 [label="WEIGHTED_ROUND_ROBIN_Joiner_21863", push="25488", pop="25488", peek="0", pushType="float", popType="float", peekType="void", codeSize="2130 b", stackSize="3808 b", work="0"];
node23 -> node141;
node24 -> node141;
node25 -> node141;
node26 -> node141;
node27 -> node141;
node28 -> node141;
node29 -> node141;
node30 -> node141;
node31 -> node141;
node32 -> node141;
node33 -> node141;
node34 -> node141;
node35 -> node141;
node36 -> node141;
node37 -> node141;
node38 -> node141;
node39 -> node141;
node40 -> node141;
node41 -> node141;
node42 -> node141;
node43 -> node141;
node44 -> node141;
node45 -> node141;
node46 -> node141;
node47 -> node141;
node48 -> node141;
node49 -> node141;
node50 -> node141;
node51 -> node141;
node52 -> node141;
node53 -> node141;
node54 -> node141;
node55 -> node141;
node56 -> node141;
node57 -> node141;
node58 -> node141;
node59 -> node141;
node60 -> node141;
node61 -> node141;
node62 -> node141;
node63 -> node141;
node64 -> node141;
node65 -> node141;
node66 -> node141;
node67 -> node141;
node68 -> node141;
node69 -> node141;
node70 -> node141;
node71 -> node141;
node72 -> node141;
node73 -> node141;
node74 -> node141;
node75 -> node141;
node76 -> node141;
node77 -> node141;
node78 -> node141;
node79 -> node141;
node80 -> node141;
node81 -> node141;
node82 -> node141;
node83 -> node141;
node84 -> node141;
node85 -> node141;
node86 -> node141;
node87 -> node141;
node88 -> node141;
node89 -> node141;
node90 -> node141;
node91 -> node141;
node92 -> node141;
node93 -> node141;
node94 -> node141;
node95 -> node141;
node96 -> node141;
node97 -> node141;
node98 -> node141;
node99 -> node141;
node100 -> node141;
node101 -> node141;
node102 -> node141;
node103 -> node141;
node104 -> node141;
node105 -> node141;
node106 -> node141;
node107 -> node141;
node108 -> node141;
node109 -> node141;
node110 -> node141;
node111 -> node141;
node112 -> node141;
node113 -> node141;
node114 -> node141;
node115 -> node141;
node116 -> node141;
node117 -> node141;
node118 -> node141;
node119 -> node141;
node120 -> node141;
node121 -> node141;
node122 -> node141;
node123 -> node141;
node124 -> node141;
node125 -> node141;
node126 -> node141;
node127 -> node141;
node128 -> node141;
node129 -> node141;
node130 -> node141;
node131 -> node141;
node132 -> node141;
node133 -> node141;
node134 -> node141;
node135 -> node141;
node136 -> node141;
node137 -> node141;
node138 -> node141;
node139 -> node141;
node140 -> node141;
node142 [label="Identity_21713", push="25488", pop="25488", peek="25488", pushType="float", popType="float", peekType="float", codeSize="12 b", stackSize="32 b", work="6"];
node141 -> node142;
node143 [label="WEIGHTED_ROUND_ROBIN_Splitter_21982", push="25488", pop="25488", peek="0", pushType="float", popType="float", peekType="void", codeSize="60 b", stackSize="128 b", work="0"];
node142 -> node143;
node144 [label="Pre_CollapsedDataParallel_2_21984", push="8496", pop="8496", peek="8496", pushType="float", popType="float", peekType="float", codeSize="50 b", stackSize="96 b", work="1449"];
node143 -> node144;
node145 [label="Pre_CollapsedDataParallel_2_21985", push="8496", pop="8496", peek="8496", pushType="float", popType="float", peekType="float", codeSize="50 b", stackSize="96 b", work="1449"];
node143 -> node145;
node146 [label="Pre_CollapsedDataParallel_2_21986", push="8496", pop="8496", peek="8496", pushType="float", popType="float", peekType="float", codeSize="50 b", stackSize="96 b", work="1449"];
node143 -> node146;
node147 [label="WEIGHTED_ROUND_ROBIN_Joiner_21983", push="25488", pop="25488", peek="0", pushType="float", popType="float", peekType="void", codeSize="60 b", stackSize="128 b", work="0"];
node144 -> node147;
node145 -> node147;
node146 -> node147;
node148 [label="Identity_21717", push="6372", pop="6372", peek="6372", pushType="float", popType="float", peekType="float", codeSize="12 b", stackSize="32 b", work="6"];
node1 -> node148;
node149 [label="Pre_CollapsedDataParallel_2_21829", push="6372", pop="6372", peek="6372", pushType="float", popType="float", peekType="float", codeSize="50 b", stackSize="96 b", work="1101"];
node148 -> node149;
node150 [label="WEIGHTED_ROUND_ROBIN_Splitter_21987", push="6372", pop="6372", peek="0", pushType="float", popType="float", peekType="void", codeSize="168 b", stackSize="320 b", work="0"];
node149 -> node150;
node151 [label="Post_CollapsedDataParallel_1_21989", push="708", pop="708", peek="708", pushType="float", popType="float", peekType="float", codeSize="54 b", stackSize="96 b", work="143"];
node150 -> node151;
node152 [label="Post_CollapsedDataParallel_1_21990", push="708", pop="708", peek="708", pushType="float", popType="float", peekType="float", codeSize="54 b", stackSize="96 b", work="143"];
node150 -> node152;
node153 [label="Post_CollapsedDataParallel_1_21991", push="708", pop="708", peek="708", pushType="float", popType="float", peekType="float", codeSize="54 b", stackSize="96 b", work="143"];
node150 -> node153;
node154 [label="Post_CollapsedDataParallel_1_21992", push="708", pop="708", peek="708", pushType="float", popType="float", peekType="float", codeSize="54 b", stackSize="96 b", work="143"];
node150 -> node154;
node155 [label="Post_CollapsedDataParallel_1_21993", push="708", pop="708", peek="708", pushType="float", popType="float", peekType="float", codeSize="54 b", stackSize="96 b", work="143"];
node150 -> node155;
node156 [label="Post_CollapsedDataParallel_1_21994", push="708", pop="708", peek="708", pushType="float", popType="float", peekType="float", codeSize="54 b", stackSize="96 b", work="143"];
node150 -> node156;
node157 [label="Post_CollapsedDataParallel_1_21995", push="708", pop="708", peek="708", pushType="float", popType="float", peekType="float", codeSize="54 b", stackSize="96 b", work="143"];
node150 -> node157;
node158 [label="Post_CollapsedDataParallel_1_21996", push="708", pop="708", peek="708", pushType="float", popType="float", peekType="float", codeSize="54 b", stackSize="96 b", work="143"];
node150 -> node158;
node159 [label="Post_CollapsedDataParallel_1_21997", push="708", pop="708", peek="708", pushType="float", popType="float", peekType="float", codeSize="54 b", stackSize="96 b", work="143"];
node150 -> node159;
node160 [label="WEIGHTED_ROUND_ROBIN_Joiner_21988", push="6372", pop="6372", peek="0", pushType="float", popType="float", peekType="void", codeSize="168 b", stackSize="320 b", work="0"];
node151 -> node160;
node152 -> node160;
node153 -> node160;
node154 -> node160;
node155 -> node160;
node156 -> node160;
node157 -> node160;
node158 -> node160;
node159 -> node160;
node161 [label="Identity_21726", push="6372", pop="6372", peek="6372", pushType="float", popType="float", peekType="float", codeSize="12 b", stackSize="32 b", work="6"];
node160 -> node161;
node162 [label="WEIGHTED_ROUND_ROBIN_Splitter_21998", push="6372", pop="6372", peek="0", pushType="float", popType="float", peekType="void", codeSize="60 b", stackSize="128 b", work="0"];
node161 -> node162;
node163 [label="Pre_CollapsedDataParallel_2_22000", push="2124", pop="2124", peek="2124", pushType="float", popType="float", peekType="float", codeSize="50 b", stackSize="96 b", work="369"];
node162 -> node163;
node164 [label="Pre_CollapsedDataParallel_2_22001", push="2124", pop="2124", peek="2124", pushType="float", popType="float", peekType="float", codeSize="50 b", stackSize="96 b", work="369"];
node162 -> node164;
node165 [label="Pre_CollapsedDataParallel_2_22002", push="2124", pop="2124", peek="2124", pushType="float", popType="float", peekType="float", codeSize="50 b", stackSize="96 b", work="369"];
node162 -> node165;
node166 [label="WEIGHTED_ROUND_ROBIN_Joiner_21999", push="6372", pop="6372", peek="0", pushType="float", popType="float", peekType="void", codeSize="60 b", stackSize="128 b", work="0"];
node163 -> node166;
node164 -> node166;
node165 -> node166;
node167 [label="WEIGHTED_ROUND_ROBIN_Splitter_22003", push="6372", pop="6372", peek="0", pushType="float", popType="float", peekType="void", codeSize="1302 b", stackSize="32 b", work="0"];
node166 -> node167;
node168 [label="AutoGeneratedExpander_22005", push="177", pop="59", peek="59", pushType="float", popType="float", peekType="float", codeSize="32 b", stackSize="32 b", work="27"];
node167 -> node168;
node169 [label="AutoGeneratedExpander_22006", push="177", pop="59", peek="59", pushType="float", popType="float", peekType="float", codeSize="32 b", stackSize="32 b", work="27"];
node167 -> node169;
node170 [label="AutoGeneratedExpander_22007", push="177", pop="59", peek="59", pushType="float", popType="float", peekType="float", codeSize="32 b", stackSize="32 b", work="27"];
node167 -> node170;
node171 [label="AutoGeneratedExpander_22008", push="177", pop="59", peek="59", pushType="float", popType="float", peekType="float", codeSize="32 b", stackSize="32 b", work="27"];
node167 -> node171;
node172 [label="AutoGeneratedExpander_22009", push="177", pop="59", peek="59", pushType="float", popType="float", peekType="float", codeSize="32 b", stackSize="32 b", work="27"];
node167 -> node172;
node173 [label="AutoGeneratedExpander_22010", push="177", pop="59", peek="59", pushType="float", popType="float", peekType="float", codeSize="32 b", stackSize="32 b", work="27"];
node167 -> node173;
node174 [label="AutoGeneratedExpander_22011", push="177", pop="59", peek="59", pushType="float", popType="float", peekType="float", codeSize="32 b", stackSize="32 b", work="27"];
node167 -> node174;
node175 [label="AutoGeneratedExpander_22012", push="177", pop="59", peek="59", pushType="float", popType="float", peekType="float", codeSize="32 b", stackSize="32 b", work="27"];
node167 -> node175;
node176 [label="AutoGeneratedExpander_22013", push="177", pop="59", peek="59", pushType="float", popType="float", peekType="float", codeSize="32 b", stackSize="32 b", work="27"];
node167 -> node176;
node177 [label="AutoGeneratedExpander_22014", push="177", pop="59", peek="59", pushType="float", popType="float", peekType="float", codeSize="32 b", stackSize="32 b", work="27"];
node167 -> node177;
node178 [label="AutoGeneratedExpander_22015", push="177", pop="59", peek="59", pushType="float", popType="float", peekType="float", codeSize="32 b", stackSize="32 b", work="27"];
node167 -> node178;
node179 [label="AutoGeneratedExpander_22016", push="177", pop="59", peek="59", pushType="float", popType="float", peekType="float", codeSize="32 b", stackSize="32 b", work="27"];
node167 -> node179;
node180 [label="AutoGeneratedExpander_22017", push="177", pop="59", peek="59", pushType="float", popType="float", peekType="float", codeSize="32 b", stackSize="32 b", work="27"];
node167 -> node180;
node181 [label="AutoGeneratedExpander_22018", push="177", pop="59", peek="59", pushType="float", popType="float", peekType="float", codeSize="32 b", stackSize="32 b", work="27"];
node167 -> node181;
node182 [label="AutoGeneratedExpander_22019", push="177", pop="59", peek="59", pushType="float", popType="float", peekType="float", codeSize="32 b", stackSize="32 b", work="27"];
node167 -> node182;
node183 [label="AutoGeneratedExpander_22020", push="177", pop="59", peek="59", pushType="float", popType="float", peekType="float", codeSize="32 b", stackSize="32 b", work="27"];
node167 -> node183;
node184 [label="AutoGeneratedExpander_22021", push="177", pop="59", peek="59", pushType="float", popType="float", peekType="float", codeSize="32 b", stackSize="32 b", work="27"];
node167 -> node184;
node185 [label="AutoGeneratedExpander_22022", push="177", pop="59", peek="59", pushType="float", popType="float", peekType="float", codeSize="32 b", stackSize="32 b", work="27"];
node167 -> node185;
node186 [label="AutoGeneratedExpander_22023", push="177", pop="59", peek="59", pushType="float", popType="float", peekType="float", codeSize="32 b", stackSize="32 b", work="27"];
node167 -> node186;
node187 [label="AutoGeneratedExpander_22024", push="177", pop="59", peek="59", pushType="float", popType="float", peekType="float", codeSize="32 b", stackSize="32 b", work="27"];
node167 -> node187;
node188 [label="AutoGeneratedExpander_22025", push="177", pop="59", peek="59", pushType="float", popType="float", peekType="float", codeSize="32 b", stackSize="32 b", work="27"];
node167 -> node188;
node189 [label="AutoGeneratedExpander_22026", push="177", pop="59", peek="59", pushType="float", popType="float", peekType="float", codeSize="32 b", stackSize="32 b", work="27"];
node167 -> node189;
node190 [label="AutoGeneratedExpander_22027", push="177", pop="59", peek="59", pushType="float", popType="float", peekType="float", codeSize="32 b", stackSize="32 b", work="27"];
node167 -> node190;
node191 [label="AutoGeneratedExpander_22028", push="177", pop="59", peek="59", pushType="float", popType="float", peekType="float", codeSize="32 b", stackSize="32 b", work="27"];
node167 -> node191;
node192 [label="AutoGeneratedExpander_22029", push="177", pop="59", peek="59", pushType="float", popType="float", peekType="float", codeSize="32 b", stackSize="32 b", work="27"];
node167 -> node192;
node193 [label="AutoGeneratedExpander_22030", push="177", pop="59", peek="59", pushType="float", popType="float", peekType="float", codeSize="32 b", stackSize="32 b", work="27"];
node167 -> node193;
node194 [label="AutoGeneratedExpander_22031", push="177", pop="59", peek="59", pushType="float", popType="float", peekType="float", codeSize="32 b", stackSize="32 b", work="27"];
node167 -> node194;
node195 [label="AutoGeneratedExpander_22032", push="177", pop="59", peek="59", pushType="float", popType="float", peekType="float", codeSize="32 b", stackSize="32 b", work="27"];
node167 -> node195;
node196 [label="AutoGeneratedExpander_22033", push="177", pop="59", peek="59", pushType="float", popType="float", peekType="float", codeSize="32 b", stackSize="32 b", work="27"];
node167 -> node196;
node197 [label="AutoGeneratedExpander_22034", push="177", pop="59", peek="59", pushType="float", popType="float", peekType="float", codeSize="32 b", stackSize="32 b", work="27"];
node167 -> node197;
node198 [label="AutoGeneratedExpander_22035", push="177", pop="59", peek="59", pushType="float", popType="float", peekType="float", codeSize="32 b", stackSize="32 b", work="27"];
node167 -> node198;
node199 [label="AutoGeneratedExpander_22036", push="177", pop="59", peek="59", pushType="float", popType="float", peekType="float", codeSize="32 b", stackSize="32 b", work="27"];
node167 -> node199;
node200 [label="AutoGeneratedExpander_22037", push="177", pop="59", peek="59", pushType="float", popType="float", peekType="float", codeSize="32 b", stackSize="32 b", work="27"];
node167 -> node200;
node201 [label="AutoGeneratedExpander_22038", push="177", pop="59", peek="59", pushType="float", popType="float", peekType="float", codeSize="32 b", stackSize="32 b", work="27"];
node167 -> node201;
node202 [label="AutoGeneratedExpander_22039", push="177", pop="59", peek="59", pushType="float", popType="float", peekType="float", codeSize="32 b", stackSize="32 b", work="27"];
node167 -> node202;
node203 [label="AutoGeneratedExpander_22040", push="177", pop="59", peek="59", pushType="float", popType="float", peekType="float", codeSize="32 b", stackSize="32 b", work="27"];
node167 -> node203;
node204 [label="AutoGeneratedExpander_22041", push="177", pop="59", peek="59", pushType="float", popType="float", peekType="float", codeSize="32 b", stackSize="32 b", work="27"];
node167 -> node204;
node205 [label="AutoGeneratedExpander_22042", push="177", pop="59", peek="59", pushType="float", popType="float", peekType="float", codeSize="32 b", stackSize="32 b", work="27"];
node167 -> node205;
node206 [label="AutoGeneratedExpander_22043", push="177", pop="59", peek="59", pushType="float", popType="float", peekType="float", codeSize="32 b", stackSize="32 b", work="27"];
node167 -> node206;
node207 [label="AutoGeneratedExpander_22044", push="177", pop="59", peek="59", pushType="float", popType="float", peekType="float", codeSize="32 b", stackSize="32 b", work="27"];
node167 -> node207;
node208 [label="AutoGeneratedExpander_22045", push="177", pop="59", peek="59", pushType="float", popType="float", peekType="float", codeSize="32 b", stackSize="32 b", work="27"];
node167 -> node208;
node209 [label="AutoGeneratedExpander_22046", push="177", pop="59", peek="59", pushType="float", popType="float", peekType="float", codeSize="32 b", stackSize="32 b", work="27"];
node167 -> node209;
node210 [label="AutoGeneratedExpander_22047", push="177", pop="59", peek="59", pushType="float", popType="float", peekType="float", codeSize="32 b", stackSize="32 b", work="27"];
node167 -> node210;
node211 [label="AutoGeneratedExpander_22048", push="177", pop="59", peek="59", pushType="float", popType="float", peekType="float", codeSize="32 b", stackSize="32 b", work="27"];
node167 -> node211;
node212 [label="AutoGeneratedExpander_22049", push="177", pop="59", peek="59", pushType="float", popType="float", peekType="float", codeSize="32 b", stackSize="32 b", work="27"];
node167 -> node212;
node213 [label="AutoGeneratedExpander_22050", push="177", pop="59", peek="59", pushType="float", popType="float", peekType="float", codeSize="32 b", stackSize="32 b", work="27"];
node167 -> node213;
node214 [label="AutoGeneratedExpander_22051", push="177", pop="59", peek="59", pushType="float", popType="float", peekType="float", codeSize="32 b", stackSize="32 b", work="27"];
node167 -> node214;
node215 [label="AutoGeneratedExpander_22052", push="177", pop="59", peek="59", pushType="float", popType="float", peekType="float", codeSize="32 b", stackSize="32 b", work="27"];
node167 -> node215;
node216 [label="AutoGeneratedExpander_22053", push="177", pop="59", peek="59", pushType="float", popType="float", peekType="float", codeSize="32 b", stackSize="32 b", work="27"];
node167 -> node216;
node217 [label="AutoGeneratedExpander_22054", push="177", pop="59", peek="59", pushType="float", popType="float", peekType="float", codeSize="32 b", stackSize="32 b", work="27"];
node167 -> node217;
node218 [label="AutoGeneratedExpander_22055", push="177", pop="59", peek="59", pushType="float", popType="float", peekType="float", codeSize="32 b", stackSize="32 b", work="27"];
node167 -> node218;
node219 [label="AutoGeneratedExpander_22056", push="177", pop="59", peek="59", pushType="float", popType="float", peekType="float", codeSize="32 b", stackSize="32 b", work="27"];
node167 -> node219;
node220 [label="AutoGeneratedExpander_22057", push="177", pop="59", peek="59", pushType="float", popType="float", peekType="float", codeSize="32 b", stackSize="32 b", work="27"];
node167 -> node220;
node221 [label="AutoGeneratedExpander_22058", push="177", pop="59", peek="59", pushType="float", popType="float", peekType="float", codeSize="32 b", stackSize="32 b", work="27"];
node167 -> node221;
node222 [label="AutoGeneratedExpander_22059", push="177", pop="59", peek="59", pushType="float", popType="float", peekType="float", codeSize="32 b", stackSize="32 b", work="27"];
node167 -> node222;
node223 [label="AutoGeneratedExpander_22060", push="177", pop="59", peek="59", pushType="float", popType="float", peekType="float", codeSize="32 b", stackSize="32 b", work="27"];
node167 -> node223;
node224 [label="AutoGeneratedExpander_22061", push="177", pop="59", peek="59", pushType="float", popType="float", peekType="float", codeSize="32 b", stackSize="32 b", work="27"];
node167 -> node224;
node225 [label="AutoGeneratedExpander_22062", push="177", pop="59", peek="59", pushType="float", popType="float", peekType="float", codeSize="32 b", stackSize="32 b", work="27"];
node167 -> node225;
node226 [label="AutoGeneratedExpander_22063", push="177", pop="59", peek="59", pushType="float", popType="float", peekType="float", codeSize="32 b", stackSize="32 b", work="27"];
node167 -> node226;
node227 [label="AutoGeneratedExpander_22064", push="177", pop="59", peek="59", pushType="float", popType="float", peekType="float", codeSize="32 b", stackSize="32 b", work="27"];
node167 -> node227;
node228 [label="AutoGeneratedExpander_22065", push="177", pop="59", peek="59", pushType="float", popType="float", peekType="float", codeSize="32 b", stackSize="32 b", work="27"];
node167 -> node228;
node229 [label="AutoGeneratedExpander_22066", push="177", pop="59", peek="59", pushType="float", popType="float", peekType="float", codeSize="32 b", stackSize="32 b", work="27"];
node167 -> node229;
node230 [label="AutoGeneratedExpander_22067", push="177", pop="59", peek="59", pushType="float", popType="float", peekType="float", codeSize="32 b", stackSize="32 b", work="27"];
node167 -> node230;
node231 [label="AutoGeneratedExpander_22068", push="177", pop="59", peek="59", pushType="float", popType="float", peekType="float", codeSize="32 b", stackSize="32 b", work="27"];
node167 -> node231;
node232 [label="AutoGeneratedExpander_22069", push="177", pop="59", peek="59", pushType="float", popType="float", peekType="float", codeSize="32 b", stackSize="32 b", work="27"];
node167 -> node232;
node233 [label="AutoGeneratedExpander_22070", push="177", pop="59", peek="59", pushType="float", popType="float", peekType="float", codeSize="32 b", stackSize="32 b", work="27"];
node167 -> node233;
node234 [label="AutoGeneratedExpander_22071", push="177", pop="59", peek="59", pushType="float", popType="float", peekType="float", codeSize="32 b", stackSize="32 b", work="27"];
node167 -> node234;
node235 [label="AutoGeneratedExpander_22072", push="177", pop="59", peek="59", pushType="float", popType="float", peekType="float", codeSize="32 b", stackSize="32 b", work="27"];
node167 -> node235;
node236 [label="AutoGeneratedExpander_22073", push="177", pop="59", peek="59", pushType="float", popType="float", peekType="float", codeSize="32 b", stackSize="32 b", work="27"];
node167 -> node236;
node237 [label="AutoGeneratedExpander_22074", push="177", pop="59", peek="59", pushType="float", popType="float", peekType="float", codeSize="32 b", stackSize="32 b", work="27"];
node167 -> node237;
node238 [label="AutoGeneratedExpander_22075", push="177", pop="59", peek="59", pushType="float", popType="float", peekType="float", codeSize="32 b", stackSize="32 b", work="27"];
node167 -> node238;
node239 [label="AutoGeneratedExpander_22076", push="177", pop="59", peek="59", pushType="float", popType="float", peekType="float", codeSize="32 b", stackSize="32 b", work="27"];
node167 -> node239;
node240 [label="AutoGeneratedExpander_22077", push="177", pop="59", peek="59", pushType="float", popType="float", peekType="float", codeSize="32 b", stackSize="32 b", work="27"];
node167 -> node240;
node241 [label="AutoGeneratedExpander_22078", push="177", pop="59", peek="59", pushType="float", popType="float", peekType="float", codeSize="32 b", stackSize="32 b", work="27"];
node167 -> node241;
node242 [label="AutoGeneratedExpander_22079", push="177", pop="59", peek="59", pushType="float", popType="float", peekType="float", codeSize="32 b", stackSize="32 b", work="27"];
node167 -> node242;
node243 [label="AutoGeneratedExpander_22080", push="177", pop="59", peek="59", pushType="float", popType="float", peekType="float", codeSize="32 b", stackSize="32 b", work="27"];
node167 -> node243;
node244 [label="AutoGeneratedExpander_22081", push="177", pop="59", peek="59", pushType="float", popType="float", peekType="float", codeSize="32 b", stackSize="32 b", work="27"];
node167 -> node244;
node245 [label="AutoGeneratedExpander_22082", push="177", pop="59", peek="59", pushType="float", popType="float", peekType="float", codeSize="32 b", stackSize="32 b", work="27"];
node167 -> node245;
node246 [label="AutoGeneratedExpander_22083", push="177", pop="59", peek="59", pushType="float", popType="float", peekType="float", codeSize="32 b", stackSize="32 b", work="27"];
node167 -> node246;
node247 [label="AutoGeneratedExpander_22084", push="177", pop="59", peek="59", pushType="float", popType="float", peekType="float", codeSize="32 b", stackSize="32 b", work="27"];
node167 -> node247;
node248 [label="AutoGeneratedExpander_22085", push="177", pop="59", peek="59", pushType="float", popType="float", peekType="float", codeSize="32 b", stackSize="32 b", work="27"];
node167 -> node248;
node249 [label="AutoGeneratedExpander_22086", push="177", pop="59", peek="59", pushType="float", popType="float", peekType="float", codeSize="32 b", stackSize="32 b", work="27"];
node167 -> node249;
node250 [label="AutoGeneratedExpander_22087", push="177", pop="59", peek="59", pushType="float", popType="float", peekType="float", codeSize="32 b", stackSize="32 b", work="27"];
node167 -> node250;
node251 [label="AutoGeneratedExpander_22088", push="177", pop="59", peek="59", pushType="float", popType="float", peekType="float", codeSize="32 b", stackSize="32 b", work="27"];
node167 -> node251;
node252 [label="AutoGeneratedExpander_22089", push="177", pop="59", peek="59", pushType="float", popType="float", peekType="float", codeSize="32 b", stackSize="32 b", work="27"];
node167 -> node252;
node253 [label="AutoGeneratedExpander_22090", push="177", pop="59", peek="59", pushType="float", popType="float", peekType="float", codeSize="32 b", stackSize="32 b", work="27"];
node167 -> node253;
node254 [label="AutoGeneratedExpander_22091", push="177", pop="59", peek="59", pushType="float", popType="float", peekType="float", codeSize="32 b", stackSize="32 b", work="27"];
node167 -> node254;
node255 [label="AutoGeneratedExpander_22092", push="177", pop="59", peek="59", pushType="float", popType="float", peekType="float", codeSize="32 b", stackSize="32 b", work="27"];
node167 -> node255;
node256 [label="AutoGeneratedExpander_22093", push="177", pop="59", peek="59", pushType="float", popType="float", peekType="float", codeSize="32 b", stackSize="32 b", work="27"];
node167 -> node256;
node257 [label="AutoGeneratedExpander_22094", push="177", pop="59", peek="59", pushType="float", popType="float", peekType="float", codeSize="32 b", stackSize="32 b", work="27"];
node167 -> node257;
node258 [label="AutoGeneratedExpander_22095", push="177", pop="59", peek="59", pushType="float", popType="float", peekType="float", codeSize="32 b", stackSize="32 b", work="27"];
node167 -> node258;
node259 [label="AutoGeneratedExpander_22096", push="177", pop="59", peek="59", pushType="float", popType="float", peekType="float", codeSize="32 b", stackSize="32 b", work="27"];
node167 -> node259;
node260 [label="AutoGeneratedExpander_22097", push="177", pop="59", peek="59", pushType="float", popType="float", peekType="float", codeSize="32 b", stackSize="32 b", work="27"];
node167 -> node260;
node261 [label="AutoGeneratedExpander_22098", push="177", pop="59", peek="59", pushType="float", popType="float", peekType="float", codeSize="32 b", stackSize="32 b", work="27"];
node167 -> node261;
node262 [label="AutoGeneratedExpander_22099", push="177", pop="59", peek="59", pushType="float", popType="float", peekType="float", codeSize="32 b", stackSize="32 b", work="27"];
node167 -> node262;
node263 [label="AutoGeneratedExpander_22100", push="177", pop="59", peek="59", pushType="float", popType="float", peekType="float", codeSize="32 b", stackSize="32 b", work="27"];
node167 -> node263;
node264 [label="AutoGeneratedExpander_22101", push="177", pop="59", peek="59", pushType="float", popType="float", peekType="float", codeSize="32 b", stackSize="32 b", work="27"];
node167 -> node264;
node265 [label="AutoGeneratedExpander_22102", push="177", pop="59", peek="59", pushType="float", popType="float", peekType="float", codeSize="32 b", stackSize="32 b", work="27"];
node167 -> node265;
node266 [label="AutoGeneratedExpander_22103", push="177", pop="59", peek="59", pushType="float", popType="float", peekType="float", codeSize="32 b", stackSize="32 b", work="27"];
node167 -> node266;
node267 [label="AutoGeneratedExpander_22104", push="177", pop="59", peek="59", pushType="float", popType="float", peekType="float", codeSize="32 b", stackSize="32 b", work="27"];
node167 -> node267;
node268 [label="AutoGeneratedExpander_22105", push="177", pop="59", peek="59", pushType="float", popType="float", peekType="float", codeSize="32 b", stackSize="32 b", work="27"];
node167 -> node268;
node269 [label="AutoGeneratedExpander_22106", push="177", pop="59", peek="59", pushType="float", popType="float", peekType="float", codeSize="32 b", stackSize="32 b", work="27"];
node167 -> node269;
node270 [label="AutoGeneratedExpander_22107", push="177", pop="59", peek="59", pushType="float", popType="float", peekType="float", codeSize="32 b", stackSize="32 b", work="27"];
node167 -> node270;
node271 [label="AutoGeneratedExpander_22108", push="177", pop="59", peek="59", pushType="float", popType="float", peekType="float", codeSize="32 b", stackSize="32 b", work="27"];
node167 -> node271;
node272 [label="AutoGeneratedExpander_22109", push="177", pop="59", peek="59", pushType="float", popType="float", peekType="float", codeSize="32 b", stackSize="32 b", work="27"];
node167 -> node272;
node273 [label="AutoGeneratedExpander_22110", push="177", pop="59", peek="59", pushType="float", popType="float", peekType="float", codeSize="32 b", stackSize="32 b", work="27"];
node167 -> node273;
node274 [label="AutoGeneratedExpander_22111", push="177", pop="59", peek="59", pushType="float", popType="float", peekType="float", codeSize="32 b", stackSize="32 b", work="27"];
node167 -> node274;
node275 [label="AutoGeneratedExpander_22112", push="177", pop="59", peek="59", pushType="float", popType="float", peekType="float", codeSize="32 b", stackSize="32 b", work="27"];
node167 -> node275;
node276 [label="WEIGHTED_ROUND_ROBIN_Joiner_22004", push="19116", pop="19116", peek="0", pushType="float", popType="float", peekType="void", codeSize="1950 b", stackSize="3488 b", work="0"];
node168 -> node276;
node169 -> node276;
node170 -> node276;
node171 -> node276;
node172 -> node276;
node173 -> node276;
node174 -> node276;
node175 -> node276;
node176 -> node276;
node177 -> node276;
node178 -> node276;
node179 -> node276;
node180 -> node276;
node181 -> node276;
node182 -> node276;
node183 -> node276;
node184 -> node276;
node185 -> node276;
node186 -> node276;
node187 -> node276;
node188 -> node276;
node189 -> node276;
node190 -> node276;
node191 -> node276;
node192 -> node276;
node193 -> node276;
node194 -> node276;
node195 -> node276;
node196 -> node276;
node197 -> node276;
node198 -> node276;
node199 -> node276;
node200 -> node276;
node201 -> node276;
node202 -> node276;
node203 -> node276;
node204 -> node276;
node205 -> node276;
node206 -> node276;
node207 -> node276;
node208 -> node276;
node209 -> node276;
node210 -> node276;
node211 -> node276;
node212 -> node276;
node213 -> node276;
node214 -> node276;
node215 -> node276;
node216 -> node276;
node217 -> node276;
node218 -> node276;
node219 -> node276;
node220 -> node276;
node221 -> node276;
node222 -> node276;
node223 -> node276;
node224 -> node276;
node225 -> node276;
node226 -> node276;
node227 -> node276;
node228 -> node276;
node229 -> node276;
node230 -> node276;
node231 -> node276;
node232 -> node276;
node233 -> node276;
node234 -> node276;
node235 -> node276;
node236 -> node276;
node237 -> node276;
node238 -> node276;
node239 -> node276;
node240 -> node276;
node241 -> node276;
node242 -> node276;
node243 -> node276;
node244 -> node276;
node245 -> node276;
node246 -> node276;
node247 -> node276;
node248 -> node276;
node249 -> node276;
node250 -> node276;
node251 -> node276;
node252 -> node276;
node253 -> node276;
node254 -> node276;
node255 -> node276;
node256 -> node276;
node257 -> node276;
node258 -> node276;
node259 -> node276;
node260 -> node276;
node261 -> node276;
node262 -> node276;
node263 -> node276;
node264 -> node276;
node265 -> node276;
node266 -> node276;
node267 -> node276;
node268 -> node276;
node269 -> node276;
node270 -> node276;
node271 -> node276;
node272 -> node276;
node273 -> node276;
node274 -> node276;
node275 -> node276;
node277 [label="Identity_21729", push="19116", pop="19116", peek="19116", pushType="float", popType="float", peekType="float", codeSize="12 b", stackSize="32 b", work="6"];
node276 -> node277;
node278 [label="Pre_CollapsedDataParallel_2_21832", push="19116", pop="19116", peek="19116", pushType="float", popType="float", peekType="float", codeSize="50 b", stackSize="96 b", work="3249"];
node277 -> node278;
node279 [label="WEIGHTED_ROUND_ROBIN_Joiner_21836", push="44604", pop="44604", peek="0", pushType="float", popType="float", peekType="void", codeSize="42 b", stackSize="96 b", work="0"];
node147 -> node279;
node278 -> node279;
node280 [label="WEIGHTED_ROUND_ROBIN_Splitter_22113", push="44604", pop="44604", peek="0", pushType="float", popType="float", peekType="void", codeSize="492 b", stackSize="896 b", work="0"];
node279 -> node280;
node281 [label="BlockMultiply_22115", push="708", pop="1652", peek="1652", pushType="float", popType="float", peekType="float", codeSize="102 b", stackSize="256 b", work="1024"];
node280 -> node281;
node282 [label="BlockMultiply_22116", push="708", pop="1652", peek="1652", pushType="float", popType="float", peekType="float", codeSize="102 b", stackSize="256 b", work="1024"];
node280 -> node282;
node283 [label="BlockMultiply_22117", push="708", pop="1652", peek="1652", pushType="float", popType="float", peekType="float", codeSize="102 b", stackSize="256 b", work="1024"];
node280 -> node283;
node284 [label="BlockMultiply_22118", push="708", pop="1652", peek="1652", pushType="float", popType="float", peekType="float", codeSize="102 b", stackSize="256 b", work="1024"];
node280 -> node284;
node285 [label="BlockMultiply_22119", push="708", pop="1652", peek="1652", pushType="float", popType="float", peekType="float", codeSize="102 b", stackSize="256 b", work="1024"];
node280 -> node285;
node286 [label="BlockMultiply_22120", push="708", pop="1652", peek="1652", pushType="float", popType="float", peekType="float", codeSize="102 b", stackSize="256 b", work="1024"];
node280 -> node286;
node287 [label="BlockMultiply_22121", push="708", pop="1652", peek="1652", pushType="float", popType="float", peekType="float", codeSize="102 b", stackSize="256 b", work="1024"];
node280 -> node287;
node288 [label="BlockMultiply_22122", push="708", pop="1652", peek="1652", pushType="float", popType="float", peekType="float", codeSize="102 b", stackSize="256 b", work="1024"];
node280 -> node288;
node289 [label="BlockMultiply_22123", push="708", pop="1652", peek="1652", pushType="float", popType="float", peekType="float", codeSize="102 b", stackSize="256 b", work="1024"];
node280 -> node289;
node290 [label="BlockMultiply_22124", push="708", pop="1652", peek="1652", pushType="float", popType="float", peekType="float", codeSize="102 b", stackSize="256 b", work="1024"];
node280 -> node290;
node291 [label="BlockMultiply_22125", push="708", pop="1652", peek="1652", pushType="float", popType="float", peekType="float", codeSize="102 b", stackSize="256 b", work="1024"];
node280 -> node291;
node292 [label="BlockMultiply_22126", push="708", pop="1652", peek="1652", pushType="float", popType="float", peekType="float", codeSize="102 b", stackSize="256 b", work="1024"];
node280 -> node292;
node293 [label="BlockMultiply_22127", push="708", pop="1652", peek="1652", pushType="float", popType="float", peekType="float", codeSize="102 b", stackSize="256 b", work="1024"];
node280 -> node293;
node294 [label="BlockMultiply_22128", push="708", pop="1652", peek="1652", pushType="float", popType="float", peekType="float", codeSize="102 b", stackSize="256 b", work="1024"];
node280 -> node294;
node295 [label="BlockMultiply_22129", push="708", pop="1652", peek="1652", pushType="float", popType="float", peekType="float", codeSize="102 b", stackSize="256 b", work="1024"];
node280 -> node295;
node296 [label="BlockMultiply_22130", push="708", pop="1652", peek="1652", pushType="float", popType="float", peekType="float", codeSize="102 b", stackSize="256 b", work="1024"];
node280 -> node296;
node297 [label="BlockMultiply_22131", push="708", pop="1652", peek="1652", pushType="float", popType="float", peekType="float", codeSize="102 b", stackSize="256 b", work="1024"];
node280 -> node297;
node298 [label="BlockMultiply_22132", push="708", pop="1652", peek="1652", pushType="float", popType="float", peekType="float", codeSize="102 b", stackSize="256 b", work="1024"];
node280 -> node298;
node299 [label="BlockMultiply_22133", push="708", pop="1652", peek="1652", pushType="float", popType="float", peekType="float", codeSize="102 b", stackSize="256 b", work="1024"];
node280 -> node299;
node300 [label="BlockMultiply_22134", push="708", pop="1652", peek="1652", pushType="float", popType="float", peekType="float", codeSize="102 b", stackSize="256 b", work="1024"];
node280 -> node300;
node301 [label="BlockMultiply_22135", push="708", pop="1652", peek="1652", pushType="float", popType="float", peekType="float", codeSize="102 b", stackSize="256 b", work="1024"];
node280 -> node301;
node302 [label="BlockMultiply_22136", push="708", pop="1652", peek="1652", pushType="float", popType="float", peekType="float", codeSize="102 b", stackSize="256 b", work="1024"];
node280 -> node302;
node303 [label="BlockMultiply_22137", push="708", pop="1652", peek="1652", pushType="float", popType="float", peekType="float", codeSize="102 b", stackSize="256 b", work="1024"];
node280 -> node303;
node304 [label="BlockMultiply_22138", push="708", pop="1652", peek="1652", pushType="float", popType="float", peekType="float", codeSize="102 b", stackSize="256 b", work="1024"];
node280 -> node304;
node305 [label="BlockMultiply_22139", push="708", pop="1652", peek="1652", pushType="float", popType="float", peekType="float", codeSize="102 b", stackSize="256 b", work="1024"];
node280 -> node305;
node306 [label="BlockMultiply_22140", push="708", pop="1652", peek="1652", pushType="float", popType="float", peekType="float", codeSize="102 b", stackSize="256 b", work="1024"];
node280 -> node306;
node307 [label="BlockMultiply_22141", push="708", pop="1652", peek="1652", pushType="float", popType="float", peekType="float", codeSize="102 b", stackSize="256 b", work="1024"];
node280 -> node307;
node308 [label="WEIGHTED_ROUND_ROBIN_Joiner_22114", push="19116", pop="19116", peek="0", pushType="float", popType="float", peekType="void", codeSize="492 b", stackSize="896 b", work="0"];
node281 -> node308;
node282 -> node308;
node283 -> node308;
node284 -> node308;
node285 -> node308;
node286 -> node308;
node287 -> node308;
node288 -> node308;
node289 -> node308;
node290 -> node308;
node291 -> node308;
node292 -> node308;
node293 -> node308;
node294 -> node308;
node295 -> node308;
node296 -> node308;
node297 -> node308;
node298 -> node308;
node299 -> node308;
node300 -> node308;
node301 -> node308;
node302 -> node308;
node303 -> node308;
node304 -> node308;
node305 -> node308;
node306 -> node308;
node307 -> node308;
node309 [label="BlockAdd_21733", push="6372", pop="19116", peek="19116", pushType="float", popType="float", peekType="float", codeSize="189 b", stackSize="96 b", work="468"];
node308 -> node309;
node310 [label="WEIGHTED_ROUND_ROBIN_Splitter_22142", push="6372", pop="6372", peek="0", pushType="float", popType="float", peekType="void", codeSize="168 b", stackSize="320 b", work="0"];
node309 -> node310;
node311 [label="Post_CollapsedDataParallel_1_22144", push="708", pop="708", peek="708", pushType="float", popType="float", peekType="float", codeSize="54 b", stackSize="96 b", work="141"];
node310 -> node311;
node312 [label="Post_CollapsedDataParallel_1_22145", push="708", pop="708", peek="708", pushType="float", popType="float", peekType="float", codeSize="54 b", stackSize="96 b", work="141"];
node310 -> node312;
node313 [label="Post_CollapsedDataParallel_1_22146", push="708", pop="708", peek="708", pushType="float", popType="float", peekType="float", codeSize="54 b", stackSize="96 b", work="141"];
node310 -> node313;
node314 [label="Post_CollapsedDataParallel_1_22147", push="708", pop="708", peek="708", pushType="float", popType="float", peekType="float", codeSize="54 b", stackSize="96 b", work="141"];
node310 -> node314;
node315 [label="Post_CollapsedDataParallel_1_22148", push="708", pop="708", peek="708", pushType="float", popType="float", peekType="float", codeSize="54 b", stackSize="96 b", work="141"];
node310 -> node315;
node316 [label="Post_CollapsedDataParallel_1_22149", push="708", pop="708", peek="708", pushType="float", popType="float", peekType="float", codeSize="54 b", stackSize="96 b", work="141"];
node310 -> node316;
node317 [label="Post_CollapsedDataParallel_1_22150", push="708", pop="708", peek="708", pushType="float", popType="float", peekType="float", codeSize="54 b", stackSize="96 b", work="141"];
node310 -> node317;
node318 [label="Post_CollapsedDataParallel_1_22151", push="708", pop="708", peek="708", pushType="float", popType="float", peekType="float", codeSize="54 b", stackSize="96 b", work="141"];
node310 -> node318;
node319 [label="Post_CollapsedDataParallel_1_22152", push="708", pop="708", peek="708", pushType="float", popType="float", peekType="float", codeSize="54 b", stackSize="96 b", work="141"];
node310 -> node319;
node320 [label="WEIGHTED_ROUND_ROBIN_Joiner_22143", push="6372", pop="6372", peek="0", pushType="float", popType="float", peekType="void", codeSize="168 b", stackSize="320 b", work="0"];
node311 -> node320;
node312 -> node320;
node313 -> node320;
node314 -> node320;
node315 -> node320;
node316 -> node320;
node317 -> node320;
node318 -> node320;
node319 -> node320;
node321 [label="Identity_21735", push="6372", pop="6372", peek="6372", pushType="float", popType="float", peekType="float", codeSize="12 b", stackSize="32 b", work="6"];
node320 -> node321;
node322 [label="WEIGHTED_ROUND_ROBIN_Splitter_22153", push="6372", pop="6372", peek="0", pushType="float", popType="float", peekType="void", codeSize="60 b", stackSize="128 b", work="0"];
node321 -> node322;
node323 [label="Pre_CollapsedDataParallel_2_22155", push="2124", pop="2124", peek="2124", pushType="float", popType="float", peekType="float", codeSize="50 b", stackSize="96 b", work="371"];
node322 -> node323;
node324 [label="Pre_CollapsedDataParallel_2_22156", push="2124", pop="2124", peek="2124", pushType="float", popType="float", peekType="float", codeSize="50 b", stackSize="96 b", work="371"];
node322 -> node324;
node325 [label="Pre_CollapsedDataParallel_2_22157", push="2124", pop="2124", peek="2124", pushType="float", popType="float", peekType="float", codeSize="50 b", stackSize="96 b", work="371"];
node322 -> node325;
node326 [label="WEIGHTED_ROUND_ROBIN_Joiner_22154", push="6372", pop="6372", peek="0", pushType="float", popType="float", peekType="void", codeSize="60 b", stackSize="128 b", work="0"];
node323 -> node326;
node324 -> node326;
node325 -> node326;
node327 [label="Printer_21739", push="0", pop="6372", peek="6372", pushType="void", popType="float", peekType="float", codeSize="16 b", stackSize="0 b", work="6"];
node326 -> node327;
}
