digraph MatrixMultBlock_17423 {
node0 [label="BlockFloatSource_16954", push="7812", pop="0", peek="0", pushType="float", popType="void", peekType="void", codeSize="26 b", stackSize="0 b", work="14"];
node1 [label="WEIGHTED_ROUND_ROBIN_Splitter_17083", push="7812", pop="7812", peek="0", pushType="float", popType="float", peekType="void", codeSize="42 b", stackSize="96 b", work="0"];
node0 -> node1;
node2 [label="WEIGHTED_ROUND_ROBIN_Splitter_17091", push="4464", pop="4464", peek="0", pushType="float", popType="float", peekType="void", codeSize="222 b", stackSize="416 b", work="0"];
node1 -> node2;
node3 [label="Post_CollapsedDataParallel_1_17093", push="372", pop="372", peek="372", pushType="float", popType="float", peekType="float", codeSize="54 b", stackSize="96 b", work="143"];
node2 -> node3;
node4 [label="Post_CollapsedDataParallel_1_17094", push="372", pop="372", peek="372", pushType="float", popType="float", peekType="float", codeSize="54 b", stackSize="96 b", work="143"];
node2 -> node4;
node5 [label="Post_CollapsedDataParallel_1_17095", push="372", pop="372", peek="372", pushType="float", popType="float", peekType="float", codeSize="54 b", stackSize="96 b", work="143"];
node2 -> node5;
node6 [label="Post_CollapsedDataParallel_1_17096", push="372", pop="372", peek="372", pushType="float", popType="float", peekType="float", codeSize="54 b", stackSize="96 b", work="143"];
node2 -> node6;
node7 [label="Post_CollapsedDataParallel_1_17097", push="372", pop="372", peek="372", pushType="float", popType="float", peekType="float", codeSize="54 b", stackSize="96 b", work="143"];
node2 -> node7;
node8 [label="Post_CollapsedDataParallel_1_17098", push="372", pop="372", peek="372", pushType="float", popType="float", peekType="float", codeSize="54 b", stackSize="96 b", work="143"];
node2 -> node8;
node9 [label="Post_CollapsedDataParallel_1_17099", push="372", pop="372", peek="372", pushType="float", popType="float", peekType="float", codeSize="54 b", stackSize="96 b", work="143"];
node2 -> node9;
node10 [label="Post_CollapsedDataParallel_1_17100", push="372", pop="372", peek="372", pushType="float", popType="float", peekType="float", codeSize="54 b", stackSize="96 b", work="143"];
node2 -> node10;
node11 [label="Post_CollapsedDataParallel_1_17101", push="372", pop="372", peek="372", pushType="float", popType="float", peekType="float", codeSize="54 b", stackSize="96 b", work="143"];
node2 -> node11;
node12 [label="Post_CollapsedDataParallel_1_17102", push="372", pop="372", peek="372", pushType="float", popType="float", peekType="float", codeSize="54 b", stackSize="96 b", work="143"];
node2 -> node12;
node13 [label="Post_CollapsedDataParallel_1_17103", push="372", pop="372", peek="372", pushType="float", popType="float", peekType="float", codeSize="54 b", stackSize="96 b", work="143"];
node2 -> node13;
node14 [label="Post_CollapsedDataParallel_1_17104", push="372", pop="372", peek="372", pushType="float", popType="float", peekType="float", codeSize="54 b", stackSize="96 b", work="143"];
node2 -> node14;
node15 [label="WEIGHTED_ROUND_ROBIN_Joiner_17092", push="4464", pop="4464", peek="0", pushType="float", popType="float", peekType="void", codeSize="222 b", stackSize="416 b", work="0"];
node3 -> node15;
node4 -> node15;
node5 -> node15;
node6 -> node15;
node7 -> node15;
node8 -> node15;
node9 -> node15;
node10 -> node15;
node11 -> node15;
node12 -> node15;
node13 -> node15;
node14 -> node15;
node16 [label="Identity_16958", push="4464", pop="4464", peek="4464", pushType="float", popType="float", peekType="float", codeSize="12 b", stackSize="32 b", work="6"];
node15 -> node16;
node17 [label="WEIGHTED_ROUND_ROBIN_Splitter_17105", push="4464", pop="4464", peek="0", pushType="float", popType="float", peekType="void", codeSize="60 b", stackSize="128 b", work="0"];
node16 -> node17;
node18 [label="Pre_CollapsedDataParallel_2_17107", push="1488", pop="1488", peek="1488", pushType="float", popType="float", peekType="float", codeSize="50 b", stackSize="96 b", work="489"];
node17 -> node18;
node19 [label="Pre_CollapsedDataParallel_2_17108", push="1488", pop="1488", peek="1488", pushType="float", popType="float", peekType="float", codeSize="50 b", stackSize="96 b", work="489"];
node17 -> node19;
node20 [label="Pre_CollapsedDataParallel_2_17109", push="1488", pop="1488", peek="1488", pushType="float", popType="float", peekType="float", codeSize="50 b", stackSize="96 b", work="489"];
node17 -> node20;
node21 [label="WEIGHTED_ROUND_ROBIN_Joiner_17106", push="4464", pop="4464", peek="0", pushType="float", popType="float", peekType="void", codeSize="60 b", stackSize="128 b", work="0"];
node18 -> node21;
node19 -> node21;
node20 -> node21;
node22 [label="WEIGHTED_ROUND_ROBIN_Splitter_17110", push="4464", pop="4464", peek="0", pushType="float", popType="float", peekType="void", codeSize="1494 b", stackSize="32 b", work="0"];
node21 -> node22;
node23 [label="AutoGeneratedExpander_17112", push="108", pop="36", peek="36", pushType="float", popType="float", peekType="float", codeSize="32 b", stackSize="32 b", work="27"];
node22 -> node23;
node24 [label="AutoGeneratedExpander_17113", push="108", pop="36", peek="36", pushType="float", popType="float", peekType="float", codeSize="32 b", stackSize="32 b", work="27"];
node22 -> node24;
node25 [label="AutoGeneratedExpander_17114", push="108", pop="36", peek="36", pushType="float", popType="float", peekType="float", codeSize="32 b", stackSize="32 b", work="27"];
node22 -> node25;
node26 [label="AutoGeneratedExpander_17115", push="108", pop="36", peek="36", pushType="float", popType="float", peekType="float", codeSize="32 b", stackSize="32 b", work="27"];
node22 -> node26;
node27 [label="AutoGeneratedExpander_17116", push="108", pop="36", peek="36", pushType="float", popType="float", peekType="float", codeSize="32 b", stackSize="32 b", work="27"];
node22 -> node27;
node28 [label="AutoGeneratedExpander_17117", push="108", pop="36", peek="36", pushType="float", popType="float", peekType="float", codeSize="32 b", stackSize="32 b", work="27"];
node22 -> node28;
node29 [label="AutoGeneratedExpander_17118", push="108", pop="36", peek="36", pushType="float", popType="float", peekType="float", codeSize="32 b", stackSize="32 b", work="27"];
node22 -> node29;
node30 [label="AutoGeneratedExpander_17119", push="108", pop="36", peek="36", pushType="float", popType="float", peekType="float", codeSize="32 b", stackSize="32 b", work="27"];
node22 -> node30;
node31 [label="AutoGeneratedExpander_17120", push="108", pop="36", peek="36", pushType="float", popType="float", peekType="float", codeSize="32 b", stackSize="32 b", work="27"];
node22 -> node31;
node32 [label="AutoGeneratedExpander_17121", push="108", pop="36", peek="36", pushType="float", popType="float", peekType="float", codeSize="32 b", stackSize="32 b", work="27"];
node22 -> node32;
node33 [label="AutoGeneratedExpander_17122", push="108", pop="36", peek="36", pushType="float", popType="float", peekType="float", codeSize="32 b", stackSize="32 b", work="27"];
node22 -> node33;
node34 [label="AutoGeneratedExpander_17123", push="108", pop="36", peek="36", pushType="float", popType="float", peekType="float", codeSize="32 b", stackSize="32 b", work="27"];
node22 -> node34;
node35 [label="AutoGeneratedExpander_17124", push="108", pop="36", peek="36", pushType="float", popType="float", peekType="float", codeSize="32 b", stackSize="32 b", work="27"];
node22 -> node35;
node36 [label="AutoGeneratedExpander_17125", push="108", pop="36", peek="36", pushType="float", popType="float", peekType="float", codeSize="32 b", stackSize="32 b", work="27"];
node22 -> node36;
node37 [label="AutoGeneratedExpander_17126", push="108", pop="36", peek="36", pushType="float", popType="float", peekType="float", codeSize="32 b", stackSize="32 b", work="27"];
node22 -> node37;
node38 [label="AutoGeneratedExpander_17127", push="108", pop="36", peek="36", pushType="float", popType="float", peekType="float", codeSize="32 b", stackSize="32 b", work="27"];
node22 -> node38;
node39 [label="AutoGeneratedExpander_17128", push="108", pop="36", peek="36", pushType="float", popType="float", peekType="float", codeSize="32 b", stackSize="32 b", work="27"];
node22 -> node39;
node40 [label="AutoGeneratedExpander_17129", push="108", pop="36", peek="36", pushType="float", popType="float", peekType="float", codeSize="32 b", stackSize="32 b", work="27"];
node22 -> node40;
node41 [label="AutoGeneratedExpander_17130", push="108", pop="36", peek="36", pushType="float", popType="float", peekType="float", codeSize="32 b", stackSize="32 b", work="27"];
node22 -> node41;
node42 [label="AutoGeneratedExpander_17131", push="108", pop="36", peek="36", pushType="float", popType="float", peekType="float", codeSize="32 b", stackSize="32 b", work="27"];
node22 -> node42;
node43 [label="AutoGeneratedExpander_17132", push="108", pop="36", peek="36", pushType="float", popType="float", peekType="float", codeSize="32 b", stackSize="32 b", work="27"];
node22 -> node43;
node44 [label="AutoGeneratedExpander_17133", push="108", pop="36", peek="36", pushType="float", popType="float", peekType="float", codeSize="32 b", stackSize="32 b", work="27"];
node22 -> node44;
node45 [label="AutoGeneratedExpander_17134", push="108", pop="36", peek="36", pushType="float", popType="float", peekType="float", codeSize="32 b", stackSize="32 b", work="27"];
node22 -> node45;
node46 [label="AutoGeneratedExpander_17135", push="108", pop="36", peek="36", pushType="float", popType="float", peekType="float", codeSize="32 b", stackSize="32 b", work="27"];
node22 -> node46;
node47 [label="AutoGeneratedExpander_17136", push="108", pop="36", peek="36", pushType="float", popType="float", peekType="float", codeSize="32 b", stackSize="32 b", work="27"];
node22 -> node47;
node48 [label="AutoGeneratedExpander_17137", push="108", pop="36", peek="36", pushType="float", popType="float", peekType="float", codeSize="32 b", stackSize="32 b", work="27"];
node22 -> node48;
node49 [label="AutoGeneratedExpander_17138", push="108", pop="36", peek="36", pushType="float", popType="float", peekType="float", codeSize="32 b", stackSize="32 b", work="27"];
node22 -> node49;
node50 [label="AutoGeneratedExpander_17139", push="108", pop="36", peek="36", pushType="float", popType="float", peekType="float", codeSize="32 b", stackSize="32 b", work="27"];
node22 -> node50;
node51 [label="AutoGeneratedExpander_17140", push="108", pop="36", peek="36", pushType="float", popType="float", peekType="float", codeSize="32 b", stackSize="32 b", work="27"];
node22 -> node51;
node52 [label="AutoGeneratedExpander_17141", push="108", pop="36", peek="36", pushType="float", popType="float", peekType="float", codeSize="32 b", stackSize="32 b", work="27"];
node22 -> node52;
node53 [label="AutoGeneratedExpander_17142", push="108", pop="36", peek="36", pushType="float", popType="float", peekType="float", codeSize="32 b", stackSize="32 b", work="27"];
node22 -> node53;
node54 [label="AutoGeneratedExpander_17143", push="108", pop="36", peek="36", pushType="float", popType="float", peekType="float", codeSize="32 b", stackSize="32 b", work="27"];
node22 -> node54;
node55 [label="AutoGeneratedExpander_17144", push="108", pop="36", peek="36", pushType="float", popType="float", peekType="float", codeSize="32 b", stackSize="32 b", work="27"];
node22 -> node55;
node56 [label="AutoGeneratedExpander_17145", push="108", pop="36", peek="36", pushType="float", popType="float", peekType="float", codeSize="32 b", stackSize="32 b", work="27"];
node22 -> node56;
node57 [label="AutoGeneratedExpander_17146", push="108", pop="36", peek="36", pushType="float", popType="float", peekType="float", codeSize="32 b", stackSize="32 b", work="27"];
node22 -> node57;
node58 [label="AutoGeneratedExpander_17147", push="108", pop="36", peek="36", pushType="float", popType="float", peekType="float", codeSize="32 b", stackSize="32 b", work="27"];
node22 -> node58;
node59 [label="AutoGeneratedExpander_17148", push="108", pop="36", peek="36", pushType="float", popType="float", peekType="float", codeSize="32 b", stackSize="32 b", work="27"];
node22 -> node59;
node60 [label="AutoGeneratedExpander_17149", push="108", pop="36", peek="36", pushType="float", popType="float", peekType="float", codeSize="32 b", stackSize="32 b", work="27"];
node22 -> node60;
node61 [label="AutoGeneratedExpander_17150", push="108", pop="36", peek="36", pushType="float", popType="float", peekType="float", codeSize="32 b", stackSize="32 b", work="27"];
node22 -> node61;
node62 [label="AutoGeneratedExpander_17151", push="108", pop="36", peek="36", pushType="float", popType="float", peekType="float", codeSize="32 b", stackSize="32 b", work="27"];
node22 -> node62;
node63 [label="AutoGeneratedExpander_17152", push="108", pop="36", peek="36", pushType="float", popType="float", peekType="float", codeSize="32 b", stackSize="32 b", work="27"];
node22 -> node63;
node64 [label="AutoGeneratedExpander_17153", push="108", pop="36", peek="36", pushType="float", popType="float", peekType="float", codeSize="32 b", stackSize="32 b", work="27"];
node22 -> node64;
node65 [label="AutoGeneratedExpander_17154", push="108", pop="36", peek="36", pushType="float", popType="float", peekType="float", codeSize="32 b", stackSize="32 b", work="27"];
node22 -> node65;
node66 [label="AutoGeneratedExpander_17155", push="108", pop="36", peek="36", pushType="float", popType="float", peekType="float", codeSize="32 b", stackSize="32 b", work="27"];
node22 -> node66;
node67 [label="AutoGeneratedExpander_17156", push="108", pop="36", peek="36", pushType="float", popType="float", peekType="float", codeSize="32 b", stackSize="32 b", work="27"];
node22 -> node67;
node68 [label="AutoGeneratedExpander_17157", push="108", pop="36", peek="36", pushType="float", popType="float", peekType="float", codeSize="32 b", stackSize="32 b", work="27"];
node22 -> node68;
node69 [label="AutoGeneratedExpander_17158", push="108", pop="36", peek="36", pushType="float", popType="float", peekType="float", codeSize="32 b", stackSize="32 b", work="27"];
node22 -> node69;
node70 [label="AutoGeneratedExpander_17159", push="108", pop="36", peek="36", pushType="float", popType="float", peekType="float", codeSize="32 b", stackSize="32 b", work="27"];
node22 -> node70;
node71 [label="AutoGeneratedExpander_17160", push="108", pop="36", peek="36", pushType="float", popType="float", peekType="float", codeSize="32 b", stackSize="32 b", work="27"];
node22 -> node71;
node72 [label="AutoGeneratedExpander_17161", push="108", pop="36", peek="36", pushType="float", popType="float", peekType="float", codeSize="32 b", stackSize="32 b", work="27"];
node22 -> node72;
node73 [label="AutoGeneratedExpander_17162", push="108", pop="36", peek="36", pushType="float", popType="float", peekType="float", codeSize="32 b", stackSize="32 b", work="27"];
node22 -> node73;
node74 [label="AutoGeneratedExpander_17163", push="108", pop="36", peek="36", pushType="float", popType="float", peekType="float", codeSize="32 b", stackSize="32 b", work="27"];
node22 -> node74;
node75 [label="AutoGeneratedExpander_17164", push="108", pop="36", peek="36", pushType="float", popType="float", peekType="float", codeSize="32 b", stackSize="32 b", work="27"];
node22 -> node75;
node76 [label="AutoGeneratedExpander_17165", push="108", pop="36", peek="36", pushType="float", popType="float", peekType="float", codeSize="32 b", stackSize="32 b", work="27"];
node22 -> node76;
node77 [label="AutoGeneratedExpander_17166", push="108", pop="36", peek="36", pushType="float", popType="float", peekType="float", codeSize="32 b", stackSize="32 b", work="27"];
node22 -> node77;
node78 [label="AutoGeneratedExpander_17167", push="108", pop="36", peek="36", pushType="float", popType="float", peekType="float", codeSize="32 b", stackSize="32 b", work="27"];
node22 -> node78;
node79 [label="AutoGeneratedExpander_17168", push="108", pop="36", peek="36", pushType="float", popType="float", peekType="float", codeSize="32 b", stackSize="32 b", work="27"];
node22 -> node79;
node80 [label="AutoGeneratedExpander_17169", push="108", pop="36", peek="36", pushType="float", popType="float", peekType="float", codeSize="32 b", stackSize="32 b", work="27"];
node22 -> node80;
node81 [label="AutoGeneratedExpander_17170", push="108", pop="36", peek="36", pushType="float", popType="float", peekType="float", codeSize="32 b", stackSize="32 b", work="27"];
node22 -> node81;
node82 [label="AutoGeneratedExpander_17171", push="108", pop="36", peek="36", pushType="float", popType="float", peekType="float", codeSize="32 b", stackSize="32 b", work="27"];
node22 -> node82;
node83 [label="AutoGeneratedExpander_17172", push="108", pop="36", peek="36", pushType="float", popType="float", peekType="float", codeSize="32 b", stackSize="32 b", work="27"];
node22 -> node83;
node84 [label="AutoGeneratedExpander_17173", push="108", pop="36", peek="36", pushType="float", popType="float", peekType="float", codeSize="32 b", stackSize="32 b", work="27"];
node22 -> node84;
node85 [label="AutoGeneratedExpander_17174", push="108", pop="36", peek="36", pushType="float", popType="float", peekType="float", codeSize="32 b", stackSize="32 b", work="27"];
node22 -> node85;
node86 [label="AutoGeneratedExpander_17175", push="108", pop="36", peek="36", pushType="float", popType="float", peekType="float", codeSize="32 b", stackSize="32 b", work="27"];
node22 -> node86;
node87 [label="AutoGeneratedExpander_17176", push="108", pop="36", peek="36", pushType="float", popType="float", peekType="float", codeSize="32 b", stackSize="32 b", work="27"];
node22 -> node87;
node88 [label="AutoGeneratedExpander_17177", push="108", pop="36", peek="36", pushType="float", popType="float", peekType="float", codeSize="32 b", stackSize="32 b", work="27"];
node22 -> node88;
node89 [label="AutoGeneratedExpander_17178", push="108", pop="36", peek="36", pushType="float", popType="float", peekType="float", codeSize="32 b", stackSize="32 b", work="27"];
node22 -> node89;
node90 [label="AutoGeneratedExpander_17179", push="108", pop="36", peek="36", pushType="float", popType="float", peekType="float", codeSize="32 b", stackSize="32 b", work="27"];
node22 -> node90;
node91 [label="AutoGeneratedExpander_17180", push="108", pop="36", peek="36", pushType="float", popType="float", peekType="float", codeSize="32 b", stackSize="32 b", work="27"];
node22 -> node91;
node92 [label="AutoGeneratedExpander_17181", push="108", pop="36", peek="36", pushType="float", popType="float", peekType="float", codeSize="32 b", stackSize="32 b", work="27"];
node22 -> node92;
node93 [label="AutoGeneratedExpander_17182", push="108", pop="36", peek="36", pushType="float", popType="float", peekType="float", codeSize="32 b", stackSize="32 b", work="27"];
node22 -> node93;
node94 [label="AutoGeneratedExpander_17183", push="108", pop="36", peek="36", pushType="float", popType="float", peekType="float", codeSize="32 b", stackSize="32 b", work="27"];
node22 -> node94;
node95 [label="AutoGeneratedExpander_17184", push="108", pop="36", peek="36", pushType="float", popType="float", peekType="float", codeSize="32 b", stackSize="32 b", work="27"];
node22 -> node95;
node96 [label="AutoGeneratedExpander_17185", push="108", pop="36", peek="36", pushType="float", popType="float", peekType="float", codeSize="32 b", stackSize="32 b", work="27"];
node22 -> node96;
node97 [label="AutoGeneratedExpander_17186", push="108", pop="36", peek="36", pushType="float", popType="float", peekType="float", codeSize="32 b", stackSize="32 b", work="27"];
node22 -> node97;
node98 [label="AutoGeneratedExpander_17187", push="108", pop="36", peek="36", pushType="float", popType="float", peekType="float", codeSize="32 b", stackSize="32 b", work="27"];
node22 -> node98;
node99 [label="AutoGeneratedExpander_17188", push="108", pop="36", peek="36", pushType="float", popType="float", peekType="float", codeSize="32 b", stackSize="32 b", work="27"];
node22 -> node99;
node100 [label="AutoGeneratedExpander_17189", push="108", pop="36", peek="36", pushType="float", popType="float", peekType="float", codeSize="32 b", stackSize="32 b", work="27"];
node22 -> node100;
node101 [label="AutoGeneratedExpander_17190", push="108", pop="36", peek="36", pushType="float", popType="float", peekType="float", codeSize="32 b", stackSize="32 b", work="27"];
node22 -> node101;
node102 [label="AutoGeneratedExpander_17191", push="108", pop="36", peek="36", pushType="float", popType="float", peekType="float", codeSize="32 b", stackSize="32 b", work="27"];
node22 -> node102;
node103 [label="AutoGeneratedExpander_17192", push="108", pop="36", peek="36", pushType="float", popType="float", peekType="float", codeSize="32 b", stackSize="32 b", work="27"];
node22 -> node103;
node104 [label="AutoGeneratedExpander_17193", push="108", pop="36", peek="36", pushType="float", popType="float", peekType="float", codeSize="32 b", stackSize="32 b", work="27"];
node22 -> node104;
node105 [label="AutoGeneratedExpander_17194", push="108", pop="36", peek="36", pushType="float", popType="float", peekType="float", codeSize="32 b", stackSize="32 b", work="27"];
node22 -> node105;
node106 [label="AutoGeneratedExpander_17195", push="108", pop="36", peek="36", pushType="float", popType="float", peekType="float", codeSize="32 b", stackSize="32 b", work="27"];
node22 -> node106;
node107 [label="AutoGeneratedExpander_17196", push="108", pop="36", peek="36", pushType="float", popType="float", peekType="float", codeSize="32 b", stackSize="32 b", work="27"];
node22 -> node107;
node108 [label="AutoGeneratedExpander_17197", push="108", pop="36", peek="36", pushType="float", popType="float", peekType="float", codeSize="32 b", stackSize="32 b", work="27"];
node22 -> node108;
node109 [label="AutoGeneratedExpander_17198", push="108", pop="36", peek="36", pushType="float", popType="float", peekType="float", codeSize="32 b", stackSize="32 b", work="27"];
node22 -> node109;
node110 [label="AutoGeneratedExpander_17199", push="108", pop="36", peek="36", pushType="float", popType="float", peekType="float", codeSize="32 b", stackSize="32 b", work="27"];
node22 -> node110;
node111 [label="AutoGeneratedExpander_17200", push="108", pop="36", peek="36", pushType="float", popType="float", peekType="float", codeSize="32 b", stackSize="32 b", work="27"];
node22 -> node111;
node112 [label="AutoGeneratedExpander_17201", push="108", pop="36", peek="36", pushType="float", popType="float", peekType="float", codeSize="32 b", stackSize="32 b", work="27"];
node22 -> node112;
node113 [label="AutoGeneratedExpander_17202", push="108", pop="36", peek="36", pushType="float", popType="float", peekType="float", codeSize="32 b", stackSize="32 b", work="27"];
node22 -> node113;
node114 [label="AutoGeneratedExpander_17203", push="108", pop="36", peek="36", pushType="float", popType="float", peekType="float", codeSize="32 b", stackSize="32 b", work="27"];
node22 -> node114;
node115 [label="AutoGeneratedExpander_17204", push="108", pop="36", peek="36", pushType="float", popType="float", peekType="float", codeSize="32 b", stackSize="32 b", work="27"];
node22 -> node115;
node116 [label="AutoGeneratedExpander_17205", push="108", pop="36", peek="36", pushType="float", popType="float", peekType="float", codeSize="32 b", stackSize="32 b", work="27"];
node22 -> node116;
node117 [label="AutoGeneratedExpander_17206", push="108", pop="36", peek="36", pushType="float", popType="float", peekType="float", codeSize="32 b", stackSize="32 b", work="27"];
node22 -> node117;
node118 [label="AutoGeneratedExpander_17207", push="108", pop="36", peek="36", pushType="float", popType="float", peekType="float", codeSize="32 b", stackSize="32 b", work="27"];
node22 -> node118;
node119 [label="AutoGeneratedExpander_17208", push="108", pop="36", peek="36", pushType="float", popType="float", peekType="float", codeSize="32 b", stackSize="32 b", work="27"];
node22 -> node119;
node120 [label="AutoGeneratedExpander_17209", push="108", pop="36", peek="36", pushType="float", popType="float", peekType="float", codeSize="32 b", stackSize="32 b", work="27"];
node22 -> node120;
node121 [label="AutoGeneratedExpander_17210", push="108", pop="36", peek="36", pushType="float", popType="float", peekType="float", codeSize="32 b", stackSize="32 b", work="27"];
node22 -> node121;
node122 [label="AutoGeneratedExpander_17211", push="108", pop="36", peek="36", pushType="float", popType="float", peekType="float", codeSize="32 b", stackSize="32 b", work="27"];
node22 -> node122;
node123 [label="AutoGeneratedExpander_17212", push="108", pop="36", peek="36", pushType="float", popType="float", peekType="float", codeSize="32 b", stackSize="32 b", work="27"];
node22 -> node123;
node124 [label="AutoGeneratedExpander_17213", push="108", pop="36", peek="36", pushType="float", popType="float", peekType="float", codeSize="32 b", stackSize="32 b", work="27"];
node22 -> node124;
node125 [label="AutoGeneratedExpander_17214", push="108", pop="36", peek="36", pushType="float", popType="float", peekType="float", codeSize="32 b", stackSize="32 b", work="27"];
node22 -> node125;
node126 [label="AutoGeneratedExpander_17215", push="108", pop="36", peek="36", pushType="float", popType="float", peekType="float", codeSize="32 b", stackSize="32 b", work="27"];
node22 -> node126;
node127 [label="AutoGeneratedExpander_17216", push="108", pop="36", peek="36", pushType="float", popType="float", peekType="float", codeSize="32 b", stackSize="32 b", work="27"];
node22 -> node127;
node128 [label="AutoGeneratedExpander_17217", push="108", pop="36", peek="36", pushType="float", popType="float", peekType="float", codeSize="32 b", stackSize="32 b", work="27"];
node22 -> node128;
node129 [label="AutoGeneratedExpander_17218", push="108", pop="36", peek="36", pushType="float", popType="float", peekType="float", codeSize="32 b", stackSize="32 b", work="27"];
node22 -> node129;
node130 [label="AutoGeneratedExpander_17219", push="108", pop="36", peek="36", pushType="float", popType="float", peekType="float", codeSize="32 b", stackSize="32 b", work="27"];
node22 -> node130;
node131 [label="AutoGeneratedExpander_17220", push="108", pop="36", peek="36", pushType="float", popType="float", peekType="float", codeSize="32 b", stackSize="32 b", work="27"];
node22 -> node131;
node132 [label="AutoGeneratedExpander_17221", push="108", pop="36", peek="36", pushType="float", popType="float", peekType="float", codeSize="32 b", stackSize="32 b", work="27"];
node22 -> node132;
node133 [label="AutoGeneratedExpander_17222", push="108", pop="36", peek="36", pushType="float", popType="float", peekType="float", codeSize="32 b", stackSize="32 b", work="27"];
node22 -> node133;
node134 [label="AutoGeneratedExpander_17223", push="108", pop="36", peek="36", pushType="float", popType="float", peekType="float", codeSize="32 b", stackSize="32 b", work="27"];
node22 -> node134;
node135 [label="AutoGeneratedExpander_17224", push="108", pop="36", peek="36", pushType="float", popType="float", peekType="float", codeSize="32 b", stackSize="32 b", work="27"];
node22 -> node135;
node136 [label="AutoGeneratedExpander_17225", push="108", pop="36", peek="36", pushType="float", popType="float", peekType="float", codeSize="32 b", stackSize="32 b", work="27"];
node22 -> node136;
node137 [label="AutoGeneratedExpander_17226", push="108", pop="36", peek="36", pushType="float", popType="float", peekType="float", codeSize="32 b", stackSize="32 b", work="27"];
node22 -> node137;
node138 [label="AutoGeneratedExpander_17227", push="108", pop="36", peek="36", pushType="float", popType="float", peekType="float", codeSize="32 b", stackSize="32 b", work="27"];
node22 -> node138;
node139 [label="AutoGeneratedExpander_17228", push="108", pop="36", peek="36", pushType="float", popType="float", peekType="float", codeSize="32 b", stackSize="32 b", work="27"];
node22 -> node139;
node140 [label="AutoGeneratedExpander_17229", push="108", pop="36", peek="36", pushType="float", popType="float", peekType="float", codeSize="32 b", stackSize="32 b", work="27"];
node22 -> node140;
node141 [label="AutoGeneratedExpander_17230", push="108", pop="36", peek="36", pushType="float", popType="float", peekType="float", codeSize="32 b", stackSize="32 b", work="27"];
node22 -> node141;
node142 [label="AutoGeneratedExpander_17231", push="108", pop="36", peek="36", pushType="float", popType="float", peekType="float", codeSize="32 b", stackSize="32 b", work="27"];
node22 -> node142;
node143 [label="AutoGeneratedExpander_17232", push="108", pop="36", peek="36", pushType="float", popType="float", peekType="float", codeSize="32 b", stackSize="32 b", work="27"];
node22 -> node143;
node144 [label="AutoGeneratedExpander_17233", push="108", pop="36", peek="36", pushType="float", popType="float", peekType="float", codeSize="32 b", stackSize="32 b", work="27"];
node22 -> node144;
node145 [label="AutoGeneratedExpander_17234", push="108", pop="36", peek="36", pushType="float", popType="float", peekType="float", codeSize="32 b", stackSize="32 b", work="27"];
node22 -> node145;
node146 [label="AutoGeneratedExpander_17235", push="108", pop="36", peek="36", pushType="float", popType="float", peekType="float", codeSize="32 b", stackSize="32 b", work="27"];
node22 -> node146;
node147 [label="WEIGHTED_ROUND_ROBIN_Joiner_17111", push="13392", pop="13392", peek="0", pushType="float", popType="float", peekType="void", codeSize="2238 b", stackSize="4000 b", work="0"];
node23 -> node147;
node24 -> node147;
node25 -> node147;
node26 -> node147;
node27 -> node147;
node28 -> node147;
node29 -> node147;
node30 -> node147;
node31 -> node147;
node32 -> node147;
node33 -> node147;
node34 -> node147;
node35 -> node147;
node36 -> node147;
node37 -> node147;
node38 -> node147;
node39 -> node147;
node40 -> node147;
node41 -> node147;
node42 -> node147;
node43 -> node147;
node44 -> node147;
node45 -> node147;
node46 -> node147;
node47 -> node147;
node48 -> node147;
node49 -> node147;
node50 -> node147;
node51 -> node147;
node52 -> node147;
node53 -> node147;
node54 -> node147;
node55 -> node147;
node56 -> node147;
node57 -> node147;
node58 -> node147;
node59 -> node147;
node60 -> node147;
node61 -> node147;
node62 -> node147;
node63 -> node147;
node64 -> node147;
node65 -> node147;
node66 -> node147;
node67 -> node147;
node68 -> node147;
node69 -> node147;
node70 -> node147;
node71 -> node147;
node72 -> node147;
node73 -> node147;
node74 -> node147;
node75 -> node147;
node76 -> node147;
node77 -> node147;
node78 -> node147;
node79 -> node147;
node80 -> node147;
node81 -> node147;
node82 -> node147;
node83 -> node147;
node84 -> node147;
node85 -> node147;
node86 -> node147;
node87 -> node147;
node88 -> node147;
node89 -> node147;
node90 -> node147;
node91 -> node147;
node92 -> node147;
node93 -> node147;
node94 -> node147;
node95 -> node147;
node96 -> node147;
node97 -> node147;
node98 -> node147;
node99 -> node147;
node100 -> node147;
node101 -> node147;
node102 -> node147;
node103 -> node147;
node104 -> node147;
node105 -> node147;
node106 -> node147;
node107 -> node147;
node108 -> node147;
node109 -> node147;
node110 -> node147;
node111 -> node147;
node112 -> node147;
node113 -> node147;
node114 -> node147;
node115 -> node147;
node116 -> node147;
node117 -> node147;
node118 -> node147;
node119 -> node147;
node120 -> node147;
node121 -> node147;
node122 -> node147;
node123 -> node147;
node124 -> node147;
node125 -> node147;
node126 -> node147;
node127 -> node147;
node128 -> node147;
node129 -> node147;
node130 -> node147;
node131 -> node147;
node132 -> node147;
node133 -> node147;
node134 -> node147;
node135 -> node147;
node136 -> node147;
node137 -> node147;
node138 -> node147;
node139 -> node147;
node140 -> node147;
node141 -> node147;
node142 -> node147;
node143 -> node147;
node144 -> node147;
node145 -> node147;
node146 -> node147;
node148 [label="Identity_16961", push="13392", pop="13392", peek="13392", pushType="float", popType="float", peekType="float", codeSize="12 b", stackSize="32 b", work="6"];
node147 -> node148;
node149 [label="WEIGHTED_ROUND_ROBIN_Splitter_17236", push="13392", pop="13392", peek="0", pushType="float", popType="float", peekType="void", codeSize="60 b", stackSize="128 b", work="0"];
node148 -> node149;
node150 [label="Pre_CollapsedDataParallel_2_17238", push="4464", pop="4464", peek="4464", pushType="float", popType="float", peekType="float", codeSize="50 b", stackSize="96 b", work="1449"];
node149 -> node150;
node151 [label="Pre_CollapsedDataParallel_2_17239", push="4464", pop="4464", peek="4464", pushType="float", popType="float", peekType="float", codeSize="50 b", stackSize="96 b", work="1449"];
node149 -> node151;
node152 [label="Pre_CollapsedDataParallel_2_17240", push="4464", pop="4464", peek="4464", pushType="float", popType="float", peekType="float", codeSize="50 b", stackSize="96 b", work="1449"];
node149 -> node152;
node153 [label="WEIGHTED_ROUND_ROBIN_Joiner_17237", push="13392", pop="13392", peek="0", pushType="float", popType="float", peekType="void", codeSize="60 b", stackSize="128 b", work="0"];
node150 -> node153;
node151 -> node153;
node152 -> node153;
node154 [label="Identity_16965", push="3348", pop="3348", peek="3348", pushType="float", popType="float", peekType="float", codeSize="12 b", stackSize="32 b", work="6"];
node1 -> node154;
node155 [label="Pre_CollapsedDataParallel_2_17077", push="3348", pop="3348", peek="3348", pushType="float", popType="float", peekType="float", codeSize="50 b", stackSize="96 b", work="1101"];
node154 -> node155;
node156 [label="WEIGHTED_ROUND_ROBIN_Splitter_17241", push="3348", pop="3348", peek="0", pushType="float", popType="float", peekType="void", codeSize="168 b", stackSize="320 b", work="0"];
node155 -> node156;
node157 [label="Post_CollapsedDataParallel_1_17243", push="372", pop="372", peek="372", pushType="float", popType="float", peekType="float", codeSize="54 b", stackSize="96 b", work="143"];
node156 -> node157;
node158 [label="Post_CollapsedDataParallel_1_17244", push="372", pop="372", peek="372", pushType="float", popType="float", peekType="float", codeSize="54 b", stackSize="96 b", work="143"];
node156 -> node158;
node159 [label="Post_CollapsedDataParallel_1_17245", push="372", pop="372", peek="372", pushType="float", popType="float", peekType="float", codeSize="54 b", stackSize="96 b", work="143"];
node156 -> node159;
node160 [label="Post_CollapsedDataParallel_1_17246", push="372", pop="372", peek="372", pushType="float", popType="float", peekType="float", codeSize="54 b", stackSize="96 b", work="143"];
node156 -> node160;
node161 [label="Post_CollapsedDataParallel_1_17247", push="372", pop="372", peek="372", pushType="float", popType="float", peekType="float", codeSize="54 b", stackSize="96 b", work="143"];
node156 -> node161;
node162 [label="Post_CollapsedDataParallel_1_17248", push="372", pop="372", peek="372", pushType="float", popType="float", peekType="float", codeSize="54 b", stackSize="96 b", work="143"];
node156 -> node162;
node163 [label="Post_CollapsedDataParallel_1_17249", push="372", pop="372", peek="372", pushType="float", popType="float", peekType="float", codeSize="54 b", stackSize="96 b", work="143"];
node156 -> node163;
node164 [label="Post_CollapsedDataParallel_1_17250", push="372", pop="372", peek="372", pushType="float", popType="float", peekType="float", codeSize="54 b", stackSize="96 b", work="143"];
node156 -> node164;
node165 [label="Post_CollapsedDataParallel_1_17251", push="372", pop="372", peek="372", pushType="float", popType="float", peekType="float", codeSize="54 b", stackSize="96 b", work="143"];
node156 -> node165;
node166 [label="WEIGHTED_ROUND_ROBIN_Joiner_17242", push="3348", pop="3348", peek="0", pushType="float", popType="float", peekType="void", codeSize="168 b", stackSize="320 b", work="0"];
node157 -> node166;
node158 -> node166;
node159 -> node166;
node160 -> node166;
node161 -> node166;
node162 -> node166;
node163 -> node166;
node164 -> node166;
node165 -> node166;
node167 [label="Identity_16974", push="3348", pop="3348", peek="3348", pushType="float", popType="float", peekType="float", codeSize="12 b", stackSize="32 b", work="6"];
node166 -> node167;
node168 [label="WEIGHTED_ROUND_ROBIN_Splitter_17252", push="3348", pop="3348", peek="0", pushType="float", popType="float", peekType="void", codeSize="60 b", stackSize="128 b", work="0"];
node167 -> node168;
node169 [label="Pre_CollapsedDataParallel_2_17254", push="1116", pop="1116", peek="1116", pushType="float", popType="float", peekType="float", codeSize="50 b", stackSize="96 b", work="369"];
node168 -> node169;
node170 [label="Pre_CollapsedDataParallel_2_17255", push="1116", pop="1116", peek="1116", pushType="float", popType="float", peekType="float", codeSize="50 b", stackSize="96 b", work="369"];
node168 -> node170;
node171 [label="Pre_CollapsedDataParallel_2_17256", push="1116", pop="1116", peek="1116", pushType="float", popType="float", peekType="float", codeSize="50 b", stackSize="96 b", work="369"];
node168 -> node171;
node172 [label="WEIGHTED_ROUND_ROBIN_Joiner_17253", push="3348", pop="3348", peek="0", pushType="float", popType="float", peekType="void", codeSize="60 b", stackSize="128 b", work="0"];
node169 -> node172;
node170 -> node172;
node171 -> node172;
node173 [label="WEIGHTED_ROUND_ROBIN_Splitter_17257", push="3348", pop="3348", peek="0", pushType="float", popType="float", peekType="void", codeSize="1302 b", stackSize="32 b", work="0"];
node172 -> node173;
node174 [label="AutoGeneratedExpander_17259", push="93", pop="31", peek="31", pushType="float", popType="float", peekType="float", codeSize="32 b", stackSize="32 b", work="27"];
node173 -> node174;
node175 [label="AutoGeneratedExpander_17260", push="93", pop="31", peek="31", pushType="float", popType="float", peekType="float", codeSize="32 b", stackSize="32 b", work="27"];
node173 -> node175;
node176 [label="AutoGeneratedExpander_17261", push="93", pop="31", peek="31", pushType="float", popType="float", peekType="float", codeSize="32 b", stackSize="32 b", work="27"];
node173 -> node176;
node177 [label="AutoGeneratedExpander_17262", push="93", pop="31", peek="31", pushType="float", popType="float", peekType="float", codeSize="32 b", stackSize="32 b", work="27"];
node173 -> node177;
node178 [label="AutoGeneratedExpander_17263", push="93", pop="31", peek="31", pushType="float", popType="float", peekType="float", codeSize="32 b", stackSize="32 b", work="27"];
node173 -> node178;
node179 [label="AutoGeneratedExpander_17264", push="93", pop="31", peek="31", pushType="float", popType="float", peekType="float", codeSize="32 b", stackSize="32 b", work="27"];
node173 -> node179;
node180 [label="AutoGeneratedExpander_17265", push="93", pop="31", peek="31", pushType="float", popType="float", peekType="float", codeSize="32 b", stackSize="32 b", work="27"];
node173 -> node180;
node181 [label="AutoGeneratedExpander_17266", push="93", pop="31", peek="31", pushType="float", popType="float", peekType="float", codeSize="32 b", stackSize="32 b", work="27"];
node173 -> node181;
node182 [label="AutoGeneratedExpander_17267", push="93", pop="31", peek="31", pushType="float", popType="float", peekType="float", codeSize="32 b", stackSize="32 b", work="27"];
node173 -> node182;
node183 [label="AutoGeneratedExpander_17268", push="93", pop="31", peek="31", pushType="float", popType="float", peekType="float", codeSize="32 b", stackSize="32 b", work="27"];
node173 -> node183;
node184 [label="AutoGeneratedExpander_17269", push="93", pop="31", peek="31", pushType="float", popType="float", peekType="float", codeSize="32 b", stackSize="32 b", work="27"];
node173 -> node184;
node185 [label="AutoGeneratedExpander_17270", push="93", pop="31", peek="31", pushType="float", popType="float", peekType="float", codeSize="32 b", stackSize="32 b", work="27"];
node173 -> node185;
node186 [label="AutoGeneratedExpander_17271", push="93", pop="31", peek="31", pushType="float", popType="float", peekType="float", codeSize="32 b", stackSize="32 b", work="27"];
node173 -> node186;
node187 [label="AutoGeneratedExpander_17272", push="93", pop="31", peek="31", pushType="float", popType="float", peekType="float", codeSize="32 b", stackSize="32 b", work="27"];
node173 -> node187;
node188 [label="AutoGeneratedExpander_17273", push="93", pop="31", peek="31", pushType="float", popType="float", peekType="float", codeSize="32 b", stackSize="32 b", work="27"];
node173 -> node188;
node189 [label="AutoGeneratedExpander_17274", push="93", pop="31", peek="31", pushType="float", popType="float", peekType="float", codeSize="32 b", stackSize="32 b", work="27"];
node173 -> node189;
node190 [label="AutoGeneratedExpander_17275", push="93", pop="31", peek="31", pushType="float", popType="float", peekType="float", codeSize="32 b", stackSize="32 b", work="27"];
node173 -> node190;
node191 [label="AutoGeneratedExpander_17276", push="93", pop="31", peek="31", pushType="float", popType="float", peekType="float", codeSize="32 b", stackSize="32 b", work="27"];
node173 -> node191;
node192 [label="AutoGeneratedExpander_17277", push="93", pop="31", peek="31", pushType="float", popType="float", peekType="float", codeSize="32 b", stackSize="32 b", work="27"];
node173 -> node192;
node193 [label="AutoGeneratedExpander_17278", push="93", pop="31", peek="31", pushType="float", popType="float", peekType="float", codeSize="32 b", stackSize="32 b", work="27"];
node173 -> node193;
node194 [label="AutoGeneratedExpander_17279", push="93", pop="31", peek="31", pushType="float", popType="float", peekType="float", codeSize="32 b", stackSize="32 b", work="27"];
node173 -> node194;
node195 [label="AutoGeneratedExpander_17280", push="93", pop="31", peek="31", pushType="float", popType="float", peekType="float", codeSize="32 b", stackSize="32 b", work="27"];
node173 -> node195;
node196 [label="AutoGeneratedExpander_17281", push="93", pop="31", peek="31", pushType="float", popType="float", peekType="float", codeSize="32 b", stackSize="32 b", work="27"];
node173 -> node196;
node197 [label="AutoGeneratedExpander_17282", push="93", pop="31", peek="31", pushType="float", popType="float", peekType="float", codeSize="32 b", stackSize="32 b", work="27"];
node173 -> node197;
node198 [label="AutoGeneratedExpander_17283", push="93", pop="31", peek="31", pushType="float", popType="float", peekType="float", codeSize="32 b", stackSize="32 b", work="27"];
node173 -> node198;
node199 [label="AutoGeneratedExpander_17284", push="93", pop="31", peek="31", pushType="float", popType="float", peekType="float", codeSize="32 b", stackSize="32 b", work="27"];
node173 -> node199;
node200 [label="AutoGeneratedExpander_17285", push="93", pop="31", peek="31", pushType="float", popType="float", peekType="float", codeSize="32 b", stackSize="32 b", work="27"];
node173 -> node200;
node201 [label="AutoGeneratedExpander_17286", push="93", pop="31", peek="31", pushType="float", popType="float", peekType="float", codeSize="32 b", stackSize="32 b", work="27"];
node173 -> node201;
node202 [label="AutoGeneratedExpander_17287", push="93", pop="31", peek="31", pushType="float", popType="float", peekType="float", codeSize="32 b", stackSize="32 b", work="27"];
node173 -> node202;
node203 [label="AutoGeneratedExpander_17288", push="93", pop="31", peek="31", pushType="float", popType="float", peekType="float", codeSize="32 b", stackSize="32 b", work="27"];
node173 -> node203;
node204 [label="AutoGeneratedExpander_17289", push="93", pop="31", peek="31", pushType="float", popType="float", peekType="float", codeSize="32 b", stackSize="32 b", work="27"];
node173 -> node204;
node205 [label="AutoGeneratedExpander_17290", push="93", pop="31", peek="31", pushType="float", popType="float", peekType="float", codeSize="32 b", stackSize="32 b", work="27"];
node173 -> node205;
node206 [label="AutoGeneratedExpander_17291", push="93", pop="31", peek="31", pushType="float", popType="float", peekType="float", codeSize="32 b", stackSize="32 b", work="27"];
node173 -> node206;
node207 [label="AutoGeneratedExpander_17292", push="93", pop="31", peek="31", pushType="float", popType="float", peekType="float", codeSize="32 b", stackSize="32 b", work="27"];
node173 -> node207;
node208 [label="AutoGeneratedExpander_17293", push="93", pop="31", peek="31", pushType="float", popType="float", peekType="float", codeSize="32 b", stackSize="32 b", work="27"];
node173 -> node208;
node209 [label="AutoGeneratedExpander_17294", push="93", pop="31", peek="31", pushType="float", popType="float", peekType="float", codeSize="32 b", stackSize="32 b", work="27"];
node173 -> node209;
node210 [label="AutoGeneratedExpander_17295", push="93", pop="31", peek="31", pushType="float", popType="float", peekType="float", codeSize="32 b", stackSize="32 b", work="27"];
node173 -> node210;
node211 [label="AutoGeneratedExpander_17296", push="93", pop="31", peek="31", pushType="float", popType="float", peekType="float", codeSize="32 b", stackSize="32 b", work="27"];
node173 -> node211;
node212 [label="AutoGeneratedExpander_17297", push="93", pop="31", peek="31", pushType="float", popType="float", peekType="float", codeSize="32 b", stackSize="32 b", work="27"];
node173 -> node212;
node213 [label="AutoGeneratedExpander_17298", push="93", pop="31", peek="31", pushType="float", popType="float", peekType="float", codeSize="32 b", stackSize="32 b", work="27"];
node173 -> node213;
node214 [label="AutoGeneratedExpander_17299", push="93", pop="31", peek="31", pushType="float", popType="float", peekType="float", codeSize="32 b", stackSize="32 b", work="27"];
node173 -> node214;
node215 [label="AutoGeneratedExpander_17300", push="93", pop="31", peek="31", pushType="float", popType="float", peekType="float", codeSize="32 b", stackSize="32 b", work="27"];
node173 -> node215;
node216 [label="AutoGeneratedExpander_17301", push="93", pop="31", peek="31", pushType="float", popType="float", peekType="float", codeSize="32 b", stackSize="32 b", work="27"];
node173 -> node216;
node217 [label="AutoGeneratedExpander_17302", push="93", pop="31", peek="31", pushType="float", popType="float", peekType="float", codeSize="32 b", stackSize="32 b", work="27"];
node173 -> node217;
node218 [label="AutoGeneratedExpander_17303", push="93", pop="31", peek="31", pushType="float", popType="float", peekType="float", codeSize="32 b", stackSize="32 b", work="27"];
node173 -> node218;
node219 [label="AutoGeneratedExpander_17304", push="93", pop="31", peek="31", pushType="float", popType="float", peekType="float", codeSize="32 b", stackSize="32 b", work="27"];
node173 -> node219;
node220 [label="AutoGeneratedExpander_17305", push="93", pop="31", peek="31", pushType="float", popType="float", peekType="float", codeSize="32 b", stackSize="32 b", work="27"];
node173 -> node220;
node221 [label="AutoGeneratedExpander_17306", push="93", pop="31", peek="31", pushType="float", popType="float", peekType="float", codeSize="32 b", stackSize="32 b", work="27"];
node173 -> node221;
node222 [label="AutoGeneratedExpander_17307", push="93", pop="31", peek="31", pushType="float", popType="float", peekType="float", codeSize="32 b", stackSize="32 b", work="27"];
node173 -> node222;
node223 [label="AutoGeneratedExpander_17308", push="93", pop="31", peek="31", pushType="float", popType="float", peekType="float", codeSize="32 b", stackSize="32 b", work="27"];
node173 -> node223;
node224 [label="AutoGeneratedExpander_17309", push="93", pop="31", peek="31", pushType="float", popType="float", peekType="float", codeSize="32 b", stackSize="32 b", work="27"];
node173 -> node224;
node225 [label="AutoGeneratedExpander_17310", push="93", pop="31", peek="31", pushType="float", popType="float", peekType="float", codeSize="32 b", stackSize="32 b", work="27"];
node173 -> node225;
node226 [label="AutoGeneratedExpander_17311", push="93", pop="31", peek="31", pushType="float", popType="float", peekType="float", codeSize="32 b", stackSize="32 b", work="27"];
node173 -> node226;
node227 [label="AutoGeneratedExpander_17312", push="93", pop="31", peek="31", pushType="float", popType="float", peekType="float", codeSize="32 b", stackSize="32 b", work="27"];
node173 -> node227;
node228 [label="AutoGeneratedExpander_17313", push="93", pop="31", peek="31", pushType="float", popType="float", peekType="float", codeSize="32 b", stackSize="32 b", work="27"];
node173 -> node228;
node229 [label="AutoGeneratedExpander_17314", push="93", pop="31", peek="31", pushType="float", popType="float", peekType="float", codeSize="32 b", stackSize="32 b", work="27"];
node173 -> node229;
node230 [label="AutoGeneratedExpander_17315", push="93", pop="31", peek="31", pushType="float", popType="float", peekType="float", codeSize="32 b", stackSize="32 b", work="27"];
node173 -> node230;
node231 [label="AutoGeneratedExpander_17316", push="93", pop="31", peek="31", pushType="float", popType="float", peekType="float", codeSize="32 b", stackSize="32 b", work="27"];
node173 -> node231;
node232 [label="AutoGeneratedExpander_17317", push="93", pop="31", peek="31", pushType="float", popType="float", peekType="float", codeSize="32 b", stackSize="32 b", work="27"];
node173 -> node232;
node233 [label="AutoGeneratedExpander_17318", push="93", pop="31", peek="31", pushType="float", popType="float", peekType="float", codeSize="32 b", stackSize="32 b", work="27"];
node173 -> node233;
node234 [label="AutoGeneratedExpander_17319", push="93", pop="31", peek="31", pushType="float", popType="float", peekType="float", codeSize="32 b", stackSize="32 b", work="27"];
node173 -> node234;
node235 [label="AutoGeneratedExpander_17320", push="93", pop="31", peek="31", pushType="float", popType="float", peekType="float", codeSize="32 b", stackSize="32 b", work="27"];
node173 -> node235;
node236 [label="AutoGeneratedExpander_17321", push="93", pop="31", peek="31", pushType="float", popType="float", peekType="float", codeSize="32 b", stackSize="32 b", work="27"];
node173 -> node236;
node237 [label="AutoGeneratedExpander_17322", push="93", pop="31", peek="31", pushType="float", popType="float", peekType="float", codeSize="32 b", stackSize="32 b", work="27"];
node173 -> node237;
node238 [label="AutoGeneratedExpander_17323", push="93", pop="31", peek="31", pushType="float", popType="float", peekType="float", codeSize="32 b", stackSize="32 b", work="27"];
node173 -> node238;
node239 [label="AutoGeneratedExpander_17324", push="93", pop="31", peek="31", pushType="float", popType="float", peekType="float", codeSize="32 b", stackSize="32 b", work="27"];
node173 -> node239;
node240 [label="AutoGeneratedExpander_17325", push="93", pop="31", peek="31", pushType="float", popType="float", peekType="float", codeSize="32 b", stackSize="32 b", work="27"];
node173 -> node240;
node241 [label="AutoGeneratedExpander_17326", push="93", pop="31", peek="31", pushType="float", popType="float", peekType="float", codeSize="32 b", stackSize="32 b", work="27"];
node173 -> node241;
node242 [label="AutoGeneratedExpander_17327", push="93", pop="31", peek="31", pushType="float", popType="float", peekType="float", codeSize="32 b", stackSize="32 b", work="27"];
node173 -> node242;
node243 [label="AutoGeneratedExpander_17328", push="93", pop="31", peek="31", pushType="float", popType="float", peekType="float", codeSize="32 b", stackSize="32 b", work="27"];
node173 -> node243;
node244 [label="AutoGeneratedExpander_17329", push="93", pop="31", peek="31", pushType="float", popType="float", peekType="float", codeSize="32 b", stackSize="32 b", work="27"];
node173 -> node244;
node245 [label="AutoGeneratedExpander_17330", push="93", pop="31", peek="31", pushType="float", popType="float", peekType="float", codeSize="32 b", stackSize="32 b", work="27"];
node173 -> node245;
node246 [label="AutoGeneratedExpander_17331", push="93", pop="31", peek="31", pushType="float", popType="float", peekType="float", codeSize="32 b", stackSize="32 b", work="27"];
node173 -> node246;
node247 [label="AutoGeneratedExpander_17332", push="93", pop="31", peek="31", pushType="float", popType="float", peekType="float", codeSize="32 b", stackSize="32 b", work="27"];
node173 -> node247;
node248 [label="AutoGeneratedExpander_17333", push="93", pop="31", peek="31", pushType="float", popType="float", peekType="float", codeSize="32 b", stackSize="32 b", work="27"];
node173 -> node248;
node249 [label="AutoGeneratedExpander_17334", push="93", pop="31", peek="31", pushType="float", popType="float", peekType="float", codeSize="32 b", stackSize="32 b", work="27"];
node173 -> node249;
node250 [label="AutoGeneratedExpander_17335", push="93", pop="31", peek="31", pushType="float", popType="float", peekType="float", codeSize="32 b", stackSize="32 b", work="27"];
node173 -> node250;
node251 [label="AutoGeneratedExpander_17336", push="93", pop="31", peek="31", pushType="float", popType="float", peekType="float", codeSize="32 b", stackSize="32 b", work="27"];
node173 -> node251;
node252 [label="AutoGeneratedExpander_17337", push="93", pop="31", peek="31", pushType="float", popType="float", peekType="float", codeSize="32 b", stackSize="32 b", work="27"];
node173 -> node252;
node253 [label="AutoGeneratedExpander_17338", push="93", pop="31", peek="31", pushType="float", popType="float", peekType="float", codeSize="32 b", stackSize="32 b", work="27"];
node173 -> node253;
node254 [label="AutoGeneratedExpander_17339", push="93", pop="31", peek="31", pushType="float", popType="float", peekType="float", codeSize="32 b", stackSize="32 b", work="27"];
node173 -> node254;
node255 [label="AutoGeneratedExpander_17340", push="93", pop="31", peek="31", pushType="float", popType="float", peekType="float", codeSize="32 b", stackSize="32 b", work="27"];
node173 -> node255;
node256 [label="AutoGeneratedExpander_17341", push="93", pop="31", peek="31", pushType="float", popType="float", peekType="float", codeSize="32 b", stackSize="32 b", work="27"];
node173 -> node256;
node257 [label="AutoGeneratedExpander_17342", push="93", pop="31", peek="31", pushType="float", popType="float", peekType="float", codeSize="32 b", stackSize="32 b", work="27"];
node173 -> node257;
node258 [label="AutoGeneratedExpander_17343", push="93", pop="31", peek="31", pushType="float", popType="float", peekType="float", codeSize="32 b", stackSize="32 b", work="27"];
node173 -> node258;
node259 [label="AutoGeneratedExpander_17344", push="93", pop="31", peek="31", pushType="float", popType="float", peekType="float", codeSize="32 b", stackSize="32 b", work="27"];
node173 -> node259;
node260 [label="AutoGeneratedExpander_17345", push="93", pop="31", peek="31", pushType="float", popType="float", peekType="float", codeSize="32 b", stackSize="32 b", work="27"];
node173 -> node260;
node261 [label="AutoGeneratedExpander_17346", push="93", pop="31", peek="31", pushType="float", popType="float", peekType="float", codeSize="32 b", stackSize="32 b", work="27"];
node173 -> node261;
node262 [label="AutoGeneratedExpander_17347", push="93", pop="31", peek="31", pushType="float", popType="float", peekType="float", codeSize="32 b", stackSize="32 b", work="27"];
node173 -> node262;
node263 [label="AutoGeneratedExpander_17348", push="93", pop="31", peek="31", pushType="float", popType="float", peekType="float", codeSize="32 b", stackSize="32 b", work="27"];
node173 -> node263;
node264 [label="AutoGeneratedExpander_17349", push="93", pop="31", peek="31", pushType="float", popType="float", peekType="float", codeSize="32 b", stackSize="32 b", work="27"];
node173 -> node264;
node265 [label="AutoGeneratedExpander_17350", push="93", pop="31", peek="31", pushType="float", popType="float", peekType="float", codeSize="32 b", stackSize="32 b", work="27"];
node173 -> node265;
node266 [label="AutoGeneratedExpander_17351", push="93", pop="31", peek="31", pushType="float", popType="float", peekType="float", codeSize="32 b", stackSize="32 b", work="27"];
node173 -> node266;
node267 [label="AutoGeneratedExpander_17352", push="93", pop="31", peek="31", pushType="float", popType="float", peekType="float", codeSize="32 b", stackSize="32 b", work="27"];
node173 -> node267;
node268 [label="AutoGeneratedExpander_17353", push="93", pop="31", peek="31", pushType="float", popType="float", peekType="float", codeSize="32 b", stackSize="32 b", work="27"];
node173 -> node268;
node269 [label="AutoGeneratedExpander_17354", push="93", pop="31", peek="31", pushType="float", popType="float", peekType="float", codeSize="32 b", stackSize="32 b", work="27"];
node173 -> node269;
node270 [label="AutoGeneratedExpander_17355", push="93", pop="31", peek="31", pushType="float", popType="float", peekType="float", codeSize="32 b", stackSize="32 b", work="27"];
node173 -> node270;
node271 [label="AutoGeneratedExpander_17356", push="93", pop="31", peek="31", pushType="float", popType="float", peekType="float", codeSize="32 b", stackSize="32 b", work="27"];
node173 -> node271;
node272 [label="AutoGeneratedExpander_17357", push="93", pop="31", peek="31", pushType="float", popType="float", peekType="float", codeSize="32 b", stackSize="32 b", work="27"];
node173 -> node272;
node273 [label="AutoGeneratedExpander_17358", push="93", pop="31", peek="31", pushType="float", popType="float", peekType="float", codeSize="32 b", stackSize="32 b", work="27"];
node173 -> node273;
node274 [label="AutoGeneratedExpander_17359", push="93", pop="31", peek="31", pushType="float", popType="float", peekType="float", codeSize="32 b", stackSize="32 b", work="27"];
node173 -> node274;
node275 [label="AutoGeneratedExpander_17360", push="93", pop="31", peek="31", pushType="float", popType="float", peekType="float", codeSize="32 b", stackSize="32 b", work="27"];
node173 -> node275;
node276 [label="AutoGeneratedExpander_17361", push="93", pop="31", peek="31", pushType="float", popType="float", peekType="float", codeSize="32 b", stackSize="32 b", work="27"];
node173 -> node276;
node277 [label="AutoGeneratedExpander_17362", push="93", pop="31", peek="31", pushType="float", popType="float", peekType="float", codeSize="32 b", stackSize="32 b", work="27"];
node173 -> node277;
node278 [label="AutoGeneratedExpander_17363", push="93", pop="31", peek="31", pushType="float", popType="float", peekType="float", codeSize="32 b", stackSize="32 b", work="27"];
node173 -> node278;
node279 [label="AutoGeneratedExpander_17364", push="93", pop="31", peek="31", pushType="float", popType="float", peekType="float", codeSize="32 b", stackSize="32 b", work="27"];
node173 -> node279;
node280 [label="AutoGeneratedExpander_17365", push="93", pop="31", peek="31", pushType="float", popType="float", peekType="float", codeSize="32 b", stackSize="32 b", work="27"];
node173 -> node280;
node281 [label="AutoGeneratedExpander_17366", push="93", pop="31", peek="31", pushType="float", popType="float", peekType="float", codeSize="32 b", stackSize="32 b", work="27"];
node173 -> node281;
node282 [label="WEIGHTED_ROUND_ROBIN_Joiner_17258", push="10044", pop="10044", peek="0", pushType="float", popType="float", peekType="void", codeSize="1950 b", stackSize="3488 b", work="0"];
node174 -> node282;
node175 -> node282;
node176 -> node282;
node177 -> node282;
node178 -> node282;
node179 -> node282;
node180 -> node282;
node181 -> node282;
node182 -> node282;
node183 -> node282;
node184 -> node282;
node185 -> node282;
node186 -> node282;
node187 -> node282;
node188 -> node282;
node189 -> node282;
node190 -> node282;
node191 -> node282;
node192 -> node282;
node193 -> node282;
node194 -> node282;
node195 -> node282;
node196 -> node282;
node197 -> node282;
node198 -> node282;
node199 -> node282;
node200 -> node282;
node201 -> node282;
node202 -> node282;
node203 -> node282;
node204 -> node282;
node205 -> node282;
node206 -> node282;
node207 -> node282;
node208 -> node282;
node209 -> node282;
node210 -> node282;
node211 -> node282;
node212 -> node282;
node213 -> node282;
node214 -> node282;
node215 -> node282;
node216 -> node282;
node217 -> node282;
node218 -> node282;
node219 -> node282;
node220 -> node282;
node221 -> node282;
node222 -> node282;
node223 -> node282;
node224 -> node282;
node225 -> node282;
node226 -> node282;
node227 -> node282;
node228 -> node282;
node229 -> node282;
node230 -> node282;
node231 -> node282;
node232 -> node282;
node233 -> node282;
node234 -> node282;
node235 -> node282;
node236 -> node282;
node237 -> node282;
node238 -> node282;
node239 -> node282;
node240 -> node282;
node241 -> node282;
node242 -> node282;
node243 -> node282;
node244 -> node282;
node245 -> node282;
node246 -> node282;
node247 -> node282;
node248 -> node282;
node249 -> node282;
node250 -> node282;
node251 -> node282;
node252 -> node282;
node253 -> node282;
node254 -> node282;
node255 -> node282;
node256 -> node282;
node257 -> node282;
node258 -> node282;
node259 -> node282;
node260 -> node282;
node261 -> node282;
node262 -> node282;
node263 -> node282;
node264 -> node282;
node265 -> node282;
node266 -> node282;
node267 -> node282;
node268 -> node282;
node269 -> node282;
node270 -> node282;
node271 -> node282;
node272 -> node282;
node273 -> node282;
node274 -> node282;
node275 -> node282;
node276 -> node282;
node277 -> node282;
node278 -> node282;
node279 -> node282;
node280 -> node282;
node281 -> node282;
node283 [label="Identity_16977", push="10044", pop="10044", peek="10044", pushType="float", popType="float", peekType="float", codeSize="12 b", stackSize="32 b", work="6"];
node282 -> node283;
node284 [label="Pre_CollapsedDataParallel_2_17080", push="10044", pop="10044", peek="10044", pushType="float", popType="float", peekType="float", codeSize="50 b", stackSize="96 b", work="3249"];
node283 -> node284;
node285 [label="WEIGHTED_ROUND_ROBIN_Joiner_17084", push="23436", pop="23436", peek="0", pushType="float", popType="float", peekType="void", codeSize="42 b", stackSize="96 b", work="0"];
node153 -> node285;
node284 -> node285;
node286 [label="WEIGHTED_ROUND_ROBIN_Splitter_17367", push="23436", pop="23436", peek="0", pushType="float", popType="float", peekType="void", codeSize="492 b", stackSize="896 b", work="0"];
node285 -> node286;
node287 [label="BlockMultiply_17369", push="372", pop="868", peek="868", pushType="float", popType="float", peekType="float", codeSize="102 b", stackSize="256 b", work="1024"];
node286 -> node287;
node288 [label="BlockMultiply_17370", push="372", pop="868", peek="868", pushType="float", popType="float", peekType="float", codeSize="102 b", stackSize="256 b", work="1024"];
node286 -> node288;
node289 [label="BlockMultiply_17371", push="372", pop="868", peek="868", pushType="float", popType="float", peekType="float", codeSize="102 b", stackSize="256 b", work="1024"];
node286 -> node289;
node290 [label="BlockMultiply_17372", push="372", pop="868", peek="868", pushType="float", popType="float", peekType="float", codeSize="102 b", stackSize="256 b", work="1024"];
node286 -> node290;
node291 [label="BlockMultiply_17373", push="372", pop="868", peek="868", pushType="float", popType="float", peekType="float", codeSize="102 b", stackSize="256 b", work="1024"];
node286 -> node291;
node292 [label="BlockMultiply_17374", push="372", pop="868", peek="868", pushType="float", popType="float", peekType="float", codeSize="102 b", stackSize="256 b", work="1024"];
node286 -> node292;
node293 [label="BlockMultiply_17375", push="372", pop="868", peek="868", pushType="float", popType="float", peekType="float", codeSize="102 b", stackSize="256 b", work="1024"];
node286 -> node293;
node294 [label="BlockMultiply_17376", push="372", pop="868", peek="868", pushType="float", popType="float", peekType="float", codeSize="102 b", stackSize="256 b", work="1024"];
node286 -> node294;
node295 [label="BlockMultiply_17377", push="372", pop="868", peek="868", pushType="float", popType="float", peekType="float", codeSize="102 b", stackSize="256 b", work="1024"];
node286 -> node295;
node296 [label="BlockMultiply_17378", push="372", pop="868", peek="868", pushType="float", popType="float", peekType="float", codeSize="102 b", stackSize="256 b", work="1024"];
node286 -> node296;
node297 [label="BlockMultiply_17379", push="372", pop="868", peek="868", pushType="float", popType="float", peekType="float", codeSize="102 b", stackSize="256 b", work="1024"];
node286 -> node297;
node298 [label="BlockMultiply_17380", push="372", pop="868", peek="868", pushType="float", popType="float", peekType="float", codeSize="102 b", stackSize="256 b", work="1024"];
node286 -> node298;
node299 [label="BlockMultiply_17381", push="372", pop="868", peek="868", pushType="float", popType="float", peekType="float", codeSize="102 b", stackSize="256 b", work="1024"];
node286 -> node299;
node300 [label="BlockMultiply_17382", push="372", pop="868", peek="868", pushType="float", popType="float", peekType="float", codeSize="102 b", stackSize="256 b", work="1024"];
node286 -> node300;
node301 [label="BlockMultiply_17383", push="372", pop="868", peek="868", pushType="float", popType="float", peekType="float", codeSize="102 b", stackSize="256 b", work="1024"];
node286 -> node301;
node302 [label="BlockMultiply_17384", push="372", pop="868", peek="868", pushType="float", popType="float", peekType="float", codeSize="102 b", stackSize="256 b", work="1024"];
node286 -> node302;
node303 [label="BlockMultiply_17385", push="372", pop="868", peek="868", pushType="float", popType="float", peekType="float", codeSize="102 b", stackSize="256 b", work="1024"];
node286 -> node303;
node304 [label="BlockMultiply_17386", push="372", pop="868", peek="868", pushType="float", popType="float", peekType="float", codeSize="102 b", stackSize="256 b", work="1024"];
node286 -> node304;
node305 [label="BlockMultiply_17387", push="372", pop="868", peek="868", pushType="float", popType="float", peekType="float", codeSize="102 b", stackSize="256 b", work="1024"];
node286 -> node305;
node306 [label="BlockMultiply_17388", push="372", pop="868", peek="868", pushType="float", popType="float", peekType="float", codeSize="102 b", stackSize="256 b", work="1024"];
node286 -> node306;
node307 [label="BlockMultiply_17389", push="372", pop="868", peek="868", pushType="float", popType="float", peekType="float", codeSize="102 b", stackSize="256 b", work="1024"];
node286 -> node307;
node308 [label="BlockMultiply_17390", push="372", pop="868", peek="868", pushType="float", popType="float", peekType="float", codeSize="102 b", stackSize="256 b", work="1024"];
node286 -> node308;
node309 [label="BlockMultiply_17391", push="372", pop="868", peek="868", pushType="float", popType="float", peekType="float", codeSize="102 b", stackSize="256 b", work="1024"];
node286 -> node309;
node310 [label="BlockMultiply_17392", push="372", pop="868", peek="868", pushType="float", popType="float", peekType="float", codeSize="102 b", stackSize="256 b", work="1024"];
node286 -> node310;
node311 [label="BlockMultiply_17393", push="372", pop="868", peek="868", pushType="float", popType="float", peekType="float", codeSize="102 b", stackSize="256 b", work="1024"];
node286 -> node311;
node312 [label="BlockMultiply_17394", push="372", pop="868", peek="868", pushType="float", popType="float", peekType="float", codeSize="102 b", stackSize="256 b", work="1024"];
node286 -> node312;
node313 [label="BlockMultiply_17395", push="372", pop="868", peek="868", pushType="float", popType="float", peekType="float", codeSize="102 b", stackSize="256 b", work="1024"];
node286 -> node313;
node314 [label="WEIGHTED_ROUND_ROBIN_Joiner_17368", push="10044", pop="10044", peek="0", pushType="float", popType="float", peekType="void", codeSize="492 b", stackSize="896 b", work="0"];
node287 -> node314;
node288 -> node314;
node289 -> node314;
node290 -> node314;
node291 -> node314;
node292 -> node314;
node293 -> node314;
node294 -> node314;
node295 -> node314;
node296 -> node314;
node297 -> node314;
node298 -> node314;
node299 -> node314;
node300 -> node314;
node301 -> node314;
node302 -> node314;
node303 -> node314;
node304 -> node314;
node305 -> node314;
node306 -> node314;
node307 -> node314;
node308 -> node314;
node309 -> node314;
node310 -> node314;
node311 -> node314;
node312 -> node314;
node313 -> node314;
node315 [label="BlockAdd_16981", push="3348", pop="10044", peek="10044", pushType="float", popType="float", peekType="float", codeSize="189 b", stackSize="96 b", work="468"];
node314 -> node315;
node316 [label="WEIGHTED_ROUND_ROBIN_Splitter_17396", push="3348", pop="3348", peek="0", pushType="float", popType="float", peekType="void", codeSize="168 b", stackSize="320 b", work="0"];
node315 -> node316;
node317 [label="Post_CollapsedDataParallel_1_17398", push="372", pop="372", peek="372", pushType="float", popType="float", peekType="float", codeSize="54 b", stackSize="96 b", work="141"];
node316 -> node317;
node318 [label="Post_CollapsedDataParallel_1_17399", push="372", pop="372", peek="372", pushType="float", popType="float", peekType="float", codeSize="54 b", stackSize="96 b", work="141"];
node316 -> node318;
node319 [label="Post_CollapsedDataParallel_1_17400", push="372", pop="372", peek="372", pushType="float", popType="float", peekType="float", codeSize="54 b", stackSize="96 b", work="141"];
node316 -> node319;
node320 [label="Post_CollapsedDataParallel_1_17401", push="372", pop="372", peek="372", pushType="float", popType="float", peekType="float", codeSize="54 b", stackSize="96 b", work="141"];
node316 -> node320;
node321 [label="Post_CollapsedDataParallel_1_17402", push="372", pop="372", peek="372", pushType="float", popType="float", peekType="float", codeSize="54 b", stackSize="96 b", work="141"];
node316 -> node321;
node322 [label="Post_CollapsedDataParallel_1_17403", push="372", pop="372", peek="372", pushType="float", popType="float", peekType="float", codeSize="54 b", stackSize="96 b", work="141"];
node316 -> node322;
node323 [label="Post_CollapsedDataParallel_1_17404", push="372", pop="372", peek="372", pushType="float", popType="float", peekType="float", codeSize="54 b", stackSize="96 b", work="141"];
node316 -> node323;
node324 [label="Post_CollapsedDataParallel_1_17405", push="372", pop="372", peek="372", pushType="float", popType="float", peekType="float", codeSize="54 b", stackSize="96 b", work="141"];
node316 -> node324;
node325 [label="Post_CollapsedDataParallel_1_17406", push="372", pop="372", peek="372", pushType="float", popType="float", peekType="float", codeSize="54 b", stackSize="96 b", work="141"];
node316 -> node325;
node326 [label="WEIGHTED_ROUND_ROBIN_Joiner_17397", push="3348", pop="3348", peek="0", pushType="float", popType="float", peekType="void", codeSize="168 b", stackSize="320 b", work="0"];
node317 -> node326;
node318 -> node326;
node319 -> node326;
node320 -> node326;
node321 -> node326;
node322 -> node326;
node323 -> node326;
node324 -> node326;
node325 -> node326;
node327 [label="Identity_16983", push="3348", pop="3348", peek="3348", pushType="float", popType="float", peekType="float", codeSize="12 b", stackSize="32 b", work="6"];
node326 -> node327;
node328 [label="WEIGHTED_ROUND_ROBIN_Splitter_17407", push="3348", pop="3348", peek="0", pushType="float", popType="float", peekType="void", codeSize="60 b", stackSize="128 b", work="0"];
node327 -> node328;
node329 [label="Pre_CollapsedDataParallel_2_17409", push="1116", pop="1116", peek="1116", pushType="float", popType="float", peekType="float", codeSize="50 b", stackSize="96 b", work="371"];
node328 -> node329;
node330 [label="Pre_CollapsedDataParallel_2_17410", push="1116", pop="1116", peek="1116", pushType="float", popType="float", peekType="float", codeSize="50 b", stackSize="96 b", work="371"];
node328 -> node330;
node331 [label="Pre_CollapsedDataParallel_2_17411", push="1116", pop="1116", peek="1116", pushType="float", popType="float", peekType="float", codeSize="50 b", stackSize="96 b", work="371"];
node328 -> node331;
node332 [label="WEIGHTED_ROUND_ROBIN_Joiner_17408", push="3348", pop="3348", peek="0", pushType="float", popType="float", peekType="void", codeSize="60 b", stackSize="128 b", work="0"];
node329 -> node332;
node330 -> node332;
node331 -> node332;
node333 [label="Printer_16987", push="0", pop="3348", peek="3348", pushType="void", popType="float", peekType="float", codeSize="16 b", stackSize="0 b", work="6"];
node332 -> node333;
}
