digraph MatrixMultBlock_35911 {
node0 [label="BlockFloatSource_35474", push="6300", pop="0", peek="0", pushType="float", popType="void", peekType="void", codeSize="26 b", stackSize="0 b", work="14"];
node1 [label="WEIGHTED_ROUND_ROBIN_Splitter_35603", push="6300", pop="6300", peek="0", pushType="float", popType="float", peekType="void", codeSize="42 b", stackSize="96 b", work="0"];
node0 -> node1;
node2 [label="WEIGHTED_ROUND_ROBIN_Splitter_35611", push="3600", pop="3600", peek="0", pushType="float", popType="float", peekType="void", codeSize="222 b", stackSize="416 b", work="0"];
node1 -> node2;
node3 [label="Post_CollapsedDataParallel_1_35613", push="300", pop="300", peek="300", pushType="float", popType="float", peekType="float", codeSize="54 b", stackSize="96 b", work="143"];
node2 -> node3;
node4 [label="Post_CollapsedDataParallel_1_35614", push="300", pop="300", peek="300", pushType="float", popType="float", peekType="float", codeSize="54 b", stackSize="96 b", work="143"];
node2 -> node4;
node5 [label="Post_CollapsedDataParallel_1_35615", push="300", pop="300", peek="300", pushType="float", popType="float", peekType="float", codeSize="54 b", stackSize="96 b", work="143"];
node2 -> node5;
node6 [label="Post_CollapsedDataParallel_1_35616", push="300", pop="300", peek="300", pushType="float", popType="float", peekType="float", codeSize="54 b", stackSize="96 b", work="143"];
node2 -> node6;
node7 [label="Post_CollapsedDataParallel_1_35617", push="300", pop="300", peek="300", pushType="float", popType="float", peekType="float", codeSize="54 b", stackSize="96 b", work="143"];
node2 -> node7;
node8 [label="Post_CollapsedDataParallel_1_35618", push="300", pop="300", peek="300", pushType="float", popType="float", peekType="float", codeSize="54 b", stackSize="96 b", work="143"];
node2 -> node8;
node9 [label="Post_CollapsedDataParallel_1_35619", push="300", pop="300", peek="300", pushType="float", popType="float", peekType="float", codeSize="54 b", stackSize="96 b", work="143"];
node2 -> node9;
node10 [label="Post_CollapsedDataParallel_1_35620", push="300", pop="300", peek="300", pushType="float", popType="float", peekType="float", codeSize="54 b", stackSize="96 b", work="143"];
node2 -> node10;
node11 [label="Post_CollapsedDataParallel_1_35621", push="300", pop="300", peek="300", pushType="float", popType="float", peekType="float", codeSize="54 b", stackSize="96 b", work="143"];
node2 -> node11;
node12 [label="Post_CollapsedDataParallel_1_35622", push="300", pop="300", peek="300", pushType="float", popType="float", peekType="float", codeSize="54 b", stackSize="96 b", work="143"];
node2 -> node12;
node13 [label="Post_CollapsedDataParallel_1_35623", push="300", pop="300", peek="300", pushType="float", popType="float", peekType="float", codeSize="54 b", stackSize="96 b", work="143"];
node2 -> node13;
node14 [label="Post_CollapsedDataParallel_1_35624", push="300", pop="300", peek="300", pushType="float", popType="float", peekType="float", codeSize="54 b", stackSize="96 b", work="143"];
node2 -> node14;
node15 [label="WEIGHTED_ROUND_ROBIN_Joiner_35612", push="3600", pop="3600", peek="0", pushType="float", popType="float", peekType="void", codeSize="222 b", stackSize="416 b", work="0"];
node3 -> node15;
node4 -> node15;
node5 -> node15;
node6 -> node15;
node7 -> node15;
node8 -> node15;
node9 -> node15;
node10 -> node15;
node11 -> node15;
node12 -> node15;
node13 -> node15;
node14 -> node15;
node16 [label="Identity_35478", push="3600", pop="3600", peek="3600", pushType="float", popType="float", peekType="float", codeSize="12 b", stackSize="32 b", work="6"];
node15 -> node16;
node17 [label="WEIGHTED_ROUND_ROBIN_Splitter_35625", push="3600", pop="3600", peek="0", pushType="float", popType="float", peekType="void", codeSize="60 b", stackSize="128 b", work="0"];
node16 -> node17;
node18 [label="Pre_CollapsedDataParallel_2_35627", push="1200", pop="1200", peek="1200", pushType="float", popType="float", peekType="float", codeSize="50 b", stackSize="96 b", work="489"];
node17 -> node18;
node19 [label="Pre_CollapsedDataParallel_2_35628", push="1200", pop="1200", peek="1200", pushType="float", popType="float", peekType="float", codeSize="50 b", stackSize="96 b", work="489"];
node17 -> node19;
node20 [label="Pre_CollapsedDataParallel_2_35629", push="1200", pop="1200", peek="1200", pushType="float", popType="float", peekType="float", codeSize="50 b", stackSize="96 b", work="489"];
node17 -> node20;
node21 [label="WEIGHTED_ROUND_ROBIN_Joiner_35626", push="3600", pop="3600", peek="0", pushType="float", popType="float", peekType="void", codeSize="60 b", stackSize="128 b", work="0"];
node18 -> node21;
node19 -> node21;
node20 -> node21;
node22 [label="WEIGHTED_ROUND_ROBIN_Splitter_35630", push="3600", pop="3600", peek="0", pushType="float", popType="float", peekType="void", codeSize="1206 b", stackSize="32 b", work="0"];
node21 -> node22;
node23 [label="AutoGeneratedExpander_35632", push="108", pop="36", peek="36", pushType="float", popType="float", peekType="float", codeSize="32 b", stackSize="32 b", work="27"];
node22 -> node23;
node24 [label="AutoGeneratedExpander_35633", push="108", pop="36", peek="36", pushType="float", popType="float", peekType="float", codeSize="32 b", stackSize="32 b", work="27"];
node22 -> node24;
node25 [label="AutoGeneratedExpander_35634", push="108", pop="36", peek="36", pushType="float", popType="float", peekType="float", codeSize="32 b", stackSize="32 b", work="27"];
node22 -> node25;
node26 [label="AutoGeneratedExpander_35635", push="108", pop="36", peek="36", pushType="float", popType="float", peekType="float", codeSize="32 b", stackSize="32 b", work="27"];
node22 -> node26;
node27 [label="AutoGeneratedExpander_35636", push="108", pop="36", peek="36", pushType="float", popType="float", peekType="float", codeSize="32 b", stackSize="32 b", work="27"];
node22 -> node27;
node28 [label="AutoGeneratedExpander_35637", push="108", pop="36", peek="36", pushType="float", popType="float", peekType="float", codeSize="32 b", stackSize="32 b", work="27"];
node22 -> node28;
node29 [label="AutoGeneratedExpander_35638", push="108", pop="36", peek="36", pushType="float", popType="float", peekType="float", codeSize="32 b", stackSize="32 b", work="27"];
node22 -> node29;
node30 [label="AutoGeneratedExpander_35639", push="108", pop="36", peek="36", pushType="float", popType="float", peekType="float", codeSize="32 b", stackSize="32 b", work="27"];
node22 -> node30;
node31 [label="AutoGeneratedExpander_35640", push="108", pop="36", peek="36", pushType="float", popType="float", peekType="float", codeSize="32 b", stackSize="32 b", work="27"];
node22 -> node31;
node32 [label="AutoGeneratedExpander_35641", push="108", pop="36", peek="36", pushType="float", popType="float", peekType="float", codeSize="32 b", stackSize="32 b", work="27"];
node22 -> node32;
node33 [label="AutoGeneratedExpander_35642", push="108", pop="36", peek="36", pushType="float", popType="float", peekType="float", codeSize="32 b", stackSize="32 b", work="27"];
node22 -> node33;
node34 [label="AutoGeneratedExpander_35643", push="108", pop="36", peek="36", pushType="float", popType="float", peekType="float", codeSize="32 b", stackSize="32 b", work="27"];
node22 -> node34;
node35 [label="AutoGeneratedExpander_35644", push="108", pop="36", peek="36", pushType="float", popType="float", peekType="float", codeSize="32 b", stackSize="32 b", work="27"];
node22 -> node35;
node36 [label="AutoGeneratedExpander_35645", push="108", pop="36", peek="36", pushType="float", popType="float", peekType="float", codeSize="32 b", stackSize="32 b", work="27"];
node22 -> node36;
node37 [label="AutoGeneratedExpander_35646", push="108", pop="36", peek="36", pushType="float", popType="float", peekType="float", codeSize="32 b", stackSize="32 b", work="27"];
node22 -> node37;
node38 [label="AutoGeneratedExpander_35647", push="108", pop="36", peek="36", pushType="float", popType="float", peekType="float", codeSize="32 b", stackSize="32 b", work="27"];
node22 -> node38;
node39 [label="AutoGeneratedExpander_35648", push="108", pop="36", peek="36", pushType="float", popType="float", peekType="float", codeSize="32 b", stackSize="32 b", work="27"];
node22 -> node39;
node40 [label="AutoGeneratedExpander_35649", push="108", pop="36", peek="36", pushType="float", popType="float", peekType="float", codeSize="32 b", stackSize="32 b", work="27"];
node22 -> node40;
node41 [label="AutoGeneratedExpander_35650", push="108", pop="36", peek="36", pushType="float", popType="float", peekType="float", codeSize="32 b", stackSize="32 b", work="27"];
node22 -> node41;
node42 [label="AutoGeneratedExpander_35651", push="108", pop="36", peek="36", pushType="float", popType="float", peekType="float", codeSize="32 b", stackSize="32 b", work="27"];
node22 -> node42;
node43 [label="AutoGeneratedExpander_35652", push="108", pop="36", peek="36", pushType="float", popType="float", peekType="float", codeSize="32 b", stackSize="32 b", work="27"];
node22 -> node43;
node44 [label="AutoGeneratedExpander_35653", push="108", pop="36", peek="36", pushType="float", popType="float", peekType="float", codeSize="32 b", stackSize="32 b", work="27"];
node22 -> node44;
node45 [label="AutoGeneratedExpander_35654", push="108", pop="36", peek="36", pushType="float", popType="float", peekType="float", codeSize="32 b", stackSize="32 b", work="27"];
node22 -> node45;
node46 [label="AutoGeneratedExpander_35655", push="108", pop="36", peek="36", pushType="float", popType="float", peekType="float", codeSize="32 b", stackSize="32 b", work="27"];
node22 -> node46;
node47 [label="AutoGeneratedExpander_35656", push="108", pop="36", peek="36", pushType="float", popType="float", peekType="float", codeSize="32 b", stackSize="32 b", work="27"];
node22 -> node47;
node48 [label="AutoGeneratedExpander_35657", push="108", pop="36", peek="36", pushType="float", popType="float", peekType="float", codeSize="32 b", stackSize="32 b", work="27"];
node22 -> node48;
node49 [label="AutoGeneratedExpander_35658", push="108", pop="36", peek="36", pushType="float", popType="float", peekType="float", codeSize="32 b", stackSize="32 b", work="27"];
node22 -> node49;
node50 [label="AutoGeneratedExpander_35659", push="108", pop="36", peek="36", pushType="float", popType="float", peekType="float", codeSize="32 b", stackSize="32 b", work="27"];
node22 -> node50;
node51 [label="AutoGeneratedExpander_35660", push="108", pop="36", peek="36", pushType="float", popType="float", peekType="float", codeSize="32 b", stackSize="32 b", work="27"];
node22 -> node51;
node52 [label="AutoGeneratedExpander_35661", push="108", pop="36", peek="36", pushType="float", popType="float", peekType="float", codeSize="32 b", stackSize="32 b", work="27"];
node22 -> node52;
node53 [label="AutoGeneratedExpander_35662", push="108", pop="36", peek="36", pushType="float", popType="float", peekType="float", codeSize="32 b", stackSize="32 b", work="27"];
node22 -> node53;
node54 [label="AutoGeneratedExpander_35663", push="108", pop="36", peek="36", pushType="float", popType="float", peekType="float", codeSize="32 b", stackSize="32 b", work="27"];
node22 -> node54;
node55 [label="AutoGeneratedExpander_35664", push="108", pop="36", peek="36", pushType="float", popType="float", peekType="float", codeSize="32 b", stackSize="32 b", work="27"];
node22 -> node55;
node56 [label="AutoGeneratedExpander_35665", push="108", pop="36", peek="36", pushType="float", popType="float", peekType="float", codeSize="32 b", stackSize="32 b", work="27"];
node22 -> node56;
node57 [label="AutoGeneratedExpander_35666", push="108", pop="36", peek="36", pushType="float", popType="float", peekType="float", codeSize="32 b", stackSize="32 b", work="27"];
node22 -> node57;
node58 [label="AutoGeneratedExpander_35667", push="108", pop="36", peek="36", pushType="float", popType="float", peekType="float", codeSize="32 b", stackSize="32 b", work="27"];
node22 -> node58;
node59 [label="AutoGeneratedExpander_35668", push="108", pop="36", peek="36", pushType="float", popType="float", peekType="float", codeSize="32 b", stackSize="32 b", work="27"];
node22 -> node59;
node60 [label="AutoGeneratedExpander_35669", push="108", pop="36", peek="36", pushType="float", popType="float", peekType="float", codeSize="32 b", stackSize="32 b", work="27"];
node22 -> node60;
node61 [label="AutoGeneratedExpander_35670", push="108", pop="36", peek="36", pushType="float", popType="float", peekType="float", codeSize="32 b", stackSize="32 b", work="27"];
node22 -> node61;
node62 [label="AutoGeneratedExpander_35671", push="108", pop="36", peek="36", pushType="float", popType="float", peekType="float", codeSize="32 b", stackSize="32 b", work="27"];
node22 -> node62;
node63 [label="AutoGeneratedExpander_35672", push="108", pop="36", peek="36", pushType="float", popType="float", peekType="float", codeSize="32 b", stackSize="32 b", work="27"];
node22 -> node63;
node64 [label="AutoGeneratedExpander_35673", push="108", pop="36", peek="36", pushType="float", popType="float", peekType="float", codeSize="32 b", stackSize="32 b", work="27"];
node22 -> node64;
node65 [label="AutoGeneratedExpander_35674", push="108", pop="36", peek="36", pushType="float", popType="float", peekType="float", codeSize="32 b", stackSize="32 b", work="27"];
node22 -> node65;
node66 [label="AutoGeneratedExpander_35675", push="108", pop="36", peek="36", pushType="float", popType="float", peekType="float", codeSize="32 b", stackSize="32 b", work="27"];
node22 -> node66;
node67 [label="AutoGeneratedExpander_35676", push="108", pop="36", peek="36", pushType="float", popType="float", peekType="float", codeSize="32 b", stackSize="32 b", work="27"];
node22 -> node67;
node68 [label="AutoGeneratedExpander_35677", push="108", pop="36", peek="36", pushType="float", popType="float", peekType="float", codeSize="32 b", stackSize="32 b", work="27"];
node22 -> node68;
node69 [label="AutoGeneratedExpander_35678", push="108", pop="36", peek="36", pushType="float", popType="float", peekType="float", codeSize="32 b", stackSize="32 b", work="27"];
node22 -> node69;
node70 [label="AutoGeneratedExpander_35679", push="108", pop="36", peek="36", pushType="float", popType="float", peekType="float", codeSize="32 b", stackSize="32 b", work="27"];
node22 -> node70;
node71 [label="AutoGeneratedExpander_35680", push="108", pop="36", peek="36", pushType="float", popType="float", peekType="float", codeSize="32 b", stackSize="32 b", work="27"];
node22 -> node71;
node72 [label="AutoGeneratedExpander_35681", push="108", pop="36", peek="36", pushType="float", popType="float", peekType="float", codeSize="32 b", stackSize="32 b", work="27"];
node22 -> node72;
node73 [label="AutoGeneratedExpander_35682", push="108", pop="36", peek="36", pushType="float", popType="float", peekType="float", codeSize="32 b", stackSize="32 b", work="27"];
node22 -> node73;
node74 [label="AutoGeneratedExpander_35683", push="108", pop="36", peek="36", pushType="float", popType="float", peekType="float", codeSize="32 b", stackSize="32 b", work="27"];
node22 -> node74;
node75 [label="AutoGeneratedExpander_35684", push="108", pop="36", peek="36", pushType="float", popType="float", peekType="float", codeSize="32 b", stackSize="32 b", work="27"];
node22 -> node75;
node76 [label="AutoGeneratedExpander_35685", push="108", pop="36", peek="36", pushType="float", popType="float", peekType="float", codeSize="32 b", stackSize="32 b", work="27"];
node22 -> node76;
node77 [label="AutoGeneratedExpander_35686", push="108", pop="36", peek="36", pushType="float", popType="float", peekType="float", codeSize="32 b", stackSize="32 b", work="27"];
node22 -> node77;
node78 [label="AutoGeneratedExpander_35687", push="108", pop="36", peek="36", pushType="float", popType="float", peekType="float", codeSize="32 b", stackSize="32 b", work="27"];
node22 -> node78;
node79 [label="AutoGeneratedExpander_35688", push="108", pop="36", peek="36", pushType="float", popType="float", peekType="float", codeSize="32 b", stackSize="32 b", work="27"];
node22 -> node79;
node80 [label="AutoGeneratedExpander_35689", push="108", pop="36", peek="36", pushType="float", popType="float", peekType="float", codeSize="32 b", stackSize="32 b", work="27"];
node22 -> node80;
node81 [label="AutoGeneratedExpander_35690", push="108", pop="36", peek="36", pushType="float", popType="float", peekType="float", codeSize="32 b", stackSize="32 b", work="27"];
node22 -> node81;
node82 [label="AutoGeneratedExpander_35691", push="108", pop="36", peek="36", pushType="float", popType="float", peekType="float", codeSize="32 b", stackSize="32 b", work="27"];
node22 -> node82;
node83 [label="AutoGeneratedExpander_35692", push="108", pop="36", peek="36", pushType="float", popType="float", peekType="float", codeSize="32 b", stackSize="32 b", work="27"];
node22 -> node83;
node84 [label="AutoGeneratedExpander_35693", push="108", pop="36", peek="36", pushType="float", popType="float", peekType="float", codeSize="32 b", stackSize="32 b", work="27"];
node22 -> node84;
node85 [label="AutoGeneratedExpander_35694", push="108", pop="36", peek="36", pushType="float", popType="float", peekType="float", codeSize="32 b", stackSize="32 b", work="27"];
node22 -> node85;
node86 [label="AutoGeneratedExpander_35695", push="108", pop="36", peek="36", pushType="float", popType="float", peekType="float", codeSize="32 b", stackSize="32 b", work="27"];
node22 -> node86;
node87 [label="AutoGeneratedExpander_35696", push="108", pop="36", peek="36", pushType="float", popType="float", peekType="float", codeSize="32 b", stackSize="32 b", work="27"];
node22 -> node87;
node88 [label="AutoGeneratedExpander_35697", push="108", pop="36", peek="36", pushType="float", popType="float", peekType="float", codeSize="32 b", stackSize="32 b", work="27"];
node22 -> node88;
node89 [label="AutoGeneratedExpander_35698", push="108", pop="36", peek="36", pushType="float", popType="float", peekType="float", codeSize="32 b", stackSize="32 b", work="27"];
node22 -> node89;
node90 [label="AutoGeneratedExpander_35699", push="108", pop="36", peek="36", pushType="float", popType="float", peekType="float", codeSize="32 b", stackSize="32 b", work="27"];
node22 -> node90;
node91 [label="AutoGeneratedExpander_35700", push="108", pop="36", peek="36", pushType="float", popType="float", peekType="float", codeSize="32 b", stackSize="32 b", work="27"];
node22 -> node91;
node92 [label="AutoGeneratedExpander_35701", push="108", pop="36", peek="36", pushType="float", popType="float", peekType="float", codeSize="32 b", stackSize="32 b", work="27"];
node22 -> node92;
node93 [label="AutoGeneratedExpander_35702", push="108", pop="36", peek="36", pushType="float", popType="float", peekType="float", codeSize="32 b", stackSize="32 b", work="27"];
node22 -> node93;
node94 [label="AutoGeneratedExpander_35703", push="108", pop="36", peek="36", pushType="float", popType="float", peekType="float", codeSize="32 b", stackSize="32 b", work="27"];
node22 -> node94;
node95 [label="AutoGeneratedExpander_35704", push="108", pop="36", peek="36", pushType="float", popType="float", peekType="float", codeSize="32 b", stackSize="32 b", work="27"];
node22 -> node95;
node96 [label="AutoGeneratedExpander_35705", push="108", pop="36", peek="36", pushType="float", popType="float", peekType="float", codeSize="32 b", stackSize="32 b", work="27"];
node22 -> node96;
node97 [label="AutoGeneratedExpander_35706", push="108", pop="36", peek="36", pushType="float", popType="float", peekType="float", codeSize="32 b", stackSize="32 b", work="27"];
node22 -> node97;
node98 [label="AutoGeneratedExpander_35707", push="108", pop="36", peek="36", pushType="float", popType="float", peekType="float", codeSize="32 b", stackSize="32 b", work="27"];
node22 -> node98;
node99 [label="AutoGeneratedExpander_35708", push="108", pop="36", peek="36", pushType="float", popType="float", peekType="float", codeSize="32 b", stackSize="32 b", work="27"];
node22 -> node99;
node100 [label="AutoGeneratedExpander_35709", push="108", pop="36", peek="36", pushType="float", popType="float", peekType="float", codeSize="32 b", stackSize="32 b", work="27"];
node22 -> node100;
node101 [label="AutoGeneratedExpander_35710", push="108", pop="36", peek="36", pushType="float", popType="float", peekType="float", codeSize="32 b", stackSize="32 b", work="27"];
node22 -> node101;
node102 [label="AutoGeneratedExpander_35711", push="108", pop="36", peek="36", pushType="float", popType="float", peekType="float", codeSize="32 b", stackSize="32 b", work="27"];
node22 -> node102;
node103 [label="AutoGeneratedExpander_35712", push="108", pop="36", peek="36", pushType="float", popType="float", peekType="float", codeSize="32 b", stackSize="32 b", work="27"];
node22 -> node103;
node104 [label="AutoGeneratedExpander_35713", push="108", pop="36", peek="36", pushType="float", popType="float", peekType="float", codeSize="32 b", stackSize="32 b", work="27"];
node22 -> node104;
node105 [label="AutoGeneratedExpander_35714", push="108", pop="36", peek="36", pushType="float", popType="float", peekType="float", codeSize="32 b", stackSize="32 b", work="27"];
node22 -> node105;
node106 [label="AutoGeneratedExpander_35715", push="108", pop="36", peek="36", pushType="float", popType="float", peekType="float", codeSize="32 b", stackSize="32 b", work="27"];
node22 -> node106;
node107 [label="AutoGeneratedExpander_35716", push="108", pop="36", peek="36", pushType="float", popType="float", peekType="float", codeSize="32 b", stackSize="32 b", work="27"];
node22 -> node107;
node108 [label="AutoGeneratedExpander_35717", push="108", pop="36", peek="36", pushType="float", popType="float", peekType="float", codeSize="32 b", stackSize="32 b", work="27"];
node22 -> node108;
node109 [label="AutoGeneratedExpander_35718", push="108", pop="36", peek="36", pushType="float", popType="float", peekType="float", codeSize="32 b", stackSize="32 b", work="27"];
node22 -> node109;
node110 [label="AutoGeneratedExpander_35719", push="108", pop="36", peek="36", pushType="float", popType="float", peekType="float", codeSize="32 b", stackSize="32 b", work="27"];
node22 -> node110;
node111 [label="AutoGeneratedExpander_35720", push="108", pop="36", peek="36", pushType="float", popType="float", peekType="float", codeSize="32 b", stackSize="32 b", work="27"];
node22 -> node111;
node112 [label="AutoGeneratedExpander_35721", push="108", pop="36", peek="36", pushType="float", popType="float", peekType="float", codeSize="32 b", stackSize="32 b", work="27"];
node22 -> node112;
node113 [label="AutoGeneratedExpander_35722", push="108", pop="36", peek="36", pushType="float", popType="float", peekType="float", codeSize="32 b", stackSize="32 b", work="27"];
node22 -> node113;
node114 [label="AutoGeneratedExpander_35723", push="108", pop="36", peek="36", pushType="float", popType="float", peekType="float", codeSize="32 b", stackSize="32 b", work="27"];
node22 -> node114;
node115 [label="AutoGeneratedExpander_35724", push="108", pop="36", peek="36", pushType="float", popType="float", peekType="float", codeSize="32 b", stackSize="32 b", work="27"];
node22 -> node115;
node116 [label="AutoGeneratedExpander_35725", push="108", pop="36", peek="36", pushType="float", popType="float", peekType="float", codeSize="32 b", stackSize="32 b", work="27"];
node22 -> node116;
node117 [label="AutoGeneratedExpander_35726", push="108", pop="36", peek="36", pushType="float", popType="float", peekType="float", codeSize="32 b", stackSize="32 b", work="27"];
node22 -> node117;
node118 [label="AutoGeneratedExpander_35727", push="108", pop="36", peek="36", pushType="float", popType="float", peekType="float", codeSize="32 b", stackSize="32 b", work="27"];
node22 -> node118;
node119 [label="AutoGeneratedExpander_35728", push="108", pop="36", peek="36", pushType="float", popType="float", peekType="float", codeSize="32 b", stackSize="32 b", work="27"];
node22 -> node119;
node120 [label="AutoGeneratedExpander_35729", push="108", pop="36", peek="36", pushType="float", popType="float", peekType="float", codeSize="32 b", stackSize="32 b", work="27"];
node22 -> node120;
node121 [label="AutoGeneratedExpander_35730", push="108", pop="36", peek="36", pushType="float", popType="float", peekType="float", codeSize="32 b", stackSize="32 b", work="27"];
node22 -> node121;
node122 [label="AutoGeneratedExpander_35731", push="108", pop="36", peek="36", pushType="float", popType="float", peekType="float", codeSize="32 b", stackSize="32 b", work="27"];
node22 -> node122;
node123 [label="WEIGHTED_ROUND_ROBIN_Joiner_35631", push="10800", pop="10800", peek="0", pushType="float", popType="float", peekType="void", codeSize="1806 b", stackSize="3232 b", work="0"];
node23 -> node123;
node24 -> node123;
node25 -> node123;
node26 -> node123;
node27 -> node123;
node28 -> node123;
node29 -> node123;
node30 -> node123;
node31 -> node123;
node32 -> node123;
node33 -> node123;
node34 -> node123;
node35 -> node123;
node36 -> node123;
node37 -> node123;
node38 -> node123;
node39 -> node123;
node40 -> node123;
node41 -> node123;
node42 -> node123;
node43 -> node123;
node44 -> node123;
node45 -> node123;
node46 -> node123;
node47 -> node123;
node48 -> node123;
node49 -> node123;
node50 -> node123;
node51 -> node123;
node52 -> node123;
node53 -> node123;
node54 -> node123;
node55 -> node123;
node56 -> node123;
node57 -> node123;
node58 -> node123;
node59 -> node123;
node60 -> node123;
node61 -> node123;
node62 -> node123;
node63 -> node123;
node64 -> node123;
node65 -> node123;
node66 -> node123;
node67 -> node123;
node68 -> node123;
node69 -> node123;
node70 -> node123;
node71 -> node123;
node72 -> node123;
node73 -> node123;
node74 -> node123;
node75 -> node123;
node76 -> node123;
node77 -> node123;
node78 -> node123;
node79 -> node123;
node80 -> node123;
node81 -> node123;
node82 -> node123;
node83 -> node123;
node84 -> node123;
node85 -> node123;
node86 -> node123;
node87 -> node123;
node88 -> node123;
node89 -> node123;
node90 -> node123;
node91 -> node123;
node92 -> node123;
node93 -> node123;
node94 -> node123;
node95 -> node123;
node96 -> node123;
node97 -> node123;
node98 -> node123;
node99 -> node123;
node100 -> node123;
node101 -> node123;
node102 -> node123;
node103 -> node123;
node104 -> node123;
node105 -> node123;
node106 -> node123;
node107 -> node123;
node108 -> node123;
node109 -> node123;
node110 -> node123;
node111 -> node123;
node112 -> node123;
node113 -> node123;
node114 -> node123;
node115 -> node123;
node116 -> node123;
node117 -> node123;
node118 -> node123;
node119 -> node123;
node120 -> node123;
node121 -> node123;
node122 -> node123;
node124 [label="Identity_35481", push="10800", pop="10800", peek="10800", pushType="float", popType="float", peekType="float", codeSize="12 b", stackSize="32 b", work="6"];
node123 -> node124;
node125 [label="WEIGHTED_ROUND_ROBIN_Splitter_35732", push="10800", pop="10800", peek="0", pushType="float", popType="float", peekType="void", codeSize="60 b", stackSize="128 b", work="0"];
node124 -> node125;
node126 [label="Pre_CollapsedDataParallel_2_35734", push="3600", pop="3600", peek="3600", pushType="float", popType="float", peekType="float", codeSize="50 b", stackSize="96 b", work="1449"];
node125 -> node126;
node127 [label="Pre_CollapsedDataParallel_2_35735", push="3600", pop="3600", peek="3600", pushType="float", popType="float", peekType="float", codeSize="50 b", stackSize="96 b", work="1449"];
node125 -> node127;
node128 [label="Pre_CollapsedDataParallel_2_35736", push="3600", pop="3600", peek="3600", pushType="float", popType="float", peekType="float", codeSize="50 b", stackSize="96 b", work="1449"];
node125 -> node128;
node129 [label="WEIGHTED_ROUND_ROBIN_Joiner_35733", push="10800", pop="10800", peek="0", pushType="float", popType="float", peekType="void", codeSize="60 b", stackSize="128 b", work="0"];
node126 -> node129;
node127 -> node129;
node128 -> node129;
node130 [label="Identity_35485", push="2700", pop="2700", peek="2700", pushType="float", popType="float", peekType="float", codeSize="12 b", stackSize="32 b", work="6"];
node1 -> node130;
node131 [label="Pre_CollapsedDataParallel_2_35597", push="2700", pop="2700", peek="2700", pushType="float", popType="float", peekType="float", codeSize="50 b", stackSize="96 b", work="1101"];
node130 -> node131;
node132 [label="WEIGHTED_ROUND_ROBIN_Splitter_35737", push="2700", pop="2700", peek="0", pushType="float", popType="float", peekType="void", codeSize="168 b", stackSize="320 b", work="0"];
node131 -> node132;
node133 [label="Post_CollapsedDataParallel_1_35739", push="300", pop="300", peek="300", pushType="float", popType="float", peekType="float", codeSize="54 b", stackSize="96 b", work="143"];
node132 -> node133;
node134 [label="Post_CollapsedDataParallel_1_35740", push="300", pop="300", peek="300", pushType="float", popType="float", peekType="float", codeSize="54 b", stackSize="96 b", work="143"];
node132 -> node134;
node135 [label="Post_CollapsedDataParallel_1_35741", push="300", pop="300", peek="300", pushType="float", popType="float", peekType="float", codeSize="54 b", stackSize="96 b", work="143"];
node132 -> node135;
node136 [label="Post_CollapsedDataParallel_1_35742", push="300", pop="300", peek="300", pushType="float", popType="float", peekType="float", codeSize="54 b", stackSize="96 b", work="143"];
node132 -> node136;
node137 [label="Post_CollapsedDataParallel_1_35743", push="300", pop="300", peek="300", pushType="float", popType="float", peekType="float", codeSize="54 b", stackSize="96 b", work="143"];
node132 -> node137;
node138 [label="Post_CollapsedDataParallel_1_35744", push="300", pop="300", peek="300", pushType="float", popType="float", peekType="float", codeSize="54 b", stackSize="96 b", work="143"];
node132 -> node138;
node139 [label="Post_CollapsedDataParallel_1_35745", push="300", pop="300", peek="300", pushType="float", popType="float", peekType="float", codeSize="54 b", stackSize="96 b", work="143"];
node132 -> node139;
node140 [label="Post_CollapsedDataParallel_1_35746", push="300", pop="300", peek="300", pushType="float", popType="float", peekType="float", codeSize="54 b", stackSize="96 b", work="143"];
node132 -> node140;
node141 [label="Post_CollapsedDataParallel_1_35747", push="300", pop="300", peek="300", pushType="float", popType="float", peekType="float", codeSize="54 b", stackSize="96 b", work="143"];
node132 -> node141;
node142 [label="WEIGHTED_ROUND_ROBIN_Joiner_35738", push="2700", pop="2700", peek="0", pushType="float", popType="float", peekType="void", codeSize="168 b", stackSize="320 b", work="0"];
node133 -> node142;
node134 -> node142;
node135 -> node142;
node136 -> node142;
node137 -> node142;
node138 -> node142;
node139 -> node142;
node140 -> node142;
node141 -> node142;
node143 [label="Identity_35494", push="2700", pop="2700", peek="2700", pushType="float", popType="float", peekType="float", codeSize="12 b", stackSize="32 b", work="6"];
node142 -> node143;
node144 [label="WEIGHTED_ROUND_ROBIN_Splitter_35748", push="2700", pop="2700", peek="0", pushType="float", popType="float", peekType="void", codeSize="60 b", stackSize="128 b", work="0"];
node143 -> node144;
node145 [label="Pre_CollapsedDataParallel_2_35750", push="900", pop="900", peek="900", pushType="float", popType="float", peekType="float", codeSize="50 b", stackSize="96 b", work="369"];
node144 -> node145;
node146 [label="Pre_CollapsedDataParallel_2_35751", push="900", pop="900", peek="900", pushType="float", popType="float", peekType="float", codeSize="50 b", stackSize="96 b", work="369"];
node144 -> node146;
node147 [label="Pre_CollapsedDataParallel_2_35752", push="900", pop="900", peek="900", pushType="float", popType="float", peekType="float", codeSize="50 b", stackSize="96 b", work="369"];
node144 -> node147;
node148 [label="WEIGHTED_ROUND_ROBIN_Joiner_35749", push="2700", pop="2700", peek="0", pushType="float", popType="float", peekType="void", codeSize="60 b", stackSize="128 b", work="0"];
node145 -> node148;
node146 -> node148;
node147 -> node148;
node149 [label="WEIGHTED_ROUND_ROBIN_Splitter_35753", push="2700", pop="2700", peek="0", pushType="float", popType="float", peekType="void", codeSize="1206 b", stackSize="32 b", work="0"];
node148 -> node149;
node150 [label="AutoGeneratedExpander_35755", push="81", pop="27", peek="27", pushType="float", popType="float", peekType="float", codeSize="32 b", stackSize="32 b", work="27"];
node149 -> node150;
node151 [label="AutoGeneratedExpander_35756", push="81", pop="27", peek="27", pushType="float", popType="float", peekType="float", codeSize="32 b", stackSize="32 b", work="27"];
node149 -> node151;
node152 [label="AutoGeneratedExpander_35757", push="81", pop="27", peek="27", pushType="float", popType="float", peekType="float", codeSize="32 b", stackSize="32 b", work="27"];
node149 -> node152;
node153 [label="AutoGeneratedExpander_35758", push="81", pop="27", peek="27", pushType="float", popType="float", peekType="float", codeSize="32 b", stackSize="32 b", work="27"];
node149 -> node153;
node154 [label="AutoGeneratedExpander_35759", push="81", pop="27", peek="27", pushType="float", popType="float", peekType="float", codeSize="32 b", stackSize="32 b", work="27"];
node149 -> node154;
node155 [label="AutoGeneratedExpander_35760", push="81", pop="27", peek="27", pushType="float", popType="float", peekType="float", codeSize="32 b", stackSize="32 b", work="27"];
node149 -> node155;
node156 [label="AutoGeneratedExpander_35761", push="81", pop="27", peek="27", pushType="float", popType="float", peekType="float", codeSize="32 b", stackSize="32 b", work="27"];
node149 -> node156;
node157 [label="AutoGeneratedExpander_35762", push="81", pop="27", peek="27", pushType="float", popType="float", peekType="float", codeSize="32 b", stackSize="32 b", work="27"];
node149 -> node157;
node158 [label="AutoGeneratedExpander_35763", push="81", pop="27", peek="27", pushType="float", popType="float", peekType="float", codeSize="32 b", stackSize="32 b", work="27"];
node149 -> node158;
node159 [label="AutoGeneratedExpander_35764", push="81", pop="27", peek="27", pushType="float", popType="float", peekType="float", codeSize="32 b", stackSize="32 b", work="27"];
node149 -> node159;
node160 [label="AutoGeneratedExpander_35765", push="81", pop="27", peek="27", pushType="float", popType="float", peekType="float", codeSize="32 b", stackSize="32 b", work="27"];
node149 -> node160;
node161 [label="AutoGeneratedExpander_35766", push="81", pop="27", peek="27", pushType="float", popType="float", peekType="float", codeSize="32 b", stackSize="32 b", work="27"];
node149 -> node161;
node162 [label="AutoGeneratedExpander_35767", push="81", pop="27", peek="27", pushType="float", popType="float", peekType="float", codeSize="32 b", stackSize="32 b", work="27"];
node149 -> node162;
node163 [label="AutoGeneratedExpander_35768", push="81", pop="27", peek="27", pushType="float", popType="float", peekType="float", codeSize="32 b", stackSize="32 b", work="27"];
node149 -> node163;
node164 [label="AutoGeneratedExpander_35769", push="81", pop="27", peek="27", pushType="float", popType="float", peekType="float", codeSize="32 b", stackSize="32 b", work="27"];
node149 -> node164;
node165 [label="AutoGeneratedExpander_35770", push="81", pop="27", peek="27", pushType="float", popType="float", peekType="float", codeSize="32 b", stackSize="32 b", work="27"];
node149 -> node165;
node166 [label="AutoGeneratedExpander_35771", push="81", pop="27", peek="27", pushType="float", popType="float", peekType="float", codeSize="32 b", stackSize="32 b", work="27"];
node149 -> node166;
node167 [label="AutoGeneratedExpander_35772", push="81", pop="27", peek="27", pushType="float", popType="float", peekType="float", codeSize="32 b", stackSize="32 b", work="27"];
node149 -> node167;
node168 [label="AutoGeneratedExpander_35773", push="81", pop="27", peek="27", pushType="float", popType="float", peekType="float", codeSize="32 b", stackSize="32 b", work="27"];
node149 -> node168;
node169 [label="AutoGeneratedExpander_35774", push="81", pop="27", peek="27", pushType="float", popType="float", peekType="float", codeSize="32 b", stackSize="32 b", work="27"];
node149 -> node169;
node170 [label="AutoGeneratedExpander_35775", push="81", pop="27", peek="27", pushType="float", popType="float", peekType="float", codeSize="32 b", stackSize="32 b", work="27"];
node149 -> node170;
node171 [label="AutoGeneratedExpander_35776", push="81", pop="27", peek="27", pushType="float", popType="float", peekType="float", codeSize="32 b", stackSize="32 b", work="27"];
node149 -> node171;
node172 [label="AutoGeneratedExpander_35777", push="81", pop="27", peek="27", pushType="float", popType="float", peekType="float", codeSize="32 b", stackSize="32 b", work="27"];
node149 -> node172;
node173 [label="AutoGeneratedExpander_35778", push="81", pop="27", peek="27", pushType="float", popType="float", peekType="float", codeSize="32 b", stackSize="32 b", work="27"];
node149 -> node173;
node174 [label="AutoGeneratedExpander_35779", push="81", pop="27", peek="27", pushType="float", popType="float", peekType="float", codeSize="32 b", stackSize="32 b", work="27"];
node149 -> node174;
node175 [label="AutoGeneratedExpander_35780", push="81", pop="27", peek="27", pushType="float", popType="float", peekType="float", codeSize="32 b", stackSize="32 b", work="27"];
node149 -> node175;
node176 [label="AutoGeneratedExpander_35781", push="81", pop="27", peek="27", pushType="float", popType="float", peekType="float", codeSize="32 b", stackSize="32 b", work="27"];
node149 -> node176;
node177 [label="AutoGeneratedExpander_35782", push="81", pop="27", peek="27", pushType="float", popType="float", peekType="float", codeSize="32 b", stackSize="32 b", work="27"];
node149 -> node177;
node178 [label="AutoGeneratedExpander_35783", push="81", pop="27", peek="27", pushType="float", popType="float", peekType="float", codeSize="32 b", stackSize="32 b", work="27"];
node149 -> node178;
node179 [label="AutoGeneratedExpander_35784", push="81", pop="27", peek="27", pushType="float", popType="float", peekType="float", codeSize="32 b", stackSize="32 b", work="27"];
node149 -> node179;
node180 [label="AutoGeneratedExpander_35785", push="81", pop="27", peek="27", pushType="float", popType="float", peekType="float", codeSize="32 b", stackSize="32 b", work="27"];
node149 -> node180;
node181 [label="AutoGeneratedExpander_35786", push="81", pop="27", peek="27", pushType="float", popType="float", peekType="float", codeSize="32 b", stackSize="32 b", work="27"];
node149 -> node181;
node182 [label="AutoGeneratedExpander_35787", push="81", pop="27", peek="27", pushType="float", popType="float", peekType="float", codeSize="32 b", stackSize="32 b", work="27"];
node149 -> node182;
node183 [label="AutoGeneratedExpander_35788", push="81", pop="27", peek="27", pushType="float", popType="float", peekType="float", codeSize="32 b", stackSize="32 b", work="27"];
node149 -> node183;
node184 [label="AutoGeneratedExpander_35789", push="81", pop="27", peek="27", pushType="float", popType="float", peekType="float", codeSize="32 b", stackSize="32 b", work="27"];
node149 -> node184;
node185 [label="AutoGeneratedExpander_35790", push="81", pop="27", peek="27", pushType="float", popType="float", peekType="float", codeSize="32 b", stackSize="32 b", work="27"];
node149 -> node185;
node186 [label="AutoGeneratedExpander_35791", push="81", pop="27", peek="27", pushType="float", popType="float", peekType="float", codeSize="32 b", stackSize="32 b", work="27"];
node149 -> node186;
node187 [label="AutoGeneratedExpander_35792", push="81", pop="27", peek="27", pushType="float", popType="float", peekType="float", codeSize="32 b", stackSize="32 b", work="27"];
node149 -> node187;
node188 [label="AutoGeneratedExpander_35793", push="81", pop="27", peek="27", pushType="float", popType="float", peekType="float", codeSize="32 b", stackSize="32 b", work="27"];
node149 -> node188;
node189 [label="AutoGeneratedExpander_35794", push="81", pop="27", peek="27", pushType="float", popType="float", peekType="float", codeSize="32 b", stackSize="32 b", work="27"];
node149 -> node189;
node190 [label="AutoGeneratedExpander_35795", push="81", pop="27", peek="27", pushType="float", popType="float", peekType="float", codeSize="32 b", stackSize="32 b", work="27"];
node149 -> node190;
node191 [label="AutoGeneratedExpander_35796", push="81", pop="27", peek="27", pushType="float", popType="float", peekType="float", codeSize="32 b", stackSize="32 b", work="27"];
node149 -> node191;
node192 [label="AutoGeneratedExpander_35797", push="81", pop="27", peek="27", pushType="float", popType="float", peekType="float", codeSize="32 b", stackSize="32 b", work="27"];
node149 -> node192;
node193 [label="AutoGeneratedExpander_35798", push="81", pop="27", peek="27", pushType="float", popType="float", peekType="float", codeSize="32 b", stackSize="32 b", work="27"];
node149 -> node193;
node194 [label="AutoGeneratedExpander_35799", push="81", pop="27", peek="27", pushType="float", popType="float", peekType="float", codeSize="32 b", stackSize="32 b", work="27"];
node149 -> node194;
node195 [label="AutoGeneratedExpander_35800", push="81", pop="27", peek="27", pushType="float", popType="float", peekType="float", codeSize="32 b", stackSize="32 b", work="27"];
node149 -> node195;
node196 [label="AutoGeneratedExpander_35801", push="81", pop="27", peek="27", pushType="float", popType="float", peekType="float", codeSize="32 b", stackSize="32 b", work="27"];
node149 -> node196;
node197 [label="AutoGeneratedExpander_35802", push="81", pop="27", peek="27", pushType="float", popType="float", peekType="float", codeSize="32 b", stackSize="32 b", work="27"];
node149 -> node197;
node198 [label="AutoGeneratedExpander_35803", push="81", pop="27", peek="27", pushType="float", popType="float", peekType="float", codeSize="32 b", stackSize="32 b", work="27"];
node149 -> node198;
node199 [label="AutoGeneratedExpander_35804", push="81", pop="27", peek="27", pushType="float", popType="float", peekType="float", codeSize="32 b", stackSize="32 b", work="27"];
node149 -> node199;
node200 [label="AutoGeneratedExpander_35805", push="81", pop="27", peek="27", pushType="float", popType="float", peekType="float", codeSize="32 b", stackSize="32 b", work="27"];
node149 -> node200;
node201 [label="AutoGeneratedExpander_35806", push="81", pop="27", peek="27", pushType="float", popType="float", peekType="float", codeSize="32 b", stackSize="32 b", work="27"];
node149 -> node201;
node202 [label="AutoGeneratedExpander_35807", push="81", pop="27", peek="27", pushType="float", popType="float", peekType="float", codeSize="32 b", stackSize="32 b", work="27"];
node149 -> node202;
node203 [label="AutoGeneratedExpander_35808", push="81", pop="27", peek="27", pushType="float", popType="float", peekType="float", codeSize="32 b", stackSize="32 b", work="27"];
node149 -> node203;
node204 [label="AutoGeneratedExpander_35809", push="81", pop="27", peek="27", pushType="float", popType="float", peekType="float", codeSize="32 b", stackSize="32 b", work="27"];
node149 -> node204;
node205 [label="AutoGeneratedExpander_35810", push="81", pop="27", peek="27", pushType="float", popType="float", peekType="float", codeSize="32 b", stackSize="32 b", work="27"];
node149 -> node205;
node206 [label="AutoGeneratedExpander_35811", push="81", pop="27", peek="27", pushType="float", popType="float", peekType="float", codeSize="32 b", stackSize="32 b", work="27"];
node149 -> node206;
node207 [label="AutoGeneratedExpander_35812", push="81", pop="27", peek="27", pushType="float", popType="float", peekType="float", codeSize="32 b", stackSize="32 b", work="27"];
node149 -> node207;
node208 [label="AutoGeneratedExpander_35813", push="81", pop="27", peek="27", pushType="float", popType="float", peekType="float", codeSize="32 b", stackSize="32 b", work="27"];
node149 -> node208;
node209 [label="AutoGeneratedExpander_35814", push="81", pop="27", peek="27", pushType="float", popType="float", peekType="float", codeSize="32 b", stackSize="32 b", work="27"];
node149 -> node209;
node210 [label="AutoGeneratedExpander_35815", push="81", pop="27", peek="27", pushType="float", popType="float", peekType="float", codeSize="32 b", stackSize="32 b", work="27"];
node149 -> node210;
node211 [label="AutoGeneratedExpander_35816", push="81", pop="27", peek="27", pushType="float", popType="float", peekType="float", codeSize="32 b", stackSize="32 b", work="27"];
node149 -> node211;
node212 [label="AutoGeneratedExpander_35817", push="81", pop="27", peek="27", pushType="float", popType="float", peekType="float", codeSize="32 b", stackSize="32 b", work="27"];
node149 -> node212;
node213 [label="AutoGeneratedExpander_35818", push="81", pop="27", peek="27", pushType="float", popType="float", peekType="float", codeSize="32 b", stackSize="32 b", work="27"];
node149 -> node213;
node214 [label="AutoGeneratedExpander_35819", push="81", pop="27", peek="27", pushType="float", popType="float", peekType="float", codeSize="32 b", stackSize="32 b", work="27"];
node149 -> node214;
node215 [label="AutoGeneratedExpander_35820", push="81", pop="27", peek="27", pushType="float", popType="float", peekType="float", codeSize="32 b", stackSize="32 b", work="27"];
node149 -> node215;
node216 [label="AutoGeneratedExpander_35821", push="81", pop="27", peek="27", pushType="float", popType="float", peekType="float", codeSize="32 b", stackSize="32 b", work="27"];
node149 -> node216;
node217 [label="AutoGeneratedExpander_35822", push="81", pop="27", peek="27", pushType="float", popType="float", peekType="float", codeSize="32 b", stackSize="32 b", work="27"];
node149 -> node217;
node218 [label="AutoGeneratedExpander_35823", push="81", pop="27", peek="27", pushType="float", popType="float", peekType="float", codeSize="32 b", stackSize="32 b", work="27"];
node149 -> node218;
node219 [label="AutoGeneratedExpander_35824", push="81", pop="27", peek="27", pushType="float", popType="float", peekType="float", codeSize="32 b", stackSize="32 b", work="27"];
node149 -> node219;
node220 [label="AutoGeneratedExpander_35825", push="81", pop="27", peek="27", pushType="float", popType="float", peekType="float", codeSize="32 b", stackSize="32 b", work="27"];
node149 -> node220;
node221 [label="AutoGeneratedExpander_35826", push="81", pop="27", peek="27", pushType="float", popType="float", peekType="float", codeSize="32 b", stackSize="32 b", work="27"];
node149 -> node221;
node222 [label="AutoGeneratedExpander_35827", push="81", pop="27", peek="27", pushType="float", popType="float", peekType="float", codeSize="32 b", stackSize="32 b", work="27"];
node149 -> node222;
node223 [label="AutoGeneratedExpander_35828", push="81", pop="27", peek="27", pushType="float", popType="float", peekType="float", codeSize="32 b", stackSize="32 b", work="27"];
node149 -> node223;
node224 [label="AutoGeneratedExpander_35829", push="81", pop="27", peek="27", pushType="float", popType="float", peekType="float", codeSize="32 b", stackSize="32 b", work="27"];
node149 -> node224;
node225 [label="AutoGeneratedExpander_35830", push="81", pop="27", peek="27", pushType="float", popType="float", peekType="float", codeSize="32 b", stackSize="32 b", work="27"];
node149 -> node225;
node226 [label="AutoGeneratedExpander_35831", push="81", pop="27", peek="27", pushType="float", popType="float", peekType="float", codeSize="32 b", stackSize="32 b", work="27"];
node149 -> node226;
node227 [label="AutoGeneratedExpander_35832", push="81", pop="27", peek="27", pushType="float", popType="float", peekType="float", codeSize="32 b", stackSize="32 b", work="27"];
node149 -> node227;
node228 [label="AutoGeneratedExpander_35833", push="81", pop="27", peek="27", pushType="float", popType="float", peekType="float", codeSize="32 b", stackSize="32 b", work="27"];
node149 -> node228;
node229 [label="AutoGeneratedExpander_35834", push="81", pop="27", peek="27", pushType="float", popType="float", peekType="float", codeSize="32 b", stackSize="32 b", work="27"];
node149 -> node229;
node230 [label="AutoGeneratedExpander_35835", push="81", pop="27", peek="27", pushType="float", popType="float", peekType="float", codeSize="32 b", stackSize="32 b", work="27"];
node149 -> node230;
node231 [label="AutoGeneratedExpander_35836", push="81", pop="27", peek="27", pushType="float", popType="float", peekType="float", codeSize="32 b", stackSize="32 b", work="27"];
node149 -> node231;
node232 [label="AutoGeneratedExpander_35837", push="81", pop="27", peek="27", pushType="float", popType="float", peekType="float", codeSize="32 b", stackSize="32 b", work="27"];
node149 -> node232;
node233 [label="AutoGeneratedExpander_35838", push="81", pop="27", peek="27", pushType="float", popType="float", peekType="float", codeSize="32 b", stackSize="32 b", work="27"];
node149 -> node233;
node234 [label="AutoGeneratedExpander_35839", push="81", pop="27", peek="27", pushType="float", popType="float", peekType="float", codeSize="32 b", stackSize="32 b", work="27"];
node149 -> node234;
node235 [label="AutoGeneratedExpander_35840", push="81", pop="27", peek="27", pushType="float", popType="float", peekType="float", codeSize="32 b", stackSize="32 b", work="27"];
node149 -> node235;
node236 [label="AutoGeneratedExpander_35841", push="81", pop="27", peek="27", pushType="float", popType="float", peekType="float", codeSize="32 b", stackSize="32 b", work="27"];
node149 -> node236;
node237 [label="AutoGeneratedExpander_35842", push="81", pop="27", peek="27", pushType="float", popType="float", peekType="float", codeSize="32 b", stackSize="32 b", work="27"];
node149 -> node237;
node238 [label="AutoGeneratedExpander_35843", push="81", pop="27", peek="27", pushType="float", popType="float", peekType="float", codeSize="32 b", stackSize="32 b", work="27"];
node149 -> node238;
node239 [label="AutoGeneratedExpander_35844", push="81", pop="27", peek="27", pushType="float", popType="float", peekType="float", codeSize="32 b", stackSize="32 b", work="27"];
node149 -> node239;
node240 [label="AutoGeneratedExpander_35845", push="81", pop="27", peek="27", pushType="float", popType="float", peekType="float", codeSize="32 b", stackSize="32 b", work="27"];
node149 -> node240;
node241 [label="AutoGeneratedExpander_35846", push="81", pop="27", peek="27", pushType="float", popType="float", peekType="float", codeSize="32 b", stackSize="32 b", work="27"];
node149 -> node241;
node242 [label="AutoGeneratedExpander_35847", push="81", pop="27", peek="27", pushType="float", popType="float", peekType="float", codeSize="32 b", stackSize="32 b", work="27"];
node149 -> node242;
node243 [label="AutoGeneratedExpander_35848", push="81", pop="27", peek="27", pushType="float", popType="float", peekType="float", codeSize="32 b", stackSize="32 b", work="27"];
node149 -> node243;
node244 [label="AutoGeneratedExpander_35849", push="81", pop="27", peek="27", pushType="float", popType="float", peekType="float", codeSize="32 b", stackSize="32 b", work="27"];
node149 -> node244;
node245 [label="AutoGeneratedExpander_35850", push="81", pop="27", peek="27", pushType="float", popType="float", peekType="float", codeSize="32 b", stackSize="32 b", work="27"];
node149 -> node245;
node246 [label="AutoGeneratedExpander_35851", push="81", pop="27", peek="27", pushType="float", popType="float", peekType="float", codeSize="32 b", stackSize="32 b", work="27"];
node149 -> node246;
node247 [label="AutoGeneratedExpander_35852", push="81", pop="27", peek="27", pushType="float", popType="float", peekType="float", codeSize="32 b", stackSize="32 b", work="27"];
node149 -> node247;
node248 [label="AutoGeneratedExpander_35853", push="81", pop="27", peek="27", pushType="float", popType="float", peekType="float", codeSize="32 b", stackSize="32 b", work="27"];
node149 -> node248;
node249 [label="AutoGeneratedExpander_35854", push="81", pop="27", peek="27", pushType="float", popType="float", peekType="float", codeSize="32 b", stackSize="32 b", work="27"];
node149 -> node249;
node250 [label="WEIGHTED_ROUND_ROBIN_Joiner_35754", push="8100", pop="8100", peek="0", pushType="float", popType="float", peekType="void", codeSize="1806 b", stackSize="3232 b", work="0"];
node150 -> node250;
node151 -> node250;
node152 -> node250;
node153 -> node250;
node154 -> node250;
node155 -> node250;
node156 -> node250;
node157 -> node250;
node158 -> node250;
node159 -> node250;
node160 -> node250;
node161 -> node250;
node162 -> node250;
node163 -> node250;
node164 -> node250;
node165 -> node250;
node166 -> node250;
node167 -> node250;
node168 -> node250;
node169 -> node250;
node170 -> node250;
node171 -> node250;
node172 -> node250;
node173 -> node250;
node174 -> node250;
node175 -> node250;
node176 -> node250;
node177 -> node250;
node178 -> node250;
node179 -> node250;
node180 -> node250;
node181 -> node250;
node182 -> node250;
node183 -> node250;
node184 -> node250;
node185 -> node250;
node186 -> node250;
node187 -> node250;
node188 -> node250;
node189 -> node250;
node190 -> node250;
node191 -> node250;
node192 -> node250;
node193 -> node250;
node194 -> node250;
node195 -> node250;
node196 -> node250;
node197 -> node250;
node198 -> node250;
node199 -> node250;
node200 -> node250;
node201 -> node250;
node202 -> node250;
node203 -> node250;
node204 -> node250;
node205 -> node250;
node206 -> node250;
node207 -> node250;
node208 -> node250;
node209 -> node250;
node210 -> node250;
node211 -> node250;
node212 -> node250;
node213 -> node250;
node214 -> node250;
node215 -> node250;
node216 -> node250;
node217 -> node250;
node218 -> node250;
node219 -> node250;
node220 -> node250;
node221 -> node250;
node222 -> node250;
node223 -> node250;
node224 -> node250;
node225 -> node250;
node226 -> node250;
node227 -> node250;
node228 -> node250;
node229 -> node250;
node230 -> node250;
node231 -> node250;
node232 -> node250;
node233 -> node250;
node234 -> node250;
node235 -> node250;
node236 -> node250;
node237 -> node250;
node238 -> node250;
node239 -> node250;
node240 -> node250;
node241 -> node250;
node242 -> node250;
node243 -> node250;
node244 -> node250;
node245 -> node250;
node246 -> node250;
node247 -> node250;
node248 -> node250;
node249 -> node250;
node251 [label="Identity_35497", push="8100", pop="8100", peek="8100", pushType="float", popType="float", peekType="float", codeSize="12 b", stackSize="32 b", work="6"];
node250 -> node251;
node252 [label="Pre_CollapsedDataParallel_2_35600", push="8100", pop="8100", peek="8100", pushType="float", popType="float", peekType="float", codeSize="50 b", stackSize="96 b", work="3249"];
node251 -> node252;
node253 [label="WEIGHTED_ROUND_ROBIN_Joiner_35604", push="18900", pop="18900", peek="0", pushType="float", popType="float", peekType="void", codeSize="42 b", stackSize="96 b", work="0"];
node129 -> node253;
node252 -> node253;
node254 [label="WEIGHTED_ROUND_ROBIN_Splitter_35855", push="18900", pop="18900", peek="0", pushType="float", popType="float", peekType="void", codeSize="492 b", stackSize="896 b", work="0"];
node253 -> node254;
node255 [label="BlockMultiply_35857", push="300", pop="700", peek="700", pushType="float", popType="float", peekType="float", codeSize="102 b", stackSize="256 b", work="1024"];
node254 -> node255;
node256 [label="BlockMultiply_35858", push="300", pop="700", peek="700", pushType="float", popType="float", peekType="float", codeSize="102 b", stackSize="256 b", work="1024"];
node254 -> node256;
node257 [label="BlockMultiply_35859", push="300", pop="700", peek="700", pushType="float", popType="float", peekType="float", codeSize="102 b", stackSize="256 b", work="1024"];
node254 -> node257;
node258 [label="BlockMultiply_35860", push="300", pop="700", peek="700", pushType="float", popType="float", peekType="float", codeSize="102 b", stackSize="256 b", work="1024"];
node254 -> node258;
node259 [label="BlockMultiply_35861", push="300", pop="700", peek="700", pushType="float", popType="float", peekType="float", codeSize="102 b", stackSize="256 b", work="1024"];
node254 -> node259;
node260 [label="BlockMultiply_35862", push="300", pop="700", peek="700", pushType="float", popType="float", peekType="float", codeSize="102 b", stackSize="256 b", work="1024"];
node254 -> node260;
node261 [label="BlockMultiply_35863", push="300", pop="700", peek="700", pushType="float", popType="float", peekType="float", codeSize="102 b", stackSize="256 b", work="1024"];
node254 -> node261;
node262 [label="BlockMultiply_35864", push="300", pop="700", peek="700", pushType="float", popType="float", peekType="float", codeSize="102 b", stackSize="256 b", work="1024"];
node254 -> node262;
node263 [label="BlockMultiply_35865", push="300", pop="700", peek="700", pushType="float", popType="float", peekType="float", codeSize="102 b", stackSize="256 b", work="1024"];
node254 -> node263;
node264 [label="BlockMultiply_35866", push="300", pop="700", peek="700", pushType="float", popType="float", peekType="float", codeSize="102 b", stackSize="256 b", work="1024"];
node254 -> node264;
node265 [label="BlockMultiply_35867", push="300", pop="700", peek="700", pushType="float", popType="float", peekType="float", codeSize="102 b", stackSize="256 b", work="1024"];
node254 -> node265;
node266 [label="BlockMultiply_35868", push="300", pop="700", peek="700", pushType="float", popType="float", peekType="float", codeSize="102 b", stackSize="256 b", work="1024"];
node254 -> node266;
node267 [label="BlockMultiply_35869", push="300", pop="700", peek="700", pushType="float", popType="float", peekType="float", codeSize="102 b", stackSize="256 b", work="1024"];
node254 -> node267;
node268 [label="BlockMultiply_35870", push="300", pop="700", peek="700", pushType="float", popType="float", peekType="float", codeSize="102 b", stackSize="256 b", work="1024"];
node254 -> node268;
node269 [label="BlockMultiply_35871", push="300", pop="700", peek="700", pushType="float", popType="float", peekType="float", codeSize="102 b", stackSize="256 b", work="1024"];
node254 -> node269;
node270 [label="BlockMultiply_35872", push="300", pop="700", peek="700", pushType="float", popType="float", peekType="float", codeSize="102 b", stackSize="256 b", work="1024"];
node254 -> node270;
node271 [label="BlockMultiply_35873", push="300", pop="700", peek="700", pushType="float", popType="float", peekType="float", codeSize="102 b", stackSize="256 b", work="1024"];
node254 -> node271;
node272 [label="BlockMultiply_35874", push="300", pop="700", peek="700", pushType="float", popType="float", peekType="float", codeSize="102 b", stackSize="256 b", work="1024"];
node254 -> node272;
node273 [label="BlockMultiply_35875", push="300", pop="700", peek="700", pushType="float", popType="float", peekType="float", codeSize="102 b", stackSize="256 b", work="1024"];
node254 -> node273;
node274 [label="BlockMultiply_35876", push="300", pop="700", peek="700", pushType="float", popType="float", peekType="float", codeSize="102 b", stackSize="256 b", work="1024"];
node254 -> node274;
node275 [label="BlockMultiply_35877", push="300", pop="700", peek="700", pushType="float", popType="float", peekType="float", codeSize="102 b", stackSize="256 b", work="1024"];
node254 -> node275;
node276 [label="BlockMultiply_35878", push="300", pop="700", peek="700", pushType="float", popType="float", peekType="float", codeSize="102 b", stackSize="256 b", work="1024"];
node254 -> node276;
node277 [label="BlockMultiply_35879", push="300", pop="700", peek="700", pushType="float", popType="float", peekType="float", codeSize="102 b", stackSize="256 b", work="1024"];
node254 -> node277;
node278 [label="BlockMultiply_35880", push="300", pop="700", peek="700", pushType="float", popType="float", peekType="float", codeSize="102 b", stackSize="256 b", work="1024"];
node254 -> node278;
node279 [label="BlockMultiply_35881", push="300", pop="700", peek="700", pushType="float", popType="float", peekType="float", codeSize="102 b", stackSize="256 b", work="1024"];
node254 -> node279;
node280 [label="BlockMultiply_35882", push="300", pop="700", peek="700", pushType="float", popType="float", peekType="float", codeSize="102 b", stackSize="256 b", work="1024"];
node254 -> node280;
node281 [label="BlockMultiply_35883", push="300", pop="700", peek="700", pushType="float", popType="float", peekType="float", codeSize="102 b", stackSize="256 b", work="1024"];
node254 -> node281;
node282 [label="WEIGHTED_ROUND_ROBIN_Joiner_35856", push="8100", pop="8100", peek="0", pushType="float", popType="float", peekType="void", codeSize="492 b", stackSize="896 b", work="0"];
node255 -> node282;
node256 -> node282;
node257 -> node282;
node258 -> node282;
node259 -> node282;
node260 -> node282;
node261 -> node282;
node262 -> node282;
node263 -> node282;
node264 -> node282;
node265 -> node282;
node266 -> node282;
node267 -> node282;
node268 -> node282;
node269 -> node282;
node270 -> node282;
node271 -> node282;
node272 -> node282;
node273 -> node282;
node274 -> node282;
node275 -> node282;
node276 -> node282;
node277 -> node282;
node278 -> node282;
node279 -> node282;
node280 -> node282;
node281 -> node282;
node283 [label="BlockAdd_35501", push="2700", pop="8100", peek="8100", pushType="float", popType="float", peekType="float", codeSize="189 b", stackSize="96 b", work="468"];
node282 -> node283;
node284 [label="WEIGHTED_ROUND_ROBIN_Splitter_35884", push="2700", pop="2700", peek="0", pushType="float", popType="float", peekType="void", codeSize="168 b", stackSize="320 b", work="0"];
node283 -> node284;
node285 [label="Post_CollapsedDataParallel_1_35886", push="300", pop="300", peek="300", pushType="float", popType="float", peekType="float", codeSize="54 b", stackSize="96 b", work="141"];
node284 -> node285;
node286 [label="Post_CollapsedDataParallel_1_35887", push="300", pop="300", peek="300", pushType="float", popType="float", peekType="float", codeSize="54 b", stackSize="96 b", work="141"];
node284 -> node286;
node287 [label="Post_CollapsedDataParallel_1_35888", push="300", pop="300", peek="300", pushType="float", popType="float", peekType="float", codeSize="54 b", stackSize="96 b", work="141"];
node284 -> node287;
node288 [label="Post_CollapsedDataParallel_1_35889", push="300", pop="300", peek="300", pushType="float", popType="float", peekType="float", codeSize="54 b", stackSize="96 b", work="141"];
node284 -> node288;
node289 [label="Post_CollapsedDataParallel_1_35890", push="300", pop="300", peek="300", pushType="float", popType="float", peekType="float", codeSize="54 b", stackSize="96 b", work="141"];
node284 -> node289;
node290 [label="Post_CollapsedDataParallel_1_35891", push="300", pop="300", peek="300", pushType="float", popType="float", peekType="float", codeSize="54 b", stackSize="96 b", work="141"];
node284 -> node290;
node291 [label="Post_CollapsedDataParallel_1_35892", push="300", pop="300", peek="300", pushType="float", popType="float", peekType="float", codeSize="54 b", stackSize="96 b", work="141"];
node284 -> node291;
node292 [label="Post_CollapsedDataParallel_1_35893", push="300", pop="300", peek="300", pushType="float", popType="float", peekType="float", codeSize="54 b", stackSize="96 b", work="141"];
node284 -> node292;
node293 [label="Post_CollapsedDataParallel_1_35894", push="300", pop="300", peek="300", pushType="float", popType="float", peekType="float", codeSize="54 b", stackSize="96 b", work="141"];
node284 -> node293;
node294 [label="WEIGHTED_ROUND_ROBIN_Joiner_35885", push="2700", pop="2700", peek="0", pushType="float", popType="float", peekType="void", codeSize="168 b", stackSize="320 b", work="0"];
node285 -> node294;
node286 -> node294;
node287 -> node294;
node288 -> node294;
node289 -> node294;
node290 -> node294;
node291 -> node294;
node292 -> node294;
node293 -> node294;
node295 [label="Identity_35503", push="2700", pop="2700", peek="2700", pushType="float", popType="float", peekType="float", codeSize="12 b", stackSize="32 b", work="6"];
node294 -> node295;
node296 [label="WEIGHTED_ROUND_ROBIN_Splitter_35895", push="2700", pop="2700", peek="0", pushType="float", popType="float", peekType="void", codeSize="60 b", stackSize="128 b", work="0"];
node295 -> node296;
node297 [label="Pre_CollapsedDataParallel_2_35897", push="900", pop="900", peek="900", pushType="float", popType="float", peekType="float", codeSize="50 b", stackSize="96 b", work="371"];
node296 -> node297;
node298 [label="Pre_CollapsedDataParallel_2_35898", push="900", pop="900", peek="900", pushType="float", popType="float", peekType="float", codeSize="50 b", stackSize="96 b", work="371"];
node296 -> node298;
node299 [label="Pre_CollapsedDataParallel_2_35899", push="900", pop="900", peek="900", pushType="float", popType="float", peekType="float", codeSize="50 b", stackSize="96 b", work="371"];
node296 -> node299;
node300 [label="WEIGHTED_ROUND_ROBIN_Joiner_35896", push="2700", pop="2700", peek="0", pushType="float", popType="float", peekType="void", codeSize="60 b", stackSize="128 b", work="0"];
node297 -> node300;
node298 -> node300;
node299 -> node300;
node301 [label="Printer_35507", push="0", pop="2700", peek="2700", pushType="void", popType="float", peekType="float", codeSize="16 b", stackSize="0 b", work="6"];
node300 -> node301;
}
