digraph MatrixMultBlock_85047 {
node0 [label="BlockFloatSource_84805", push="2772", pop="0", peek="0", pushType="float", popType="void", peekType="void", codeSize="26 b", stackSize="0 b", work="14"];
node1 [label="WEIGHTED_ROUND_ROBIN_Splitter_84934", push="2772", pop="2772", peek="0", pushType="float", popType="float", peekType="void", codeSize="42 b", stackSize="96 b", work="0"];
node0 -> node1;
node2 [label="WEIGHTED_ROUND_ROBIN_Splitter_84942", push="1584", pop="1584", peek="0", pushType="float", popType="float", peekType="void", codeSize="204 b", stackSize="384 b", work="0"];
node1 -> node2;
node3 [label="Post_CollapsedDataParallel_1_84944", push="144", pop="144", peek="144", pushType="float", popType="float", peekType="float", codeSize="54 b", stackSize="96 b", work="143"];
node2 -> node3;
node4 [label="Post_CollapsedDataParallel_1_84945", push="144", pop="144", peek="144", pushType="float", popType="float", peekType="float", codeSize="54 b", stackSize="96 b", work="143"];
node2 -> node4;
node5 [label="Post_CollapsedDataParallel_1_84946", push="144", pop="144", peek="144", pushType="float", popType="float", peekType="float", codeSize="54 b", stackSize="96 b", work="143"];
node2 -> node5;
node6 [label="Post_CollapsedDataParallel_1_84947", push="144", pop="144", peek="144", pushType="float", popType="float", peekType="float", codeSize="54 b", stackSize="96 b", work="143"];
node2 -> node6;
node7 [label="Post_CollapsedDataParallel_1_84948", push="144", pop="144", peek="144", pushType="float", popType="float", peekType="float", codeSize="54 b", stackSize="96 b", work="143"];
node2 -> node7;
node8 [label="Post_CollapsedDataParallel_1_84949", push="144", pop="144", peek="144", pushType="float", popType="float", peekType="float", codeSize="54 b", stackSize="96 b", work="143"];
node2 -> node8;
node9 [label="Post_CollapsedDataParallel_1_84950", push="144", pop="144", peek="144", pushType="float", popType="float", peekType="float", codeSize="54 b", stackSize="96 b", work="143"];
node2 -> node9;
node10 [label="Post_CollapsedDataParallel_1_84951", push="144", pop="144", peek="144", pushType="float", popType="float", peekType="float", codeSize="54 b", stackSize="96 b", work="143"];
node2 -> node10;
node11 [label="Post_CollapsedDataParallel_1_84952", push="144", pop="144", peek="144", pushType="float", popType="float", peekType="float", codeSize="54 b", stackSize="96 b", work="143"];
node2 -> node11;
node12 [label="Post_CollapsedDataParallel_1_84953", push="144", pop="144", peek="144", pushType="float", popType="float", peekType="float", codeSize="54 b", stackSize="96 b", work="143"];
node2 -> node12;
node13 [label="Post_CollapsedDataParallel_1_84954", push="144", pop="144", peek="144", pushType="float", popType="float", peekType="float", codeSize="54 b", stackSize="96 b", work="143"];
node2 -> node13;
node14 [label="WEIGHTED_ROUND_ROBIN_Joiner_84943", push="1584", pop="1584", peek="0", pushType="float", popType="float", peekType="void", codeSize="204 b", stackSize="384 b", work="0"];
node3 -> node14;
node4 -> node14;
node5 -> node14;
node6 -> node14;
node7 -> node14;
node8 -> node14;
node9 -> node14;
node10 -> node14;
node11 -> node14;
node12 -> node14;
node13 -> node14;
node15 [label="Identity_84809", push="1584", pop="1584", peek="1584", pushType="float", popType="float", peekType="float", codeSize="12 b", stackSize="32 b", work="6"];
node14 -> node15;
node16 [label="WEIGHTED_ROUND_ROBIN_Splitter_84955", push="1584", pop="1584", peek="0", pushType="float", popType="float", peekType="void", codeSize="60 b", stackSize="128 b", work="0"];
node15 -> node16;
node17 [label="Pre_CollapsedDataParallel_2_84957", push="528", pop="528", peek="528", pushType="float", popType="float", peekType="float", codeSize="50 b", stackSize="96 b", work="489"];
node16 -> node17;
node18 [label="Pre_CollapsedDataParallel_2_84958", push="528", pop="528", peek="528", pushType="float", popType="float", peekType="float", codeSize="50 b", stackSize="96 b", work="489"];
node16 -> node18;
node19 [label="Pre_CollapsedDataParallel_2_84959", push="528", pop="528", peek="528", pushType="float", popType="float", peekType="float", codeSize="50 b", stackSize="96 b", work="489"];
node16 -> node19;
node20 [label="WEIGHTED_ROUND_ROBIN_Joiner_84956", push="1584", pop="1584", peek="0", pushType="float", popType="float", peekType="void", codeSize="60 b", stackSize="128 b", work="0"];
node17 -> node20;
node18 -> node20;
node19 -> node20;
node21 [label="WEIGHTED_ROUND_ROBIN_Splitter_84960", push="1584", pop="1584", peek="0", pushType="float", popType="float", peekType="void", codeSize="138 b", stackSize="32 b", work="0"];
node20 -> node21;
node22 [label="AutoGeneratedExpander_84962", push="432", pop="144", peek="144", pushType="float", popType="float", peekType="float", codeSize="32 b", stackSize="32 b", work="27"];
node21 -> node22;
node23 [label="AutoGeneratedExpander_84963", push="432", pop="144", peek="144", pushType="float", popType="float", peekType="float", codeSize="32 b", stackSize="32 b", work="27"];
node21 -> node23;
node24 [label="AutoGeneratedExpander_84964", push="432", pop="144", peek="144", pushType="float", popType="float", peekType="float", codeSize="32 b", stackSize="32 b", work="27"];
node21 -> node24;
node25 [label="AutoGeneratedExpander_84965", push="432", pop="144", peek="144", pushType="float", popType="float", peekType="float", codeSize="32 b", stackSize="32 b", work="27"];
node21 -> node25;
node26 [label="AutoGeneratedExpander_84966", push="432", pop="144", peek="144", pushType="float", popType="float", peekType="float", codeSize="32 b", stackSize="32 b", work="27"];
node21 -> node26;
node27 [label="AutoGeneratedExpander_84967", push="432", pop="144", peek="144", pushType="float", popType="float", peekType="float", codeSize="32 b", stackSize="32 b", work="27"];
node21 -> node27;
node28 [label="AutoGeneratedExpander_84968", push="432", pop="144", peek="144", pushType="float", popType="float", peekType="float", codeSize="32 b", stackSize="32 b", work="27"];
node21 -> node28;
node29 [label="AutoGeneratedExpander_84969", push="432", pop="144", peek="144", pushType="float", popType="float", peekType="float", codeSize="32 b", stackSize="32 b", work="27"];
node21 -> node29;
node30 [label="AutoGeneratedExpander_84970", push="432", pop="144", peek="144", pushType="float", popType="float", peekType="float", codeSize="32 b", stackSize="32 b", work="27"];
node21 -> node30;
node31 [label="AutoGeneratedExpander_84971", push="432", pop="144", peek="144", pushType="float", popType="float", peekType="float", codeSize="32 b", stackSize="32 b", work="27"];
node21 -> node31;
node32 [label="AutoGeneratedExpander_84972", push="432", pop="144", peek="144", pushType="float", popType="float", peekType="float", codeSize="32 b", stackSize="32 b", work="27"];
node21 -> node32;
node33 [label="WEIGHTED_ROUND_ROBIN_Joiner_84961", push="4752", pop="4752", peek="0", pushType="float", popType="float", peekType="void", codeSize="204 b", stackSize="384 b", work="0"];
node22 -> node33;
node23 -> node33;
node24 -> node33;
node25 -> node33;
node26 -> node33;
node27 -> node33;
node28 -> node33;
node29 -> node33;
node30 -> node33;
node31 -> node33;
node32 -> node33;
node34 [label="Identity_84812", push="4752", pop="4752", peek="4752", pushType="float", popType="float", peekType="float", codeSize="12 b", stackSize="32 b", work="6"];
node33 -> node34;
node35 [label="WEIGHTED_ROUND_ROBIN_Splitter_84973", push="4752", pop="4752", peek="0", pushType="float", popType="float", peekType="void", codeSize="60 b", stackSize="128 b", work="0"];
node34 -> node35;
node36 [label="Pre_CollapsedDataParallel_2_84975", push="1584", pop="1584", peek="1584", pushType="float", popType="float", peekType="float", codeSize="50 b", stackSize="96 b", work="1449"];
node35 -> node36;
node37 [label="Pre_CollapsedDataParallel_2_84976", push="1584", pop="1584", peek="1584", pushType="float", popType="float", peekType="float", codeSize="50 b", stackSize="96 b", work="1449"];
node35 -> node37;
node38 [label="Pre_CollapsedDataParallel_2_84977", push="1584", pop="1584", peek="1584", pushType="float", popType="float", peekType="float", codeSize="50 b", stackSize="96 b", work="1449"];
node35 -> node38;
node39 [label="WEIGHTED_ROUND_ROBIN_Joiner_84974", push="4752", pop="4752", peek="0", pushType="float", popType="float", peekType="void", codeSize="60 b", stackSize="128 b", work="0"];
node36 -> node39;
node37 -> node39;
node38 -> node39;
node40 [label="Identity_84816", push="1188", pop="1188", peek="1188", pushType="float", popType="float", peekType="float", codeSize="12 b", stackSize="32 b", work="6"];
node1 -> node40;
node41 [label="Pre_CollapsedDataParallel_2_84928", push="1188", pop="1188", peek="1188", pushType="float", popType="float", peekType="float", codeSize="50 b", stackSize="96 b", work="1101"];
node40 -> node41;
node42 [label="WEIGHTED_ROUND_ROBIN_Splitter_84978", push="1188", pop="1188", peek="0", pushType="float", popType="float", peekType="void", codeSize="168 b", stackSize="320 b", work="0"];
node41 -> node42;
node43 [label="Post_CollapsedDataParallel_1_84980", push="132", pop="132", peek="132", pushType="float", popType="float", peekType="float", codeSize="54 b", stackSize="96 b", work="143"];
node42 -> node43;
node44 [label="Post_CollapsedDataParallel_1_84981", push="132", pop="132", peek="132", pushType="float", popType="float", peekType="float", codeSize="54 b", stackSize="96 b", work="143"];
node42 -> node44;
node45 [label="Post_CollapsedDataParallel_1_84982", push="132", pop="132", peek="132", pushType="float", popType="float", peekType="float", codeSize="54 b", stackSize="96 b", work="143"];
node42 -> node45;
node46 [label="Post_CollapsedDataParallel_1_84983", push="132", pop="132", peek="132", pushType="float", popType="float", peekType="float", codeSize="54 b", stackSize="96 b", work="143"];
node42 -> node46;
node47 [label="Post_CollapsedDataParallel_1_84984", push="132", pop="132", peek="132", pushType="float", popType="float", peekType="float", codeSize="54 b", stackSize="96 b", work="143"];
node42 -> node47;
node48 [label="Post_CollapsedDataParallel_1_84985", push="132", pop="132", peek="132", pushType="float", popType="float", peekType="float", codeSize="54 b", stackSize="96 b", work="143"];
node42 -> node48;
node49 [label="Post_CollapsedDataParallel_1_84986", push="132", pop="132", peek="132", pushType="float", popType="float", peekType="float", codeSize="54 b", stackSize="96 b", work="143"];
node42 -> node49;
node50 [label="Post_CollapsedDataParallel_1_84987", push="132", pop="132", peek="132", pushType="float", popType="float", peekType="float", codeSize="54 b", stackSize="96 b", work="143"];
node42 -> node50;
node51 [label="Post_CollapsedDataParallel_1_84988", push="132", pop="132", peek="132", pushType="float", popType="float", peekType="float", codeSize="54 b", stackSize="96 b", work="143"];
node42 -> node51;
node52 [label="WEIGHTED_ROUND_ROBIN_Joiner_84979", push="1188", pop="1188", peek="0", pushType="float", popType="float", peekType="void", codeSize="168 b", stackSize="320 b", work="0"];
node43 -> node52;
node44 -> node52;
node45 -> node52;
node46 -> node52;
node47 -> node52;
node48 -> node52;
node49 -> node52;
node50 -> node52;
node51 -> node52;
node53 [label="Identity_84825", push="1188", pop="1188", peek="1188", pushType="float", popType="float", peekType="float", codeSize="12 b", stackSize="32 b", work="6"];
node52 -> node53;
node54 [label="WEIGHTED_ROUND_ROBIN_Splitter_84989", push="1188", pop="1188", peek="0", pushType="float", popType="float", peekType="void", codeSize="60 b", stackSize="128 b", work="0"];
node53 -> node54;
node55 [label="Pre_CollapsedDataParallel_2_84991", push="396", pop="396", peek="396", pushType="float", popType="float", peekType="float", codeSize="50 b", stackSize="96 b", work="369"];
node54 -> node55;
node56 [label="Pre_CollapsedDataParallel_2_84992", push="396", pop="396", peek="396", pushType="float", popType="float", peekType="float", codeSize="50 b", stackSize="96 b", work="369"];
node54 -> node56;
node57 [label="Pre_CollapsedDataParallel_2_84993", push="396", pop="396", peek="396", pushType="float", popType="float", peekType="float", codeSize="50 b", stackSize="96 b", work="369"];
node54 -> node57;
node58 [label="WEIGHTED_ROUND_ROBIN_Joiner_84990", push="1188", pop="1188", peek="0", pushType="float", popType="float", peekType="void", codeSize="60 b", stackSize="128 b", work="0"];
node55 -> node58;
node56 -> node58;
node57 -> node58;
node59 [label="WEIGHTED_ROUND_ROBIN_Splitter_84994", push="1188", pop="1188", peek="0", pushType="float", popType="float", peekType="void", codeSize="138 b", stackSize="32 b", work="0"];
node58 -> node59;
node60 [label="AutoGeneratedExpander_84996", push="324", pop="108", peek="108", pushType="float", popType="float", peekType="float", codeSize="32 b", stackSize="32 b", work="27"];
node59 -> node60;
node61 [label="AutoGeneratedExpander_84997", push="324", pop="108", peek="108", pushType="float", popType="float", peekType="float", codeSize="32 b", stackSize="32 b", work="27"];
node59 -> node61;
node62 [label="AutoGeneratedExpander_84998", push="324", pop="108", peek="108", pushType="float", popType="float", peekType="float", codeSize="32 b", stackSize="32 b", work="27"];
node59 -> node62;
node63 [label="AutoGeneratedExpander_84999", push="324", pop="108", peek="108", pushType="float", popType="float", peekType="float", codeSize="32 b", stackSize="32 b", work="27"];
node59 -> node63;
node64 [label="AutoGeneratedExpander_85000", push="324", pop="108", peek="108", pushType="float", popType="float", peekType="float", codeSize="32 b", stackSize="32 b", work="27"];
node59 -> node64;
node65 [label="AutoGeneratedExpander_85001", push="324", pop="108", peek="108", pushType="float", popType="float", peekType="float", codeSize="32 b", stackSize="32 b", work="27"];
node59 -> node65;
node66 [label="AutoGeneratedExpander_85002", push="324", pop="108", peek="108", pushType="float", popType="float", peekType="float", codeSize="32 b", stackSize="32 b", work="27"];
node59 -> node66;
node67 [label="AutoGeneratedExpander_85003", push="324", pop="108", peek="108", pushType="float", popType="float", peekType="float", codeSize="32 b", stackSize="32 b", work="27"];
node59 -> node67;
node68 [label="AutoGeneratedExpander_85004", push="324", pop="108", peek="108", pushType="float", popType="float", peekType="float", codeSize="32 b", stackSize="32 b", work="27"];
node59 -> node68;
node69 [label="AutoGeneratedExpander_85005", push="324", pop="108", peek="108", pushType="float", popType="float", peekType="float", codeSize="32 b", stackSize="32 b", work="27"];
node59 -> node69;
node70 [label="AutoGeneratedExpander_85006", push="324", pop="108", peek="108", pushType="float", popType="float", peekType="float", codeSize="32 b", stackSize="32 b", work="27"];
node59 -> node70;
node71 [label="WEIGHTED_ROUND_ROBIN_Joiner_84995", push="3564", pop="3564", peek="0", pushType="float", popType="float", peekType="void", codeSize="204 b", stackSize="384 b", work="0"];
node60 -> node71;
node61 -> node71;
node62 -> node71;
node63 -> node71;
node64 -> node71;
node65 -> node71;
node66 -> node71;
node67 -> node71;
node68 -> node71;
node69 -> node71;
node70 -> node71;
node72 [label="Identity_84828", push="3564", pop="3564", peek="3564", pushType="float", popType="float", peekType="float", codeSize="12 b", stackSize="32 b", work="6"];
node71 -> node72;
node73 [label="Pre_CollapsedDataParallel_2_84931", push="3564", pop="3564", peek="3564", pushType="float", popType="float", peekType="float", codeSize="50 b", stackSize="96 b", work="3249"];
node72 -> node73;
node74 [label="WEIGHTED_ROUND_ROBIN_Joiner_84935", push="8316", pop="8316", peek="0", pushType="float", popType="float", peekType="void", codeSize="42 b", stackSize="96 b", work="0"];
node39 -> node74;
node73 -> node74;
node75 [label="WEIGHTED_ROUND_ROBIN_Splitter_85007", push="8316", pop="8316", peek="0", pushType="float", popType="float", peekType="void", codeSize="204 b", stackSize="384 b", work="0"];
node74 -> node75;
node76 [label="BlockMultiply_85009", push="324", pop="756", peek="756", pushType="float", popType="float", peekType="float", codeSize="102 b", stackSize="256 b", work="1024"];
node75 -> node76;
node77 [label="BlockMultiply_85010", push="324", pop="756", peek="756", pushType="float", popType="float", peekType="float", codeSize="102 b", stackSize="256 b", work="1024"];
node75 -> node77;
node78 [label="BlockMultiply_85011", push="324", pop="756", peek="756", pushType="float", popType="float", peekType="float", codeSize="102 b", stackSize="256 b", work="1024"];
node75 -> node78;
node79 [label="BlockMultiply_85012", push="324", pop="756", peek="756", pushType="float", popType="float", peekType="float", codeSize="102 b", stackSize="256 b", work="1024"];
node75 -> node79;
node80 [label="BlockMultiply_85013", push="324", pop="756", peek="756", pushType="float", popType="float", peekType="float", codeSize="102 b", stackSize="256 b", work="1024"];
node75 -> node80;
node81 [label="BlockMultiply_85014", push="324", pop="756", peek="756", pushType="float", popType="float", peekType="float", codeSize="102 b", stackSize="256 b", work="1024"];
node75 -> node81;
node82 [label="BlockMultiply_85015", push="324", pop="756", peek="756", pushType="float", popType="float", peekType="float", codeSize="102 b", stackSize="256 b", work="1024"];
node75 -> node82;
node83 [label="BlockMultiply_85016", push="324", pop="756", peek="756", pushType="float", popType="float", peekType="float", codeSize="102 b", stackSize="256 b", work="1024"];
node75 -> node83;
node84 [label="BlockMultiply_85017", push="324", pop="756", peek="756", pushType="float", popType="float", peekType="float", codeSize="102 b", stackSize="256 b", work="1024"];
node75 -> node84;
node85 [label="BlockMultiply_85018", push="324", pop="756", peek="756", pushType="float", popType="float", peekType="float", codeSize="102 b", stackSize="256 b", work="1024"];
node75 -> node85;
node86 [label="BlockMultiply_85019", push="324", pop="756", peek="756", pushType="float", popType="float", peekType="float", codeSize="102 b", stackSize="256 b", work="1024"];
node75 -> node86;
node87 [label="WEIGHTED_ROUND_ROBIN_Joiner_85008", push="3564", pop="3564", peek="0", pushType="float", popType="float", peekType="void", codeSize="204 b", stackSize="384 b", work="0"];
node76 -> node87;
node77 -> node87;
node78 -> node87;
node79 -> node87;
node80 -> node87;
node81 -> node87;
node82 -> node87;
node83 -> node87;
node84 -> node87;
node85 -> node87;
node86 -> node87;
node88 [label="BlockAdd_84832", push="1188", pop="3564", peek="3564", pushType="float", popType="float", peekType="float", codeSize="189 b", stackSize="96 b", work="468"];
node87 -> node88;
node89 [label="WEIGHTED_ROUND_ROBIN_Splitter_85020", push="1188", pop="1188", peek="0", pushType="float", popType="float", peekType="void", codeSize="168 b", stackSize="320 b", work="0"];
node88 -> node89;
node90 [label="Post_CollapsedDataParallel_1_85022", push="132", pop="132", peek="132", pushType="float", popType="float", peekType="float", codeSize="54 b", stackSize="96 b", work="141"];
node89 -> node90;
node91 [label="Post_CollapsedDataParallel_1_85023", push="132", pop="132", peek="132", pushType="float", popType="float", peekType="float", codeSize="54 b", stackSize="96 b", work="141"];
node89 -> node91;
node92 [label="Post_CollapsedDataParallel_1_85024", push="132", pop="132", peek="132", pushType="float", popType="float", peekType="float", codeSize="54 b", stackSize="96 b", work="141"];
node89 -> node92;
node93 [label="Post_CollapsedDataParallel_1_85025", push="132", pop="132", peek="132", pushType="float", popType="float", peekType="float", codeSize="54 b", stackSize="96 b", work="141"];
node89 -> node93;
node94 [label="Post_CollapsedDataParallel_1_85026", push="132", pop="132", peek="132", pushType="float", popType="float", peekType="float", codeSize="54 b", stackSize="96 b", work="141"];
node89 -> node94;
node95 [label="Post_CollapsedDataParallel_1_85027", push="132", pop="132", peek="132", pushType="float", popType="float", peekType="float", codeSize="54 b", stackSize="96 b", work="141"];
node89 -> node95;
node96 [label="Post_CollapsedDataParallel_1_85028", push="132", pop="132", peek="132", pushType="float", popType="float", peekType="float", codeSize="54 b", stackSize="96 b", work="141"];
node89 -> node96;
node97 [label="Post_CollapsedDataParallel_1_85029", push="132", pop="132", peek="132", pushType="float", popType="float", peekType="float", codeSize="54 b", stackSize="96 b", work="141"];
node89 -> node97;
node98 [label="Post_CollapsedDataParallel_1_85030", push="132", pop="132", peek="132", pushType="float", popType="float", peekType="float", codeSize="54 b", stackSize="96 b", work="141"];
node89 -> node98;
node99 [label="WEIGHTED_ROUND_ROBIN_Joiner_85021", push="1188", pop="1188", peek="0", pushType="float", popType="float", peekType="void", codeSize="168 b", stackSize="320 b", work="0"];
node90 -> node99;
node91 -> node99;
node92 -> node99;
node93 -> node99;
node94 -> node99;
node95 -> node99;
node96 -> node99;
node97 -> node99;
node98 -> node99;
node100 [label="Identity_84834", push="1188", pop="1188", peek="1188", pushType="float", popType="float", peekType="float", codeSize="12 b", stackSize="32 b", work="6"];
node99 -> node100;
node101 [label="WEIGHTED_ROUND_ROBIN_Splitter_85031", push="1188", pop="1188", peek="0", pushType="float", popType="float", peekType="void", codeSize="60 b", stackSize="128 b", work="0"];
node100 -> node101;
node102 [label="Pre_CollapsedDataParallel_2_85033", push="396", pop="396", peek="396", pushType="float", popType="float", peekType="float", codeSize="50 b", stackSize="96 b", work="371"];
node101 -> node102;
node103 [label="Pre_CollapsedDataParallel_2_85034", push="396", pop="396", peek="396", pushType="float", popType="float", peekType="float", codeSize="50 b", stackSize="96 b", work="371"];
node101 -> node103;
node104 [label="Pre_CollapsedDataParallel_2_85035", push="396", pop="396", peek="396", pushType="float", popType="float", peekType="float", codeSize="50 b", stackSize="96 b", work="371"];
node101 -> node104;
node105 [label="WEIGHTED_ROUND_ROBIN_Joiner_85032", push="1188", pop="1188", peek="0", pushType="float", popType="float", peekType="void", codeSize="60 b", stackSize="128 b", work="0"];
node102 -> node105;
node103 -> node105;
node104 -> node105;
node106 [label="Printer_84838", push="0", pop="1188", peek="1188", pushType="void", popType="float", peekType="float", codeSize="16 b", stackSize="0 b", work="6"];
node105 -> node106;
}
