digraph MatrixMultBlock_26843 {
node0 [label="BlockFloatSource_26386", push="1764", pop="0", peek="0", pushType="float", popType="void", peekType="void", codeSize="26 b", stackSize="0 b", work="14"];
node1 [label="WEIGHTED_ROUND_ROBIN_Splitter_26515", push="1764", pop="1764", peek="0", pushType="float", popType="float", peekType="void", codeSize="42 b", stackSize="96 b", work="0"];
node0 -> node1;
node2 [label="WEIGHTED_ROUND_ROBIN_Splitter_26523", push="1008", pop="1008", peek="0", pushType="float", popType="float", peekType="void", codeSize="222 b", stackSize="416 b", work="0"];
node1 -> node2;
node3 [label="Post_CollapsedDataParallel_1_26525", push="84", pop="84", peek="84", pushType="float", popType="float", peekType="float", codeSize="54 b", stackSize="96 b", work="143"];
node2 -> node3;
node4 [label="Post_CollapsedDataParallel_1_26526", push="84", pop="84", peek="84", pushType="float", popType="float", peekType="float", codeSize="54 b", stackSize="96 b", work="143"];
node2 -> node4;
node5 [label="Post_CollapsedDataParallel_1_26527", push="84", pop="84", peek="84", pushType="float", popType="float", peekType="float", codeSize="54 b", stackSize="96 b", work="143"];
node2 -> node5;
node6 [label="Post_CollapsedDataParallel_1_26528", push="84", pop="84", peek="84", pushType="float", popType="float", peekType="float", codeSize="54 b", stackSize="96 b", work="143"];
node2 -> node6;
node7 [label="Post_CollapsedDataParallel_1_26529", push="84", pop="84", peek="84", pushType="float", popType="float", peekType="float", codeSize="54 b", stackSize="96 b", work="143"];
node2 -> node7;
node8 [label="Post_CollapsedDataParallel_1_26530", push="84", pop="84", peek="84", pushType="float", popType="float", peekType="float", codeSize="54 b", stackSize="96 b", work="143"];
node2 -> node8;
node9 [label="Post_CollapsedDataParallel_1_26531", push="84", pop="84", peek="84", pushType="float", popType="float", peekType="float", codeSize="54 b", stackSize="96 b", work="143"];
node2 -> node9;
node10 [label="Post_CollapsedDataParallel_1_26532", push="84", pop="84", peek="84", pushType="float", popType="float", peekType="float", codeSize="54 b", stackSize="96 b", work="143"];
node2 -> node10;
node11 [label="Post_CollapsedDataParallel_1_26533", push="84", pop="84", peek="84", pushType="float", popType="float", peekType="float", codeSize="54 b", stackSize="96 b", work="143"];
node2 -> node11;
node12 [label="Post_CollapsedDataParallel_1_26534", push="84", pop="84", peek="84", pushType="float", popType="float", peekType="float", codeSize="54 b", stackSize="96 b", work="143"];
node2 -> node12;
node13 [label="Post_CollapsedDataParallel_1_26535", push="84", pop="84", peek="84", pushType="float", popType="float", peekType="float", codeSize="54 b", stackSize="96 b", work="143"];
node2 -> node13;
node14 [label="Post_CollapsedDataParallel_1_26536", push="84", pop="84", peek="84", pushType="float", popType="float", peekType="float", codeSize="54 b", stackSize="96 b", work="143"];
node2 -> node14;
node15 [label="WEIGHTED_ROUND_ROBIN_Joiner_26524", push="1008", pop="1008", peek="0", pushType="float", popType="float", peekType="void", codeSize="222 b", stackSize="416 b", work="0"];
node3 -> node15;
node4 -> node15;
node5 -> node15;
node6 -> node15;
node7 -> node15;
node8 -> node15;
node9 -> node15;
node10 -> node15;
node11 -> node15;
node12 -> node15;
node13 -> node15;
node14 -> node15;
node16 [label="Identity_26390", push="1008", pop="1008", peek="1008", pushType="float", popType="float", peekType="float", codeSize="12 b", stackSize="32 b", work="6"];
node15 -> node16;
node17 [label="WEIGHTED_ROUND_ROBIN_Splitter_26537", push="1008", pop="1008", peek="0", pushType="float", popType="float", peekType="void", codeSize="60 b", stackSize="128 b", work="0"];
node16 -> node17;
node18 [label="Pre_CollapsedDataParallel_2_26539", push="336", pop="336", peek="336", pushType="float", popType="float", peekType="float", codeSize="50 b", stackSize="96 b", work="489"];
node17 -> node18;
node19 [label="Pre_CollapsedDataParallel_2_26540", push="336", pop="336", peek="336", pushType="float", popType="float", peekType="float", codeSize="50 b", stackSize="96 b", work="489"];
node17 -> node19;
node20 [label="Pre_CollapsedDataParallel_2_26541", push="336", pop="336", peek="336", pushType="float", popType="float", peekType="float", codeSize="50 b", stackSize="96 b", work="489"];
node17 -> node20;
node21 [label="WEIGHTED_ROUND_ROBIN_Joiner_26538", push="1008", pop="1008", peek="0", pushType="float", popType="float", peekType="void", codeSize="60 b", stackSize="128 b", work="0"];
node18 -> node21;
node19 -> node21;
node20 -> node21;
node22 [label="WEIGHTED_ROUND_ROBIN_Splitter_26542", push="1008", pop="1008", peek="0", pushType="float", popType="float", peekType="void", codeSize="1350 b", stackSize="32 b", work="0"];
node21 -> node22;
node23 [label="AutoGeneratedExpander_26544", push="27", pop="9", peek="9", pushType="float", popType="float", peekType="float", codeSize="32 b", stackSize="32 b", work="27"];
node22 -> node23;
node24 [label="AutoGeneratedExpander_26545", push="27", pop="9", peek="9", pushType="float", popType="float", peekType="float", codeSize="32 b", stackSize="32 b", work="27"];
node22 -> node24;
node25 [label="AutoGeneratedExpander_26546", push="27", pop="9", peek="9", pushType="float", popType="float", peekType="float", codeSize="32 b", stackSize="32 b", work="27"];
node22 -> node25;
node26 [label="AutoGeneratedExpander_26547", push="27", pop="9", peek="9", pushType="float", popType="float", peekType="float", codeSize="32 b", stackSize="32 b", work="27"];
node22 -> node26;
node27 [label="AutoGeneratedExpander_26548", push="27", pop="9", peek="9", pushType="float", popType="float", peekType="float", codeSize="32 b", stackSize="32 b", work="27"];
node22 -> node27;
node28 [label="AutoGeneratedExpander_26549", push="27", pop="9", peek="9", pushType="float", popType="float", peekType="float", codeSize="32 b", stackSize="32 b", work="27"];
node22 -> node28;
node29 [label="AutoGeneratedExpander_26550", push="27", pop="9", peek="9", pushType="float", popType="float", peekType="float", codeSize="32 b", stackSize="32 b", work="27"];
node22 -> node29;
node30 [label="AutoGeneratedExpander_26551", push="27", pop="9", peek="9", pushType="float", popType="float", peekType="float", codeSize="32 b", stackSize="32 b", work="27"];
node22 -> node30;
node31 [label="AutoGeneratedExpander_26552", push="27", pop="9", peek="9", pushType="float", popType="float", peekType="float", codeSize="32 b", stackSize="32 b", work="27"];
node22 -> node31;
node32 [label="AutoGeneratedExpander_26553", push="27", pop="9", peek="9", pushType="float", popType="float", peekType="float", codeSize="32 b", stackSize="32 b", work="27"];
node22 -> node32;
node33 [label="AutoGeneratedExpander_26554", push="27", pop="9", peek="9", pushType="float", popType="float", peekType="float", codeSize="32 b", stackSize="32 b", work="27"];
node22 -> node33;
node34 [label="AutoGeneratedExpander_26555", push="27", pop="9", peek="9", pushType="float", popType="float", peekType="float", codeSize="32 b", stackSize="32 b", work="27"];
node22 -> node34;
node35 [label="AutoGeneratedExpander_26556", push="27", pop="9", peek="9", pushType="float", popType="float", peekType="float", codeSize="32 b", stackSize="32 b", work="27"];
node22 -> node35;
node36 [label="AutoGeneratedExpander_26557", push="27", pop="9", peek="9", pushType="float", popType="float", peekType="float", codeSize="32 b", stackSize="32 b", work="27"];
node22 -> node36;
node37 [label="AutoGeneratedExpander_26558", push="27", pop="9", peek="9", pushType="float", popType="float", peekType="float", codeSize="32 b", stackSize="32 b", work="27"];
node22 -> node37;
node38 [label="AutoGeneratedExpander_26559", push="27", pop="9", peek="9", pushType="float", popType="float", peekType="float", codeSize="32 b", stackSize="32 b", work="27"];
node22 -> node38;
node39 [label="AutoGeneratedExpander_26560", push="27", pop="9", peek="9", pushType="float", popType="float", peekType="float", codeSize="32 b", stackSize="32 b", work="27"];
node22 -> node39;
node40 [label="AutoGeneratedExpander_26561", push="27", pop="9", peek="9", pushType="float", popType="float", peekType="float", codeSize="32 b", stackSize="32 b", work="27"];
node22 -> node40;
node41 [label="AutoGeneratedExpander_26562", push="27", pop="9", peek="9", pushType="float", popType="float", peekType="float", codeSize="32 b", stackSize="32 b", work="27"];
node22 -> node41;
node42 [label="AutoGeneratedExpander_26563", push="27", pop="9", peek="9", pushType="float", popType="float", peekType="float", codeSize="32 b", stackSize="32 b", work="27"];
node22 -> node42;
node43 [label="AutoGeneratedExpander_26564", push="27", pop="9", peek="9", pushType="float", popType="float", peekType="float", codeSize="32 b", stackSize="32 b", work="27"];
node22 -> node43;
node44 [label="AutoGeneratedExpander_26565", push="27", pop="9", peek="9", pushType="float", popType="float", peekType="float", codeSize="32 b", stackSize="32 b", work="27"];
node22 -> node44;
node45 [label="AutoGeneratedExpander_26566", push="27", pop="9", peek="9", pushType="float", popType="float", peekType="float", codeSize="32 b", stackSize="32 b", work="27"];
node22 -> node45;
node46 [label="AutoGeneratedExpander_26567", push="27", pop="9", peek="9", pushType="float", popType="float", peekType="float", codeSize="32 b", stackSize="32 b", work="27"];
node22 -> node46;
node47 [label="AutoGeneratedExpander_26568", push="27", pop="9", peek="9", pushType="float", popType="float", peekType="float", codeSize="32 b", stackSize="32 b", work="27"];
node22 -> node47;
node48 [label="AutoGeneratedExpander_26569", push="27", pop="9", peek="9", pushType="float", popType="float", peekType="float", codeSize="32 b", stackSize="32 b", work="27"];
node22 -> node48;
node49 [label="AutoGeneratedExpander_26570", push="27", pop="9", peek="9", pushType="float", popType="float", peekType="float", codeSize="32 b", stackSize="32 b", work="27"];
node22 -> node49;
node50 [label="AutoGeneratedExpander_26571", push="27", pop="9", peek="9", pushType="float", popType="float", peekType="float", codeSize="32 b", stackSize="32 b", work="27"];
node22 -> node50;
node51 [label="AutoGeneratedExpander_26572", push="27", pop="9", peek="9", pushType="float", popType="float", peekType="float", codeSize="32 b", stackSize="32 b", work="27"];
node22 -> node51;
node52 [label="AutoGeneratedExpander_26573", push="27", pop="9", peek="9", pushType="float", popType="float", peekType="float", codeSize="32 b", stackSize="32 b", work="27"];
node22 -> node52;
node53 [label="AutoGeneratedExpander_26574", push="27", pop="9", peek="9", pushType="float", popType="float", peekType="float", codeSize="32 b", stackSize="32 b", work="27"];
node22 -> node53;
node54 [label="AutoGeneratedExpander_26575", push="27", pop="9", peek="9", pushType="float", popType="float", peekType="float", codeSize="32 b", stackSize="32 b", work="27"];
node22 -> node54;
node55 [label="AutoGeneratedExpander_26576", push="27", pop="9", peek="9", pushType="float", popType="float", peekType="float", codeSize="32 b", stackSize="32 b", work="27"];
node22 -> node55;
node56 [label="AutoGeneratedExpander_26577", push="27", pop="9", peek="9", pushType="float", popType="float", peekType="float", codeSize="32 b", stackSize="32 b", work="27"];
node22 -> node56;
node57 [label="AutoGeneratedExpander_26578", push="27", pop="9", peek="9", pushType="float", popType="float", peekType="float", codeSize="32 b", stackSize="32 b", work="27"];
node22 -> node57;
node58 [label="AutoGeneratedExpander_26579", push="27", pop="9", peek="9", pushType="float", popType="float", peekType="float", codeSize="32 b", stackSize="32 b", work="27"];
node22 -> node58;
node59 [label="AutoGeneratedExpander_26580", push="27", pop="9", peek="9", pushType="float", popType="float", peekType="float", codeSize="32 b", stackSize="32 b", work="27"];
node22 -> node59;
node60 [label="AutoGeneratedExpander_26581", push="27", pop="9", peek="9", pushType="float", popType="float", peekType="float", codeSize="32 b", stackSize="32 b", work="27"];
node22 -> node60;
node61 [label="AutoGeneratedExpander_26582", push="27", pop="9", peek="9", pushType="float", popType="float", peekType="float", codeSize="32 b", stackSize="32 b", work="27"];
node22 -> node61;
node62 [label="AutoGeneratedExpander_26583", push="27", pop="9", peek="9", pushType="float", popType="float", peekType="float", codeSize="32 b", stackSize="32 b", work="27"];
node22 -> node62;
node63 [label="AutoGeneratedExpander_26584", push="27", pop="9", peek="9", pushType="float", popType="float", peekType="float", codeSize="32 b", stackSize="32 b", work="27"];
node22 -> node63;
node64 [label="AutoGeneratedExpander_26585", push="27", pop="9", peek="9", pushType="float", popType="float", peekType="float", codeSize="32 b", stackSize="32 b", work="27"];
node22 -> node64;
node65 [label="AutoGeneratedExpander_26586", push="27", pop="9", peek="9", pushType="float", popType="float", peekType="float", codeSize="32 b", stackSize="32 b", work="27"];
node22 -> node65;
node66 [label="AutoGeneratedExpander_26587", push="27", pop="9", peek="9", pushType="float", popType="float", peekType="float", codeSize="32 b", stackSize="32 b", work="27"];
node22 -> node66;
node67 [label="AutoGeneratedExpander_26588", push="27", pop="9", peek="9", pushType="float", popType="float", peekType="float", codeSize="32 b", stackSize="32 b", work="27"];
node22 -> node67;
node68 [label="AutoGeneratedExpander_26589", push="27", pop="9", peek="9", pushType="float", popType="float", peekType="float", codeSize="32 b", stackSize="32 b", work="27"];
node22 -> node68;
node69 [label="AutoGeneratedExpander_26590", push="27", pop="9", peek="9", pushType="float", popType="float", peekType="float", codeSize="32 b", stackSize="32 b", work="27"];
node22 -> node69;
node70 [label="AutoGeneratedExpander_26591", push="27", pop="9", peek="9", pushType="float", popType="float", peekType="float", codeSize="32 b", stackSize="32 b", work="27"];
node22 -> node70;
node71 [label="AutoGeneratedExpander_26592", push="27", pop="9", peek="9", pushType="float", popType="float", peekType="float", codeSize="32 b", stackSize="32 b", work="27"];
node22 -> node71;
node72 [label="AutoGeneratedExpander_26593", push="27", pop="9", peek="9", pushType="float", popType="float", peekType="float", codeSize="32 b", stackSize="32 b", work="27"];
node22 -> node72;
node73 [label="AutoGeneratedExpander_26594", push="27", pop="9", peek="9", pushType="float", popType="float", peekType="float", codeSize="32 b", stackSize="32 b", work="27"];
node22 -> node73;
node74 [label="AutoGeneratedExpander_26595", push="27", pop="9", peek="9", pushType="float", popType="float", peekType="float", codeSize="32 b", stackSize="32 b", work="27"];
node22 -> node74;
node75 [label="AutoGeneratedExpander_26596", push="27", pop="9", peek="9", pushType="float", popType="float", peekType="float", codeSize="32 b", stackSize="32 b", work="27"];
node22 -> node75;
node76 [label="AutoGeneratedExpander_26597", push="27", pop="9", peek="9", pushType="float", popType="float", peekType="float", codeSize="32 b", stackSize="32 b", work="27"];
node22 -> node76;
node77 [label="AutoGeneratedExpander_26598", push="27", pop="9", peek="9", pushType="float", popType="float", peekType="float", codeSize="32 b", stackSize="32 b", work="27"];
node22 -> node77;
node78 [label="AutoGeneratedExpander_26599", push="27", pop="9", peek="9", pushType="float", popType="float", peekType="float", codeSize="32 b", stackSize="32 b", work="27"];
node22 -> node78;
node79 [label="AutoGeneratedExpander_26600", push="27", pop="9", peek="9", pushType="float", popType="float", peekType="float", codeSize="32 b", stackSize="32 b", work="27"];
node22 -> node79;
node80 [label="AutoGeneratedExpander_26601", push="27", pop="9", peek="9", pushType="float", popType="float", peekType="float", codeSize="32 b", stackSize="32 b", work="27"];
node22 -> node80;
node81 [label="AutoGeneratedExpander_26602", push="27", pop="9", peek="9", pushType="float", popType="float", peekType="float", codeSize="32 b", stackSize="32 b", work="27"];
node22 -> node81;
node82 [label="AutoGeneratedExpander_26603", push="27", pop="9", peek="9", pushType="float", popType="float", peekType="float", codeSize="32 b", stackSize="32 b", work="27"];
node22 -> node82;
node83 [label="AutoGeneratedExpander_26604", push="27", pop="9", peek="9", pushType="float", popType="float", peekType="float", codeSize="32 b", stackSize="32 b", work="27"];
node22 -> node83;
node84 [label="AutoGeneratedExpander_26605", push="27", pop="9", peek="9", pushType="float", popType="float", peekType="float", codeSize="32 b", stackSize="32 b", work="27"];
node22 -> node84;
node85 [label="AutoGeneratedExpander_26606", push="27", pop="9", peek="9", pushType="float", popType="float", peekType="float", codeSize="32 b", stackSize="32 b", work="27"];
node22 -> node85;
node86 [label="AutoGeneratedExpander_26607", push="27", pop="9", peek="9", pushType="float", popType="float", peekType="float", codeSize="32 b", stackSize="32 b", work="27"];
node22 -> node86;
node87 [label="AutoGeneratedExpander_26608", push="27", pop="9", peek="9", pushType="float", popType="float", peekType="float", codeSize="32 b", stackSize="32 b", work="27"];
node22 -> node87;
node88 [label="AutoGeneratedExpander_26609", push="27", pop="9", peek="9", pushType="float", popType="float", peekType="float", codeSize="32 b", stackSize="32 b", work="27"];
node22 -> node88;
node89 [label="AutoGeneratedExpander_26610", push="27", pop="9", peek="9", pushType="float", popType="float", peekType="float", codeSize="32 b", stackSize="32 b", work="27"];
node22 -> node89;
node90 [label="AutoGeneratedExpander_26611", push="27", pop="9", peek="9", pushType="float", popType="float", peekType="float", codeSize="32 b", stackSize="32 b", work="27"];
node22 -> node90;
node91 [label="AutoGeneratedExpander_26612", push="27", pop="9", peek="9", pushType="float", popType="float", peekType="float", codeSize="32 b", stackSize="32 b", work="27"];
node22 -> node91;
node92 [label="AutoGeneratedExpander_26613", push="27", pop="9", peek="9", pushType="float", popType="float", peekType="float", codeSize="32 b", stackSize="32 b", work="27"];
node22 -> node92;
node93 [label="AutoGeneratedExpander_26614", push="27", pop="9", peek="9", pushType="float", popType="float", peekType="float", codeSize="32 b", stackSize="32 b", work="27"];
node22 -> node93;
node94 [label="AutoGeneratedExpander_26615", push="27", pop="9", peek="9", pushType="float", popType="float", peekType="float", codeSize="32 b", stackSize="32 b", work="27"];
node22 -> node94;
node95 [label="AutoGeneratedExpander_26616", push="27", pop="9", peek="9", pushType="float", popType="float", peekType="float", codeSize="32 b", stackSize="32 b", work="27"];
node22 -> node95;
node96 [label="AutoGeneratedExpander_26617", push="27", pop="9", peek="9", pushType="float", popType="float", peekType="float", codeSize="32 b", stackSize="32 b", work="27"];
node22 -> node96;
node97 [label="AutoGeneratedExpander_26618", push="27", pop="9", peek="9", pushType="float", popType="float", peekType="float", codeSize="32 b", stackSize="32 b", work="27"];
node22 -> node97;
node98 [label="AutoGeneratedExpander_26619", push="27", pop="9", peek="9", pushType="float", popType="float", peekType="float", codeSize="32 b", stackSize="32 b", work="27"];
node22 -> node98;
node99 [label="AutoGeneratedExpander_26620", push="27", pop="9", peek="9", pushType="float", popType="float", peekType="float", codeSize="32 b", stackSize="32 b", work="27"];
node22 -> node99;
node100 [label="AutoGeneratedExpander_26621", push="27", pop="9", peek="9", pushType="float", popType="float", peekType="float", codeSize="32 b", stackSize="32 b", work="27"];
node22 -> node100;
node101 [label="AutoGeneratedExpander_26622", push="27", pop="9", peek="9", pushType="float", popType="float", peekType="float", codeSize="32 b", stackSize="32 b", work="27"];
node22 -> node101;
node102 [label="AutoGeneratedExpander_26623", push="27", pop="9", peek="9", pushType="float", popType="float", peekType="float", codeSize="32 b", stackSize="32 b", work="27"];
node22 -> node102;
node103 [label="AutoGeneratedExpander_26624", push="27", pop="9", peek="9", pushType="float", popType="float", peekType="float", codeSize="32 b", stackSize="32 b", work="27"];
node22 -> node103;
node104 [label="AutoGeneratedExpander_26625", push="27", pop="9", peek="9", pushType="float", popType="float", peekType="float", codeSize="32 b", stackSize="32 b", work="27"];
node22 -> node104;
node105 [label="AutoGeneratedExpander_26626", push="27", pop="9", peek="9", pushType="float", popType="float", peekType="float", codeSize="32 b", stackSize="32 b", work="27"];
node22 -> node105;
node106 [label="AutoGeneratedExpander_26627", push="27", pop="9", peek="9", pushType="float", popType="float", peekType="float", codeSize="32 b", stackSize="32 b", work="27"];
node22 -> node106;
node107 [label="AutoGeneratedExpander_26628", push="27", pop="9", peek="9", pushType="float", popType="float", peekType="float", codeSize="32 b", stackSize="32 b", work="27"];
node22 -> node107;
node108 [label="AutoGeneratedExpander_26629", push="27", pop="9", peek="9", pushType="float", popType="float", peekType="float", codeSize="32 b", stackSize="32 b", work="27"];
node22 -> node108;
node109 [label="AutoGeneratedExpander_26630", push="27", pop="9", peek="9", pushType="float", popType="float", peekType="float", codeSize="32 b", stackSize="32 b", work="27"];
node22 -> node109;
node110 [label="AutoGeneratedExpander_26631", push="27", pop="9", peek="9", pushType="float", popType="float", peekType="float", codeSize="32 b", stackSize="32 b", work="27"];
node22 -> node110;
node111 [label="AutoGeneratedExpander_26632", push="27", pop="9", peek="9", pushType="float", popType="float", peekType="float", codeSize="32 b", stackSize="32 b", work="27"];
node22 -> node111;
node112 [label="AutoGeneratedExpander_26633", push="27", pop="9", peek="9", pushType="float", popType="float", peekType="float", codeSize="32 b", stackSize="32 b", work="27"];
node22 -> node112;
node113 [label="AutoGeneratedExpander_26634", push="27", pop="9", peek="9", pushType="float", popType="float", peekType="float", codeSize="32 b", stackSize="32 b", work="27"];
node22 -> node113;
node114 [label="AutoGeneratedExpander_26635", push="27", pop="9", peek="9", pushType="float", popType="float", peekType="float", codeSize="32 b", stackSize="32 b", work="27"];
node22 -> node114;
node115 [label="AutoGeneratedExpander_26636", push="27", pop="9", peek="9", pushType="float", popType="float", peekType="float", codeSize="32 b", stackSize="32 b", work="27"];
node22 -> node115;
node116 [label="AutoGeneratedExpander_26637", push="27", pop="9", peek="9", pushType="float", popType="float", peekType="float", codeSize="32 b", stackSize="32 b", work="27"];
node22 -> node116;
node117 [label="AutoGeneratedExpander_26638", push="27", pop="9", peek="9", pushType="float", popType="float", peekType="float", codeSize="32 b", stackSize="32 b", work="27"];
node22 -> node117;
node118 [label="AutoGeneratedExpander_26639", push="27", pop="9", peek="9", pushType="float", popType="float", peekType="float", codeSize="32 b", stackSize="32 b", work="27"];
node22 -> node118;
node119 [label="AutoGeneratedExpander_26640", push="27", pop="9", peek="9", pushType="float", popType="float", peekType="float", codeSize="32 b", stackSize="32 b", work="27"];
node22 -> node119;
node120 [label="AutoGeneratedExpander_26641", push="27", pop="9", peek="9", pushType="float", popType="float", peekType="float", codeSize="32 b", stackSize="32 b", work="27"];
node22 -> node120;
node121 [label="AutoGeneratedExpander_26642", push="27", pop="9", peek="9", pushType="float", popType="float", peekType="float", codeSize="32 b", stackSize="32 b", work="27"];
node22 -> node121;
node122 [label="AutoGeneratedExpander_26643", push="27", pop="9", peek="9", pushType="float", popType="float", peekType="float", codeSize="32 b", stackSize="32 b", work="27"];
node22 -> node122;
node123 [label="AutoGeneratedExpander_26644", push="27", pop="9", peek="9", pushType="float", popType="float", peekType="float", codeSize="32 b", stackSize="32 b", work="27"];
node22 -> node123;
node124 [label="AutoGeneratedExpander_26645", push="27", pop="9", peek="9", pushType="float", popType="float", peekType="float", codeSize="32 b", stackSize="32 b", work="27"];
node22 -> node124;
node125 [label="AutoGeneratedExpander_26646", push="27", pop="9", peek="9", pushType="float", popType="float", peekType="float", codeSize="32 b", stackSize="32 b", work="27"];
node22 -> node125;
node126 [label="AutoGeneratedExpander_26647", push="27", pop="9", peek="9", pushType="float", popType="float", peekType="float", codeSize="32 b", stackSize="32 b", work="27"];
node22 -> node126;
node127 [label="AutoGeneratedExpander_26648", push="27", pop="9", peek="9", pushType="float", popType="float", peekType="float", codeSize="32 b", stackSize="32 b", work="27"];
node22 -> node127;
node128 [label="AutoGeneratedExpander_26649", push="27", pop="9", peek="9", pushType="float", popType="float", peekType="float", codeSize="32 b", stackSize="32 b", work="27"];
node22 -> node128;
node129 [label="AutoGeneratedExpander_26650", push="27", pop="9", peek="9", pushType="float", popType="float", peekType="float", codeSize="32 b", stackSize="32 b", work="27"];
node22 -> node129;
node130 [label="AutoGeneratedExpander_26651", push="27", pop="9", peek="9", pushType="float", popType="float", peekType="float", codeSize="32 b", stackSize="32 b", work="27"];
node22 -> node130;
node131 [label="AutoGeneratedExpander_26652", push="27", pop="9", peek="9", pushType="float", popType="float", peekType="float", codeSize="32 b", stackSize="32 b", work="27"];
node22 -> node131;
node132 [label="AutoGeneratedExpander_26653", push="27", pop="9", peek="9", pushType="float", popType="float", peekType="float", codeSize="32 b", stackSize="32 b", work="27"];
node22 -> node132;
node133 [label="AutoGeneratedExpander_26654", push="27", pop="9", peek="9", pushType="float", popType="float", peekType="float", codeSize="32 b", stackSize="32 b", work="27"];
node22 -> node133;
node134 [label="AutoGeneratedExpander_26655", push="27", pop="9", peek="9", pushType="float", popType="float", peekType="float", codeSize="32 b", stackSize="32 b", work="27"];
node22 -> node134;
node135 [label="WEIGHTED_ROUND_ROBIN_Joiner_26543", push="3024", pop="3024", peek="0", pushType="float", popType="float", peekType="void", codeSize="2022 b", stackSize="3616 b", work="0"];
node23 -> node135;
node24 -> node135;
node25 -> node135;
node26 -> node135;
node27 -> node135;
node28 -> node135;
node29 -> node135;
node30 -> node135;
node31 -> node135;
node32 -> node135;
node33 -> node135;
node34 -> node135;
node35 -> node135;
node36 -> node135;
node37 -> node135;
node38 -> node135;
node39 -> node135;
node40 -> node135;
node41 -> node135;
node42 -> node135;
node43 -> node135;
node44 -> node135;
node45 -> node135;
node46 -> node135;
node47 -> node135;
node48 -> node135;
node49 -> node135;
node50 -> node135;
node51 -> node135;
node52 -> node135;
node53 -> node135;
node54 -> node135;
node55 -> node135;
node56 -> node135;
node57 -> node135;
node58 -> node135;
node59 -> node135;
node60 -> node135;
node61 -> node135;
node62 -> node135;
node63 -> node135;
node64 -> node135;
node65 -> node135;
node66 -> node135;
node67 -> node135;
node68 -> node135;
node69 -> node135;
node70 -> node135;
node71 -> node135;
node72 -> node135;
node73 -> node135;
node74 -> node135;
node75 -> node135;
node76 -> node135;
node77 -> node135;
node78 -> node135;
node79 -> node135;
node80 -> node135;
node81 -> node135;
node82 -> node135;
node83 -> node135;
node84 -> node135;
node85 -> node135;
node86 -> node135;
node87 -> node135;
node88 -> node135;
node89 -> node135;
node90 -> node135;
node91 -> node135;
node92 -> node135;
node93 -> node135;
node94 -> node135;
node95 -> node135;
node96 -> node135;
node97 -> node135;
node98 -> node135;
node99 -> node135;
node100 -> node135;
node101 -> node135;
node102 -> node135;
node103 -> node135;
node104 -> node135;
node105 -> node135;
node106 -> node135;
node107 -> node135;
node108 -> node135;
node109 -> node135;
node110 -> node135;
node111 -> node135;
node112 -> node135;
node113 -> node135;
node114 -> node135;
node115 -> node135;
node116 -> node135;
node117 -> node135;
node118 -> node135;
node119 -> node135;
node120 -> node135;
node121 -> node135;
node122 -> node135;
node123 -> node135;
node124 -> node135;
node125 -> node135;
node126 -> node135;
node127 -> node135;
node128 -> node135;
node129 -> node135;
node130 -> node135;
node131 -> node135;
node132 -> node135;
node133 -> node135;
node134 -> node135;
node136 [label="Identity_26393", push="3024", pop="3024", peek="3024", pushType="float", popType="float", peekType="float", codeSize="12 b", stackSize="32 b", work="6"];
node135 -> node136;
node137 [label="WEIGHTED_ROUND_ROBIN_Splitter_26656", push="3024", pop="3024", peek="0", pushType="float", popType="float", peekType="void", codeSize="60 b", stackSize="128 b", work="0"];
node136 -> node137;
node138 [label="Pre_CollapsedDataParallel_2_26658", push="1008", pop="1008", peek="1008", pushType="float", popType="float", peekType="float", codeSize="50 b", stackSize="96 b", work="1449"];
node137 -> node138;
node139 [label="Pre_CollapsedDataParallel_2_26659", push="1008", pop="1008", peek="1008", pushType="float", popType="float", peekType="float", codeSize="50 b", stackSize="96 b", work="1449"];
node137 -> node139;
node140 [label="Pre_CollapsedDataParallel_2_26660", push="1008", pop="1008", peek="1008", pushType="float", popType="float", peekType="float", codeSize="50 b", stackSize="96 b", work="1449"];
node137 -> node140;
node141 [label="WEIGHTED_ROUND_ROBIN_Joiner_26657", push="3024", pop="3024", peek="0", pushType="float", popType="float", peekType="void", codeSize="60 b", stackSize="128 b", work="0"];
node138 -> node141;
node139 -> node141;
node140 -> node141;
node142 [label="Identity_26397", push="756", pop="756", peek="756", pushType="float", popType="float", peekType="float", codeSize="12 b", stackSize="32 b", work="6"];
node1 -> node142;
node143 [label="Pre_CollapsedDataParallel_2_26509", push="756", pop="756", peek="756", pushType="float", popType="float", peekType="float", codeSize="50 b", stackSize="96 b", work="1101"];
node142 -> node143;
node144 [label="WEIGHTED_ROUND_ROBIN_Splitter_26661", push="756", pop="756", peek="0", pushType="float", popType="float", peekType="void", codeSize="168 b", stackSize="320 b", work="0"];
node143 -> node144;
node145 [label="Post_CollapsedDataParallel_1_26663", push="84", pop="84", peek="84", pushType="float", popType="float", peekType="float", codeSize="54 b", stackSize="96 b", work="143"];
node144 -> node145;
node146 [label="Post_CollapsedDataParallel_1_26664", push="84", pop="84", peek="84", pushType="float", popType="float", peekType="float", codeSize="54 b", stackSize="96 b", work="143"];
node144 -> node146;
node147 [label="Post_CollapsedDataParallel_1_26665", push="84", pop="84", peek="84", pushType="float", popType="float", peekType="float", codeSize="54 b", stackSize="96 b", work="143"];
node144 -> node147;
node148 [label="Post_CollapsedDataParallel_1_26666", push="84", pop="84", peek="84", pushType="float", popType="float", peekType="float", codeSize="54 b", stackSize="96 b", work="143"];
node144 -> node148;
node149 [label="Post_CollapsedDataParallel_1_26667", push="84", pop="84", peek="84", pushType="float", popType="float", peekType="float", codeSize="54 b", stackSize="96 b", work="143"];
node144 -> node149;
node150 [label="Post_CollapsedDataParallel_1_26668", push="84", pop="84", peek="84", pushType="float", popType="float", peekType="float", codeSize="54 b", stackSize="96 b", work="143"];
node144 -> node150;
node151 [label="Post_CollapsedDataParallel_1_26669", push="84", pop="84", peek="84", pushType="float", popType="float", peekType="float", codeSize="54 b", stackSize="96 b", work="143"];
node144 -> node151;
node152 [label="Post_CollapsedDataParallel_1_26670", push="84", pop="84", peek="84", pushType="float", popType="float", peekType="float", codeSize="54 b", stackSize="96 b", work="143"];
node144 -> node152;
node153 [label="Post_CollapsedDataParallel_1_26671", push="84", pop="84", peek="84", pushType="float", popType="float", peekType="float", codeSize="54 b", stackSize="96 b", work="143"];
node144 -> node153;
node154 [label="WEIGHTED_ROUND_ROBIN_Joiner_26662", push="756", pop="756", peek="0", pushType="float", popType="float", peekType="void", codeSize="168 b", stackSize="320 b", work="0"];
node145 -> node154;
node146 -> node154;
node147 -> node154;
node148 -> node154;
node149 -> node154;
node150 -> node154;
node151 -> node154;
node152 -> node154;
node153 -> node154;
node155 [label="Identity_26406", push="756", pop="756", peek="756", pushType="float", popType="float", peekType="float", codeSize="12 b", stackSize="32 b", work="6"];
node154 -> node155;
node156 [label="WEIGHTED_ROUND_ROBIN_Splitter_26672", push="756", pop="756", peek="0", pushType="float", popType="float", peekType="void", codeSize="60 b", stackSize="128 b", work="0"];
node155 -> node156;
node157 [label="Pre_CollapsedDataParallel_2_26674", push="252", pop="252", peek="252", pushType="float", popType="float", peekType="float", codeSize="50 b", stackSize="96 b", work="369"];
node156 -> node157;
node158 [label="Pre_CollapsedDataParallel_2_26675", push="252", pop="252", peek="252", pushType="float", popType="float", peekType="float", codeSize="50 b", stackSize="96 b", work="369"];
node156 -> node158;
node159 [label="Pre_CollapsedDataParallel_2_26676", push="252", pop="252", peek="252", pushType="float", popType="float", peekType="float", codeSize="50 b", stackSize="96 b", work="369"];
node156 -> node159;
node160 [label="WEIGHTED_ROUND_ROBIN_Joiner_26673", push="756", pop="756", peek="0", pushType="float", popType="float", peekType="void", codeSize="60 b", stackSize="128 b", work="0"];
node157 -> node160;
node158 -> node160;
node159 -> node160;
node161 [label="WEIGHTED_ROUND_ROBIN_Splitter_26677", push="756", pop="756", peek="0", pushType="float", popType="float", peekType="void", codeSize="1302 b", stackSize="32 b", work="0"];
node160 -> node161;
node162 [label="AutoGeneratedExpander_26679", push="21", pop="7", peek="7", pushType="float", popType="float", peekType="float", codeSize="32 b", stackSize="32 b", work="27"];
node161 -> node162;
node163 [label="AutoGeneratedExpander_26680", push="21", pop="7", peek="7", pushType="float", popType="float", peekType="float", codeSize="32 b", stackSize="32 b", work="27"];
node161 -> node163;
node164 [label="AutoGeneratedExpander_26681", push="21", pop="7", peek="7", pushType="float", popType="float", peekType="float", codeSize="32 b", stackSize="32 b", work="27"];
node161 -> node164;
node165 [label="AutoGeneratedExpander_26682", push="21", pop="7", peek="7", pushType="float", popType="float", peekType="float", codeSize="32 b", stackSize="32 b", work="27"];
node161 -> node165;
node166 [label="AutoGeneratedExpander_26683", push="21", pop="7", peek="7", pushType="float", popType="float", peekType="float", codeSize="32 b", stackSize="32 b", work="27"];
node161 -> node166;
node167 [label="AutoGeneratedExpander_26684", push="21", pop="7", peek="7", pushType="float", popType="float", peekType="float", codeSize="32 b", stackSize="32 b", work="27"];
node161 -> node167;
node168 [label="AutoGeneratedExpander_26685", push="21", pop="7", peek="7", pushType="float", popType="float", peekType="float", codeSize="32 b", stackSize="32 b", work="27"];
node161 -> node168;
node169 [label="AutoGeneratedExpander_26686", push="21", pop="7", peek="7", pushType="float", popType="float", peekType="float", codeSize="32 b", stackSize="32 b", work="27"];
node161 -> node169;
node170 [label="AutoGeneratedExpander_26687", push="21", pop="7", peek="7", pushType="float", popType="float", peekType="float", codeSize="32 b", stackSize="32 b", work="27"];
node161 -> node170;
node171 [label="AutoGeneratedExpander_26688", push="21", pop="7", peek="7", pushType="float", popType="float", peekType="float", codeSize="32 b", stackSize="32 b", work="27"];
node161 -> node171;
node172 [label="AutoGeneratedExpander_26689", push="21", pop="7", peek="7", pushType="float", popType="float", peekType="float", codeSize="32 b", stackSize="32 b", work="27"];
node161 -> node172;
node173 [label="AutoGeneratedExpander_26690", push="21", pop="7", peek="7", pushType="float", popType="float", peekType="float", codeSize="32 b", stackSize="32 b", work="27"];
node161 -> node173;
node174 [label="AutoGeneratedExpander_26691", push="21", pop="7", peek="7", pushType="float", popType="float", peekType="float", codeSize="32 b", stackSize="32 b", work="27"];
node161 -> node174;
node175 [label="AutoGeneratedExpander_26692", push="21", pop="7", peek="7", pushType="float", popType="float", peekType="float", codeSize="32 b", stackSize="32 b", work="27"];
node161 -> node175;
node176 [label="AutoGeneratedExpander_26693", push="21", pop="7", peek="7", pushType="float", popType="float", peekType="float", codeSize="32 b", stackSize="32 b", work="27"];
node161 -> node176;
node177 [label="AutoGeneratedExpander_26694", push="21", pop="7", peek="7", pushType="float", popType="float", peekType="float", codeSize="32 b", stackSize="32 b", work="27"];
node161 -> node177;
node178 [label="AutoGeneratedExpander_26695", push="21", pop="7", peek="7", pushType="float", popType="float", peekType="float", codeSize="32 b", stackSize="32 b", work="27"];
node161 -> node178;
node179 [label="AutoGeneratedExpander_26696", push="21", pop="7", peek="7", pushType="float", popType="float", peekType="float", codeSize="32 b", stackSize="32 b", work="27"];
node161 -> node179;
node180 [label="AutoGeneratedExpander_26697", push="21", pop="7", peek="7", pushType="float", popType="float", peekType="float", codeSize="32 b", stackSize="32 b", work="27"];
node161 -> node180;
node181 [label="AutoGeneratedExpander_26698", push="21", pop="7", peek="7", pushType="float", popType="float", peekType="float", codeSize="32 b", stackSize="32 b", work="27"];
node161 -> node181;
node182 [label="AutoGeneratedExpander_26699", push="21", pop="7", peek="7", pushType="float", popType="float", peekType="float", codeSize="32 b", stackSize="32 b", work="27"];
node161 -> node182;
node183 [label="AutoGeneratedExpander_26700", push="21", pop="7", peek="7", pushType="float", popType="float", peekType="float", codeSize="32 b", stackSize="32 b", work="27"];
node161 -> node183;
node184 [label="AutoGeneratedExpander_26701", push="21", pop="7", peek="7", pushType="float", popType="float", peekType="float", codeSize="32 b", stackSize="32 b", work="27"];
node161 -> node184;
node185 [label="AutoGeneratedExpander_26702", push="21", pop="7", peek="7", pushType="float", popType="float", peekType="float", codeSize="32 b", stackSize="32 b", work="27"];
node161 -> node185;
node186 [label="AutoGeneratedExpander_26703", push="21", pop="7", peek="7", pushType="float", popType="float", peekType="float", codeSize="32 b", stackSize="32 b", work="27"];
node161 -> node186;
node187 [label="AutoGeneratedExpander_26704", push="21", pop="7", peek="7", pushType="float", popType="float", peekType="float", codeSize="32 b", stackSize="32 b", work="27"];
node161 -> node187;
node188 [label="AutoGeneratedExpander_26705", push="21", pop="7", peek="7", pushType="float", popType="float", peekType="float", codeSize="32 b", stackSize="32 b", work="27"];
node161 -> node188;
node189 [label="AutoGeneratedExpander_26706", push="21", pop="7", peek="7", pushType="float", popType="float", peekType="float", codeSize="32 b", stackSize="32 b", work="27"];
node161 -> node189;
node190 [label="AutoGeneratedExpander_26707", push="21", pop="7", peek="7", pushType="float", popType="float", peekType="float", codeSize="32 b", stackSize="32 b", work="27"];
node161 -> node190;
node191 [label="AutoGeneratedExpander_26708", push="21", pop="7", peek="7", pushType="float", popType="float", peekType="float", codeSize="32 b", stackSize="32 b", work="27"];
node161 -> node191;
node192 [label="AutoGeneratedExpander_26709", push="21", pop="7", peek="7", pushType="float", popType="float", peekType="float", codeSize="32 b", stackSize="32 b", work="27"];
node161 -> node192;
node193 [label="AutoGeneratedExpander_26710", push="21", pop="7", peek="7", pushType="float", popType="float", peekType="float", codeSize="32 b", stackSize="32 b", work="27"];
node161 -> node193;
node194 [label="AutoGeneratedExpander_26711", push="21", pop="7", peek="7", pushType="float", popType="float", peekType="float", codeSize="32 b", stackSize="32 b", work="27"];
node161 -> node194;
node195 [label="AutoGeneratedExpander_26712", push="21", pop="7", peek="7", pushType="float", popType="float", peekType="float", codeSize="32 b", stackSize="32 b", work="27"];
node161 -> node195;
node196 [label="AutoGeneratedExpander_26713", push="21", pop="7", peek="7", pushType="float", popType="float", peekType="float", codeSize="32 b", stackSize="32 b", work="27"];
node161 -> node196;
node197 [label="AutoGeneratedExpander_26714", push="21", pop="7", peek="7", pushType="float", popType="float", peekType="float", codeSize="32 b", stackSize="32 b", work="27"];
node161 -> node197;
node198 [label="AutoGeneratedExpander_26715", push="21", pop="7", peek="7", pushType="float", popType="float", peekType="float", codeSize="32 b", stackSize="32 b", work="27"];
node161 -> node198;
node199 [label="AutoGeneratedExpander_26716", push="21", pop="7", peek="7", pushType="float", popType="float", peekType="float", codeSize="32 b", stackSize="32 b", work="27"];
node161 -> node199;
node200 [label="AutoGeneratedExpander_26717", push="21", pop="7", peek="7", pushType="float", popType="float", peekType="float", codeSize="32 b", stackSize="32 b", work="27"];
node161 -> node200;
node201 [label="AutoGeneratedExpander_26718", push="21", pop="7", peek="7", pushType="float", popType="float", peekType="float", codeSize="32 b", stackSize="32 b", work="27"];
node161 -> node201;
node202 [label="AutoGeneratedExpander_26719", push="21", pop="7", peek="7", pushType="float", popType="float", peekType="float", codeSize="32 b", stackSize="32 b", work="27"];
node161 -> node202;
node203 [label="AutoGeneratedExpander_26720", push="21", pop="7", peek="7", pushType="float", popType="float", peekType="float", codeSize="32 b", stackSize="32 b", work="27"];
node161 -> node203;
node204 [label="AutoGeneratedExpander_26721", push="21", pop="7", peek="7", pushType="float", popType="float", peekType="float", codeSize="32 b", stackSize="32 b", work="27"];
node161 -> node204;
node205 [label="AutoGeneratedExpander_26722", push="21", pop="7", peek="7", pushType="float", popType="float", peekType="float", codeSize="32 b", stackSize="32 b", work="27"];
node161 -> node205;
node206 [label="AutoGeneratedExpander_26723", push="21", pop="7", peek="7", pushType="float", popType="float", peekType="float", codeSize="32 b", stackSize="32 b", work="27"];
node161 -> node206;
node207 [label="AutoGeneratedExpander_26724", push="21", pop="7", peek="7", pushType="float", popType="float", peekType="float", codeSize="32 b", stackSize="32 b", work="27"];
node161 -> node207;
node208 [label="AutoGeneratedExpander_26725", push="21", pop="7", peek="7", pushType="float", popType="float", peekType="float", codeSize="32 b", stackSize="32 b", work="27"];
node161 -> node208;
node209 [label="AutoGeneratedExpander_26726", push="21", pop="7", peek="7", pushType="float", popType="float", peekType="float", codeSize="32 b", stackSize="32 b", work="27"];
node161 -> node209;
node210 [label="AutoGeneratedExpander_26727", push="21", pop="7", peek="7", pushType="float", popType="float", peekType="float", codeSize="32 b", stackSize="32 b", work="27"];
node161 -> node210;
node211 [label="AutoGeneratedExpander_26728", push="21", pop="7", peek="7", pushType="float", popType="float", peekType="float", codeSize="32 b", stackSize="32 b", work="27"];
node161 -> node211;
node212 [label="AutoGeneratedExpander_26729", push="21", pop="7", peek="7", pushType="float", popType="float", peekType="float", codeSize="32 b", stackSize="32 b", work="27"];
node161 -> node212;
node213 [label="AutoGeneratedExpander_26730", push="21", pop="7", peek="7", pushType="float", popType="float", peekType="float", codeSize="32 b", stackSize="32 b", work="27"];
node161 -> node213;
node214 [label="AutoGeneratedExpander_26731", push="21", pop="7", peek="7", pushType="float", popType="float", peekType="float", codeSize="32 b", stackSize="32 b", work="27"];
node161 -> node214;
node215 [label="AutoGeneratedExpander_26732", push="21", pop="7", peek="7", pushType="float", popType="float", peekType="float", codeSize="32 b", stackSize="32 b", work="27"];
node161 -> node215;
node216 [label="AutoGeneratedExpander_26733", push="21", pop="7", peek="7", pushType="float", popType="float", peekType="float", codeSize="32 b", stackSize="32 b", work="27"];
node161 -> node216;
node217 [label="AutoGeneratedExpander_26734", push="21", pop="7", peek="7", pushType="float", popType="float", peekType="float", codeSize="32 b", stackSize="32 b", work="27"];
node161 -> node217;
node218 [label="AutoGeneratedExpander_26735", push="21", pop="7", peek="7", pushType="float", popType="float", peekType="float", codeSize="32 b", stackSize="32 b", work="27"];
node161 -> node218;
node219 [label="AutoGeneratedExpander_26736", push="21", pop="7", peek="7", pushType="float", popType="float", peekType="float", codeSize="32 b", stackSize="32 b", work="27"];
node161 -> node219;
node220 [label="AutoGeneratedExpander_26737", push="21", pop="7", peek="7", pushType="float", popType="float", peekType="float", codeSize="32 b", stackSize="32 b", work="27"];
node161 -> node220;
node221 [label="AutoGeneratedExpander_26738", push="21", pop="7", peek="7", pushType="float", popType="float", peekType="float", codeSize="32 b", stackSize="32 b", work="27"];
node161 -> node221;
node222 [label="AutoGeneratedExpander_26739", push="21", pop="7", peek="7", pushType="float", popType="float", peekType="float", codeSize="32 b", stackSize="32 b", work="27"];
node161 -> node222;
node223 [label="AutoGeneratedExpander_26740", push="21", pop="7", peek="7", pushType="float", popType="float", peekType="float", codeSize="32 b", stackSize="32 b", work="27"];
node161 -> node223;
node224 [label="AutoGeneratedExpander_26741", push="21", pop="7", peek="7", pushType="float", popType="float", peekType="float", codeSize="32 b", stackSize="32 b", work="27"];
node161 -> node224;
node225 [label="AutoGeneratedExpander_26742", push="21", pop="7", peek="7", pushType="float", popType="float", peekType="float", codeSize="32 b", stackSize="32 b", work="27"];
node161 -> node225;
node226 [label="AutoGeneratedExpander_26743", push="21", pop="7", peek="7", pushType="float", popType="float", peekType="float", codeSize="32 b", stackSize="32 b", work="27"];
node161 -> node226;
node227 [label="AutoGeneratedExpander_26744", push="21", pop="7", peek="7", pushType="float", popType="float", peekType="float", codeSize="32 b", stackSize="32 b", work="27"];
node161 -> node227;
node228 [label="AutoGeneratedExpander_26745", push="21", pop="7", peek="7", pushType="float", popType="float", peekType="float", codeSize="32 b", stackSize="32 b", work="27"];
node161 -> node228;
node229 [label="AutoGeneratedExpander_26746", push="21", pop="7", peek="7", pushType="float", popType="float", peekType="float", codeSize="32 b", stackSize="32 b", work="27"];
node161 -> node229;
node230 [label="AutoGeneratedExpander_26747", push="21", pop="7", peek="7", pushType="float", popType="float", peekType="float", codeSize="32 b", stackSize="32 b", work="27"];
node161 -> node230;
node231 [label="AutoGeneratedExpander_26748", push="21", pop="7", peek="7", pushType="float", popType="float", peekType="float", codeSize="32 b", stackSize="32 b", work="27"];
node161 -> node231;
node232 [label="AutoGeneratedExpander_26749", push="21", pop="7", peek="7", pushType="float", popType="float", peekType="float", codeSize="32 b", stackSize="32 b", work="27"];
node161 -> node232;
node233 [label="AutoGeneratedExpander_26750", push="21", pop="7", peek="7", pushType="float", popType="float", peekType="float", codeSize="32 b", stackSize="32 b", work="27"];
node161 -> node233;
node234 [label="AutoGeneratedExpander_26751", push="21", pop="7", peek="7", pushType="float", popType="float", peekType="float", codeSize="32 b", stackSize="32 b", work="27"];
node161 -> node234;
node235 [label="AutoGeneratedExpander_26752", push="21", pop="7", peek="7", pushType="float", popType="float", peekType="float", codeSize="32 b", stackSize="32 b", work="27"];
node161 -> node235;
node236 [label="AutoGeneratedExpander_26753", push="21", pop="7", peek="7", pushType="float", popType="float", peekType="float", codeSize="32 b", stackSize="32 b", work="27"];
node161 -> node236;
node237 [label="AutoGeneratedExpander_26754", push="21", pop="7", peek="7", pushType="float", popType="float", peekType="float", codeSize="32 b", stackSize="32 b", work="27"];
node161 -> node237;
node238 [label="AutoGeneratedExpander_26755", push="21", pop="7", peek="7", pushType="float", popType="float", peekType="float", codeSize="32 b", stackSize="32 b", work="27"];
node161 -> node238;
node239 [label="AutoGeneratedExpander_26756", push="21", pop="7", peek="7", pushType="float", popType="float", peekType="float", codeSize="32 b", stackSize="32 b", work="27"];
node161 -> node239;
node240 [label="AutoGeneratedExpander_26757", push="21", pop="7", peek="7", pushType="float", popType="float", peekType="float", codeSize="32 b", stackSize="32 b", work="27"];
node161 -> node240;
node241 [label="AutoGeneratedExpander_26758", push="21", pop="7", peek="7", pushType="float", popType="float", peekType="float", codeSize="32 b", stackSize="32 b", work="27"];
node161 -> node241;
node242 [label="AutoGeneratedExpander_26759", push="21", pop="7", peek="7", pushType="float", popType="float", peekType="float", codeSize="32 b", stackSize="32 b", work="27"];
node161 -> node242;
node243 [label="AutoGeneratedExpander_26760", push="21", pop="7", peek="7", pushType="float", popType="float", peekType="float", codeSize="32 b", stackSize="32 b", work="27"];
node161 -> node243;
node244 [label="AutoGeneratedExpander_26761", push="21", pop="7", peek="7", pushType="float", popType="float", peekType="float", codeSize="32 b", stackSize="32 b", work="27"];
node161 -> node244;
node245 [label="AutoGeneratedExpander_26762", push="21", pop="7", peek="7", pushType="float", popType="float", peekType="float", codeSize="32 b", stackSize="32 b", work="27"];
node161 -> node245;
node246 [label="AutoGeneratedExpander_26763", push="21", pop="7", peek="7", pushType="float", popType="float", peekType="float", codeSize="32 b", stackSize="32 b", work="27"];
node161 -> node246;
node247 [label="AutoGeneratedExpander_26764", push="21", pop="7", peek="7", pushType="float", popType="float", peekType="float", codeSize="32 b", stackSize="32 b", work="27"];
node161 -> node247;
node248 [label="AutoGeneratedExpander_26765", push="21", pop="7", peek="7", pushType="float", popType="float", peekType="float", codeSize="32 b", stackSize="32 b", work="27"];
node161 -> node248;
node249 [label="AutoGeneratedExpander_26766", push="21", pop="7", peek="7", pushType="float", popType="float", peekType="float", codeSize="32 b", stackSize="32 b", work="27"];
node161 -> node249;
node250 [label="AutoGeneratedExpander_26767", push="21", pop="7", peek="7", pushType="float", popType="float", peekType="float", codeSize="32 b", stackSize="32 b", work="27"];
node161 -> node250;
node251 [label="AutoGeneratedExpander_26768", push="21", pop="7", peek="7", pushType="float", popType="float", peekType="float", codeSize="32 b", stackSize="32 b", work="27"];
node161 -> node251;
node252 [label="AutoGeneratedExpander_26769", push="21", pop="7", peek="7", pushType="float", popType="float", peekType="float", codeSize="32 b", stackSize="32 b", work="27"];
node161 -> node252;
node253 [label="AutoGeneratedExpander_26770", push="21", pop="7", peek="7", pushType="float", popType="float", peekType="float", codeSize="32 b", stackSize="32 b", work="27"];
node161 -> node253;
node254 [label="AutoGeneratedExpander_26771", push="21", pop="7", peek="7", pushType="float", popType="float", peekType="float", codeSize="32 b", stackSize="32 b", work="27"];
node161 -> node254;
node255 [label="AutoGeneratedExpander_26772", push="21", pop="7", peek="7", pushType="float", popType="float", peekType="float", codeSize="32 b", stackSize="32 b", work="27"];
node161 -> node255;
node256 [label="AutoGeneratedExpander_26773", push="21", pop="7", peek="7", pushType="float", popType="float", peekType="float", codeSize="32 b", stackSize="32 b", work="27"];
node161 -> node256;
node257 [label="AutoGeneratedExpander_26774", push="21", pop="7", peek="7", pushType="float", popType="float", peekType="float", codeSize="32 b", stackSize="32 b", work="27"];
node161 -> node257;
node258 [label="AutoGeneratedExpander_26775", push="21", pop="7", peek="7", pushType="float", popType="float", peekType="float", codeSize="32 b", stackSize="32 b", work="27"];
node161 -> node258;
node259 [label="AutoGeneratedExpander_26776", push="21", pop="7", peek="7", pushType="float", popType="float", peekType="float", codeSize="32 b", stackSize="32 b", work="27"];
node161 -> node259;
node260 [label="AutoGeneratedExpander_26777", push="21", pop="7", peek="7", pushType="float", popType="float", peekType="float", codeSize="32 b", stackSize="32 b", work="27"];
node161 -> node260;
node261 [label="AutoGeneratedExpander_26778", push="21", pop="7", peek="7", pushType="float", popType="float", peekType="float", codeSize="32 b", stackSize="32 b", work="27"];
node161 -> node261;
node262 [label="AutoGeneratedExpander_26779", push="21", pop="7", peek="7", pushType="float", popType="float", peekType="float", codeSize="32 b", stackSize="32 b", work="27"];
node161 -> node262;
node263 [label="AutoGeneratedExpander_26780", push="21", pop="7", peek="7", pushType="float", popType="float", peekType="float", codeSize="32 b", stackSize="32 b", work="27"];
node161 -> node263;
node264 [label="AutoGeneratedExpander_26781", push="21", pop="7", peek="7", pushType="float", popType="float", peekType="float", codeSize="32 b", stackSize="32 b", work="27"];
node161 -> node264;
node265 [label="AutoGeneratedExpander_26782", push="21", pop="7", peek="7", pushType="float", popType="float", peekType="float", codeSize="32 b", stackSize="32 b", work="27"];
node161 -> node265;
node266 [label="AutoGeneratedExpander_26783", push="21", pop="7", peek="7", pushType="float", popType="float", peekType="float", codeSize="32 b", stackSize="32 b", work="27"];
node161 -> node266;
node267 [label="AutoGeneratedExpander_26784", push="21", pop="7", peek="7", pushType="float", popType="float", peekType="float", codeSize="32 b", stackSize="32 b", work="27"];
node161 -> node267;
node268 [label="AutoGeneratedExpander_26785", push="21", pop="7", peek="7", pushType="float", popType="float", peekType="float", codeSize="32 b", stackSize="32 b", work="27"];
node161 -> node268;
node269 [label="AutoGeneratedExpander_26786", push="21", pop="7", peek="7", pushType="float", popType="float", peekType="float", codeSize="32 b", stackSize="32 b", work="27"];
node161 -> node269;
node270 [label="WEIGHTED_ROUND_ROBIN_Joiner_26678", push="2268", pop="2268", peek="0", pushType="float", popType="float", peekType="void", codeSize="1950 b", stackSize="3488 b", work="0"];
node162 -> node270;
node163 -> node270;
node164 -> node270;
node165 -> node270;
node166 -> node270;
node167 -> node270;
node168 -> node270;
node169 -> node270;
node170 -> node270;
node171 -> node270;
node172 -> node270;
node173 -> node270;
node174 -> node270;
node175 -> node270;
node176 -> node270;
node177 -> node270;
node178 -> node270;
node179 -> node270;
node180 -> node270;
node181 -> node270;
node182 -> node270;
node183 -> node270;
node184 -> node270;
node185 -> node270;
node186 -> node270;
node187 -> node270;
node188 -> node270;
node189 -> node270;
node190 -> node270;
node191 -> node270;
node192 -> node270;
node193 -> node270;
node194 -> node270;
node195 -> node270;
node196 -> node270;
node197 -> node270;
node198 -> node270;
node199 -> node270;
node200 -> node270;
node201 -> node270;
node202 -> node270;
node203 -> node270;
node204 -> node270;
node205 -> node270;
node206 -> node270;
node207 -> node270;
node208 -> node270;
node209 -> node270;
node210 -> node270;
node211 -> node270;
node212 -> node270;
node213 -> node270;
node214 -> node270;
node215 -> node270;
node216 -> node270;
node217 -> node270;
node218 -> node270;
node219 -> node270;
node220 -> node270;
node221 -> node270;
node222 -> node270;
node223 -> node270;
node224 -> node270;
node225 -> node270;
node226 -> node270;
node227 -> node270;
node228 -> node270;
node229 -> node270;
node230 -> node270;
node231 -> node270;
node232 -> node270;
node233 -> node270;
node234 -> node270;
node235 -> node270;
node236 -> node270;
node237 -> node270;
node238 -> node270;
node239 -> node270;
node240 -> node270;
node241 -> node270;
node242 -> node270;
node243 -> node270;
node244 -> node270;
node245 -> node270;
node246 -> node270;
node247 -> node270;
node248 -> node270;
node249 -> node270;
node250 -> node270;
node251 -> node270;
node252 -> node270;
node253 -> node270;
node254 -> node270;
node255 -> node270;
node256 -> node270;
node257 -> node270;
node258 -> node270;
node259 -> node270;
node260 -> node270;
node261 -> node270;
node262 -> node270;
node263 -> node270;
node264 -> node270;
node265 -> node270;
node266 -> node270;
node267 -> node270;
node268 -> node270;
node269 -> node270;
node271 [label="Identity_26409", push="2268", pop="2268", peek="2268", pushType="float", popType="float", peekType="float", codeSize="12 b", stackSize="32 b", work="6"];
node270 -> node271;
node272 [label="Pre_CollapsedDataParallel_2_26512", push="2268", pop="2268", peek="2268", pushType="float", popType="float", peekType="float", codeSize="50 b", stackSize="96 b", work="3249"];
node271 -> node272;
node273 [label="WEIGHTED_ROUND_ROBIN_Joiner_26516", push="5292", pop="5292", peek="0", pushType="float", popType="float", peekType="void", codeSize="42 b", stackSize="96 b", work="0"];
node141 -> node273;
node272 -> node273;
node274 [label="WEIGHTED_ROUND_ROBIN_Splitter_26787", push="5292", pop="5292", peek="0", pushType="float", popType="float", peekType="void", codeSize="492 b", stackSize="896 b", work="0"];
node273 -> node274;
node275 [label="BlockMultiply_26789", push="84", pop="196", peek="196", pushType="float", popType="float", peekType="float", codeSize="102 b", stackSize="256 b", work="1024"];
node274 -> node275;
node276 [label="BlockMultiply_26790", push="84", pop="196", peek="196", pushType="float", popType="float", peekType="float", codeSize="102 b", stackSize="256 b", work="1024"];
node274 -> node276;
node277 [label="BlockMultiply_26791", push="84", pop="196", peek="196", pushType="float", popType="float", peekType="float", codeSize="102 b", stackSize="256 b", work="1024"];
node274 -> node277;
node278 [label="BlockMultiply_26792", push="84", pop="196", peek="196", pushType="float", popType="float", peekType="float", codeSize="102 b", stackSize="256 b", work="1024"];
node274 -> node278;
node279 [label="BlockMultiply_26793", push="84", pop="196", peek="196", pushType="float", popType="float", peekType="float", codeSize="102 b", stackSize="256 b", work="1024"];
node274 -> node279;
node280 [label="BlockMultiply_26794", push="84", pop="196", peek="196", pushType="float", popType="float", peekType="float", codeSize="102 b", stackSize="256 b", work="1024"];
node274 -> node280;
node281 [label="BlockMultiply_26795", push="84", pop="196", peek="196", pushType="float", popType="float", peekType="float", codeSize="102 b", stackSize="256 b", work="1024"];
node274 -> node281;
node282 [label="BlockMultiply_26796", push="84", pop="196", peek="196", pushType="float", popType="float", peekType="float", codeSize="102 b", stackSize="256 b", work="1024"];
node274 -> node282;
node283 [label="BlockMultiply_26797", push="84", pop="196", peek="196", pushType="float", popType="float", peekType="float", codeSize="102 b", stackSize="256 b", work="1024"];
node274 -> node283;
node284 [label="BlockMultiply_26798", push="84", pop="196", peek="196", pushType="float", popType="float", peekType="float", codeSize="102 b", stackSize="256 b", work="1024"];
node274 -> node284;
node285 [label="BlockMultiply_26799", push="84", pop="196", peek="196", pushType="float", popType="float", peekType="float", codeSize="102 b", stackSize="256 b", work="1024"];
node274 -> node285;
node286 [label="BlockMultiply_26800", push="84", pop="196", peek="196", pushType="float", popType="float", peekType="float", codeSize="102 b", stackSize="256 b", work="1024"];
node274 -> node286;
node287 [label="BlockMultiply_26801", push="84", pop="196", peek="196", pushType="float", popType="float", peekType="float", codeSize="102 b", stackSize="256 b", work="1024"];
node274 -> node287;
node288 [label="BlockMultiply_26802", push="84", pop="196", peek="196", pushType="float", popType="float", peekType="float", codeSize="102 b", stackSize="256 b", work="1024"];
node274 -> node288;
node289 [label="BlockMultiply_26803", push="84", pop="196", peek="196", pushType="float", popType="float", peekType="float", codeSize="102 b", stackSize="256 b", work="1024"];
node274 -> node289;
node290 [label="BlockMultiply_26804", push="84", pop="196", peek="196", pushType="float", popType="float", peekType="float", codeSize="102 b", stackSize="256 b", work="1024"];
node274 -> node290;
node291 [label="BlockMultiply_26805", push="84", pop="196", peek="196", pushType="float", popType="float", peekType="float", codeSize="102 b", stackSize="256 b", work="1024"];
node274 -> node291;
node292 [label="BlockMultiply_26806", push="84", pop="196", peek="196", pushType="float", popType="float", peekType="float", codeSize="102 b", stackSize="256 b", work="1024"];
node274 -> node292;
node293 [label="BlockMultiply_26807", push="84", pop="196", peek="196", pushType="float", popType="float", peekType="float", codeSize="102 b", stackSize="256 b", work="1024"];
node274 -> node293;
node294 [label="BlockMultiply_26808", push="84", pop="196", peek="196", pushType="float", popType="float", peekType="float", codeSize="102 b", stackSize="256 b", work="1024"];
node274 -> node294;
node295 [label="BlockMultiply_26809", push="84", pop="196", peek="196", pushType="float", popType="float", peekType="float", codeSize="102 b", stackSize="256 b", work="1024"];
node274 -> node295;
node296 [label="BlockMultiply_26810", push="84", pop="196", peek="196", pushType="float", popType="float", peekType="float", codeSize="102 b", stackSize="256 b", work="1024"];
node274 -> node296;
node297 [label="BlockMultiply_26811", push="84", pop="196", peek="196", pushType="float", popType="float", peekType="float", codeSize="102 b", stackSize="256 b", work="1024"];
node274 -> node297;
node298 [label="BlockMultiply_26812", push="84", pop="196", peek="196", pushType="float", popType="float", peekType="float", codeSize="102 b", stackSize="256 b", work="1024"];
node274 -> node298;
node299 [label="BlockMultiply_26813", push="84", pop="196", peek="196", pushType="float", popType="float", peekType="float", codeSize="102 b", stackSize="256 b", work="1024"];
node274 -> node299;
node300 [label="BlockMultiply_26814", push="84", pop="196", peek="196", pushType="float", popType="float", peekType="float", codeSize="102 b", stackSize="256 b", work="1024"];
node274 -> node300;
node301 [label="BlockMultiply_26815", push="84", pop="196", peek="196", pushType="float", popType="float", peekType="float", codeSize="102 b", stackSize="256 b", work="1024"];
node274 -> node301;
node302 [label="WEIGHTED_ROUND_ROBIN_Joiner_26788", push="2268", pop="2268", peek="0", pushType="float", popType="float", peekType="void", codeSize="492 b", stackSize="896 b", work="0"];
node275 -> node302;
node276 -> node302;
node277 -> node302;
node278 -> node302;
node279 -> node302;
node280 -> node302;
node281 -> node302;
node282 -> node302;
node283 -> node302;
node284 -> node302;
node285 -> node302;
node286 -> node302;
node287 -> node302;
node288 -> node302;
node289 -> node302;
node290 -> node302;
node291 -> node302;
node292 -> node302;
node293 -> node302;
node294 -> node302;
node295 -> node302;
node296 -> node302;
node297 -> node302;
node298 -> node302;
node299 -> node302;
node300 -> node302;
node301 -> node302;
node303 [label="BlockAdd_26413", push="756", pop="2268", peek="2268", pushType="float", popType="float", peekType="float", codeSize="189 b", stackSize="96 b", work="468"];
node302 -> node303;
node304 [label="WEIGHTED_ROUND_ROBIN_Splitter_26816", push="756", pop="756", peek="0", pushType="float", popType="float", peekType="void", codeSize="168 b", stackSize="320 b", work="0"];
node303 -> node304;
node305 [label="Post_CollapsedDataParallel_1_26818", push="84", pop="84", peek="84", pushType="float", popType="float", peekType="float", codeSize="54 b", stackSize="96 b", work="141"];
node304 -> node305;
node306 [label="Post_CollapsedDataParallel_1_26819", push="84", pop="84", peek="84", pushType="float", popType="float", peekType="float", codeSize="54 b", stackSize="96 b", work="141"];
node304 -> node306;
node307 [label="Post_CollapsedDataParallel_1_26820", push="84", pop="84", peek="84", pushType="float", popType="float", peekType="float", codeSize="54 b", stackSize="96 b", work="141"];
node304 -> node307;
node308 [label="Post_CollapsedDataParallel_1_26821", push="84", pop="84", peek="84", pushType="float", popType="float", peekType="float", codeSize="54 b", stackSize="96 b", work="141"];
node304 -> node308;
node309 [label="Post_CollapsedDataParallel_1_26822", push="84", pop="84", peek="84", pushType="float", popType="float", peekType="float", codeSize="54 b", stackSize="96 b", work="141"];
node304 -> node309;
node310 [label="Post_CollapsedDataParallel_1_26823", push="84", pop="84", peek="84", pushType="float", popType="float", peekType="float", codeSize="54 b", stackSize="96 b", work="141"];
node304 -> node310;
node311 [label="Post_CollapsedDataParallel_1_26824", push="84", pop="84", peek="84", pushType="float", popType="float", peekType="float", codeSize="54 b", stackSize="96 b", work="141"];
node304 -> node311;
node312 [label="Post_CollapsedDataParallel_1_26825", push="84", pop="84", peek="84", pushType="float", popType="float", peekType="float", codeSize="54 b", stackSize="96 b", work="141"];
node304 -> node312;
node313 [label="Post_CollapsedDataParallel_1_26826", push="84", pop="84", peek="84", pushType="float", popType="float", peekType="float", codeSize="54 b", stackSize="96 b", work="141"];
node304 -> node313;
node314 [label="WEIGHTED_ROUND_ROBIN_Joiner_26817", push="756", pop="756", peek="0", pushType="float", popType="float", peekType="void", codeSize="168 b", stackSize="320 b", work="0"];
node305 -> node314;
node306 -> node314;
node307 -> node314;
node308 -> node314;
node309 -> node314;
node310 -> node314;
node311 -> node314;
node312 -> node314;
node313 -> node314;
node315 [label="Identity_26415", push="756", pop="756", peek="756", pushType="float", popType="float", peekType="float", codeSize="12 b", stackSize="32 b", work="6"];
node314 -> node315;
node316 [label="WEIGHTED_ROUND_ROBIN_Splitter_26827", push="756", pop="756", peek="0", pushType="float", popType="float", peekType="void", codeSize="60 b", stackSize="128 b", work="0"];
node315 -> node316;
node317 [label="Pre_CollapsedDataParallel_2_26829", push="252", pop="252", peek="252", pushType="float", popType="float", peekType="float", codeSize="50 b", stackSize="96 b", work="371"];
node316 -> node317;
node318 [label="Pre_CollapsedDataParallel_2_26830", push="252", pop="252", peek="252", pushType="float", popType="float", peekType="float", codeSize="50 b", stackSize="96 b", work="371"];
node316 -> node318;
node319 [label="Pre_CollapsedDataParallel_2_26831", push="252", pop="252", peek="252", pushType="float", popType="float", peekType="float", codeSize="50 b", stackSize="96 b", work="371"];
node316 -> node319;
node320 [label="WEIGHTED_ROUND_ROBIN_Joiner_26828", push="756", pop="756", peek="0", pushType="float", popType="float", peekType="void", codeSize="60 b", stackSize="128 b", work="0"];
node317 -> node320;
node318 -> node320;
node319 -> node320;
node321 [label="Printer_26419", push="0", pop="756", peek="756", pushType="void", popType="float", peekType="float", codeSize="16 b", stackSize="0 b", work="6"];
node320 -> node321;
}
