digraph MatrixMultBlock_83986 {
node0 [label="BlockFloatSource_83734", push="3528", pop="0", peek="0", pushType="float", popType="void", peekType="void", codeSize="26 b", stackSize="0 b", work="14"];
node1 [label="WEIGHTED_ROUND_ROBIN_Splitter_83863", push="3528", pop="3528", peek="0", pushType="float", popType="float", peekType="void", codeSize="42 b", stackSize="96 b", work="0"];
node0 -> node1;
node2 [label="WEIGHTED_ROUND_ROBIN_Splitter_83871", push="2016", pop="2016", peek="0", pushType="float", popType="float", peekType="void", codeSize="222 b", stackSize="416 b", work="0"];
node1 -> node2;
node3 [label="Post_CollapsedDataParallel_1_83873", push="168", pop="168", peek="168", pushType="float", popType="float", peekType="float", codeSize="54 b", stackSize="96 b", work="143"];
node2 -> node3;
node4 [label="Post_CollapsedDataParallel_1_83874", push="168", pop="168", peek="168", pushType="float", popType="float", peekType="float", codeSize="54 b", stackSize="96 b", work="143"];
node2 -> node4;
node5 [label="Post_CollapsedDataParallel_1_83875", push="168", pop="168", peek="168", pushType="float", popType="float", peekType="float", codeSize="54 b", stackSize="96 b", work="143"];
node2 -> node5;
node6 [label="Post_CollapsedDataParallel_1_83876", push="168", pop="168", peek="168", pushType="float", popType="float", peekType="float", codeSize="54 b", stackSize="96 b", work="143"];
node2 -> node6;
node7 [label="Post_CollapsedDataParallel_1_83877", push="168", pop="168", peek="168", pushType="float", popType="float", peekType="float", codeSize="54 b", stackSize="96 b", work="143"];
node2 -> node7;
node8 [label="Post_CollapsedDataParallel_1_83878", push="168", pop="168", peek="168", pushType="float", popType="float", peekType="float", codeSize="54 b", stackSize="96 b", work="143"];
node2 -> node8;
node9 [label="Post_CollapsedDataParallel_1_83879", push="168", pop="168", peek="168", pushType="float", popType="float", peekType="float", codeSize="54 b", stackSize="96 b", work="143"];
node2 -> node9;
node10 [label="Post_CollapsedDataParallel_1_83880", push="168", pop="168", peek="168", pushType="float", popType="float", peekType="float", codeSize="54 b", stackSize="96 b", work="143"];
node2 -> node10;
node11 [label="Post_CollapsedDataParallel_1_83881", push="168", pop="168", peek="168", pushType="float", popType="float", peekType="float", codeSize="54 b", stackSize="96 b", work="143"];
node2 -> node11;
node12 [label="Post_CollapsedDataParallel_1_83882", push="168", pop="168", peek="168", pushType="float", popType="float", peekType="float", codeSize="54 b", stackSize="96 b", work="143"];
node2 -> node12;
node13 [label="Post_CollapsedDataParallel_1_83883", push="168", pop="168", peek="168", pushType="float", popType="float", peekType="float", codeSize="54 b", stackSize="96 b", work="143"];
node2 -> node13;
node14 [label="Post_CollapsedDataParallel_1_83884", push="168", pop="168", peek="168", pushType="float", popType="float", peekType="float", codeSize="54 b", stackSize="96 b", work="143"];
node2 -> node14;
node15 [label="WEIGHTED_ROUND_ROBIN_Joiner_83872", push="2016", pop="2016", peek="0", pushType="float", popType="float", peekType="void", codeSize="222 b", stackSize="416 b", work="0"];
node3 -> node15;
node4 -> node15;
node5 -> node15;
node6 -> node15;
node7 -> node15;
node8 -> node15;
node9 -> node15;
node10 -> node15;
node11 -> node15;
node12 -> node15;
node13 -> node15;
node14 -> node15;
node16 [label="Identity_83738", push="2016", pop="2016", peek="2016", pushType="float", popType="float", peekType="float", codeSize="12 b", stackSize="32 b", work="6"];
node15 -> node16;
node17 [label="WEIGHTED_ROUND_ROBIN_Splitter_83885", push="2016", pop="2016", peek="0", pushType="float", popType="float", peekType="void", codeSize="60 b", stackSize="128 b", work="0"];
node16 -> node17;
node18 [label="Pre_CollapsedDataParallel_2_83887", push="672", pop="672", peek="672", pushType="float", popType="float", peekType="float", codeSize="50 b", stackSize="96 b", work="489"];
node17 -> node18;
node19 [label="Pre_CollapsedDataParallel_2_83888", push="672", pop="672", peek="672", pushType="float", popType="float", peekType="float", codeSize="50 b", stackSize="96 b", work="489"];
node17 -> node19;
node20 [label="Pre_CollapsedDataParallel_2_83889", push="672", pop="672", peek="672", pushType="float", popType="float", peekType="float", codeSize="50 b", stackSize="96 b", work="489"];
node17 -> node20;
node21 [label="WEIGHTED_ROUND_ROBIN_Joiner_83886", push="2016", pop="2016", peek="0", pushType="float", popType="float", peekType="void", codeSize="60 b", stackSize="128 b", work="0"];
node18 -> node21;
node19 -> node21;
node20 -> node21;
node22 [label="WEIGHTED_ROUND_ROBIN_Splitter_83890", push="2016", pop="2016", peek="0", pushType="float", popType="float", peekType="void", codeSize="174 b", stackSize="32 b", work="0"];
node21 -> node22;
node23 [label="AutoGeneratedExpander_83892", push="432", pop="144", peek="144", pushType="float", popType="float", peekType="float", codeSize="32 b", stackSize="32 b", work="27"];
node22 -> node23;
node24 [label="AutoGeneratedExpander_83893", push="432", pop="144", peek="144", pushType="float", popType="float", peekType="float", codeSize="32 b", stackSize="32 b", work="27"];
node22 -> node24;
node25 [label="AutoGeneratedExpander_83894", push="432", pop="144", peek="144", pushType="float", popType="float", peekType="float", codeSize="32 b", stackSize="32 b", work="27"];
node22 -> node25;
node26 [label="AutoGeneratedExpander_83895", push="432", pop="144", peek="144", pushType="float", popType="float", peekType="float", codeSize="32 b", stackSize="32 b", work="27"];
node22 -> node26;
node27 [label="AutoGeneratedExpander_83896", push="432", pop="144", peek="144", pushType="float", popType="float", peekType="float", codeSize="32 b", stackSize="32 b", work="27"];
node22 -> node27;
node28 [label="AutoGeneratedExpander_83897", push="432", pop="144", peek="144", pushType="float", popType="float", peekType="float", codeSize="32 b", stackSize="32 b", work="27"];
node22 -> node28;
node29 [label="AutoGeneratedExpander_83898", push="432", pop="144", peek="144", pushType="float", popType="float", peekType="float", codeSize="32 b", stackSize="32 b", work="27"];
node22 -> node29;
node30 [label="AutoGeneratedExpander_83899", push="432", pop="144", peek="144", pushType="float", popType="float", peekType="float", codeSize="32 b", stackSize="32 b", work="27"];
node22 -> node30;
node31 [label="AutoGeneratedExpander_83900", push="432", pop="144", peek="144", pushType="float", popType="float", peekType="float", codeSize="32 b", stackSize="32 b", work="27"];
node22 -> node31;
node32 [label="AutoGeneratedExpander_83901", push="432", pop="144", peek="144", pushType="float", popType="float", peekType="float", codeSize="32 b", stackSize="32 b", work="27"];
node22 -> node32;
node33 [label="AutoGeneratedExpander_83902", push="432", pop="144", peek="144", pushType="float", popType="float", peekType="float", codeSize="32 b", stackSize="32 b", work="27"];
node22 -> node33;
node34 [label="AutoGeneratedExpander_83903", push="432", pop="144", peek="144", pushType="float", popType="float", peekType="float", codeSize="32 b", stackSize="32 b", work="27"];
node22 -> node34;
node35 [label="AutoGeneratedExpander_83904", push="432", pop="144", peek="144", pushType="float", popType="float", peekType="float", codeSize="32 b", stackSize="32 b", work="27"];
node22 -> node35;
node36 [label="AutoGeneratedExpander_83905", push="432", pop="144", peek="144", pushType="float", popType="float", peekType="float", codeSize="32 b", stackSize="32 b", work="27"];
node22 -> node36;
node37 [label="WEIGHTED_ROUND_ROBIN_Joiner_83891", push="6048", pop="6048", peek="0", pushType="float", popType="float", peekType="void", codeSize="258 b", stackSize="480 b", work="0"];
node23 -> node37;
node24 -> node37;
node25 -> node37;
node26 -> node37;
node27 -> node37;
node28 -> node37;
node29 -> node37;
node30 -> node37;
node31 -> node37;
node32 -> node37;
node33 -> node37;
node34 -> node37;
node35 -> node37;
node36 -> node37;
node38 [label="Identity_83741", push="6048", pop="6048", peek="6048", pushType="float", popType="float", peekType="float", codeSize="12 b", stackSize="32 b", work="6"];
node37 -> node38;
node39 [label="WEIGHTED_ROUND_ROBIN_Splitter_83906", push="6048", pop="6048", peek="0", pushType="float", popType="float", peekType="void", codeSize="60 b", stackSize="128 b", work="0"];
node38 -> node39;
node40 [label="Pre_CollapsedDataParallel_2_83908", push="2016", pop="2016", peek="2016", pushType="float", popType="float", peekType="float", codeSize="50 b", stackSize="96 b", work="1449"];
node39 -> node40;
node41 [label="Pre_CollapsedDataParallel_2_83909", push="2016", pop="2016", peek="2016", pushType="float", popType="float", peekType="float", codeSize="50 b", stackSize="96 b", work="1449"];
node39 -> node41;
node42 [label="Pre_CollapsedDataParallel_2_83910", push="2016", pop="2016", peek="2016", pushType="float", popType="float", peekType="float", codeSize="50 b", stackSize="96 b", work="1449"];
node39 -> node42;
node43 [label="WEIGHTED_ROUND_ROBIN_Joiner_83907", push="6048", pop="6048", peek="0", pushType="float", popType="float", peekType="void", codeSize="60 b", stackSize="128 b", work="0"];
node40 -> node43;
node41 -> node43;
node42 -> node43;
node44 [label="Identity_83745", push="1512", pop="1512", peek="1512", pushType="float", popType="float", peekType="float", codeSize="12 b", stackSize="32 b", work="6"];
node1 -> node44;
node45 [label="Pre_CollapsedDataParallel_2_83857", push="1512", pop="1512", peek="1512", pushType="float", popType="float", peekType="float", codeSize="50 b", stackSize="96 b", work="1101"];
node44 -> node45;
node46 [label="WEIGHTED_ROUND_ROBIN_Splitter_83911", push="1512", pop="1512", peek="0", pushType="float", popType="float", peekType="void", codeSize="168 b", stackSize="320 b", work="0"];
node45 -> node46;
node47 [label="Post_CollapsedDataParallel_1_83913", push="168", pop="168", peek="168", pushType="float", popType="float", peekType="float", codeSize="54 b", stackSize="96 b", work="143"];
node46 -> node47;
node48 [label="Post_CollapsedDataParallel_1_83914", push="168", pop="168", peek="168", pushType="float", popType="float", peekType="float", codeSize="54 b", stackSize="96 b", work="143"];
node46 -> node48;
node49 [label="Post_CollapsedDataParallel_1_83915", push="168", pop="168", peek="168", pushType="float", popType="float", peekType="float", codeSize="54 b", stackSize="96 b", work="143"];
node46 -> node49;
node50 [label="Post_CollapsedDataParallel_1_83916", push="168", pop="168", peek="168", pushType="float", popType="float", peekType="float", codeSize="54 b", stackSize="96 b", work="143"];
node46 -> node50;
node51 [label="Post_CollapsedDataParallel_1_83917", push="168", pop="168", peek="168", pushType="float", popType="float", peekType="float", codeSize="54 b", stackSize="96 b", work="143"];
node46 -> node51;
node52 [label="Post_CollapsedDataParallel_1_83918", push="168", pop="168", peek="168", pushType="float", popType="float", peekType="float", codeSize="54 b", stackSize="96 b", work="143"];
node46 -> node52;
node53 [label="Post_CollapsedDataParallel_1_83919", push="168", pop="168", peek="168", pushType="float", popType="float", peekType="float", codeSize="54 b", stackSize="96 b", work="143"];
node46 -> node53;
node54 [label="Post_CollapsedDataParallel_1_83920", push="168", pop="168", peek="168", pushType="float", popType="float", peekType="float", codeSize="54 b", stackSize="96 b", work="143"];
node46 -> node54;
node55 [label="Post_CollapsedDataParallel_1_83921", push="168", pop="168", peek="168", pushType="float", popType="float", peekType="float", codeSize="54 b", stackSize="96 b", work="143"];
node46 -> node55;
node56 [label="WEIGHTED_ROUND_ROBIN_Joiner_83912", push="1512", pop="1512", peek="0", pushType="float", popType="float", peekType="void", codeSize="168 b", stackSize="320 b", work="0"];
node47 -> node56;
node48 -> node56;
node49 -> node56;
node50 -> node56;
node51 -> node56;
node52 -> node56;
node53 -> node56;
node54 -> node56;
node55 -> node56;
node57 [label="Identity_83754", push="1512", pop="1512", peek="1512", pushType="float", popType="float", peekType="float", codeSize="12 b", stackSize="32 b", work="6"];
node56 -> node57;
node58 [label="WEIGHTED_ROUND_ROBIN_Splitter_83922", push="1512", pop="1512", peek="0", pushType="float", popType="float", peekType="void", codeSize="60 b", stackSize="128 b", work="0"];
node57 -> node58;
node59 [label="Pre_CollapsedDataParallel_2_83924", push="504", pop="504", peek="504", pushType="float", popType="float", peekType="float", codeSize="50 b", stackSize="96 b", work="369"];
node58 -> node59;
node60 [label="Pre_CollapsedDataParallel_2_83925", push="504", pop="504", peek="504", pushType="float", popType="float", peekType="float", codeSize="50 b", stackSize="96 b", work="369"];
node58 -> node60;
node61 [label="Pre_CollapsedDataParallel_2_83926", push="504", pop="504", peek="504", pushType="float", popType="float", peekType="float", codeSize="50 b", stackSize="96 b", work="369"];
node58 -> node61;
node62 [label="WEIGHTED_ROUND_ROBIN_Joiner_83923", push="1512", pop="1512", peek="0", pushType="float", popType="float", peekType="void", codeSize="60 b", stackSize="128 b", work="0"];
node59 -> node62;
node60 -> node62;
node61 -> node62;
node63 [label="WEIGHTED_ROUND_ROBIN_Splitter_83927", push="1512", pop="1512", peek="0", pushType="float", popType="float", peekType="void", codeSize="174 b", stackSize="32 b", work="0"];
node62 -> node63;
node64 [label="AutoGeneratedExpander_83929", push="324", pop="108", peek="108", pushType="float", popType="float", peekType="float", codeSize="32 b", stackSize="32 b", work="27"];
node63 -> node64;
node65 [label="AutoGeneratedExpander_83930", push="324", pop="108", peek="108", pushType="float", popType="float", peekType="float", codeSize="32 b", stackSize="32 b", work="27"];
node63 -> node65;
node66 [label="AutoGeneratedExpander_83931", push="324", pop="108", peek="108", pushType="float", popType="float", peekType="float", codeSize="32 b", stackSize="32 b", work="27"];
node63 -> node66;
node67 [label="AutoGeneratedExpander_83932", push="324", pop="108", peek="108", pushType="float", popType="float", peekType="float", codeSize="32 b", stackSize="32 b", work="27"];
node63 -> node67;
node68 [label="AutoGeneratedExpander_83933", push="324", pop="108", peek="108", pushType="float", popType="float", peekType="float", codeSize="32 b", stackSize="32 b", work="27"];
node63 -> node68;
node69 [label="AutoGeneratedExpander_83934", push="324", pop="108", peek="108", pushType="float", popType="float", peekType="float", codeSize="32 b", stackSize="32 b", work="27"];
node63 -> node69;
node70 [label="AutoGeneratedExpander_83935", push="324", pop="108", peek="108", pushType="float", popType="float", peekType="float", codeSize="32 b", stackSize="32 b", work="27"];
node63 -> node70;
node71 [label="AutoGeneratedExpander_83936", push="324", pop="108", peek="108", pushType="float", popType="float", peekType="float", codeSize="32 b", stackSize="32 b", work="27"];
node63 -> node71;
node72 [label="AutoGeneratedExpander_83937", push="324", pop="108", peek="108", pushType="float", popType="float", peekType="float", codeSize="32 b", stackSize="32 b", work="27"];
node63 -> node72;
node73 [label="AutoGeneratedExpander_83938", push="324", pop="108", peek="108", pushType="float", popType="float", peekType="float", codeSize="32 b", stackSize="32 b", work="27"];
node63 -> node73;
node74 [label="AutoGeneratedExpander_83939", push="324", pop="108", peek="108", pushType="float", popType="float", peekType="float", codeSize="32 b", stackSize="32 b", work="27"];
node63 -> node74;
node75 [label="AutoGeneratedExpander_83940", push="324", pop="108", peek="108", pushType="float", popType="float", peekType="float", codeSize="32 b", stackSize="32 b", work="27"];
node63 -> node75;
node76 [label="AutoGeneratedExpander_83941", push="324", pop="108", peek="108", pushType="float", popType="float", peekType="float", codeSize="32 b", stackSize="32 b", work="27"];
node63 -> node76;
node77 [label="AutoGeneratedExpander_83942", push="324", pop="108", peek="108", pushType="float", popType="float", peekType="float", codeSize="32 b", stackSize="32 b", work="27"];
node63 -> node77;
node78 [label="WEIGHTED_ROUND_ROBIN_Joiner_83928", push="4536", pop="4536", peek="0", pushType="float", popType="float", peekType="void", codeSize="258 b", stackSize="480 b", work="0"];
node64 -> node78;
node65 -> node78;
node66 -> node78;
node67 -> node78;
node68 -> node78;
node69 -> node78;
node70 -> node78;
node71 -> node78;
node72 -> node78;
node73 -> node78;
node74 -> node78;
node75 -> node78;
node76 -> node78;
node77 -> node78;
node79 [label="Identity_83757", push="4536", pop="4536", peek="4536", pushType="float", popType="float", peekType="float", codeSize="12 b", stackSize="32 b", work="6"];
node78 -> node79;
node80 [label="Pre_CollapsedDataParallel_2_83860", push="4536", pop="4536", peek="4536", pushType="float", popType="float", peekType="float", codeSize="50 b", stackSize="96 b", work="3249"];
node79 -> node80;
node81 [label="WEIGHTED_ROUND_ROBIN_Joiner_83864", push="10584", pop="10584", peek="0", pushType="float", popType="float", peekType="void", codeSize="42 b", stackSize="96 b", work="0"];
node43 -> node81;
node80 -> node81;
node82 [label="WEIGHTED_ROUND_ROBIN_Splitter_83943", push="10584", pop="10584", peek="0", pushType="float", popType="float", peekType="void", codeSize="258 b", stackSize="480 b", work="0"];
node81 -> node82;
node83 [label="BlockMultiply_83945", push="324", pop="756", peek="756", pushType="float", popType="float", peekType="float", codeSize="102 b", stackSize="256 b", work="1024"];
node82 -> node83;
node84 [label="BlockMultiply_83946", push="324", pop="756", peek="756", pushType="float", popType="float", peekType="float", codeSize="102 b", stackSize="256 b", work="1024"];
node82 -> node84;
node85 [label="BlockMultiply_83947", push="324", pop="756", peek="756", pushType="float", popType="float", peekType="float", codeSize="102 b", stackSize="256 b", work="1024"];
node82 -> node85;
node86 [label="BlockMultiply_83948", push="324", pop="756", peek="756", pushType="float", popType="float", peekType="float", codeSize="102 b", stackSize="256 b", work="1024"];
node82 -> node86;
node87 [label="BlockMultiply_83949", push="324", pop="756", peek="756", pushType="float", popType="float", peekType="float", codeSize="102 b", stackSize="256 b", work="1024"];
node82 -> node87;
node88 [label="BlockMultiply_83950", push="324", pop="756", peek="756", pushType="float", popType="float", peekType="float", codeSize="102 b", stackSize="256 b", work="1024"];
node82 -> node88;
node89 [label="BlockMultiply_83951", push="324", pop="756", peek="756", pushType="float", popType="float", peekType="float", codeSize="102 b", stackSize="256 b", work="1024"];
node82 -> node89;
node90 [label="BlockMultiply_83952", push="324", pop="756", peek="756", pushType="float", popType="float", peekType="float", codeSize="102 b", stackSize="256 b", work="1024"];
node82 -> node90;
node91 [label="BlockMultiply_83953", push="324", pop="756", peek="756", pushType="float", popType="float", peekType="float", codeSize="102 b", stackSize="256 b", work="1024"];
node82 -> node91;
node92 [label="BlockMultiply_83954", push="324", pop="756", peek="756", pushType="float", popType="float", peekType="float", codeSize="102 b", stackSize="256 b", work="1024"];
node82 -> node92;
node93 [label="BlockMultiply_83955", push="324", pop="756", peek="756", pushType="float", popType="float", peekType="float", codeSize="102 b", stackSize="256 b", work="1024"];
node82 -> node93;
node94 [label="BlockMultiply_83956", push="324", pop="756", peek="756", pushType="float", popType="float", peekType="float", codeSize="102 b", stackSize="256 b", work="1024"];
node82 -> node94;
node95 [label="BlockMultiply_83957", push="324", pop="756", peek="756", pushType="float", popType="float", peekType="float", codeSize="102 b", stackSize="256 b", work="1024"];
node82 -> node95;
node96 [label="BlockMultiply_83958", push="324", pop="756", peek="756", pushType="float", popType="float", peekType="float", codeSize="102 b", stackSize="256 b", work="1024"];
node82 -> node96;
node97 [label="WEIGHTED_ROUND_ROBIN_Joiner_83944", push="4536", pop="4536", peek="0", pushType="float", popType="float", peekType="void", codeSize="258 b", stackSize="480 b", work="0"];
node83 -> node97;
node84 -> node97;
node85 -> node97;
node86 -> node97;
node87 -> node97;
node88 -> node97;
node89 -> node97;
node90 -> node97;
node91 -> node97;
node92 -> node97;
node93 -> node97;
node94 -> node97;
node95 -> node97;
node96 -> node97;
node98 [label="BlockAdd_83761", push="1512", pop="4536", peek="4536", pushType="float", popType="float", peekType="float", codeSize="189 b", stackSize="96 b", work="468"];
node97 -> node98;
node99 [label="WEIGHTED_ROUND_ROBIN_Splitter_83959", push="1512", pop="1512", peek="0", pushType="float", popType="float", peekType="void", codeSize="168 b", stackSize="320 b", work="0"];
node98 -> node99;
node100 [label="Post_CollapsedDataParallel_1_83961", push="168", pop="168", peek="168", pushType="float", popType="float", peekType="float", codeSize="54 b", stackSize="96 b", work="141"];
node99 -> node100;
node101 [label="Post_CollapsedDataParallel_1_83962", push="168", pop="168", peek="168", pushType="float", popType="float", peekType="float", codeSize="54 b", stackSize="96 b", work="141"];
node99 -> node101;
node102 [label="Post_CollapsedDataParallel_1_83963", push="168", pop="168", peek="168", pushType="float", popType="float", peekType="float", codeSize="54 b", stackSize="96 b", work="141"];
node99 -> node102;
node103 [label="Post_CollapsedDataParallel_1_83964", push="168", pop="168", peek="168", pushType="float", popType="float", peekType="float", codeSize="54 b", stackSize="96 b", work="141"];
node99 -> node103;
node104 [label="Post_CollapsedDataParallel_1_83965", push="168", pop="168", peek="168", pushType="float", popType="float", peekType="float", codeSize="54 b", stackSize="96 b", work="141"];
node99 -> node104;
node105 [label="Post_CollapsedDataParallel_1_83966", push="168", pop="168", peek="168", pushType="float", popType="float", peekType="float", codeSize="54 b", stackSize="96 b", work="141"];
node99 -> node105;
node106 [label="Post_CollapsedDataParallel_1_83967", push="168", pop="168", peek="168", pushType="float", popType="float", peekType="float", codeSize="54 b", stackSize="96 b", work="141"];
node99 -> node106;
node107 [label="Post_CollapsedDataParallel_1_83968", push="168", pop="168", peek="168", pushType="float", popType="float", peekType="float", codeSize="54 b", stackSize="96 b", work="141"];
node99 -> node107;
node108 [label="Post_CollapsedDataParallel_1_83969", push="168", pop="168", peek="168", pushType="float", popType="float", peekType="float", codeSize="54 b", stackSize="96 b", work="141"];
node99 -> node108;
node109 [label="WEIGHTED_ROUND_ROBIN_Joiner_83960", push="1512", pop="1512", peek="0", pushType="float", popType="float", peekType="void", codeSize="168 b", stackSize="320 b", work="0"];
node100 -> node109;
node101 -> node109;
node102 -> node109;
node103 -> node109;
node104 -> node109;
node105 -> node109;
node106 -> node109;
node107 -> node109;
node108 -> node109;
node110 [label="Identity_83763", push="1512", pop="1512", peek="1512", pushType="float", popType="float", peekType="float", codeSize="12 b", stackSize="32 b", work="6"];
node109 -> node110;
node111 [label="WEIGHTED_ROUND_ROBIN_Splitter_83970", push="1512", pop="1512", peek="0", pushType="float", popType="float", peekType="void", codeSize="60 b", stackSize="128 b", work="0"];
node110 -> node111;
node112 [label="Pre_CollapsedDataParallel_2_83972", push="504", pop="504", peek="504", pushType="float", popType="float", peekType="float", codeSize="50 b", stackSize="96 b", work="371"];
node111 -> node112;
node113 [label="Pre_CollapsedDataParallel_2_83973", push="504", pop="504", peek="504", pushType="float", popType="float", peekType="float", codeSize="50 b", stackSize="96 b", work="371"];
node111 -> node113;
node114 [label="Pre_CollapsedDataParallel_2_83974", push="504", pop="504", peek="504", pushType="float", popType="float", peekType="float", codeSize="50 b", stackSize="96 b", work="371"];
node111 -> node114;
node115 [label="WEIGHTED_ROUND_ROBIN_Joiner_83971", push="1512", pop="1512", peek="0", pushType="float", popType="float", peekType="void", codeSize="60 b", stackSize="128 b", work="0"];
node112 -> node115;
node113 -> node115;
node114 -> node115;
node116 [label="Printer_83767", push="0", pop="1512", peek="1512", pushType="void", popType="float", peekType="float", codeSize="16 b", stackSize="0 b", work="6"];
node115 -> node116;
}
