digraph MatrixMultBlock_9353 {
node0 [label="BlockFloatSource_8874", push="16884", pop="0", peek="0", pushType="float", popType="void", peekType="void", codeSize="26 b", stackSize="0 b", work="14"];
node1 [label="WEIGHTED_ROUND_ROBIN_Splitter_9003", push="16884", pop="16884", peek="0", pushType="float", popType="float", peekType="void", codeSize="42 b", stackSize="96 b", work="0"];
node0 -> node1;
node2 [label="WEIGHTED_ROUND_ROBIN_Splitter_9011", push="9648", pop="9648", peek="0", pushType="float", popType="float", peekType="void", codeSize="222 b", stackSize="416 b", work="0"];
node1 -> node2;
node3 [label="Post_CollapsedDataParallel_1_9013", push="804", pop="804", peek="804", pushType="float", popType="float", peekType="float", codeSize="54 b", stackSize="96 b", work="143"];
node2 -> node3;
node4 [label="Post_CollapsedDataParallel_1_9014", push="804", pop="804", peek="804", pushType="float", popType="float", peekType="float", codeSize="54 b", stackSize="96 b", work="143"];
node2 -> node4;
node5 [label="Post_CollapsedDataParallel_1_9015", push="804", pop="804", peek="804", pushType="float", popType="float", peekType="float", codeSize="54 b", stackSize="96 b", work="143"];
node2 -> node5;
node6 [label="Post_CollapsedDataParallel_1_9016", push="804", pop="804", peek="804", pushType="float", popType="float", peekType="float", codeSize="54 b", stackSize="96 b", work="143"];
node2 -> node6;
node7 [label="Post_CollapsedDataParallel_1_9017", push="804", pop="804", peek="804", pushType="float", popType="float", peekType="float", codeSize="54 b", stackSize="96 b", work="143"];
node2 -> node7;
node8 [label="Post_CollapsedDataParallel_1_9018", push="804", pop="804", peek="804", pushType="float", popType="float", peekType="float", codeSize="54 b", stackSize="96 b", work="143"];
node2 -> node8;
node9 [label="Post_CollapsedDataParallel_1_9019", push="804", pop="804", peek="804", pushType="float", popType="float", peekType="float", codeSize="54 b", stackSize="96 b", work="143"];
node2 -> node9;
node10 [label="Post_CollapsedDataParallel_1_9020", push="804", pop="804", peek="804", pushType="float", popType="float", peekType="float", codeSize="54 b", stackSize="96 b", work="143"];
node2 -> node10;
node11 [label="Post_CollapsedDataParallel_1_9021", push="804", pop="804", peek="804", pushType="float", popType="float", peekType="float", codeSize="54 b", stackSize="96 b", work="143"];
node2 -> node11;
node12 [label="Post_CollapsedDataParallel_1_9022", push="804", pop="804", peek="804", pushType="float", popType="float", peekType="float", codeSize="54 b", stackSize="96 b", work="143"];
node2 -> node12;
node13 [label="Post_CollapsedDataParallel_1_9023", push="804", pop="804", peek="804", pushType="float", popType="float", peekType="float", codeSize="54 b", stackSize="96 b", work="143"];
node2 -> node13;
node14 [label="Post_CollapsedDataParallel_1_9024", push="804", pop="804", peek="804", pushType="float", popType="float", peekType="float", codeSize="54 b", stackSize="96 b", work="143"];
node2 -> node14;
node15 [label="WEIGHTED_ROUND_ROBIN_Joiner_9012", push="9648", pop="9648", peek="0", pushType="float", popType="float", peekType="void", codeSize="222 b", stackSize="416 b", work="0"];
node3 -> node15;
node4 -> node15;
node5 -> node15;
node6 -> node15;
node7 -> node15;
node8 -> node15;
node9 -> node15;
node10 -> node15;
node11 -> node15;
node12 -> node15;
node13 -> node15;
node14 -> node15;
node16 [label="Identity_8878", push="9648", pop="9648", peek="9648", pushType="float", popType="float", peekType="float", codeSize="12 b", stackSize="32 b", work="6"];
node15 -> node16;
node17 [label="WEIGHTED_ROUND_ROBIN_Splitter_9025", push="9648", pop="9648", peek="0", pushType="float", popType="float", peekType="void", codeSize="60 b", stackSize="128 b", work="0"];
node16 -> node17;
node18 [label="Pre_CollapsedDataParallel_2_9027", push="3216", pop="3216", peek="3216", pushType="float", popType="float", peekType="float", codeSize="50 b", stackSize="96 b", work="489"];
node17 -> node18;
node19 [label="Pre_CollapsedDataParallel_2_9028", push="3216", pop="3216", peek="3216", pushType="float", popType="float", peekType="float", codeSize="50 b", stackSize="96 b", work="489"];
node17 -> node19;
node20 [label="Pre_CollapsedDataParallel_2_9029", push="3216", pop="3216", peek="3216", pushType="float", popType="float", peekType="float", codeSize="50 b", stackSize="96 b", work="489"];
node17 -> node20;
node21 [label="WEIGHTED_ROUND_ROBIN_Joiner_9026", push="9648", pop="9648", peek="0", pushType="float", popType="float", peekType="void", codeSize="60 b", stackSize="128 b", work="0"];
node18 -> node21;
node19 -> node21;
node20 -> node21;
node22 [label="WEIGHTED_ROUND_ROBIN_Splitter_9030", push="9648", pop="9648", peek="0", pushType="float", popType="float", peekType="void", codeSize="1614 b", stackSize="32 b", work="0"];
node21 -> node22;
node23 [label="AutoGeneratedExpander_9032", push="216", pop="72", peek="72", pushType="float", popType="float", peekType="float", codeSize="32 b", stackSize="32 b", work="27"];
node22 -> node23;
node24 [label="AutoGeneratedExpander_9033", push="216", pop="72", peek="72", pushType="float", popType="float", peekType="float", codeSize="32 b", stackSize="32 b", work="27"];
node22 -> node24;
node25 [label="AutoGeneratedExpander_9034", push="216", pop="72", peek="72", pushType="float", popType="float", peekType="float", codeSize="32 b", stackSize="32 b", work="27"];
node22 -> node25;
node26 [label="AutoGeneratedExpander_9035", push="216", pop="72", peek="72", pushType="float", popType="float", peekType="float", codeSize="32 b", stackSize="32 b", work="27"];
node22 -> node26;
node27 [label="AutoGeneratedExpander_9036", push="216", pop="72", peek="72", pushType="float", popType="float", peekType="float", codeSize="32 b", stackSize="32 b", work="27"];
node22 -> node27;
node28 [label="AutoGeneratedExpander_9037", push="216", pop="72", peek="72", pushType="float", popType="float", peekType="float", codeSize="32 b", stackSize="32 b", work="27"];
node22 -> node28;
node29 [label="AutoGeneratedExpander_9038", push="216", pop="72", peek="72", pushType="float", popType="float", peekType="float", codeSize="32 b", stackSize="32 b", work="27"];
node22 -> node29;
node30 [label="AutoGeneratedExpander_9039", push="216", pop="72", peek="72", pushType="float", popType="float", peekType="float", codeSize="32 b", stackSize="32 b", work="27"];
node22 -> node30;
node31 [label="AutoGeneratedExpander_9040", push="216", pop="72", peek="72", pushType="float", popType="float", peekType="float", codeSize="32 b", stackSize="32 b", work="27"];
node22 -> node31;
node32 [label="AutoGeneratedExpander_9041", push="216", pop="72", peek="72", pushType="float", popType="float", peekType="float", codeSize="32 b", stackSize="32 b", work="27"];
node22 -> node32;
node33 [label="AutoGeneratedExpander_9042", push="216", pop="72", peek="72", pushType="float", popType="float", peekType="float", codeSize="32 b", stackSize="32 b", work="27"];
node22 -> node33;
node34 [label="AutoGeneratedExpander_9043", push="216", pop="72", peek="72", pushType="float", popType="float", peekType="float", codeSize="32 b", stackSize="32 b", work="27"];
node22 -> node34;
node35 [label="AutoGeneratedExpander_9044", push="216", pop="72", peek="72", pushType="float", popType="float", peekType="float", codeSize="32 b", stackSize="32 b", work="27"];
node22 -> node35;
node36 [label="AutoGeneratedExpander_9045", push="216", pop="72", peek="72", pushType="float", popType="float", peekType="float", codeSize="32 b", stackSize="32 b", work="27"];
node22 -> node36;
node37 [label="AutoGeneratedExpander_9046", push="216", pop="72", peek="72", pushType="float", popType="float", peekType="float", codeSize="32 b", stackSize="32 b", work="27"];
node22 -> node37;
node38 [label="AutoGeneratedExpander_9047", push="216", pop="72", peek="72", pushType="float", popType="float", peekType="float", codeSize="32 b", stackSize="32 b", work="27"];
node22 -> node38;
node39 [label="AutoGeneratedExpander_9048", push="216", pop="72", peek="72", pushType="float", popType="float", peekType="float", codeSize="32 b", stackSize="32 b", work="27"];
node22 -> node39;
node40 [label="AutoGeneratedExpander_9049", push="216", pop="72", peek="72", pushType="float", popType="float", peekType="float", codeSize="32 b", stackSize="32 b", work="27"];
node22 -> node40;
node41 [label="AutoGeneratedExpander_9050", push="216", pop="72", peek="72", pushType="float", popType="float", peekType="float", codeSize="32 b", stackSize="32 b", work="27"];
node22 -> node41;
node42 [label="AutoGeneratedExpander_9051", push="216", pop="72", peek="72", pushType="float", popType="float", peekType="float", codeSize="32 b", stackSize="32 b", work="27"];
node22 -> node42;
node43 [label="AutoGeneratedExpander_9052", push="216", pop="72", peek="72", pushType="float", popType="float", peekType="float", codeSize="32 b", stackSize="32 b", work="27"];
node22 -> node43;
node44 [label="AutoGeneratedExpander_9053", push="216", pop="72", peek="72", pushType="float", popType="float", peekType="float", codeSize="32 b", stackSize="32 b", work="27"];
node22 -> node44;
node45 [label="AutoGeneratedExpander_9054", push="216", pop="72", peek="72", pushType="float", popType="float", peekType="float", codeSize="32 b", stackSize="32 b", work="27"];
node22 -> node45;
node46 [label="AutoGeneratedExpander_9055", push="216", pop="72", peek="72", pushType="float", popType="float", peekType="float", codeSize="32 b", stackSize="32 b", work="27"];
node22 -> node46;
node47 [label="AutoGeneratedExpander_9056", push="216", pop="72", peek="72", pushType="float", popType="float", peekType="float", codeSize="32 b", stackSize="32 b", work="27"];
node22 -> node47;
node48 [label="AutoGeneratedExpander_9057", push="216", pop="72", peek="72", pushType="float", popType="float", peekType="float", codeSize="32 b", stackSize="32 b", work="27"];
node22 -> node48;
node49 [label="AutoGeneratedExpander_9058", push="216", pop="72", peek="72", pushType="float", popType="float", peekType="float", codeSize="32 b", stackSize="32 b", work="27"];
node22 -> node49;
node50 [label="AutoGeneratedExpander_9059", push="216", pop="72", peek="72", pushType="float", popType="float", peekType="float", codeSize="32 b", stackSize="32 b", work="27"];
node22 -> node50;
node51 [label="AutoGeneratedExpander_9060", push="216", pop="72", peek="72", pushType="float", popType="float", peekType="float", codeSize="32 b", stackSize="32 b", work="27"];
node22 -> node51;
node52 [label="AutoGeneratedExpander_9061", push="216", pop="72", peek="72", pushType="float", popType="float", peekType="float", codeSize="32 b", stackSize="32 b", work="27"];
node22 -> node52;
node53 [label="AutoGeneratedExpander_9062", push="216", pop="72", peek="72", pushType="float", popType="float", peekType="float", codeSize="32 b", stackSize="32 b", work="27"];
node22 -> node53;
node54 [label="AutoGeneratedExpander_9063", push="216", pop="72", peek="72", pushType="float", popType="float", peekType="float", codeSize="32 b", stackSize="32 b", work="27"];
node22 -> node54;
node55 [label="AutoGeneratedExpander_9064", push="216", pop="72", peek="72", pushType="float", popType="float", peekType="float", codeSize="32 b", stackSize="32 b", work="27"];
node22 -> node55;
node56 [label="AutoGeneratedExpander_9065", push="216", pop="72", peek="72", pushType="float", popType="float", peekType="float", codeSize="32 b", stackSize="32 b", work="27"];
node22 -> node56;
node57 [label="AutoGeneratedExpander_9066", push="216", pop="72", peek="72", pushType="float", popType="float", peekType="float", codeSize="32 b", stackSize="32 b", work="27"];
node22 -> node57;
node58 [label="AutoGeneratedExpander_9067", push="216", pop="72", peek="72", pushType="float", popType="float", peekType="float", codeSize="32 b", stackSize="32 b", work="27"];
node22 -> node58;
node59 [label="AutoGeneratedExpander_9068", push="216", pop="72", peek="72", pushType="float", popType="float", peekType="float", codeSize="32 b", stackSize="32 b", work="27"];
node22 -> node59;
node60 [label="AutoGeneratedExpander_9069", push="216", pop="72", peek="72", pushType="float", popType="float", peekType="float", codeSize="32 b", stackSize="32 b", work="27"];
node22 -> node60;
node61 [label="AutoGeneratedExpander_9070", push="216", pop="72", peek="72", pushType="float", popType="float", peekType="float", codeSize="32 b", stackSize="32 b", work="27"];
node22 -> node61;
node62 [label="AutoGeneratedExpander_9071", push="216", pop="72", peek="72", pushType="float", popType="float", peekType="float", codeSize="32 b", stackSize="32 b", work="27"];
node22 -> node62;
node63 [label="AutoGeneratedExpander_9072", push="216", pop="72", peek="72", pushType="float", popType="float", peekType="float", codeSize="32 b", stackSize="32 b", work="27"];
node22 -> node63;
node64 [label="AutoGeneratedExpander_9073", push="216", pop="72", peek="72", pushType="float", popType="float", peekType="float", codeSize="32 b", stackSize="32 b", work="27"];
node22 -> node64;
node65 [label="AutoGeneratedExpander_9074", push="216", pop="72", peek="72", pushType="float", popType="float", peekType="float", codeSize="32 b", stackSize="32 b", work="27"];
node22 -> node65;
node66 [label="AutoGeneratedExpander_9075", push="216", pop="72", peek="72", pushType="float", popType="float", peekType="float", codeSize="32 b", stackSize="32 b", work="27"];
node22 -> node66;
node67 [label="AutoGeneratedExpander_9076", push="216", pop="72", peek="72", pushType="float", popType="float", peekType="float", codeSize="32 b", stackSize="32 b", work="27"];
node22 -> node67;
node68 [label="AutoGeneratedExpander_9077", push="216", pop="72", peek="72", pushType="float", popType="float", peekType="float", codeSize="32 b", stackSize="32 b", work="27"];
node22 -> node68;
node69 [label="AutoGeneratedExpander_9078", push="216", pop="72", peek="72", pushType="float", popType="float", peekType="float", codeSize="32 b", stackSize="32 b", work="27"];
node22 -> node69;
node70 [label="AutoGeneratedExpander_9079", push="216", pop="72", peek="72", pushType="float", popType="float", peekType="float", codeSize="32 b", stackSize="32 b", work="27"];
node22 -> node70;
node71 [label="AutoGeneratedExpander_9080", push="216", pop="72", peek="72", pushType="float", popType="float", peekType="float", codeSize="32 b", stackSize="32 b", work="27"];
node22 -> node71;
node72 [label="AutoGeneratedExpander_9081", push="216", pop="72", peek="72", pushType="float", popType="float", peekType="float", codeSize="32 b", stackSize="32 b", work="27"];
node22 -> node72;
node73 [label="AutoGeneratedExpander_9082", push="216", pop="72", peek="72", pushType="float", popType="float", peekType="float", codeSize="32 b", stackSize="32 b", work="27"];
node22 -> node73;
node74 [label="AutoGeneratedExpander_9083", push="216", pop="72", peek="72", pushType="float", popType="float", peekType="float", codeSize="32 b", stackSize="32 b", work="27"];
node22 -> node74;
node75 [label="AutoGeneratedExpander_9084", push="216", pop="72", peek="72", pushType="float", popType="float", peekType="float", codeSize="32 b", stackSize="32 b", work="27"];
node22 -> node75;
node76 [label="AutoGeneratedExpander_9085", push="216", pop="72", peek="72", pushType="float", popType="float", peekType="float", codeSize="32 b", stackSize="32 b", work="27"];
node22 -> node76;
node77 [label="AutoGeneratedExpander_9086", push="216", pop="72", peek="72", pushType="float", popType="float", peekType="float", codeSize="32 b", stackSize="32 b", work="27"];
node22 -> node77;
node78 [label="AutoGeneratedExpander_9087", push="216", pop="72", peek="72", pushType="float", popType="float", peekType="float", codeSize="32 b", stackSize="32 b", work="27"];
node22 -> node78;
node79 [label="AutoGeneratedExpander_9088", push="216", pop="72", peek="72", pushType="float", popType="float", peekType="float", codeSize="32 b", stackSize="32 b", work="27"];
node22 -> node79;
node80 [label="AutoGeneratedExpander_9089", push="216", pop="72", peek="72", pushType="float", popType="float", peekType="float", codeSize="32 b", stackSize="32 b", work="27"];
node22 -> node80;
node81 [label="AutoGeneratedExpander_9090", push="216", pop="72", peek="72", pushType="float", popType="float", peekType="float", codeSize="32 b", stackSize="32 b", work="27"];
node22 -> node81;
node82 [label="AutoGeneratedExpander_9091", push="216", pop="72", peek="72", pushType="float", popType="float", peekType="float", codeSize="32 b", stackSize="32 b", work="27"];
node22 -> node82;
node83 [label="AutoGeneratedExpander_9092", push="216", pop="72", peek="72", pushType="float", popType="float", peekType="float", codeSize="32 b", stackSize="32 b", work="27"];
node22 -> node83;
node84 [label="AutoGeneratedExpander_9093", push="216", pop="72", peek="72", pushType="float", popType="float", peekType="float", codeSize="32 b", stackSize="32 b", work="27"];
node22 -> node84;
node85 [label="AutoGeneratedExpander_9094", push="216", pop="72", peek="72", pushType="float", popType="float", peekType="float", codeSize="32 b", stackSize="32 b", work="27"];
node22 -> node85;
node86 [label="AutoGeneratedExpander_9095", push="216", pop="72", peek="72", pushType="float", popType="float", peekType="float", codeSize="32 b", stackSize="32 b", work="27"];
node22 -> node86;
node87 [label="AutoGeneratedExpander_9096", push="216", pop="72", peek="72", pushType="float", popType="float", peekType="float", codeSize="32 b", stackSize="32 b", work="27"];
node22 -> node87;
node88 [label="AutoGeneratedExpander_9097", push="216", pop="72", peek="72", pushType="float", popType="float", peekType="float", codeSize="32 b", stackSize="32 b", work="27"];
node22 -> node88;
node89 [label="AutoGeneratedExpander_9098", push="216", pop="72", peek="72", pushType="float", popType="float", peekType="float", codeSize="32 b", stackSize="32 b", work="27"];
node22 -> node89;
node90 [label="AutoGeneratedExpander_9099", push="216", pop="72", peek="72", pushType="float", popType="float", peekType="float", codeSize="32 b", stackSize="32 b", work="27"];
node22 -> node90;
node91 [label="AutoGeneratedExpander_9100", push="216", pop="72", peek="72", pushType="float", popType="float", peekType="float", codeSize="32 b", stackSize="32 b", work="27"];
node22 -> node91;
node92 [label="AutoGeneratedExpander_9101", push="216", pop="72", peek="72", pushType="float", popType="float", peekType="float", codeSize="32 b", stackSize="32 b", work="27"];
node22 -> node92;
node93 [label="AutoGeneratedExpander_9102", push="216", pop="72", peek="72", pushType="float", popType="float", peekType="float", codeSize="32 b", stackSize="32 b", work="27"];
node22 -> node93;
node94 [label="AutoGeneratedExpander_9103", push="216", pop="72", peek="72", pushType="float", popType="float", peekType="float", codeSize="32 b", stackSize="32 b", work="27"];
node22 -> node94;
node95 [label="AutoGeneratedExpander_9104", push="216", pop="72", peek="72", pushType="float", popType="float", peekType="float", codeSize="32 b", stackSize="32 b", work="27"];
node22 -> node95;
node96 [label="AutoGeneratedExpander_9105", push="216", pop="72", peek="72", pushType="float", popType="float", peekType="float", codeSize="32 b", stackSize="32 b", work="27"];
node22 -> node96;
node97 [label="AutoGeneratedExpander_9106", push="216", pop="72", peek="72", pushType="float", popType="float", peekType="float", codeSize="32 b", stackSize="32 b", work="27"];
node22 -> node97;
node98 [label="AutoGeneratedExpander_9107", push="216", pop="72", peek="72", pushType="float", popType="float", peekType="float", codeSize="32 b", stackSize="32 b", work="27"];
node22 -> node98;
node99 [label="AutoGeneratedExpander_9108", push="216", pop="72", peek="72", pushType="float", popType="float", peekType="float", codeSize="32 b", stackSize="32 b", work="27"];
node22 -> node99;
node100 [label="AutoGeneratedExpander_9109", push="216", pop="72", peek="72", pushType="float", popType="float", peekType="float", codeSize="32 b", stackSize="32 b", work="27"];
node22 -> node100;
node101 [label="AutoGeneratedExpander_9110", push="216", pop="72", peek="72", pushType="float", popType="float", peekType="float", codeSize="32 b", stackSize="32 b", work="27"];
node22 -> node101;
node102 [label="AutoGeneratedExpander_9111", push="216", pop="72", peek="72", pushType="float", popType="float", peekType="float", codeSize="32 b", stackSize="32 b", work="27"];
node22 -> node102;
node103 [label="AutoGeneratedExpander_9112", push="216", pop="72", peek="72", pushType="float", popType="float", peekType="float", codeSize="32 b", stackSize="32 b", work="27"];
node22 -> node103;
node104 [label="AutoGeneratedExpander_9113", push="216", pop="72", peek="72", pushType="float", popType="float", peekType="float", codeSize="32 b", stackSize="32 b", work="27"];
node22 -> node104;
node105 [label="AutoGeneratedExpander_9114", push="216", pop="72", peek="72", pushType="float", popType="float", peekType="float", codeSize="32 b", stackSize="32 b", work="27"];
node22 -> node105;
node106 [label="AutoGeneratedExpander_9115", push="216", pop="72", peek="72", pushType="float", popType="float", peekType="float", codeSize="32 b", stackSize="32 b", work="27"];
node22 -> node106;
node107 [label="AutoGeneratedExpander_9116", push="216", pop="72", peek="72", pushType="float", popType="float", peekType="float", codeSize="32 b", stackSize="32 b", work="27"];
node22 -> node107;
node108 [label="AutoGeneratedExpander_9117", push="216", pop="72", peek="72", pushType="float", popType="float", peekType="float", codeSize="32 b", stackSize="32 b", work="27"];
node22 -> node108;
node109 [label="AutoGeneratedExpander_9118", push="216", pop="72", peek="72", pushType="float", popType="float", peekType="float", codeSize="32 b", stackSize="32 b", work="27"];
node22 -> node109;
node110 [label="AutoGeneratedExpander_9119", push="216", pop="72", peek="72", pushType="float", popType="float", peekType="float", codeSize="32 b", stackSize="32 b", work="27"];
node22 -> node110;
node111 [label="AutoGeneratedExpander_9120", push="216", pop="72", peek="72", pushType="float", popType="float", peekType="float", codeSize="32 b", stackSize="32 b", work="27"];
node22 -> node111;
node112 [label="AutoGeneratedExpander_9121", push="216", pop="72", peek="72", pushType="float", popType="float", peekType="float", codeSize="32 b", stackSize="32 b", work="27"];
node22 -> node112;
node113 [label="AutoGeneratedExpander_9122", push="216", pop="72", peek="72", pushType="float", popType="float", peekType="float", codeSize="32 b", stackSize="32 b", work="27"];
node22 -> node113;
node114 [label="AutoGeneratedExpander_9123", push="216", pop="72", peek="72", pushType="float", popType="float", peekType="float", codeSize="32 b", stackSize="32 b", work="27"];
node22 -> node114;
node115 [label="AutoGeneratedExpander_9124", push="216", pop="72", peek="72", pushType="float", popType="float", peekType="float", codeSize="32 b", stackSize="32 b", work="27"];
node22 -> node115;
node116 [label="AutoGeneratedExpander_9125", push="216", pop="72", peek="72", pushType="float", popType="float", peekType="float", codeSize="32 b", stackSize="32 b", work="27"];
node22 -> node116;
node117 [label="AutoGeneratedExpander_9126", push="216", pop="72", peek="72", pushType="float", popType="float", peekType="float", codeSize="32 b", stackSize="32 b", work="27"];
node22 -> node117;
node118 [label="AutoGeneratedExpander_9127", push="216", pop="72", peek="72", pushType="float", popType="float", peekType="float", codeSize="32 b", stackSize="32 b", work="27"];
node22 -> node118;
node119 [label="AutoGeneratedExpander_9128", push="216", pop="72", peek="72", pushType="float", popType="float", peekType="float", codeSize="32 b", stackSize="32 b", work="27"];
node22 -> node119;
node120 [label="AutoGeneratedExpander_9129", push="216", pop="72", peek="72", pushType="float", popType="float", peekType="float", codeSize="32 b", stackSize="32 b", work="27"];
node22 -> node120;
node121 [label="AutoGeneratedExpander_9130", push="216", pop="72", peek="72", pushType="float", popType="float", peekType="float", codeSize="32 b", stackSize="32 b", work="27"];
node22 -> node121;
node122 [label="AutoGeneratedExpander_9131", push="216", pop="72", peek="72", pushType="float", popType="float", peekType="float", codeSize="32 b", stackSize="32 b", work="27"];
node22 -> node122;
node123 [label="AutoGeneratedExpander_9132", push="216", pop="72", peek="72", pushType="float", popType="float", peekType="float", codeSize="32 b", stackSize="32 b", work="27"];
node22 -> node123;
node124 [label="AutoGeneratedExpander_9133", push="216", pop="72", peek="72", pushType="float", popType="float", peekType="float", codeSize="32 b", stackSize="32 b", work="27"];
node22 -> node124;
node125 [label="AutoGeneratedExpander_9134", push="216", pop="72", peek="72", pushType="float", popType="float", peekType="float", codeSize="32 b", stackSize="32 b", work="27"];
node22 -> node125;
node126 [label="AutoGeneratedExpander_9135", push="216", pop="72", peek="72", pushType="float", popType="float", peekType="float", codeSize="32 b", stackSize="32 b", work="27"];
node22 -> node126;
node127 [label="AutoGeneratedExpander_9136", push="216", pop="72", peek="72", pushType="float", popType="float", peekType="float", codeSize="32 b", stackSize="32 b", work="27"];
node22 -> node127;
node128 [label="AutoGeneratedExpander_9137", push="216", pop="72", peek="72", pushType="float", popType="float", peekType="float", codeSize="32 b", stackSize="32 b", work="27"];
node22 -> node128;
node129 [label="AutoGeneratedExpander_9138", push="216", pop="72", peek="72", pushType="float", popType="float", peekType="float", codeSize="32 b", stackSize="32 b", work="27"];
node22 -> node129;
node130 [label="AutoGeneratedExpander_9139", push="216", pop="72", peek="72", pushType="float", popType="float", peekType="float", codeSize="32 b", stackSize="32 b", work="27"];
node22 -> node130;
node131 [label="AutoGeneratedExpander_9140", push="216", pop="72", peek="72", pushType="float", popType="float", peekType="float", codeSize="32 b", stackSize="32 b", work="27"];
node22 -> node131;
node132 [label="AutoGeneratedExpander_9141", push="216", pop="72", peek="72", pushType="float", popType="float", peekType="float", codeSize="32 b", stackSize="32 b", work="27"];
node22 -> node132;
node133 [label="AutoGeneratedExpander_9142", push="216", pop="72", peek="72", pushType="float", popType="float", peekType="float", codeSize="32 b", stackSize="32 b", work="27"];
node22 -> node133;
node134 [label="AutoGeneratedExpander_9143", push="216", pop="72", peek="72", pushType="float", popType="float", peekType="float", codeSize="32 b", stackSize="32 b", work="27"];
node22 -> node134;
node135 [label="AutoGeneratedExpander_9144", push="216", pop="72", peek="72", pushType="float", popType="float", peekType="float", codeSize="32 b", stackSize="32 b", work="27"];
node22 -> node135;
node136 [label="AutoGeneratedExpander_9145", push="216", pop="72", peek="72", pushType="float", popType="float", peekType="float", codeSize="32 b", stackSize="32 b", work="27"];
node22 -> node136;
node137 [label="AutoGeneratedExpander_9146", push="216", pop="72", peek="72", pushType="float", popType="float", peekType="float", codeSize="32 b", stackSize="32 b", work="27"];
node22 -> node137;
node138 [label="AutoGeneratedExpander_9147", push="216", pop="72", peek="72", pushType="float", popType="float", peekType="float", codeSize="32 b", stackSize="32 b", work="27"];
node22 -> node138;
node139 [label="AutoGeneratedExpander_9148", push="216", pop="72", peek="72", pushType="float", popType="float", peekType="float", codeSize="32 b", stackSize="32 b", work="27"];
node22 -> node139;
node140 [label="AutoGeneratedExpander_9149", push="216", pop="72", peek="72", pushType="float", popType="float", peekType="float", codeSize="32 b", stackSize="32 b", work="27"];
node22 -> node140;
node141 [label="AutoGeneratedExpander_9150", push="216", pop="72", peek="72", pushType="float", popType="float", peekType="float", codeSize="32 b", stackSize="32 b", work="27"];
node22 -> node141;
node142 [label="AutoGeneratedExpander_9151", push="216", pop="72", peek="72", pushType="float", popType="float", peekType="float", codeSize="32 b", stackSize="32 b", work="27"];
node22 -> node142;
node143 [label="AutoGeneratedExpander_9152", push="216", pop="72", peek="72", pushType="float", popType="float", peekType="float", codeSize="32 b", stackSize="32 b", work="27"];
node22 -> node143;
node144 [label="AutoGeneratedExpander_9153", push="216", pop="72", peek="72", pushType="float", popType="float", peekType="float", codeSize="32 b", stackSize="32 b", work="27"];
node22 -> node144;
node145 [label="AutoGeneratedExpander_9154", push="216", pop="72", peek="72", pushType="float", popType="float", peekType="float", codeSize="32 b", stackSize="32 b", work="27"];
node22 -> node145;
node146 [label="AutoGeneratedExpander_9155", push="216", pop="72", peek="72", pushType="float", popType="float", peekType="float", codeSize="32 b", stackSize="32 b", work="27"];
node22 -> node146;
node147 [label="AutoGeneratedExpander_9156", push="216", pop="72", peek="72", pushType="float", popType="float", peekType="float", codeSize="32 b", stackSize="32 b", work="27"];
node22 -> node147;
node148 [label="AutoGeneratedExpander_9157", push="216", pop="72", peek="72", pushType="float", popType="float", peekType="float", codeSize="32 b", stackSize="32 b", work="27"];
node22 -> node148;
node149 [label="AutoGeneratedExpander_9158", push="216", pop="72", peek="72", pushType="float", popType="float", peekType="float", codeSize="32 b", stackSize="32 b", work="27"];
node22 -> node149;
node150 [label="AutoGeneratedExpander_9159", push="216", pop="72", peek="72", pushType="float", popType="float", peekType="float", codeSize="32 b", stackSize="32 b", work="27"];
node22 -> node150;
node151 [label="AutoGeneratedExpander_9160", push="216", pop="72", peek="72", pushType="float", popType="float", peekType="float", codeSize="32 b", stackSize="32 b", work="27"];
node22 -> node151;
node152 [label="AutoGeneratedExpander_9161", push="216", pop="72", peek="72", pushType="float", popType="float", peekType="float", codeSize="32 b", stackSize="32 b", work="27"];
node22 -> node152;
node153 [label="AutoGeneratedExpander_9162", push="216", pop="72", peek="72", pushType="float", popType="float", peekType="float", codeSize="32 b", stackSize="32 b", work="27"];
node22 -> node153;
node154 [label="AutoGeneratedExpander_9163", push="216", pop="72", peek="72", pushType="float", popType="float", peekType="float", codeSize="32 b", stackSize="32 b", work="27"];
node22 -> node154;
node155 [label="AutoGeneratedExpander_9164", push="216", pop="72", peek="72", pushType="float", popType="float", peekType="float", codeSize="32 b", stackSize="32 b", work="27"];
node22 -> node155;
node156 [label="AutoGeneratedExpander_9165", push="216", pop="72", peek="72", pushType="float", popType="float", peekType="float", codeSize="32 b", stackSize="32 b", work="27"];
node22 -> node156;
node157 [label="WEIGHTED_ROUND_ROBIN_Joiner_9031", push="28944", pop="28944", peek="0", pushType="float", popType="float", peekType="void", codeSize="2418 b", stackSize="4320 b", work="0"];
node23 -> node157;
node24 -> node157;
node25 -> node157;
node26 -> node157;
node27 -> node157;
node28 -> node157;
node29 -> node157;
node30 -> node157;
node31 -> node157;
node32 -> node157;
node33 -> node157;
node34 -> node157;
node35 -> node157;
node36 -> node157;
node37 -> node157;
node38 -> node157;
node39 -> node157;
node40 -> node157;
node41 -> node157;
node42 -> node157;
node43 -> node157;
node44 -> node157;
node45 -> node157;
node46 -> node157;
node47 -> node157;
node48 -> node157;
node49 -> node157;
node50 -> node157;
node51 -> node157;
node52 -> node157;
node53 -> node157;
node54 -> node157;
node55 -> node157;
node56 -> node157;
node57 -> node157;
node58 -> node157;
node59 -> node157;
node60 -> node157;
node61 -> node157;
node62 -> node157;
node63 -> node157;
node64 -> node157;
node65 -> node157;
node66 -> node157;
node67 -> node157;
node68 -> node157;
node69 -> node157;
node70 -> node157;
node71 -> node157;
node72 -> node157;
node73 -> node157;
node74 -> node157;
node75 -> node157;
node76 -> node157;
node77 -> node157;
node78 -> node157;
node79 -> node157;
node80 -> node157;
node81 -> node157;
node82 -> node157;
node83 -> node157;
node84 -> node157;
node85 -> node157;
node86 -> node157;
node87 -> node157;
node88 -> node157;
node89 -> node157;
node90 -> node157;
node91 -> node157;
node92 -> node157;
node93 -> node157;
node94 -> node157;
node95 -> node157;
node96 -> node157;
node97 -> node157;
node98 -> node157;
node99 -> node157;
node100 -> node157;
node101 -> node157;
node102 -> node157;
node103 -> node157;
node104 -> node157;
node105 -> node157;
node106 -> node157;
node107 -> node157;
node108 -> node157;
node109 -> node157;
node110 -> node157;
node111 -> node157;
node112 -> node157;
node113 -> node157;
node114 -> node157;
node115 -> node157;
node116 -> node157;
node117 -> node157;
node118 -> node157;
node119 -> node157;
node120 -> node157;
node121 -> node157;
node122 -> node157;
node123 -> node157;
node124 -> node157;
node125 -> node157;
node126 -> node157;
node127 -> node157;
node128 -> node157;
node129 -> node157;
node130 -> node157;
node131 -> node157;
node132 -> node157;
node133 -> node157;
node134 -> node157;
node135 -> node157;
node136 -> node157;
node137 -> node157;
node138 -> node157;
node139 -> node157;
node140 -> node157;
node141 -> node157;
node142 -> node157;
node143 -> node157;
node144 -> node157;
node145 -> node157;
node146 -> node157;
node147 -> node157;
node148 -> node157;
node149 -> node157;
node150 -> node157;
node151 -> node157;
node152 -> node157;
node153 -> node157;
node154 -> node157;
node155 -> node157;
node156 -> node157;
node158 [label="Identity_8881", push="28944", pop="28944", peek="28944", pushType="float", popType="float", peekType="float", codeSize="12 b", stackSize="32 b", work="6"];
node157 -> node158;
node159 [label="WEIGHTED_ROUND_ROBIN_Splitter_9166", push="28944", pop="28944", peek="0", pushType="float", popType="float", peekType="void", codeSize="60 b", stackSize="128 b", work="0"];
node158 -> node159;
node160 [label="Pre_CollapsedDataParallel_2_9168", push="9648", pop="9648", peek="9648", pushType="float", popType="float", peekType="float", codeSize="50 b", stackSize="96 b", work="1449"];
node159 -> node160;
node161 [label="Pre_CollapsedDataParallel_2_9169", push="9648", pop="9648", peek="9648", pushType="float", popType="float", peekType="float", codeSize="50 b", stackSize="96 b", work="1449"];
node159 -> node161;
node162 [label="Pre_CollapsedDataParallel_2_9170", push="9648", pop="9648", peek="9648", pushType="float", popType="float", peekType="float", codeSize="50 b", stackSize="96 b", work="1449"];
node159 -> node162;
node163 [label="WEIGHTED_ROUND_ROBIN_Joiner_9167", push="28944", pop="28944", peek="0", pushType="float", popType="float", peekType="void", codeSize="60 b", stackSize="128 b", work="0"];
node160 -> node163;
node161 -> node163;
node162 -> node163;
node164 [label="Identity_8885", push="7236", pop="7236", peek="7236", pushType="float", popType="float", peekType="float", codeSize="12 b", stackSize="32 b", work="6"];
node1 -> node164;
node165 [label="Pre_CollapsedDataParallel_2_8997", push="7236", pop="7236", peek="7236", pushType="float", popType="float", peekType="float", codeSize="50 b", stackSize="96 b", work="1101"];
node164 -> node165;
node166 [label="WEIGHTED_ROUND_ROBIN_Splitter_9171", push="7236", pop="7236", peek="0", pushType="float", popType="float", peekType="void", codeSize="168 b", stackSize="320 b", work="0"];
node165 -> node166;
node167 [label="Post_CollapsedDataParallel_1_9173", push="804", pop="804", peek="804", pushType="float", popType="float", peekType="float", codeSize="54 b", stackSize="96 b", work="143"];
node166 -> node167;
node168 [label="Post_CollapsedDataParallel_1_9174", push="804", pop="804", peek="804", pushType="float", popType="float", peekType="float", codeSize="54 b", stackSize="96 b", work="143"];
node166 -> node168;
node169 [label="Post_CollapsedDataParallel_1_9175", push="804", pop="804", peek="804", pushType="float", popType="float", peekType="float", codeSize="54 b", stackSize="96 b", work="143"];
node166 -> node169;
node170 [label="Post_CollapsedDataParallel_1_9176", push="804", pop="804", peek="804", pushType="float", popType="float", peekType="float", codeSize="54 b", stackSize="96 b", work="143"];
node166 -> node170;
node171 [label="Post_CollapsedDataParallel_1_9177", push="804", pop="804", peek="804", pushType="float", popType="float", peekType="float", codeSize="54 b", stackSize="96 b", work="143"];
node166 -> node171;
node172 [label="Post_CollapsedDataParallel_1_9178", push="804", pop="804", peek="804", pushType="float", popType="float", peekType="float", codeSize="54 b", stackSize="96 b", work="143"];
node166 -> node172;
node173 [label="Post_CollapsedDataParallel_1_9179", push="804", pop="804", peek="804", pushType="float", popType="float", peekType="float", codeSize="54 b", stackSize="96 b", work="143"];
node166 -> node173;
node174 [label="Post_CollapsedDataParallel_1_9180", push="804", pop="804", peek="804", pushType="float", popType="float", peekType="float", codeSize="54 b", stackSize="96 b", work="143"];
node166 -> node174;
node175 [label="Post_CollapsedDataParallel_1_9181", push="804", pop="804", peek="804", pushType="float", popType="float", peekType="float", codeSize="54 b", stackSize="96 b", work="143"];
node166 -> node175;
node176 [label="WEIGHTED_ROUND_ROBIN_Joiner_9172", push="7236", pop="7236", peek="0", pushType="float", popType="float", peekType="void", codeSize="168 b", stackSize="320 b", work="0"];
node167 -> node176;
node168 -> node176;
node169 -> node176;
node170 -> node176;
node171 -> node176;
node172 -> node176;
node173 -> node176;
node174 -> node176;
node175 -> node176;
node177 [label="Identity_8894", push="7236", pop="7236", peek="7236", pushType="float", popType="float", peekType="float", codeSize="12 b", stackSize="32 b", work="6"];
node176 -> node177;
node178 [label="WEIGHTED_ROUND_ROBIN_Splitter_9182", push="7236", pop="7236", peek="0", pushType="float", popType="float", peekType="void", codeSize="60 b", stackSize="128 b", work="0"];
node177 -> node178;
node179 [label="Pre_CollapsedDataParallel_2_9184", push="2412", pop="2412", peek="2412", pushType="float", popType="float", peekType="float", codeSize="50 b", stackSize="96 b", work="369"];
node178 -> node179;
node180 [label="Pre_CollapsedDataParallel_2_9185", push="2412", pop="2412", peek="2412", pushType="float", popType="float", peekType="float", codeSize="50 b", stackSize="96 b", work="369"];
node178 -> node180;
node181 [label="Pre_CollapsedDataParallel_2_9186", push="2412", pop="2412", peek="2412", pushType="float", popType="float", peekType="float", codeSize="50 b", stackSize="96 b", work="369"];
node178 -> node181;
node182 [label="WEIGHTED_ROUND_ROBIN_Joiner_9183", push="7236", pop="7236", peek="0", pushType="float", popType="float", peekType="void", codeSize="60 b", stackSize="128 b", work="0"];
node179 -> node182;
node180 -> node182;
node181 -> node182;
node183 [label="WEIGHTED_ROUND_ROBIN_Splitter_9187", push="7236", pop="7236", peek="0", pushType="float", popType="float", peekType="void", codeSize="1302 b", stackSize="32 b", work="0"];
node182 -> node183;
node184 [label="AutoGeneratedExpander_9189", push="201", pop="67", peek="67", pushType="float", popType="float", peekType="float", codeSize="32 b", stackSize="32 b", work="27"];
node183 -> node184;
node185 [label="AutoGeneratedExpander_9190", push="201", pop="67", peek="67", pushType="float", popType="float", peekType="float", codeSize="32 b", stackSize="32 b", work="27"];
node183 -> node185;
node186 [label="AutoGeneratedExpander_9191", push="201", pop="67", peek="67", pushType="float", popType="float", peekType="float", codeSize="32 b", stackSize="32 b", work="27"];
node183 -> node186;
node187 [label="AutoGeneratedExpander_9192", push="201", pop="67", peek="67", pushType="float", popType="float", peekType="float", codeSize="32 b", stackSize="32 b", work="27"];
node183 -> node187;
node188 [label="AutoGeneratedExpander_9193", push="201", pop="67", peek="67", pushType="float", popType="float", peekType="float", codeSize="32 b", stackSize="32 b", work="27"];
node183 -> node188;
node189 [label="AutoGeneratedExpander_9194", push="201", pop="67", peek="67", pushType="float", popType="float", peekType="float", codeSize="32 b", stackSize="32 b", work="27"];
node183 -> node189;
node190 [label="AutoGeneratedExpander_9195", push="201", pop="67", peek="67", pushType="float", popType="float", peekType="float", codeSize="32 b", stackSize="32 b", work="27"];
node183 -> node190;
node191 [label="AutoGeneratedExpander_9196", push="201", pop="67", peek="67", pushType="float", popType="float", peekType="float", codeSize="32 b", stackSize="32 b", work="27"];
node183 -> node191;
node192 [label="AutoGeneratedExpander_9197", push="201", pop="67", peek="67", pushType="float", popType="float", peekType="float", codeSize="32 b", stackSize="32 b", work="27"];
node183 -> node192;
node193 [label="AutoGeneratedExpander_9198", push="201", pop="67", peek="67", pushType="float", popType="float", peekType="float", codeSize="32 b", stackSize="32 b", work="27"];
node183 -> node193;
node194 [label="AutoGeneratedExpander_9199", push="201", pop="67", peek="67", pushType="float", popType="float", peekType="float", codeSize="32 b", stackSize="32 b", work="27"];
node183 -> node194;
node195 [label="AutoGeneratedExpander_9200", push="201", pop="67", peek="67", pushType="float", popType="float", peekType="float", codeSize="32 b", stackSize="32 b", work="27"];
node183 -> node195;
node196 [label="AutoGeneratedExpander_9201", push="201", pop="67", peek="67", pushType="float", popType="float", peekType="float", codeSize="32 b", stackSize="32 b", work="27"];
node183 -> node196;
node197 [label="AutoGeneratedExpander_9202", push="201", pop="67", peek="67", pushType="float", popType="float", peekType="float", codeSize="32 b", stackSize="32 b", work="27"];
node183 -> node197;
node198 [label="AutoGeneratedExpander_9203", push="201", pop="67", peek="67", pushType="float", popType="float", peekType="float", codeSize="32 b", stackSize="32 b", work="27"];
node183 -> node198;
node199 [label="AutoGeneratedExpander_9204", push="201", pop="67", peek="67", pushType="float", popType="float", peekType="float", codeSize="32 b", stackSize="32 b", work="27"];
node183 -> node199;
node200 [label="AutoGeneratedExpander_9205", push="201", pop="67", peek="67", pushType="float", popType="float", peekType="float", codeSize="32 b", stackSize="32 b", work="27"];
node183 -> node200;
node201 [label="AutoGeneratedExpander_9206", push="201", pop="67", peek="67", pushType="float", popType="float", peekType="float", codeSize="32 b", stackSize="32 b", work="27"];
node183 -> node201;
node202 [label="AutoGeneratedExpander_9207", push="201", pop="67", peek="67", pushType="float", popType="float", peekType="float", codeSize="32 b", stackSize="32 b", work="27"];
node183 -> node202;
node203 [label="AutoGeneratedExpander_9208", push="201", pop="67", peek="67", pushType="float", popType="float", peekType="float", codeSize="32 b", stackSize="32 b", work="27"];
node183 -> node203;
node204 [label="AutoGeneratedExpander_9209", push="201", pop="67", peek="67", pushType="float", popType="float", peekType="float", codeSize="32 b", stackSize="32 b", work="27"];
node183 -> node204;
node205 [label="AutoGeneratedExpander_9210", push="201", pop="67", peek="67", pushType="float", popType="float", peekType="float", codeSize="32 b", stackSize="32 b", work="27"];
node183 -> node205;
node206 [label="AutoGeneratedExpander_9211", push="201", pop="67", peek="67", pushType="float", popType="float", peekType="float", codeSize="32 b", stackSize="32 b", work="27"];
node183 -> node206;
node207 [label="AutoGeneratedExpander_9212", push="201", pop="67", peek="67", pushType="float", popType="float", peekType="float", codeSize="32 b", stackSize="32 b", work="27"];
node183 -> node207;
node208 [label="AutoGeneratedExpander_9213", push="201", pop="67", peek="67", pushType="float", popType="float", peekType="float", codeSize="32 b", stackSize="32 b", work="27"];
node183 -> node208;
node209 [label="AutoGeneratedExpander_9214", push="201", pop="67", peek="67", pushType="float", popType="float", peekType="float", codeSize="32 b", stackSize="32 b", work="27"];
node183 -> node209;
node210 [label="AutoGeneratedExpander_9215", push="201", pop="67", peek="67", pushType="float", popType="float", peekType="float", codeSize="32 b", stackSize="32 b", work="27"];
node183 -> node210;
node211 [label="AutoGeneratedExpander_9216", push="201", pop="67", peek="67", pushType="float", popType="float", peekType="float", codeSize="32 b", stackSize="32 b", work="27"];
node183 -> node211;
node212 [label="AutoGeneratedExpander_9217", push="201", pop="67", peek="67", pushType="float", popType="float", peekType="float", codeSize="32 b", stackSize="32 b", work="27"];
node183 -> node212;
node213 [label="AutoGeneratedExpander_9218", push="201", pop="67", peek="67", pushType="float", popType="float", peekType="float", codeSize="32 b", stackSize="32 b", work="27"];
node183 -> node213;
node214 [label="AutoGeneratedExpander_9219", push="201", pop="67", peek="67", pushType="float", popType="float", peekType="float", codeSize="32 b", stackSize="32 b", work="27"];
node183 -> node214;
node215 [label="AutoGeneratedExpander_9220", push="201", pop="67", peek="67", pushType="float", popType="float", peekType="float", codeSize="32 b", stackSize="32 b", work="27"];
node183 -> node215;
node216 [label="AutoGeneratedExpander_9221", push="201", pop="67", peek="67", pushType="float", popType="float", peekType="float", codeSize="32 b", stackSize="32 b", work="27"];
node183 -> node216;
node217 [label="AutoGeneratedExpander_9222", push="201", pop="67", peek="67", pushType="float", popType="float", peekType="float", codeSize="32 b", stackSize="32 b", work="27"];
node183 -> node217;
node218 [label="AutoGeneratedExpander_9223", push="201", pop="67", peek="67", pushType="float", popType="float", peekType="float", codeSize="32 b", stackSize="32 b", work="27"];
node183 -> node218;
node219 [label="AutoGeneratedExpander_9224", push="201", pop="67", peek="67", pushType="float", popType="float", peekType="float", codeSize="32 b", stackSize="32 b", work="27"];
node183 -> node219;
node220 [label="AutoGeneratedExpander_9225", push="201", pop="67", peek="67", pushType="float", popType="float", peekType="float", codeSize="32 b", stackSize="32 b", work="27"];
node183 -> node220;
node221 [label="AutoGeneratedExpander_9226", push="201", pop="67", peek="67", pushType="float", popType="float", peekType="float", codeSize="32 b", stackSize="32 b", work="27"];
node183 -> node221;
node222 [label="AutoGeneratedExpander_9227", push="201", pop="67", peek="67", pushType="float", popType="float", peekType="float", codeSize="32 b", stackSize="32 b", work="27"];
node183 -> node222;
node223 [label="AutoGeneratedExpander_9228", push="201", pop="67", peek="67", pushType="float", popType="float", peekType="float", codeSize="32 b", stackSize="32 b", work="27"];
node183 -> node223;
node224 [label="AutoGeneratedExpander_9229", push="201", pop="67", peek="67", pushType="float", popType="float", peekType="float", codeSize="32 b", stackSize="32 b", work="27"];
node183 -> node224;
node225 [label="AutoGeneratedExpander_9230", push="201", pop="67", peek="67", pushType="float", popType="float", peekType="float", codeSize="32 b", stackSize="32 b", work="27"];
node183 -> node225;
node226 [label="AutoGeneratedExpander_9231", push="201", pop="67", peek="67", pushType="float", popType="float", peekType="float", codeSize="32 b", stackSize="32 b", work="27"];
node183 -> node226;
node227 [label="AutoGeneratedExpander_9232", push="201", pop="67", peek="67", pushType="float", popType="float", peekType="float", codeSize="32 b", stackSize="32 b", work="27"];
node183 -> node227;
node228 [label="AutoGeneratedExpander_9233", push="201", pop="67", peek="67", pushType="float", popType="float", peekType="float", codeSize="32 b", stackSize="32 b", work="27"];
node183 -> node228;
node229 [label="AutoGeneratedExpander_9234", push="201", pop="67", peek="67", pushType="float", popType="float", peekType="float", codeSize="32 b", stackSize="32 b", work="27"];
node183 -> node229;
node230 [label="AutoGeneratedExpander_9235", push="201", pop="67", peek="67", pushType="float", popType="float", peekType="float", codeSize="32 b", stackSize="32 b", work="27"];
node183 -> node230;
node231 [label="AutoGeneratedExpander_9236", push="201", pop="67", peek="67", pushType="float", popType="float", peekType="float", codeSize="32 b", stackSize="32 b", work="27"];
node183 -> node231;
node232 [label="AutoGeneratedExpander_9237", push="201", pop="67", peek="67", pushType="float", popType="float", peekType="float", codeSize="32 b", stackSize="32 b", work="27"];
node183 -> node232;
node233 [label="AutoGeneratedExpander_9238", push="201", pop="67", peek="67", pushType="float", popType="float", peekType="float", codeSize="32 b", stackSize="32 b", work="27"];
node183 -> node233;
node234 [label="AutoGeneratedExpander_9239", push="201", pop="67", peek="67", pushType="float", popType="float", peekType="float", codeSize="32 b", stackSize="32 b", work="27"];
node183 -> node234;
node235 [label="AutoGeneratedExpander_9240", push="201", pop="67", peek="67", pushType="float", popType="float", peekType="float", codeSize="32 b", stackSize="32 b", work="27"];
node183 -> node235;
node236 [label="AutoGeneratedExpander_9241", push="201", pop="67", peek="67", pushType="float", popType="float", peekType="float", codeSize="32 b", stackSize="32 b", work="27"];
node183 -> node236;
node237 [label="AutoGeneratedExpander_9242", push="201", pop="67", peek="67", pushType="float", popType="float", peekType="float", codeSize="32 b", stackSize="32 b", work="27"];
node183 -> node237;
node238 [label="AutoGeneratedExpander_9243", push="201", pop="67", peek="67", pushType="float", popType="float", peekType="float", codeSize="32 b", stackSize="32 b", work="27"];
node183 -> node238;
node239 [label="AutoGeneratedExpander_9244", push="201", pop="67", peek="67", pushType="float", popType="float", peekType="float", codeSize="32 b", stackSize="32 b", work="27"];
node183 -> node239;
node240 [label="AutoGeneratedExpander_9245", push="201", pop="67", peek="67", pushType="float", popType="float", peekType="float", codeSize="32 b", stackSize="32 b", work="27"];
node183 -> node240;
node241 [label="AutoGeneratedExpander_9246", push="201", pop="67", peek="67", pushType="float", popType="float", peekType="float", codeSize="32 b", stackSize="32 b", work="27"];
node183 -> node241;
node242 [label="AutoGeneratedExpander_9247", push="201", pop="67", peek="67", pushType="float", popType="float", peekType="float", codeSize="32 b", stackSize="32 b", work="27"];
node183 -> node242;
node243 [label="AutoGeneratedExpander_9248", push="201", pop="67", peek="67", pushType="float", popType="float", peekType="float", codeSize="32 b", stackSize="32 b", work="27"];
node183 -> node243;
node244 [label="AutoGeneratedExpander_9249", push="201", pop="67", peek="67", pushType="float", popType="float", peekType="float", codeSize="32 b", stackSize="32 b", work="27"];
node183 -> node244;
node245 [label="AutoGeneratedExpander_9250", push="201", pop="67", peek="67", pushType="float", popType="float", peekType="float", codeSize="32 b", stackSize="32 b", work="27"];
node183 -> node245;
node246 [label="AutoGeneratedExpander_9251", push="201", pop="67", peek="67", pushType="float", popType="float", peekType="float", codeSize="32 b", stackSize="32 b", work="27"];
node183 -> node246;
node247 [label="AutoGeneratedExpander_9252", push="201", pop="67", peek="67", pushType="float", popType="float", peekType="float", codeSize="32 b", stackSize="32 b", work="27"];
node183 -> node247;
node248 [label="AutoGeneratedExpander_9253", push="201", pop="67", peek="67", pushType="float", popType="float", peekType="float", codeSize="32 b", stackSize="32 b", work="27"];
node183 -> node248;
node249 [label="AutoGeneratedExpander_9254", push="201", pop="67", peek="67", pushType="float", popType="float", peekType="float", codeSize="32 b", stackSize="32 b", work="27"];
node183 -> node249;
node250 [label="AutoGeneratedExpander_9255", push="201", pop="67", peek="67", pushType="float", popType="float", peekType="float", codeSize="32 b", stackSize="32 b", work="27"];
node183 -> node250;
node251 [label="AutoGeneratedExpander_9256", push="201", pop="67", peek="67", pushType="float", popType="float", peekType="float", codeSize="32 b", stackSize="32 b", work="27"];
node183 -> node251;
node252 [label="AutoGeneratedExpander_9257", push="201", pop="67", peek="67", pushType="float", popType="float", peekType="float", codeSize="32 b", stackSize="32 b", work="27"];
node183 -> node252;
node253 [label="AutoGeneratedExpander_9258", push="201", pop="67", peek="67", pushType="float", popType="float", peekType="float", codeSize="32 b", stackSize="32 b", work="27"];
node183 -> node253;
node254 [label="AutoGeneratedExpander_9259", push="201", pop="67", peek="67", pushType="float", popType="float", peekType="float", codeSize="32 b", stackSize="32 b", work="27"];
node183 -> node254;
node255 [label="AutoGeneratedExpander_9260", push="201", pop="67", peek="67", pushType="float", popType="float", peekType="float", codeSize="32 b", stackSize="32 b", work="27"];
node183 -> node255;
node256 [label="AutoGeneratedExpander_9261", push="201", pop="67", peek="67", pushType="float", popType="float", peekType="float", codeSize="32 b", stackSize="32 b", work="27"];
node183 -> node256;
node257 [label="AutoGeneratedExpander_9262", push="201", pop="67", peek="67", pushType="float", popType="float", peekType="float", codeSize="32 b", stackSize="32 b", work="27"];
node183 -> node257;
node258 [label="AutoGeneratedExpander_9263", push="201", pop="67", peek="67", pushType="float", popType="float", peekType="float", codeSize="32 b", stackSize="32 b", work="27"];
node183 -> node258;
node259 [label="AutoGeneratedExpander_9264", push="201", pop="67", peek="67", pushType="float", popType="float", peekType="float", codeSize="32 b", stackSize="32 b", work="27"];
node183 -> node259;
node260 [label="AutoGeneratedExpander_9265", push="201", pop="67", peek="67", pushType="float", popType="float", peekType="float", codeSize="32 b", stackSize="32 b", work="27"];
node183 -> node260;
node261 [label="AutoGeneratedExpander_9266", push="201", pop="67", peek="67", pushType="float", popType="float", peekType="float", codeSize="32 b", stackSize="32 b", work="27"];
node183 -> node261;
node262 [label="AutoGeneratedExpander_9267", push="201", pop="67", peek="67", pushType="float", popType="float", peekType="float", codeSize="32 b", stackSize="32 b", work="27"];
node183 -> node262;
node263 [label="AutoGeneratedExpander_9268", push="201", pop="67", peek="67", pushType="float", popType="float", peekType="float", codeSize="32 b", stackSize="32 b", work="27"];
node183 -> node263;
node264 [label="AutoGeneratedExpander_9269", push="201", pop="67", peek="67", pushType="float", popType="float", peekType="float", codeSize="32 b", stackSize="32 b", work="27"];
node183 -> node264;
node265 [label="AutoGeneratedExpander_9270", push="201", pop="67", peek="67", pushType="float", popType="float", peekType="float", codeSize="32 b", stackSize="32 b", work="27"];
node183 -> node265;
node266 [label="AutoGeneratedExpander_9271", push="201", pop="67", peek="67", pushType="float", popType="float", peekType="float", codeSize="32 b", stackSize="32 b", work="27"];
node183 -> node266;
node267 [label="AutoGeneratedExpander_9272", push="201", pop="67", peek="67", pushType="float", popType="float", peekType="float", codeSize="32 b", stackSize="32 b", work="27"];
node183 -> node267;
node268 [label="AutoGeneratedExpander_9273", push="201", pop="67", peek="67", pushType="float", popType="float", peekType="float", codeSize="32 b", stackSize="32 b", work="27"];
node183 -> node268;
node269 [label="AutoGeneratedExpander_9274", push="201", pop="67", peek="67", pushType="float", popType="float", peekType="float", codeSize="32 b", stackSize="32 b", work="27"];
node183 -> node269;
node270 [label="AutoGeneratedExpander_9275", push="201", pop="67", peek="67", pushType="float", popType="float", peekType="float", codeSize="32 b", stackSize="32 b", work="27"];
node183 -> node270;
node271 [label="AutoGeneratedExpander_9276", push="201", pop="67", peek="67", pushType="float", popType="float", peekType="float", codeSize="32 b", stackSize="32 b", work="27"];
node183 -> node271;
node272 [label="AutoGeneratedExpander_9277", push="201", pop="67", peek="67", pushType="float", popType="float", peekType="float", codeSize="32 b", stackSize="32 b", work="27"];
node183 -> node272;
node273 [label="AutoGeneratedExpander_9278", push="201", pop="67", peek="67", pushType="float", popType="float", peekType="float", codeSize="32 b", stackSize="32 b", work="27"];
node183 -> node273;
node274 [label="AutoGeneratedExpander_9279", push="201", pop="67", peek="67", pushType="float", popType="float", peekType="float", codeSize="32 b", stackSize="32 b", work="27"];
node183 -> node274;
node275 [label="AutoGeneratedExpander_9280", push="201", pop="67", peek="67", pushType="float", popType="float", peekType="float", codeSize="32 b", stackSize="32 b", work="27"];
node183 -> node275;
node276 [label="AutoGeneratedExpander_9281", push="201", pop="67", peek="67", pushType="float", popType="float", peekType="float", codeSize="32 b", stackSize="32 b", work="27"];
node183 -> node276;
node277 [label="AutoGeneratedExpander_9282", push="201", pop="67", peek="67", pushType="float", popType="float", peekType="float", codeSize="32 b", stackSize="32 b", work="27"];
node183 -> node277;
node278 [label="AutoGeneratedExpander_9283", push="201", pop="67", peek="67", pushType="float", popType="float", peekType="float", codeSize="32 b", stackSize="32 b", work="27"];
node183 -> node278;
node279 [label="AutoGeneratedExpander_9284", push="201", pop="67", peek="67", pushType="float", popType="float", peekType="float", codeSize="32 b", stackSize="32 b", work="27"];
node183 -> node279;
node280 [label="AutoGeneratedExpander_9285", push="201", pop="67", peek="67", pushType="float", popType="float", peekType="float", codeSize="32 b", stackSize="32 b", work="27"];
node183 -> node280;
node281 [label="AutoGeneratedExpander_9286", push="201", pop="67", peek="67", pushType="float", popType="float", peekType="float", codeSize="32 b", stackSize="32 b", work="27"];
node183 -> node281;
node282 [label="AutoGeneratedExpander_9287", push="201", pop="67", peek="67", pushType="float", popType="float", peekType="float", codeSize="32 b", stackSize="32 b", work="27"];
node183 -> node282;
node283 [label="AutoGeneratedExpander_9288", push="201", pop="67", peek="67", pushType="float", popType="float", peekType="float", codeSize="32 b", stackSize="32 b", work="27"];
node183 -> node283;
node284 [label="AutoGeneratedExpander_9289", push="201", pop="67", peek="67", pushType="float", popType="float", peekType="float", codeSize="32 b", stackSize="32 b", work="27"];
node183 -> node284;
node285 [label="AutoGeneratedExpander_9290", push="201", pop="67", peek="67", pushType="float", popType="float", peekType="float", codeSize="32 b", stackSize="32 b", work="27"];
node183 -> node285;
node286 [label="AutoGeneratedExpander_9291", push="201", pop="67", peek="67", pushType="float", popType="float", peekType="float", codeSize="32 b", stackSize="32 b", work="27"];
node183 -> node286;
node287 [label="AutoGeneratedExpander_9292", push="201", pop="67", peek="67", pushType="float", popType="float", peekType="float", codeSize="32 b", stackSize="32 b", work="27"];
node183 -> node287;
node288 [label="AutoGeneratedExpander_9293", push="201", pop="67", peek="67", pushType="float", popType="float", peekType="float", codeSize="32 b", stackSize="32 b", work="27"];
node183 -> node288;
node289 [label="AutoGeneratedExpander_9294", push="201", pop="67", peek="67", pushType="float", popType="float", peekType="float", codeSize="32 b", stackSize="32 b", work="27"];
node183 -> node289;
node290 [label="AutoGeneratedExpander_9295", push="201", pop="67", peek="67", pushType="float", popType="float", peekType="float", codeSize="32 b", stackSize="32 b", work="27"];
node183 -> node290;
node291 [label="AutoGeneratedExpander_9296", push="201", pop="67", peek="67", pushType="float", popType="float", peekType="float", codeSize="32 b", stackSize="32 b", work="27"];
node183 -> node291;
node292 [label="WEIGHTED_ROUND_ROBIN_Joiner_9188", push="21708", pop="21708", peek="0", pushType="float", popType="float", peekType="void", codeSize="1950 b", stackSize="3488 b", work="0"];
node184 -> node292;
node185 -> node292;
node186 -> node292;
node187 -> node292;
node188 -> node292;
node189 -> node292;
node190 -> node292;
node191 -> node292;
node192 -> node292;
node193 -> node292;
node194 -> node292;
node195 -> node292;
node196 -> node292;
node197 -> node292;
node198 -> node292;
node199 -> node292;
node200 -> node292;
node201 -> node292;
node202 -> node292;
node203 -> node292;
node204 -> node292;
node205 -> node292;
node206 -> node292;
node207 -> node292;
node208 -> node292;
node209 -> node292;
node210 -> node292;
node211 -> node292;
node212 -> node292;
node213 -> node292;
node214 -> node292;
node215 -> node292;
node216 -> node292;
node217 -> node292;
node218 -> node292;
node219 -> node292;
node220 -> node292;
node221 -> node292;
node222 -> node292;
node223 -> node292;
node224 -> node292;
node225 -> node292;
node226 -> node292;
node227 -> node292;
node228 -> node292;
node229 -> node292;
node230 -> node292;
node231 -> node292;
node232 -> node292;
node233 -> node292;
node234 -> node292;
node235 -> node292;
node236 -> node292;
node237 -> node292;
node238 -> node292;
node239 -> node292;
node240 -> node292;
node241 -> node292;
node242 -> node292;
node243 -> node292;
node244 -> node292;
node245 -> node292;
node246 -> node292;
node247 -> node292;
node248 -> node292;
node249 -> node292;
node250 -> node292;
node251 -> node292;
node252 -> node292;
node253 -> node292;
node254 -> node292;
node255 -> node292;
node256 -> node292;
node257 -> node292;
node258 -> node292;
node259 -> node292;
node260 -> node292;
node261 -> node292;
node262 -> node292;
node263 -> node292;
node264 -> node292;
node265 -> node292;
node266 -> node292;
node267 -> node292;
node268 -> node292;
node269 -> node292;
node270 -> node292;
node271 -> node292;
node272 -> node292;
node273 -> node292;
node274 -> node292;
node275 -> node292;
node276 -> node292;
node277 -> node292;
node278 -> node292;
node279 -> node292;
node280 -> node292;
node281 -> node292;
node282 -> node292;
node283 -> node292;
node284 -> node292;
node285 -> node292;
node286 -> node292;
node287 -> node292;
node288 -> node292;
node289 -> node292;
node290 -> node292;
node291 -> node292;
node293 [label="Identity_8897", push="21708", pop="21708", peek="21708", pushType="float", popType="float", peekType="float", codeSize="12 b", stackSize="32 b", work="6"];
node292 -> node293;
node294 [label="Pre_CollapsedDataParallel_2_9000", push="21708", pop="21708", peek="21708", pushType="float", popType="float", peekType="float", codeSize="50 b", stackSize="96 b", work="3249"];
node293 -> node294;
node295 [label="WEIGHTED_ROUND_ROBIN_Joiner_9004", push="50652", pop="50652", peek="0", pushType="float", popType="float", peekType="void", codeSize="42 b", stackSize="96 b", work="0"];
node163 -> node295;
node294 -> node295;
node296 [label="WEIGHTED_ROUND_ROBIN_Splitter_9297", push="50652", pop="50652", peek="0", pushType="float", popType="float", peekType="void", codeSize="492 b", stackSize="896 b", work="0"];
node295 -> node296;
node297 [label="BlockMultiply_9299", push="804", pop="1876", peek="1876", pushType="float", popType="float", peekType="float", codeSize="102 b", stackSize="256 b", work="1024"];
node296 -> node297;
node298 [label="BlockMultiply_9300", push="804", pop="1876", peek="1876", pushType="float", popType="float", peekType="float", codeSize="102 b", stackSize="256 b", work="1024"];
node296 -> node298;
node299 [label="BlockMultiply_9301", push="804", pop="1876", peek="1876", pushType="float", popType="float", peekType="float", codeSize="102 b", stackSize="256 b", work="1024"];
node296 -> node299;
node300 [label="BlockMultiply_9302", push="804", pop="1876", peek="1876", pushType="float", popType="float", peekType="float", codeSize="102 b", stackSize="256 b", work="1024"];
node296 -> node300;
node301 [label="BlockMultiply_9303", push="804", pop="1876", peek="1876", pushType="float", popType="float", peekType="float", codeSize="102 b", stackSize="256 b", work="1024"];
node296 -> node301;
node302 [label="BlockMultiply_9304", push="804", pop="1876", peek="1876", pushType="float", popType="float", peekType="float", codeSize="102 b", stackSize="256 b", work="1024"];
node296 -> node302;
node303 [label="BlockMultiply_9305", push="804", pop="1876", peek="1876", pushType="float", popType="float", peekType="float", codeSize="102 b", stackSize="256 b", work="1024"];
node296 -> node303;
node304 [label="BlockMultiply_9306", push="804", pop="1876", peek="1876", pushType="float", popType="float", peekType="float", codeSize="102 b", stackSize="256 b", work="1024"];
node296 -> node304;
node305 [label="BlockMultiply_9307", push="804", pop="1876", peek="1876", pushType="float", popType="float", peekType="float", codeSize="102 b", stackSize="256 b", work="1024"];
node296 -> node305;
node306 [label="BlockMultiply_9308", push="804", pop="1876", peek="1876", pushType="float", popType="float", peekType="float", codeSize="102 b", stackSize="256 b", work="1024"];
node296 -> node306;
node307 [label="BlockMultiply_9309", push="804", pop="1876", peek="1876", pushType="float", popType="float", peekType="float", codeSize="102 b", stackSize="256 b", work="1024"];
node296 -> node307;
node308 [label="BlockMultiply_9310", push="804", pop="1876", peek="1876", pushType="float", popType="float", peekType="float", codeSize="102 b", stackSize="256 b", work="1024"];
node296 -> node308;
node309 [label="BlockMultiply_9311", push="804", pop="1876", peek="1876", pushType="float", popType="float", peekType="float", codeSize="102 b", stackSize="256 b", work="1024"];
node296 -> node309;
node310 [label="BlockMultiply_9312", push="804", pop="1876", peek="1876", pushType="float", popType="float", peekType="float", codeSize="102 b", stackSize="256 b", work="1024"];
node296 -> node310;
node311 [label="BlockMultiply_9313", push="804", pop="1876", peek="1876", pushType="float", popType="float", peekType="float", codeSize="102 b", stackSize="256 b", work="1024"];
node296 -> node311;
node312 [label="BlockMultiply_9314", push="804", pop="1876", peek="1876", pushType="float", popType="float", peekType="float", codeSize="102 b", stackSize="256 b", work="1024"];
node296 -> node312;
node313 [label="BlockMultiply_9315", push="804", pop="1876", peek="1876", pushType="float", popType="float", peekType="float", codeSize="102 b", stackSize="256 b", work="1024"];
node296 -> node313;
node314 [label="BlockMultiply_9316", push="804", pop="1876", peek="1876", pushType="float", popType="float", peekType="float", codeSize="102 b", stackSize="256 b", work="1024"];
node296 -> node314;
node315 [label="BlockMultiply_9317", push="804", pop="1876", peek="1876", pushType="float", popType="float", peekType="float", codeSize="102 b", stackSize="256 b", work="1024"];
node296 -> node315;
node316 [label="BlockMultiply_9318", push="804", pop="1876", peek="1876", pushType="float", popType="float", peekType="float", codeSize="102 b", stackSize="256 b", work="1024"];
node296 -> node316;
node317 [label="BlockMultiply_9319", push="804", pop="1876", peek="1876", pushType="float", popType="float", peekType="float", codeSize="102 b", stackSize="256 b", work="1024"];
node296 -> node317;
node318 [label="BlockMultiply_9320", push="804", pop="1876", peek="1876", pushType="float", popType="float", peekType="float", codeSize="102 b", stackSize="256 b", work="1024"];
node296 -> node318;
node319 [label="BlockMultiply_9321", push="804", pop="1876", peek="1876", pushType="float", popType="float", peekType="float", codeSize="102 b", stackSize="256 b", work="1024"];
node296 -> node319;
node320 [label="BlockMultiply_9322", push="804", pop="1876", peek="1876", pushType="float", popType="float", peekType="float", codeSize="102 b", stackSize="256 b", work="1024"];
node296 -> node320;
node321 [label="BlockMultiply_9323", push="804", pop="1876", peek="1876", pushType="float", popType="float", peekType="float", codeSize="102 b", stackSize="256 b", work="1024"];
node296 -> node321;
node322 [label="BlockMultiply_9324", push="804", pop="1876", peek="1876", pushType="float", popType="float", peekType="float", codeSize="102 b", stackSize="256 b", work="1024"];
node296 -> node322;
node323 [label="BlockMultiply_9325", push="804", pop="1876", peek="1876", pushType="float", popType="float", peekType="float", codeSize="102 b", stackSize="256 b", work="1024"];
node296 -> node323;
node324 [label="WEIGHTED_ROUND_ROBIN_Joiner_9298", push="21708", pop="21708", peek="0", pushType="float", popType="float", peekType="void", codeSize="492 b", stackSize="896 b", work="0"];
node297 -> node324;
node298 -> node324;
node299 -> node324;
node300 -> node324;
node301 -> node324;
node302 -> node324;
node303 -> node324;
node304 -> node324;
node305 -> node324;
node306 -> node324;
node307 -> node324;
node308 -> node324;
node309 -> node324;
node310 -> node324;
node311 -> node324;
node312 -> node324;
node313 -> node324;
node314 -> node324;
node315 -> node324;
node316 -> node324;
node317 -> node324;
node318 -> node324;
node319 -> node324;
node320 -> node324;
node321 -> node324;
node322 -> node324;
node323 -> node324;
node325 [label="BlockAdd_8901", push="7236", pop="21708", peek="21708", pushType="float", popType="float", peekType="float", codeSize="189 b", stackSize="96 b", work="468"];
node324 -> node325;
node326 [label="WEIGHTED_ROUND_ROBIN_Splitter_9326", push="7236", pop="7236", peek="0", pushType="float", popType="float", peekType="void", codeSize="168 b", stackSize="320 b", work="0"];
node325 -> node326;
node327 [label="Post_CollapsedDataParallel_1_9328", push="804", pop="804", peek="804", pushType="float", popType="float", peekType="float", codeSize="54 b", stackSize="96 b", work="141"];
node326 -> node327;
node328 [label="Post_CollapsedDataParallel_1_9329", push="804", pop="804", peek="804", pushType="float", popType="float", peekType="float", codeSize="54 b", stackSize="96 b", work="141"];
node326 -> node328;
node329 [label="Post_CollapsedDataParallel_1_9330", push="804", pop="804", peek="804", pushType="float", popType="float", peekType="float", codeSize="54 b", stackSize="96 b", work="141"];
node326 -> node329;
node330 [label="Post_CollapsedDataParallel_1_9331", push="804", pop="804", peek="804", pushType="float", popType="float", peekType="float", codeSize="54 b", stackSize="96 b", work="141"];
node326 -> node330;
node331 [label="Post_CollapsedDataParallel_1_9332", push="804", pop="804", peek="804", pushType="float", popType="float", peekType="float", codeSize="54 b", stackSize="96 b", work="141"];
node326 -> node331;
node332 [label="Post_CollapsedDataParallel_1_9333", push="804", pop="804", peek="804", pushType="float", popType="float", peekType="float", codeSize="54 b", stackSize="96 b", work="141"];
node326 -> node332;
node333 [label="Post_CollapsedDataParallel_1_9334", push="804", pop="804", peek="804", pushType="float", popType="float", peekType="float", codeSize="54 b", stackSize="96 b", work="141"];
node326 -> node333;
node334 [label="Post_CollapsedDataParallel_1_9335", push="804", pop="804", peek="804", pushType="float", popType="float", peekType="float", codeSize="54 b", stackSize="96 b", work="141"];
node326 -> node334;
node335 [label="Post_CollapsedDataParallel_1_9336", push="804", pop="804", peek="804", pushType="float", popType="float", peekType="float", codeSize="54 b", stackSize="96 b", work="141"];
node326 -> node335;
node336 [label="WEIGHTED_ROUND_ROBIN_Joiner_9327", push="7236", pop="7236", peek="0", pushType="float", popType="float", peekType="void", codeSize="168 b", stackSize="320 b", work="0"];
node327 -> node336;
node328 -> node336;
node329 -> node336;
node330 -> node336;
node331 -> node336;
node332 -> node336;
node333 -> node336;
node334 -> node336;
node335 -> node336;
node337 [label="Identity_8903", push="7236", pop="7236", peek="7236", pushType="float", popType="float", peekType="float", codeSize="12 b", stackSize="32 b", work="6"];
node336 -> node337;
node338 [label="WEIGHTED_ROUND_ROBIN_Splitter_9337", push="7236", pop="7236", peek="0", pushType="float", popType="float", peekType="void", codeSize="60 b", stackSize="128 b", work="0"];
node337 -> node338;
node339 [label="Pre_CollapsedDataParallel_2_9339", push="2412", pop="2412", peek="2412", pushType="float", popType="float", peekType="float", codeSize="50 b", stackSize="96 b", work="371"];
node338 -> node339;
node340 [label="Pre_CollapsedDataParallel_2_9340", push="2412", pop="2412", peek="2412", pushType="float", popType="float", peekType="float", codeSize="50 b", stackSize="96 b", work="371"];
node338 -> node340;
node341 [label="Pre_CollapsedDataParallel_2_9341", push="2412", pop="2412", peek="2412", pushType="float", popType="float", peekType="float", codeSize="50 b", stackSize="96 b", work="371"];
node338 -> node341;
node342 [label="WEIGHTED_ROUND_ROBIN_Joiner_9338", push="7236", pop="7236", peek="0", pushType="float", popType="float", peekType="void", codeSize="60 b", stackSize="128 b", work="0"];
node339 -> node342;
node340 -> node342;
node341 -> node342;
node343 [label="Printer_8907", push="0", pop="7236", peek="7236", pushType="void", popType="float", peekType="float", codeSize="16 b", stackSize="0 b", work="6"];
node342 -> node343;
}
