digraph MatrixMultBlock_77420 {
node0 [label="BlockFloatSource_77123", push="1260", pop="0", peek="0", pushType="float", popType="void", peekType="void", codeSize="26 b", stackSize="0 b", work="14"];
node1 [label="WEIGHTED_ROUND_ROBIN_Splitter_77252", push="1260", pop="1260", peek="0", pushType="float", popType="float", peekType="void", codeSize="42 b", stackSize="96 b", work="0"];
node0 -> node1;
node2 [label="WEIGHTED_ROUND_ROBIN_Splitter_77260", push="720", pop="720", peek="0", pushType="float", popType="float", peekType="void", codeSize="222 b", stackSize="416 b", work="0"];
node1 -> node2;
node3 [label="Post_CollapsedDataParallel_1_77262", push="60", pop="60", peek="60", pushType="float", popType="float", peekType="float", codeSize="54 b", stackSize="96 b", work="143"];
node2 -> node3;
node4 [label="Post_CollapsedDataParallel_1_77263", push="60", pop="60", peek="60", pushType="float", popType="float", peekType="float", codeSize="54 b", stackSize="96 b", work="143"];
node2 -> node4;
node5 [label="Post_CollapsedDataParallel_1_77264", push="60", pop="60", peek="60", pushType="float", popType="float", peekType="float", codeSize="54 b", stackSize="96 b", work="143"];
node2 -> node5;
node6 [label="Post_CollapsedDataParallel_1_77265", push="60", pop="60", peek="60", pushType="float", popType="float", peekType="float", codeSize="54 b", stackSize="96 b", work="143"];
node2 -> node6;
node7 [label="Post_CollapsedDataParallel_1_77266", push="60", pop="60", peek="60", pushType="float", popType="float", peekType="float", codeSize="54 b", stackSize="96 b", work="143"];
node2 -> node7;
node8 [label="Post_CollapsedDataParallel_1_77267", push="60", pop="60", peek="60", pushType="float", popType="float", peekType="float", codeSize="54 b", stackSize="96 b", work="143"];
node2 -> node8;
node9 [label="Post_CollapsedDataParallel_1_77268", push="60", pop="60", peek="60", pushType="float", popType="float", peekType="float", codeSize="54 b", stackSize="96 b", work="143"];
node2 -> node9;
node10 [label="Post_CollapsedDataParallel_1_77269", push="60", pop="60", peek="60", pushType="float", popType="float", peekType="float", codeSize="54 b", stackSize="96 b", work="143"];
node2 -> node10;
node11 [label="Post_CollapsedDataParallel_1_77270", push="60", pop="60", peek="60", pushType="float", popType="float", peekType="float", codeSize="54 b", stackSize="96 b", work="143"];
node2 -> node11;
node12 [label="Post_CollapsedDataParallel_1_77271", push="60", pop="60", peek="60", pushType="float", popType="float", peekType="float", codeSize="54 b", stackSize="96 b", work="143"];
node2 -> node12;
node13 [label="Post_CollapsedDataParallel_1_77272", push="60", pop="60", peek="60", pushType="float", popType="float", peekType="float", codeSize="54 b", stackSize="96 b", work="143"];
node2 -> node13;
node14 [label="Post_CollapsedDataParallel_1_77273", push="60", pop="60", peek="60", pushType="float", popType="float", peekType="float", codeSize="54 b", stackSize="96 b", work="143"];
node2 -> node14;
node15 [label="WEIGHTED_ROUND_ROBIN_Joiner_77261", push="720", pop="720", peek="0", pushType="float", popType="float", peekType="void", codeSize="222 b", stackSize="416 b", work="0"];
node3 -> node15;
node4 -> node15;
node5 -> node15;
node6 -> node15;
node7 -> node15;
node8 -> node15;
node9 -> node15;
node10 -> node15;
node11 -> node15;
node12 -> node15;
node13 -> node15;
node14 -> node15;
node16 [label="Identity_77127", push="720", pop="720", peek="720", pushType="float", popType="float", peekType="float", codeSize="12 b", stackSize="32 b", work="6"];
node15 -> node16;
node17 [label="WEIGHTED_ROUND_ROBIN_Splitter_77274", push="720", pop="720", peek="0", pushType="float", popType="float", peekType="void", codeSize="60 b", stackSize="128 b", work="0"];
node16 -> node17;
node18 [label="Pre_CollapsedDataParallel_2_77276", push="240", pop="240", peek="240", pushType="float", popType="float", peekType="float", codeSize="50 b", stackSize="96 b", work="489"];
node17 -> node18;
node19 [label="Pre_CollapsedDataParallel_2_77277", push="240", pop="240", peek="240", pushType="float", popType="float", peekType="float", codeSize="50 b", stackSize="96 b", work="489"];
node17 -> node19;
node20 [label="Pre_CollapsedDataParallel_2_77278", push="240", pop="240", peek="240", pushType="float", popType="float", peekType="float", codeSize="50 b", stackSize="96 b", work="489"];
node17 -> node20;
node21 [label="WEIGHTED_ROUND_ROBIN_Joiner_77275", push="720", pop="720", peek="0", pushType="float", popType="float", peekType="void", codeSize="60 b", stackSize="128 b", work="0"];
node18 -> node21;
node19 -> node21;
node20 -> node21;
node22 [label="WEIGHTED_ROUND_ROBIN_Splitter_77279", push="720", pop="720", peek="0", pushType="float", popType="float", peekType="void", codeSize="366 b", stackSize="32 b", work="0"];
node21 -> node22;
node23 [label="AutoGeneratedExpander_77281", push="72", pop="24", peek="24", pushType="float", popType="float", peekType="float", codeSize="32 b", stackSize="32 b", work="27"];
node22 -> node23;
node24 [label="AutoGeneratedExpander_77282", push="72", pop="24", peek="24", pushType="float", popType="float", peekType="float", codeSize="32 b", stackSize="32 b", work="27"];
node22 -> node24;
node25 [label="AutoGeneratedExpander_77283", push="72", pop="24", peek="24", pushType="float", popType="float", peekType="float", codeSize="32 b", stackSize="32 b", work="27"];
node22 -> node25;
node26 [label="AutoGeneratedExpander_77284", push="72", pop="24", peek="24", pushType="float", popType="float", peekType="float", codeSize="32 b", stackSize="32 b", work="27"];
node22 -> node26;
node27 [label="AutoGeneratedExpander_77285", push="72", pop="24", peek="24", pushType="float", popType="float", peekType="float", codeSize="32 b", stackSize="32 b", work="27"];
node22 -> node27;
node28 [label="AutoGeneratedExpander_77286", push="72", pop="24", peek="24", pushType="float", popType="float", peekType="float", codeSize="32 b", stackSize="32 b", work="27"];
node22 -> node28;
node29 [label="AutoGeneratedExpander_77287", push="72", pop="24", peek="24", pushType="float", popType="float", peekType="float", codeSize="32 b", stackSize="32 b", work="27"];
node22 -> node29;
node30 [label="AutoGeneratedExpander_77288", push="72", pop="24", peek="24", pushType="float", popType="float", peekType="float", codeSize="32 b", stackSize="32 b", work="27"];
node22 -> node30;
node31 [label="AutoGeneratedExpander_77289", push="72", pop="24", peek="24", pushType="float", popType="float", peekType="float", codeSize="32 b", stackSize="32 b", work="27"];
node22 -> node31;
node32 [label="AutoGeneratedExpander_77290", push="72", pop="24", peek="24", pushType="float", popType="float", peekType="float", codeSize="32 b", stackSize="32 b", work="27"];
node22 -> node32;
node33 [label="AutoGeneratedExpander_77291", push="72", pop="24", peek="24", pushType="float", popType="float", peekType="float", codeSize="32 b", stackSize="32 b", work="27"];
node22 -> node33;
node34 [label="AutoGeneratedExpander_77292", push="72", pop="24", peek="24", pushType="float", popType="float", peekType="float", codeSize="32 b", stackSize="32 b", work="27"];
node22 -> node34;
node35 [label="AutoGeneratedExpander_77293", push="72", pop="24", peek="24", pushType="float", popType="float", peekType="float", codeSize="32 b", stackSize="32 b", work="27"];
node22 -> node35;
node36 [label="AutoGeneratedExpander_77294", push="72", pop="24", peek="24", pushType="float", popType="float", peekType="float", codeSize="32 b", stackSize="32 b", work="27"];
node22 -> node36;
node37 [label="AutoGeneratedExpander_77295", push="72", pop="24", peek="24", pushType="float", popType="float", peekType="float", codeSize="32 b", stackSize="32 b", work="27"];
node22 -> node37;
node38 [label="AutoGeneratedExpander_77296", push="72", pop="24", peek="24", pushType="float", popType="float", peekType="float", codeSize="32 b", stackSize="32 b", work="27"];
node22 -> node38;
node39 [label="AutoGeneratedExpander_77297", push="72", pop="24", peek="24", pushType="float", popType="float", peekType="float", codeSize="32 b", stackSize="32 b", work="27"];
node22 -> node39;
node40 [label="AutoGeneratedExpander_77298", push="72", pop="24", peek="24", pushType="float", popType="float", peekType="float", codeSize="32 b", stackSize="32 b", work="27"];
node22 -> node40;
node41 [label="AutoGeneratedExpander_77299", push="72", pop="24", peek="24", pushType="float", popType="float", peekType="float", codeSize="32 b", stackSize="32 b", work="27"];
node22 -> node41;
node42 [label="AutoGeneratedExpander_77300", push="72", pop="24", peek="24", pushType="float", popType="float", peekType="float", codeSize="32 b", stackSize="32 b", work="27"];
node22 -> node42;
node43 [label="AutoGeneratedExpander_77301", push="72", pop="24", peek="24", pushType="float", popType="float", peekType="float", codeSize="32 b", stackSize="32 b", work="27"];
node22 -> node43;
node44 [label="AutoGeneratedExpander_77302", push="72", pop="24", peek="24", pushType="float", popType="float", peekType="float", codeSize="32 b", stackSize="32 b", work="27"];
node22 -> node44;
node45 [label="AutoGeneratedExpander_77303", push="72", pop="24", peek="24", pushType="float", popType="float", peekType="float", codeSize="32 b", stackSize="32 b", work="27"];
node22 -> node45;
node46 [label="AutoGeneratedExpander_77304", push="72", pop="24", peek="24", pushType="float", popType="float", peekType="float", codeSize="32 b", stackSize="32 b", work="27"];
node22 -> node46;
node47 [label="AutoGeneratedExpander_77305", push="72", pop="24", peek="24", pushType="float", popType="float", peekType="float", codeSize="32 b", stackSize="32 b", work="27"];
node22 -> node47;
node48 [label="AutoGeneratedExpander_77306", push="72", pop="24", peek="24", pushType="float", popType="float", peekType="float", codeSize="32 b", stackSize="32 b", work="27"];
node22 -> node48;
node49 [label="AutoGeneratedExpander_77307", push="72", pop="24", peek="24", pushType="float", popType="float", peekType="float", codeSize="32 b", stackSize="32 b", work="27"];
node22 -> node49;
node50 [label="AutoGeneratedExpander_77308", push="72", pop="24", peek="24", pushType="float", popType="float", peekType="float", codeSize="32 b", stackSize="32 b", work="27"];
node22 -> node50;
node51 [label="AutoGeneratedExpander_77309", push="72", pop="24", peek="24", pushType="float", popType="float", peekType="float", codeSize="32 b", stackSize="32 b", work="27"];
node22 -> node51;
node52 [label="AutoGeneratedExpander_77310", push="72", pop="24", peek="24", pushType="float", popType="float", peekType="float", codeSize="32 b", stackSize="32 b", work="27"];
node22 -> node52;
node53 [label="WEIGHTED_ROUND_ROBIN_Joiner_77280", push="2160", pop="2160", peek="0", pushType="float", popType="float", peekType="void", codeSize="546 b", stackSize="992 b", work="0"];
node23 -> node53;
node24 -> node53;
node25 -> node53;
node26 -> node53;
node27 -> node53;
node28 -> node53;
node29 -> node53;
node30 -> node53;
node31 -> node53;
node32 -> node53;
node33 -> node53;
node34 -> node53;
node35 -> node53;
node36 -> node53;
node37 -> node53;
node38 -> node53;
node39 -> node53;
node40 -> node53;
node41 -> node53;
node42 -> node53;
node43 -> node53;
node44 -> node53;
node45 -> node53;
node46 -> node53;
node47 -> node53;
node48 -> node53;
node49 -> node53;
node50 -> node53;
node51 -> node53;
node52 -> node53;
node54 [label="Identity_77130", push="2160", pop="2160", peek="2160", pushType="float", popType="float", peekType="float", codeSize="12 b", stackSize="32 b", work="6"];
node53 -> node54;
node55 [label="WEIGHTED_ROUND_ROBIN_Splitter_77311", push="2160", pop="2160", peek="0", pushType="float", popType="float", peekType="void", codeSize="60 b", stackSize="128 b", work="0"];
node54 -> node55;
node56 [label="Pre_CollapsedDataParallel_2_77313", push="720", pop="720", peek="720", pushType="float", popType="float", peekType="float", codeSize="50 b", stackSize="96 b", work="1449"];
node55 -> node56;
node57 [label="Pre_CollapsedDataParallel_2_77314", push="720", pop="720", peek="720", pushType="float", popType="float", peekType="float", codeSize="50 b", stackSize="96 b", work="1449"];
node55 -> node57;
node58 [label="Pre_CollapsedDataParallel_2_77315", push="720", pop="720", peek="720", pushType="float", popType="float", peekType="float", codeSize="50 b", stackSize="96 b", work="1449"];
node55 -> node58;
node59 [label="WEIGHTED_ROUND_ROBIN_Joiner_77312", push="2160", pop="2160", peek="0", pushType="float", popType="float", peekType="void", codeSize="60 b", stackSize="128 b", work="0"];
node56 -> node59;
node57 -> node59;
node58 -> node59;
node60 [label="Identity_77134", push="540", pop="540", peek="540", pushType="float", popType="float", peekType="float", codeSize="12 b", stackSize="32 b", work="6"];
node1 -> node60;
node61 [label="Pre_CollapsedDataParallel_2_77246", push="540", pop="540", peek="540", pushType="float", popType="float", peekType="float", codeSize="50 b", stackSize="96 b", work="1101"];
node60 -> node61;
node62 [label="WEIGHTED_ROUND_ROBIN_Splitter_77316", push="540", pop="540", peek="0", pushType="float", popType="float", peekType="void", codeSize="168 b", stackSize="320 b", work="0"];
node61 -> node62;
node63 [label="Post_CollapsedDataParallel_1_77318", push="60", pop="60", peek="60", pushType="float", popType="float", peekType="float", codeSize="54 b", stackSize="96 b", work="143"];
node62 -> node63;
node64 [label="Post_CollapsedDataParallel_1_77319", push="60", pop="60", peek="60", pushType="float", popType="float", peekType="float", codeSize="54 b", stackSize="96 b", work="143"];
node62 -> node64;
node65 [label="Post_CollapsedDataParallel_1_77320", push="60", pop="60", peek="60", pushType="float", popType="float", peekType="float", codeSize="54 b", stackSize="96 b", work="143"];
node62 -> node65;
node66 [label="Post_CollapsedDataParallel_1_77321", push="60", pop="60", peek="60", pushType="float", popType="float", peekType="float", codeSize="54 b", stackSize="96 b", work="143"];
node62 -> node66;
node67 [label="Post_CollapsedDataParallel_1_77322", push="60", pop="60", peek="60", pushType="float", popType="float", peekType="float", codeSize="54 b", stackSize="96 b", work="143"];
node62 -> node67;
node68 [label="Post_CollapsedDataParallel_1_77323", push="60", pop="60", peek="60", pushType="float", popType="float", peekType="float", codeSize="54 b", stackSize="96 b", work="143"];
node62 -> node68;
node69 [label="Post_CollapsedDataParallel_1_77324", push="60", pop="60", peek="60", pushType="float", popType="float", peekType="float", codeSize="54 b", stackSize="96 b", work="143"];
node62 -> node69;
node70 [label="Post_CollapsedDataParallel_1_77325", push="60", pop="60", peek="60", pushType="float", popType="float", peekType="float", codeSize="54 b", stackSize="96 b", work="143"];
node62 -> node70;
node71 [label="Post_CollapsedDataParallel_1_77326", push="60", pop="60", peek="60", pushType="float", popType="float", peekType="float", codeSize="54 b", stackSize="96 b", work="143"];
node62 -> node71;
node72 [label="WEIGHTED_ROUND_ROBIN_Joiner_77317", push="540", pop="540", peek="0", pushType="float", popType="float", peekType="void", codeSize="168 b", stackSize="320 b", work="0"];
node63 -> node72;
node64 -> node72;
node65 -> node72;
node66 -> node72;
node67 -> node72;
node68 -> node72;
node69 -> node72;
node70 -> node72;
node71 -> node72;
node73 [label="Identity_77143", push="540", pop="540", peek="540", pushType="float", popType="float", peekType="float", codeSize="12 b", stackSize="32 b", work="6"];
node72 -> node73;
node74 [label="WEIGHTED_ROUND_ROBIN_Splitter_77327", push="540", pop="540", peek="0", pushType="float", popType="float", peekType="void", codeSize="60 b", stackSize="128 b", work="0"];
node73 -> node74;
node75 [label="Pre_CollapsedDataParallel_2_77329", push="180", pop="180", peek="180", pushType="float", popType="float", peekType="float", codeSize="50 b", stackSize="96 b", work="369"];
node74 -> node75;
node76 [label="Pre_CollapsedDataParallel_2_77330", push="180", pop="180", peek="180", pushType="float", popType="float", peekType="float", codeSize="50 b", stackSize="96 b", work="369"];
node74 -> node76;
node77 [label="Pre_CollapsedDataParallel_2_77331", push="180", pop="180", peek="180", pushType="float", popType="float", peekType="float", codeSize="50 b", stackSize="96 b", work="369"];
node74 -> node77;
node78 [label="WEIGHTED_ROUND_ROBIN_Joiner_77328", push="540", pop="540", peek="0", pushType="float", popType="float", peekType="void", codeSize="60 b", stackSize="128 b", work="0"];
node75 -> node78;
node76 -> node78;
node77 -> node78;
node79 [label="WEIGHTED_ROUND_ROBIN_Splitter_77332", push="540", pop="540", peek="0", pushType="float", popType="float", peekType="void", codeSize="366 b", stackSize="32 b", work="0"];
node78 -> node79;
node80 [label="AutoGeneratedExpander_77334", push="54", pop="18", peek="18", pushType="float", popType="float", peekType="float", codeSize="32 b", stackSize="32 b", work="27"];
node79 -> node80;
node81 [label="AutoGeneratedExpander_77335", push="54", pop="18", peek="18", pushType="float", popType="float", peekType="float", codeSize="32 b", stackSize="32 b", work="27"];
node79 -> node81;
node82 [label="AutoGeneratedExpander_77336", push="54", pop="18", peek="18", pushType="float", popType="float", peekType="float", codeSize="32 b", stackSize="32 b", work="27"];
node79 -> node82;
node83 [label="AutoGeneratedExpander_77337", push="54", pop="18", peek="18", pushType="float", popType="float", peekType="float", codeSize="32 b", stackSize="32 b", work="27"];
node79 -> node83;
node84 [label="AutoGeneratedExpander_77338", push="54", pop="18", peek="18", pushType="float", popType="float", peekType="float", codeSize="32 b", stackSize="32 b", work="27"];
node79 -> node84;
node85 [label="AutoGeneratedExpander_77339", push="54", pop="18", peek="18", pushType="float", popType="float", peekType="float", codeSize="32 b", stackSize="32 b", work="27"];
node79 -> node85;
node86 [label="AutoGeneratedExpander_77340", push="54", pop="18", peek="18", pushType="float", popType="float", peekType="float", codeSize="32 b", stackSize="32 b", work="27"];
node79 -> node86;
node87 [label="AutoGeneratedExpander_77341", push="54", pop="18", peek="18", pushType="float", popType="float", peekType="float", codeSize="32 b", stackSize="32 b", work="27"];
node79 -> node87;
node88 [label="AutoGeneratedExpander_77342", push="54", pop="18", peek="18", pushType="float", popType="float", peekType="float", codeSize="32 b", stackSize="32 b", work="27"];
node79 -> node88;
node89 [label="AutoGeneratedExpander_77343", push="54", pop="18", peek="18", pushType="float", popType="float", peekType="float", codeSize="32 b", stackSize="32 b", work="27"];
node79 -> node89;
node90 [label="AutoGeneratedExpander_77344", push="54", pop="18", peek="18", pushType="float", popType="float", peekType="float", codeSize="32 b", stackSize="32 b", work="27"];
node79 -> node90;
node91 [label="AutoGeneratedExpander_77345", push="54", pop="18", peek="18", pushType="float", popType="float", peekType="float", codeSize="32 b", stackSize="32 b", work="27"];
node79 -> node91;
node92 [label="AutoGeneratedExpander_77346", push="54", pop="18", peek="18", pushType="float", popType="float", peekType="float", codeSize="32 b", stackSize="32 b", work="27"];
node79 -> node92;
node93 [label="AutoGeneratedExpander_77347", push="54", pop="18", peek="18", pushType="float", popType="float", peekType="float", codeSize="32 b", stackSize="32 b", work="27"];
node79 -> node93;
node94 [label="AutoGeneratedExpander_77348", push="54", pop="18", peek="18", pushType="float", popType="float", peekType="float", codeSize="32 b", stackSize="32 b", work="27"];
node79 -> node94;
node95 [label="AutoGeneratedExpander_77349", push="54", pop="18", peek="18", pushType="float", popType="float", peekType="float", codeSize="32 b", stackSize="32 b", work="27"];
node79 -> node95;
node96 [label="AutoGeneratedExpander_77350", push="54", pop="18", peek="18", pushType="float", popType="float", peekType="float", codeSize="32 b", stackSize="32 b", work="27"];
node79 -> node96;
node97 [label="AutoGeneratedExpander_77351", push="54", pop="18", peek="18", pushType="float", popType="float", peekType="float", codeSize="32 b", stackSize="32 b", work="27"];
node79 -> node97;
node98 [label="AutoGeneratedExpander_77352", push="54", pop="18", peek="18", pushType="float", popType="float", peekType="float", codeSize="32 b", stackSize="32 b", work="27"];
node79 -> node98;
node99 [label="AutoGeneratedExpander_77353", push="54", pop="18", peek="18", pushType="float", popType="float", peekType="float", codeSize="32 b", stackSize="32 b", work="27"];
node79 -> node99;
node100 [label="AutoGeneratedExpander_77354", push="54", pop="18", peek="18", pushType="float", popType="float", peekType="float", codeSize="32 b", stackSize="32 b", work="27"];
node79 -> node100;
node101 [label="AutoGeneratedExpander_77355", push="54", pop="18", peek="18", pushType="float", popType="float", peekType="float", codeSize="32 b", stackSize="32 b", work="27"];
node79 -> node101;
node102 [label="AutoGeneratedExpander_77356", push="54", pop="18", peek="18", pushType="float", popType="float", peekType="float", codeSize="32 b", stackSize="32 b", work="27"];
node79 -> node102;
node103 [label="AutoGeneratedExpander_77357", push="54", pop="18", peek="18", pushType="float", popType="float", peekType="float", codeSize="32 b", stackSize="32 b", work="27"];
node79 -> node103;
node104 [label="AutoGeneratedExpander_77358", push="54", pop="18", peek="18", pushType="float", popType="float", peekType="float", codeSize="32 b", stackSize="32 b", work="27"];
node79 -> node104;
node105 [label="AutoGeneratedExpander_77359", push="54", pop="18", peek="18", pushType="float", popType="float", peekType="float", codeSize="32 b", stackSize="32 b", work="27"];
node79 -> node105;
node106 [label="AutoGeneratedExpander_77360", push="54", pop="18", peek="18", pushType="float", popType="float", peekType="float", codeSize="32 b", stackSize="32 b", work="27"];
node79 -> node106;
node107 [label="AutoGeneratedExpander_77361", push="54", pop="18", peek="18", pushType="float", popType="float", peekType="float", codeSize="32 b", stackSize="32 b", work="27"];
node79 -> node107;
node108 [label="AutoGeneratedExpander_77362", push="54", pop="18", peek="18", pushType="float", popType="float", peekType="float", codeSize="32 b", stackSize="32 b", work="27"];
node79 -> node108;
node109 [label="AutoGeneratedExpander_77363", push="54", pop="18", peek="18", pushType="float", popType="float", peekType="float", codeSize="32 b", stackSize="32 b", work="27"];
node79 -> node109;
node110 [label="WEIGHTED_ROUND_ROBIN_Joiner_77333", push="1620", pop="1620", peek="0", pushType="float", popType="float", peekType="void", codeSize="546 b", stackSize="992 b", work="0"];
node80 -> node110;
node81 -> node110;
node82 -> node110;
node83 -> node110;
node84 -> node110;
node85 -> node110;
node86 -> node110;
node87 -> node110;
node88 -> node110;
node89 -> node110;
node90 -> node110;
node91 -> node110;
node92 -> node110;
node93 -> node110;
node94 -> node110;
node95 -> node110;
node96 -> node110;
node97 -> node110;
node98 -> node110;
node99 -> node110;
node100 -> node110;
node101 -> node110;
node102 -> node110;
node103 -> node110;
node104 -> node110;
node105 -> node110;
node106 -> node110;
node107 -> node110;
node108 -> node110;
node109 -> node110;
node111 [label="Identity_77146", push="1620", pop="1620", peek="1620", pushType="float", popType="float", peekType="float", codeSize="12 b", stackSize="32 b", work="6"];
node110 -> node111;
node112 [label="Pre_CollapsedDataParallel_2_77249", push="1620", pop="1620", peek="1620", pushType="float", popType="float", peekType="float", codeSize="50 b", stackSize="96 b", work="3249"];
node111 -> node112;
node113 [label="WEIGHTED_ROUND_ROBIN_Joiner_77253", push="3780", pop="3780", peek="0", pushType="float", popType="float", peekType="void", codeSize="42 b", stackSize="96 b", work="0"];
node59 -> node113;
node112 -> node113;
node114 [label="WEIGHTED_ROUND_ROBIN_Splitter_77364", push="3780", pop="3780", peek="0", pushType="float", popType="float", peekType="void", codeSize="492 b", stackSize="896 b", work="0"];
node113 -> node114;
node115 [label="BlockMultiply_77366", push="60", pop="140", peek="140", pushType="float", popType="float", peekType="float", codeSize="102 b", stackSize="256 b", work="1024"];
node114 -> node115;
node116 [label="BlockMultiply_77367", push="60", pop="140", peek="140", pushType="float", popType="float", peekType="float", codeSize="102 b", stackSize="256 b", work="1024"];
node114 -> node116;
node117 [label="BlockMultiply_77368", push="60", pop="140", peek="140", pushType="float", popType="float", peekType="float", codeSize="102 b", stackSize="256 b", work="1024"];
node114 -> node117;
node118 [label="BlockMultiply_77369", push="60", pop="140", peek="140", pushType="float", popType="float", peekType="float", codeSize="102 b", stackSize="256 b", work="1024"];
node114 -> node118;
node119 [label="BlockMultiply_77370", push="60", pop="140", peek="140", pushType="float", popType="float", peekType="float", codeSize="102 b", stackSize="256 b", work="1024"];
node114 -> node119;
node120 [label="BlockMultiply_77371", push="60", pop="140", peek="140", pushType="float", popType="float", peekType="float", codeSize="102 b", stackSize="256 b", work="1024"];
node114 -> node120;
node121 [label="BlockMultiply_77372", push="60", pop="140", peek="140", pushType="float", popType="float", peekType="float", codeSize="102 b", stackSize="256 b", work="1024"];
node114 -> node121;
node122 [label="BlockMultiply_77373", push="60", pop="140", peek="140", pushType="float", popType="float", peekType="float", codeSize="102 b", stackSize="256 b", work="1024"];
node114 -> node122;
node123 [label="BlockMultiply_77374", push="60", pop="140", peek="140", pushType="float", popType="float", peekType="float", codeSize="102 b", stackSize="256 b", work="1024"];
node114 -> node123;
node124 [label="BlockMultiply_77375", push="60", pop="140", peek="140", pushType="float", popType="float", peekType="float", codeSize="102 b", stackSize="256 b", work="1024"];
node114 -> node124;
node125 [label="BlockMultiply_77376", push="60", pop="140", peek="140", pushType="float", popType="float", peekType="float", codeSize="102 b", stackSize="256 b", work="1024"];
node114 -> node125;
node126 [label="BlockMultiply_77377", push="60", pop="140", peek="140", pushType="float", popType="float", peekType="float", codeSize="102 b", stackSize="256 b", work="1024"];
node114 -> node126;
node127 [label="BlockMultiply_77378", push="60", pop="140", peek="140", pushType="float", popType="float", peekType="float", codeSize="102 b", stackSize="256 b", work="1024"];
node114 -> node127;
node128 [label="BlockMultiply_77379", push="60", pop="140", peek="140", pushType="float", popType="float", peekType="float", codeSize="102 b", stackSize="256 b", work="1024"];
node114 -> node128;
node129 [label="BlockMultiply_77380", push="60", pop="140", peek="140", pushType="float", popType="float", peekType="float", codeSize="102 b", stackSize="256 b", work="1024"];
node114 -> node129;
node130 [label="BlockMultiply_77381", push="60", pop="140", peek="140", pushType="float", popType="float", peekType="float", codeSize="102 b", stackSize="256 b", work="1024"];
node114 -> node130;
node131 [label="BlockMultiply_77382", push="60", pop="140", peek="140", pushType="float", popType="float", peekType="float", codeSize="102 b", stackSize="256 b", work="1024"];
node114 -> node131;
node132 [label="BlockMultiply_77383", push="60", pop="140", peek="140", pushType="float", popType="float", peekType="float", codeSize="102 b", stackSize="256 b", work="1024"];
node114 -> node132;
node133 [label="BlockMultiply_77384", push="60", pop="140", peek="140", pushType="float", popType="float", peekType="float", codeSize="102 b", stackSize="256 b", work="1024"];
node114 -> node133;
node134 [label="BlockMultiply_77385", push="60", pop="140", peek="140", pushType="float", popType="float", peekType="float", codeSize="102 b", stackSize="256 b", work="1024"];
node114 -> node134;
node135 [label="BlockMultiply_77386", push="60", pop="140", peek="140", pushType="float", popType="float", peekType="float", codeSize="102 b", stackSize="256 b", work="1024"];
node114 -> node135;
node136 [label="BlockMultiply_77387", push="60", pop="140", peek="140", pushType="float", popType="float", peekType="float", codeSize="102 b", stackSize="256 b", work="1024"];
node114 -> node136;
node137 [label="BlockMultiply_77388", push="60", pop="140", peek="140", pushType="float", popType="float", peekType="float", codeSize="102 b", stackSize="256 b", work="1024"];
node114 -> node137;
node138 [label="BlockMultiply_77389", push="60", pop="140", peek="140", pushType="float", popType="float", peekType="float", codeSize="102 b", stackSize="256 b", work="1024"];
node114 -> node138;
node139 [label="BlockMultiply_77390", push="60", pop="140", peek="140", pushType="float", popType="float", peekType="float", codeSize="102 b", stackSize="256 b", work="1024"];
node114 -> node139;
node140 [label="BlockMultiply_77391", push="60", pop="140", peek="140", pushType="float", popType="float", peekType="float", codeSize="102 b", stackSize="256 b", work="1024"];
node114 -> node140;
node141 [label="BlockMultiply_77392", push="60", pop="140", peek="140", pushType="float", popType="float", peekType="float", codeSize="102 b", stackSize="256 b", work="1024"];
node114 -> node141;
node142 [label="WEIGHTED_ROUND_ROBIN_Joiner_77365", push="1620", pop="1620", peek="0", pushType="float", popType="float", peekType="void", codeSize="492 b", stackSize="896 b", work="0"];
node115 -> node142;
node116 -> node142;
node117 -> node142;
node118 -> node142;
node119 -> node142;
node120 -> node142;
node121 -> node142;
node122 -> node142;
node123 -> node142;
node124 -> node142;
node125 -> node142;
node126 -> node142;
node127 -> node142;
node128 -> node142;
node129 -> node142;
node130 -> node142;
node131 -> node142;
node132 -> node142;
node133 -> node142;
node134 -> node142;
node135 -> node142;
node136 -> node142;
node137 -> node142;
node138 -> node142;
node139 -> node142;
node140 -> node142;
node141 -> node142;
node143 [label="BlockAdd_77150", push="540", pop="1620", peek="1620", pushType="float", popType="float", peekType="float", codeSize="189 b", stackSize="96 b", work="468"];
node142 -> node143;
node144 [label="WEIGHTED_ROUND_ROBIN_Splitter_77393", push="540", pop="540", peek="0", pushType="float", popType="float", peekType="void", codeSize="168 b", stackSize="320 b", work="0"];
node143 -> node144;
node145 [label="Post_CollapsedDataParallel_1_77395", push="60", pop="60", peek="60", pushType="float", popType="float", peekType="float", codeSize="54 b", stackSize="96 b", work="141"];
node144 -> node145;
node146 [label="Post_CollapsedDataParallel_1_77396", push="60", pop="60", peek="60", pushType="float", popType="float", peekType="float", codeSize="54 b", stackSize="96 b", work="141"];
node144 -> node146;
node147 [label="Post_CollapsedDataParallel_1_77397", push="60", pop="60", peek="60", pushType="float", popType="float", peekType="float", codeSize="54 b", stackSize="96 b", work="141"];
node144 -> node147;
node148 [label="Post_CollapsedDataParallel_1_77398", push="60", pop="60", peek="60", pushType="float", popType="float", peekType="float", codeSize="54 b", stackSize="96 b", work="141"];
node144 -> node148;
node149 [label="Post_CollapsedDataParallel_1_77399", push="60", pop="60", peek="60", pushType="float", popType="float", peekType="float", codeSize="54 b", stackSize="96 b", work="141"];
node144 -> node149;
node150 [label="Post_CollapsedDataParallel_1_77400", push="60", pop="60", peek="60", pushType="float", popType="float", peekType="float", codeSize="54 b", stackSize="96 b", work="141"];
node144 -> node150;
node151 [label="Post_CollapsedDataParallel_1_77401", push="60", pop="60", peek="60", pushType="float", popType="float", peekType="float", codeSize="54 b", stackSize="96 b", work="141"];
node144 -> node151;
node152 [label="Post_CollapsedDataParallel_1_77402", push="60", pop="60", peek="60", pushType="float", popType="float", peekType="float", codeSize="54 b", stackSize="96 b", work="141"];
node144 -> node152;
node153 [label="Post_CollapsedDataParallel_1_77403", push="60", pop="60", peek="60", pushType="float", popType="float", peekType="float", codeSize="54 b", stackSize="96 b", work="141"];
node144 -> node153;
node154 [label="WEIGHTED_ROUND_ROBIN_Joiner_77394", push="540", pop="540", peek="0", pushType="float", popType="float", peekType="void", codeSize="168 b", stackSize="320 b", work="0"];
node145 -> node154;
node146 -> node154;
node147 -> node154;
node148 -> node154;
node149 -> node154;
node150 -> node154;
node151 -> node154;
node152 -> node154;
node153 -> node154;
node155 [label="Identity_77152", push="540", pop="540", peek="540", pushType="float", popType="float", peekType="float", codeSize="12 b", stackSize="32 b", work="6"];
node154 -> node155;
node156 [label="WEIGHTED_ROUND_ROBIN_Splitter_77404", push="540", pop="540", peek="0", pushType="float", popType="float", peekType="void", codeSize="60 b", stackSize="128 b", work="0"];
node155 -> node156;
node157 [label="Pre_CollapsedDataParallel_2_77406", push="180", pop="180", peek="180", pushType="float", popType="float", peekType="float", codeSize="50 b", stackSize="96 b", work="371"];
node156 -> node157;
node158 [label="Pre_CollapsedDataParallel_2_77407", push="180", pop="180", peek="180", pushType="float", popType="float", peekType="float", codeSize="50 b", stackSize="96 b", work="371"];
node156 -> node158;
node159 [label="Pre_CollapsedDataParallel_2_77408", push="180", pop="180", peek="180", pushType="float", popType="float", peekType="float", codeSize="50 b", stackSize="96 b", work="371"];
node156 -> node159;
node160 [label="WEIGHTED_ROUND_ROBIN_Joiner_77405", push="540", pop="540", peek="0", pushType="float", popType="float", peekType="void", codeSize="60 b", stackSize="128 b", work="0"];
node157 -> node160;
node158 -> node160;
node159 -> node160;
node161 [label="Printer_77156", push="0", pop="540", peek="540", pushType="void", popType="float", peekType="float", codeSize="16 b", stackSize="0 b", work="6"];
node160 -> node161;
}
