digraph MatrixMultBlock_73181 {
node0 [label="BlockFloatSource_72866", push="3276", pop="0", peek="0", pushType="float", popType="void", peekType="void", codeSize="26 b", stackSize="0 b", work="14"];
node1 [label="WEIGHTED_ROUND_ROBIN_Splitter_72995", push="3276", pop="3276", peek="0", pushType="float", popType="float", peekType="void", codeSize="42 b", stackSize="96 b", work="0"];
node0 -> node1;
node2 [label="WEIGHTED_ROUND_ROBIN_Splitter_73003", push="1872", pop="1872", peek="0", pushType="float", popType="float", peekType="void", codeSize="222 b", stackSize="416 b", work="0"];
node1 -> node2;
node3 [label="Post_CollapsedDataParallel_1_73005", push="156", pop="156", peek="156", pushType="float", popType="float", peekType="float", codeSize="54 b", stackSize="96 b", work="143"];
node2 -> node3;
node4 [label="Post_CollapsedDataParallel_1_73006", push="156", pop="156", peek="156", pushType="float", popType="float", peekType="float", codeSize="54 b", stackSize="96 b", work="143"];
node2 -> node4;
node5 [label="Post_CollapsedDataParallel_1_73007", push="156", pop="156", peek="156", pushType="float", popType="float", peekType="float", codeSize="54 b", stackSize="96 b", work="143"];
node2 -> node5;
node6 [label="Post_CollapsedDataParallel_1_73008", push="156", pop="156", peek="156", pushType="float", popType="float", peekType="float", codeSize="54 b", stackSize="96 b", work="143"];
node2 -> node6;
node7 [label="Post_CollapsedDataParallel_1_73009", push="156", pop="156", peek="156", pushType="float", popType="float", peekType="float", codeSize="54 b", stackSize="96 b", work="143"];
node2 -> node7;
node8 [label="Post_CollapsedDataParallel_1_73010", push="156", pop="156", peek="156", pushType="float", popType="float", peekType="float", codeSize="54 b", stackSize="96 b", work="143"];
node2 -> node8;
node9 [label="Post_CollapsedDataParallel_1_73011", push="156", pop="156", peek="156", pushType="float", popType="float", peekType="float", codeSize="54 b", stackSize="96 b", work="143"];
node2 -> node9;
node10 [label="Post_CollapsedDataParallel_1_73012", push="156", pop="156", peek="156", pushType="float", popType="float", peekType="float", codeSize="54 b", stackSize="96 b", work="143"];
node2 -> node10;
node11 [label="Post_CollapsedDataParallel_1_73013", push="156", pop="156", peek="156", pushType="float", popType="float", peekType="float", codeSize="54 b", stackSize="96 b", work="143"];
node2 -> node11;
node12 [label="Post_CollapsedDataParallel_1_73014", push="156", pop="156", peek="156", pushType="float", popType="float", peekType="float", codeSize="54 b", stackSize="96 b", work="143"];
node2 -> node12;
node13 [label="Post_CollapsedDataParallel_1_73015", push="156", pop="156", peek="156", pushType="float", popType="float", peekType="float", codeSize="54 b", stackSize="96 b", work="143"];
node2 -> node13;
node14 [label="Post_CollapsedDataParallel_1_73016", push="156", pop="156", peek="156", pushType="float", popType="float", peekType="float", codeSize="54 b", stackSize="96 b", work="143"];
node2 -> node14;
node15 [label="WEIGHTED_ROUND_ROBIN_Joiner_73004", push="1872", pop="1872", peek="0", pushType="float", popType="float", peekType="void", codeSize="222 b", stackSize="416 b", work="0"];
node3 -> node15;
node4 -> node15;
node5 -> node15;
node6 -> node15;
node7 -> node15;
node8 -> node15;
node9 -> node15;
node10 -> node15;
node11 -> node15;
node12 -> node15;
node13 -> node15;
node14 -> node15;
node16 [label="Identity_72870", push="1872", pop="1872", peek="1872", pushType="float", popType="float", peekType="float", codeSize="12 b", stackSize="32 b", work="6"];
node15 -> node16;
node17 [label="WEIGHTED_ROUND_ROBIN_Splitter_73017", push="1872", pop="1872", peek="0", pushType="float", popType="float", peekType="void", codeSize="60 b", stackSize="128 b", work="0"];
node16 -> node17;
node18 [label="Pre_CollapsedDataParallel_2_73019", push="624", pop="624", peek="624", pushType="float", popType="float", peekType="float", codeSize="50 b", stackSize="96 b", work="489"];
node17 -> node18;
node19 [label="Pre_CollapsedDataParallel_2_73020", push="624", pop="624", peek="624", pushType="float", popType="float", peekType="float", codeSize="50 b", stackSize="96 b", work="489"];
node17 -> node19;
node20 [label="Pre_CollapsedDataParallel_2_73021", push="624", pop="624", peek="624", pushType="float", popType="float", peekType="float", codeSize="50 b", stackSize="96 b", work="489"];
node17 -> node20;
node21 [label="WEIGHTED_ROUND_ROBIN_Joiner_73018", push="1872", pop="1872", peek="0", pushType="float", popType="float", peekType="void", codeSize="60 b", stackSize="128 b", work="0"];
node18 -> node21;
node19 -> node21;
node20 -> node21;
node22 [label="WEIGHTED_ROUND_ROBIN_Splitter_73022", push="1872", pop="1872", peek="0", pushType="float", popType="float", peekType="void", codeSize="474 b", stackSize="32 b", work="0"];
node21 -> node22;
node23 [label="AutoGeneratedExpander_73024", push="144", pop="48", peek="48", pushType="float", popType="float", peekType="float", codeSize="32 b", stackSize="32 b", work="27"];
node22 -> node23;
node24 [label="AutoGeneratedExpander_73025", push="144", pop="48", peek="48", pushType="float", popType="float", peekType="float", codeSize="32 b", stackSize="32 b", work="27"];
node22 -> node24;
node25 [label="AutoGeneratedExpander_73026", push="144", pop="48", peek="48", pushType="float", popType="float", peekType="float", codeSize="32 b", stackSize="32 b", work="27"];
node22 -> node25;
node26 [label="AutoGeneratedExpander_73027", push="144", pop="48", peek="48", pushType="float", popType="float", peekType="float", codeSize="32 b", stackSize="32 b", work="27"];
node22 -> node26;
node27 [label="AutoGeneratedExpander_73028", push="144", pop="48", peek="48", pushType="float", popType="float", peekType="float", codeSize="32 b", stackSize="32 b", work="27"];
node22 -> node27;
node28 [label="AutoGeneratedExpander_73029", push="144", pop="48", peek="48", pushType="float", popType="float", peekType="float", codeSize="32 b", stackSize="32 b", work="27"];
node22 -> node28;
node29 [label="AutoGeneratedExpander_73030", push="144", pop="48", peek="48", pushType="float", popType="float", peekType="float", codeSize="32 b", stackSize="32 b", work="27"];
node22 -> node29;
node30 [label="AutoGeneratedExpander_73031", push="144", pop="48", peek="48", pushType="float", popType="float", peekType="float", codeSize="32 b", stackSize="32 b", work="27"];
node22 -> node30;
node31 [label="AutoGeneratedExpander_73032", push="144", pop="48", peek="48", pushType="float", popType="float", peekType="float", codeSize="32 b", stackSize="32 b", work="27"];
node22 -> node31;
node32 [label="AutoGeneratedExpander_73033", push="144", pop="48", peek="48", pushType="float", popType="float", peekType="float", codeSize="32 b", stackSize="32 b", work="27"];
node22 -> node32;
node33 [label="AutoGeneratedExpander_73034", push="144", pop="48", peek="48", pushType="float", popType="float", peekType="float", codeSize="32 b", stackSize="32 b", work="27"];
node22 -> node33;
node34 [label="AutoGeneratedExpander_73035", push="144", pop="48", peek="48", pushType="float", popType="float", peekType="float", codeSize="32 b", stackSize="32 b", work="27"];
node22 -> node34;
node35 [label="AutoGeneratedExpander_73036", push="144", pop="48", peek="48", pushType="float", popType="float", peekType="float", codeSize="32 b", stackSize="32 b", work="27"];
node22 -> node35;
node36 [label="AutoGeneratedExpander_73037", push="144", pop="48", peek="48", pushType="float", popType="float", peekType="float", codeSize="32 b", stackSize="32 b", work="27"];
node22 -> node36;
node37 [label="AutoGeneratedExpander_73038", push="144", pop="48", peek="48", pushType="float", popType="float", peekType="float", codeSize="32 b", stackSize="32 b", work="27"];
node22 -> node37;
node38 [label="AutoGeneratedExpander_73039", push="144", pop="48", peek="48", pushType="float", popType="float", peekType="float", codeSize="32 b", stackSize="32 b", work="27"];
node22 -> node38;
node39 [label="AutoGeneratedExpander_73040", push="144", pop="48", peek="48", pushType="float", popType="float", peekType="float", codeSize="32 b", stackSize="32 b", work="27"];
node22 -> node39;
node40 [label="AutoGeneratedExpander_73041", push="144", pop="48", peek="48", pushType="float", popType="float", peekType="float", codeSize="32 b", stackSize="32 b", work="27"];
node22 -> node40;
node41 [label="AutoGeneratedExpander_73042", push="144", pop="48", peek="48", pushType="float", popType="float", peekType="float", codeSize="32 b", stackSize="32 b", work="27"];
node22 -> node41;
node42 [label="AutoGeneratedExpander_73043", push="144", pop="48", peek="48", pushType="float", popType="float", peekType="float", codeSize="32 b", stackSize="32 b", work="27"];
node22 -> node42;
node43 [label="AutoGeneratedExpander_73044", push="144", pop="48", peek="48", pushType="float", popType="float", peekType="float", codeSize="32 b", stackSize="32 b", work="27"];
node22 -> node43;
node44 [label="AutoGeneratedExpander_73045", push="144", pop="48", peek="48", pushType="float", popType="float", peekType="float", codeSize="32 b", stackSize="32 b", work="27"];
node22 -> node44;
node45 [label="AutoGeneratedExpander_73046", push="144", pop="48", peek="48", pushType="float", popType="float", peekType="float", codeSize="32 b", stackSize="32 b", work="27"];
node22 -> node45;
node46 [label="AutoGeneratedExpander_73047", push="144", pop="48", peek="48", pushType="float", popType="float", peekType="float", codeSize="32 b", stackSize="32 b", work="27"];
node22 -> node46;
node47 [label="AutoGeneratedExpander_73048", push="144", pop="48", peek="48", pushType="float", popType="float", peekType="float", codeSize="32 b", stackSize="32 b", work="27"];
node22 -> node47;
node48 [label="AutoGeneratedExpander_73049", push="144", pop="48", peek="48", pushType="float", popType="float", peekType="float", codeSize="32 b", stackSize="32 b", work="27"];
node22 -> node48;
node49 [label="AutoGeneratedExpander_73050", push="144", pop="48", peek="48", pushType="float", popType="float", peekType="float", codeSize="32 b", stackSize="32 b", work="27"];
node22 -> node49;
node50 [label="AutoGeneratedExpander_73051", push="144", pop="48", peek="48", pushType="float", popType="float", peekType="float", codeSize="32 b", stackSize="32 b", work="27"];
node22 -> node50;
node51 [label="AutoGeneratedExpander_73052", push="144", pop="48", peek="48", pushType="float", popType="float", peekType="float", codeSize="32 b", stackSize="32 b", work="27"];
node22 -> node51;
node52 [label="AutoGeneratedExpander_73053", push="144", pop="48", peek="48", pushType="float", popType="float", peekType="float", codeSize="32 b", stackSize="32 b", work="27"];
node22 -> node52;
node53 [label="AutoGeneratedExpander_73054", push="144", pop="48", peek="48", pushType="float", popType="float", peekType="float", codeSize="32 b", stackSize="32 b", work="27"];
node22 -> node53;
node54 [label="AutoGeneratedExpander_73055", push="144", pop="48", peek="48", pushType="float", popType="float", peekType="float", codeSize="32 b", stackSize="32 b", work="27"];
node22 -> node54;
node55 [label="AutoGeneratedExpander_73056", push="144", pop="48", peek="48", pushType="float", popType="float", peekType="float", codeSize="32 b", stackSize="32 b", work="27"];
node22 -> node55;
node56 [label="AutoGeneratedExpander_73057", push="144", pop="48", peek="48", pushType="float", popType="float", peekType="float", codeSize="32 b", stackSize="32 b", work="27"];
node22 -> node56;
node57 [label="AutoGeneratedExpander_73058", push="144", pop="48", peek="48", pushType="float", popType="float", peekType="float", codeSize="32 b", stackSize="32 b", work="27"];
node22 -> node57;
node58 [label="AutoGeneratedExpander_73059", push="144", pop="48", peek="48", pushType="float", popType="float", peekType="float", codeSize="32 b", stackSize="32 b", work="27"];
node22 -> node58;
node59 [label="AutoGeneratedExpander_73060", push="144", pop="48", peek="48", pushType="float", popType="float", peekType="float", codeSize="32 b", stackSize="32 b", work="27"];
node22 -> node59;
node60 [label="AutoGeneratedExpander_73061", push="144", pop="48", peek="48", pushType="float", popType="float", peekType="float", codeSize="32 b", stackSize="32 b", work="27"];
node22 -> node60;
node61 [label="AutoGeneratedExpander_73062", push="144", pop="48", peek="48", pushType="float", popType="float", peekType="float", codeSize="32 b", stackSize="32 b", work="27"];
node22 -> node61;
node62 [label="WEIGHTED_ROUND_ROBIN_Joiner_73023", push="5616", pop="5616", peek="0", pushType="float", popType="float", peekType="void", codeSize="708 b", stackSize="1280 b", work="0"];
node23 -> node62;
node24 -> node62;
node25 -> node62;
node26 -> node62;
node27 -> node62;
node28 -> node62;
node29 -> node62;
node30 -> node62;
node31 -> node62;
node32 -> node62;
node33 -> node62;
node34 -> node62;
node35 -> node62;
node36 -> node62;
node37 -> node62;
node38 -> node62;
node39 -> node62;
node40 -> node62;
node41 -> node62;
node42 -> node62;
node43 -> node62;
node44 -> node62;
node45 -> node62;
node46 -> node62;
node47 -> node62;
node48 -> node62;
node49 -> node62;
node50 -> node62;
node51 -> node62;
node52 -> node62;
node53 -> node62;
node54 -> node62;
node55 -> node62;
node56 -> node62;
node57 -> node62;
node58 -> node62;
node59 -> node62;
node60 -> node62;
node61 -> node62;
node63 [label="Identity_72873", push="5616", pop="5616", peek="5616", pushType="float", popType="float", peekType="float", codeSize="12 b", stackSize="32 b", work="6"];
node62 -> node63;
node64 [label="WEIGHTED_ROUND_ROBIN_Splitter_73063", push="5616", pop="5616", peek="0", pushType="float", popType="float", peekType="void", codeSize="60 b", stackSize="128 b", work="0"];
node63 -> node64;
node65 [label="Pre_CollapsedDataParallel_2_73065", push="1872", pop="1872", peek="1872", pushType="float", popType="float", peekType="float", codeSize="50 b", stackSize="96 b", work="1449"];
node64 -> node65;
node66 [label="Pre_CollapsedDataParallel_2_73066", push="1872", pop="1872", peek="1872", pushType="float", popType="float", peekType="float", codeSize="50 b", stackSize="96 b", work="1449"];
node64 -> node66;
node67 [label="Pre_CollapsedDataParallel_2_73067", push="1872", pop="1872", peek="1872", pushType="float", popType="float", peekType="float", codeSize="50 b", stackSize="96 b", work="1449"];
node64 -> node67;
node68 [label="WEIGHTED_ROUND_ROBIN_Joiner_73064", push="5616", pop="5616", peek="0", pushType="float", popType="float", peekType="void", codeSize="60 b", stackSize="128 b", work="0"];
node65 -> node68;
node66 -> node68;
node67 -> node68;
node69 [label="Identity_72877", push="1404", pop="1404", peek="1404", pushType="float", popType="float", peekType="float", codeSize="12 b", stackSize="32 b", work="6"];
node1 -> node69;
node70 [label="Pre_CollapsedDataParallel_2_72989", push="1404", pop="1404", peek="1404", pushType="float", popType="float", peekType="float", codeSize="50 b", stackSize="96 b", work="1101"];
node69 -> node70;
node71 [label="WEIGHTED_ROUND_ROBIN_Splitter_73068", push="1404", pop="1404", peek="0", pushType="float", popType="float", peekType="void", codeSize="168 b", stackSize="320 b", work="0"];
node70 -> node71;
node72 [label="Post_CollapsedDataParallel_1_73070", push="156", pop="156", peek="156", pushType="float", popType="float", peekType="float", codeSize="54 b", stackSize="96 b", work="143"];
node71 -> node72;
node73 [label="Post_CollapsedDataParallel_1_73071", push="156", pop="156", peek="156", pushType="float", popType="float", peekType="float", codeSize="54 b", stackSize="96 b", work="143"];
node71 -> node73;
node74 [label="Post_CollapsedDataParallel_1_73072", push="156", pop="156", peek="156", pushType="float", popType="float", peekType="float", codeSize="54 b", stackSize="96 b", work="143"];
node71 -> node74;
node75 [label="Post_CollapsedDataParallel_1_73073", push="156", pop="156", peek="156", pushType="float", popType="float", peekType="float", codeSize="54 b", stackSize="96 b", work="143"];
node71 -> node75;
node76 [label="Post_CollapsedDataParallel_1_73074", push="156", pop="156", peek="156", pushType="float", popType="float", peekType="float", codeSize="54 b", stackSize="96 b", work="143"];
node71 -> node76;
node77 [label="Post_CollapsedDataParallel_1_73075", push="156", pop="156", peek="156", pushType="float", popType="float", peekType="float", codeSize="54 b", stackSize="96 b", work="143"];
node71 -> node77;
node78 [label="Post_CollapsedDataParallel_1_73076", push="156", pop="156", peek="156", pushType="float", popType="float", peekType="float", codeSize="54 b", stackSize="96 b", work="143"];
node71 -> node78;
node79 [label="Post_CollapsedDataParallel_1_73077", push="156", pop="156", peek="156", pushType="float", popType="float", peekType="float", codeSize="54 b", stackSize="96 b", work="143"];
node71 -> node79;
node80 [label="Post_CollapsedDataParallel_1_73078", push="156", pop="156", peek="156", pushType="float", popType="float", peekType="float", codeSize="54 b", stackSize="96 b", work="143"];
node71 -> node80;
node81 [label="WEIGHTED_ROUND_ROBIN_Joiner_73069", push="1404", pop="1404", peek="0", pushType="float", popType="float", peekType="void", codeSize="168 b", stackSize="320 b", work="0"];
node72 -> node81;
node73 -> node81;
node74 -> node81;
node75 -> node81;
node76 -> node81;
node77 -> node81;
node78 -> node81;
node79 -> node81;
node80 -> node81;
node82 [label="Identity_72886", push="1404", pop="1404", peek="1404", pushType="float", popType="float", peekType="float", codeSize="12 b", stackSize="32 b", work="6"];
node81 -> node82;
node83 [label="WEIGHTED_ROUND_ROBIN_Splitter_73079", push="1404", pop="1404", peek="0", pushType="float", popType="float", peekType="void", codeSize="60 b", stackSize="128 b", work="0"];
node82 -> node83;
node84 [label="Pre_CollapsedDataParallel_2_73081", push="468", pop="468", peek="468", pushType="float", popType="float", peekType="float", codeSize="50 b", stackSize="96 b", work="369"];
node83 -> node84;
node85 [label="Pre_CollapsedDataParallel_2_73082", push="468", pop="468", peek="468", pushType="float", popType="float", peekType="float", codeSize="50 b", stackSize="96 b", work="369"];
node83 -> node85;
node86 [label="Pre_CollapsedDataParallel_2_73083", push="468", pop="468", peek="468", pushType="float", popType="float", peekType="float", codeSize="50 b", stackSize="96 b", work="369"];
node83 -> node86;
node87 [label="WEIGHTED_ROUND_ROBIN_Joiner_73080", push="1404", pop="1404", peek="0", pushType="float", popType="float", peekType="void", codeSize="60 b", stackSize="128 b", work="0"];
node84 -> node87;
node85 -> node87;
node86 -> node87;
node88 [label="WEIGHTED_ROUND_ROBIN_Splitter_73084", push="1404", pop="1404", peek="0", pushType="float", popType="float", peekType="void", codeSize="474 b", stackSize="32 b", work="0"];
node87 -> node88;
node89 [label="AutoGeneratedExpander_73086", push="108", pop="36", peek="36", pushType="float", popType="float", peekType="float", codeSize="32 b", stackSize="32 b", work="27"];
node88 -> node89;
node90 [label="AutoGeneratedExpander_73087", push="108", pop="36", peek="36", pushType="float", popType="float", peekType="float", codeSize="32 b", stackSize="32 b", work="27"];
node88 -> node90;
node91 [label="AutoGeneratedExpander_73088", push="108", pop="36", peek="36", pushType="float", popType="float", peekType="float", codeSize="32 b", stackSize="32 b", work="27"];
node88 -> node91;
node92 [label="AutoGeneratedExpander_73089", push="108", pop="36", peek="36", pushType="float", popType="float", peekType="float", codeSize="32 b", stackSize="32 b", work="27"];
node88 -> node92;
node93 [label="AutoGeneratedExpander_73090", push="108", pop="36", peek="36", pushType="float", popType="float", peekType="float", codeSize="32 b", stackSize="32 b", work="27"];
node88 -> node93;
node94 [label="AutoGeneratedExpander_73091", push="108", pop="36", peek="36", pushType="float", popType="float", peekType="float", codeSize="32 b", stackSize="32 b", work="27"];
node88 -> node94;
node95 [label="AutoGeneratedExpander_73092", push="108", pop="36", peek="36", pushType="float", popType="float", peekType="float", codeSize="32 b", stackSize="32 b", work="27"];
node88 -> node95;
node96 [label="AutoGeneratedExpander_73093", push="108", pop="36", peek="36", pushType="float", popType="float", peekType="float", codeSize="32 b", stackSize="32 b", work="27"];
node88 -> node96;
node97 [label="AutoGeneratedExpander_73094", push="108", pop="36", peek="36", pushType="float", popType="float", peekType="float", codeSize="32 b", stackSize="32 b", work="27"];
node88 -> node97;
node98 [label="AutoGeneratedExpander_73095", push="108", pop="36", peek="36", pushType="float", popType="float", peekType="float", codeSize="32 b", stackSize="32 b", work="27"];
node88 -> node98;
node99 [label="AutoGeneratedExpander_73096", push="108", pop="36", peek="36", pushType="float", popType="float", peekType="float", codeSize="32 b", stackSize="32 b", work="27"];
node88 -> node99;
node100 [label="AutoGeneratedExpander_73097", push="108", pop="36", peek="36", pushType="float", popType="float", peekType="float", codeSize="32 b", stackSize="32 b", work="27"];
node88 -> node100;
node101 [label="AutoGeneratedExpander_73098", push="108", pop="36", peek="36", pushType="float", popType="float", peekType="float", codeSize="32 b", stackSize="32 b", work="27"];
node88 -> node101;
node102 [label="AutoGeneratedExpander_73099", push="108", pop="36", peek="36", pushType="float", popType="float", peekType="float", codeSize="32 b", stackSize="32 b", work="27"];
node88 -> node102;
node103 [label="AutoGeneratedExpander_73100", push="108", pop="36", peek="36", pushType="float", popType="float", peekType="float", codeSize="32 b", stackSize="32 b", work="27"];
node88 -> node103;
node104 [label="AutoGeneratedExpander_73101", push="108", pop="36", peek="36", pushType="float", popType="float", peekType="float", codeSize="32 b", stackSize="32 b", work="27"];
node88 -> node104;
node105 [label="AutoGeneratedExpander_73102", push="108", pop="36", peek="36", pushType="float", popType="float", peekType="float", codeSize="32 b", stackSize="32 b", work="27"];
node88 -> node105;
node106 [label="AutoGeneratedExpander_73103", push="108", pop="36", peek="36", pushType="float", popType="float", peekType="float", codeSize="32 b", stackSize="32 b", work="27"];
node88 -> node106;
node107 [label="AutoGeneratedExpander_73104", push="108", pop="36", peek="36", pushType="float", popType="float", peekType="float", codeSize="32 b", stackSize="32 b", work="27"];
node88 -> node107;
node108 [label="AutoGeneratedExpander_73105", push="108", pop="36", peek="36", pushType="float", popType="float", peekType="float", codeSize="32 b", stackSize="32 b", work="27"];
node88 -> node108;
node109 [label="AutoGeneratedExpander_73106", push="108", pop="36", peek="36", pushType="float", popType="float", peekType="float", codeSize="32 b", stackSize="32 b", work="27"];
node88 -> node109;
node110 [label="AutoGeneratedExpander_73107", push="108", pop="36", peek="36", pushType="float", popType="float", peekType="float", codeSize="32 b", stackSize="32 b", work="27"];
node88 -> node110;
node111 [label="AutoGeneratedExpander_73108", push="108", pop="36", peek="36", pushType="float", popType="float", peekType="float", codeSize="32 b", stackSize="32 b", work="27"];
node88 -> node111;
node112 [label="AutoGeneratedExpander_73109", push="108", pop="36", peek="36", pushType="float", popType="float", peekType="float", codeSize="32 b", stackSize="32 b", work="27"];
node88 -> node112;
node113 [label="AutoGeneratedExpander_73110", push="108", pop="36", peek="36", pushType="float", popType="float", peekType="float", codeSize="32 b", stackSize="32 b", work="27"];
node88 -> node113;
node114 [label="AutoGeneratedExpander_73111", push="108", pop="36", peek="36", pushType="float", popType="float", peekType="float", codeSize="32 b", stackSize="32 b", work="27"];
node88 -> node114;
node115 [label="AutoGeneratedExpander_73112", push="108", pop="36", peek="36", pushType="float", popType="float", peekType="float", codeSize="32 b", stackSize="32 b", work="27"];
node88 -> node115;
node116 [label="AutoGeneratedExpander_73113", push="108", pop="36", peek="36", pushType="float", popType="float", peekType="float", codeSize="32 b", stackSize="32 b", work="27"];
node88 -> node116;
node117 [label="AutoGeneratedExpander_73114", push="108", pop="36", peek="36", pushType="float", popType="float", peekType="float", codeSize="32 b", stackSize="32 b", work="27"];
node88 -> node117;
node118 [label="AutoGeneratedExpander_73115", push="108", pop="36", peek="36", pushType="float", popType="float", peekType="float", codeSize="32 b", stackSize="32 b", work="27"];
node88 -> node118;
node119 [label="AutoGeneratedExpander_73116", push="108", pop="36", peek="36", pushType="float", popType="float", peekType="float", codeSize="32 b", stackSize="32 b", work="27"];
node88 -> node119;
node120 [label="AutoGeneratedExpander_73117", push="108", pop="36", peek="36", pushType="float", popType="float", peekType="float", codeSize="32 b", stackSize="32 b", work="27"];
node88 -> node120;
node121 [label="AutoGeneratedExpander_73118", push="108", pop="36", peek="36", pushType="float", popType="float", peekType="float", codeSize="32 b", stackSize="32 b", work="27"];
node88 -> node121;
node122 [label="AutoGeneratedExpander_73119", push="108", pop="36", peek="36", pushType="float", popType="float", peekType="float", codeSize="32 b", stackSize="32 b", work="27"];
node88 -> node122;
node123 [label="AutoGeneratedExpander_73120", push="108", pop="36", peek="36", pushType="float", popType="float", peekType="float", codeSize="32 b", stackSize="32 b", work="27"];
node88 -> node123;
node124 [label="AutoGeneratedExpander_73121", push="108", pop="36", peek="36", pushType="float", popType="float", peekType="float", codeSize="32 b", stackSize="32 b", work="27"];
node88 -> node124;
node125 [label="AutoGeneratedExpander_73122", push="108", pop="36", peek="36", pushType="float", popType="float", peekType="float", codeSize="32 b", stackSize="32 b", work="27"];
node88 -> node125;
node126 [label="AutoGeneratedExpander_73123", push="108", pop="36", peek="36", pushType="float", popType="float", peekType="float", codeSize="32 b", stackSize="32 b", work="27"];
node88 -> node126;
node127 [label="AutoGeneratedExpander_73124", push="108", pop="36", peek="36", pushType="float", popType="float", peekType="float", codeSize="32 b", stackSize="32 b", work="27"];
node88 -> node127;
node128 [label="WEIGHTED_ROUND_ROBIN_Joiner_73085", push="4212", pop="4212", peek="0", pushType="float", popType="float", peekType="void", codeSize="708 b", stackSize="1280 b", work="0"];
node89 -> node128;
node90 -> node128;
node91 -> node128;
node92 -> node128;
node93 -> node128;
node94 -> node128;
node95 -> node128;
node96 -> node128;
node97 -> node128;
node98 -> node128;
node99 -> node128;
node100 -> node128;
node101 -> node128;
node102 -> node128;
node103 -> node128;
node104 -> node128;
node105 -> node128;
node106 -> node128;
node107 -> node128;
node108 -> node128;
node109 -> node128;
node110 -> node128;
node111 -> node128;
node112 -> node128;
node113 -> node128;
node114 -> node128;
node115 -> node128;
node116 -> node128;
node117 -> node128;
node118 -> node128;
node119 -> node128;
node120 -> node128;
node121 -> node128;
node122 -> node128;
node123 -> node128;
node124 -> node128;
node125 -> node128;
node126 -> node128;
node127 -> node128;
node129 [label="Identity_72889", push="4212", pop="4212", peek="4212", pushType="float", popType="float", peekType="float", codeSize="12 b", stackSize="32 b", work="6"];
node128 -> node129;
node130 [label="Pre_CollapsedDataParallel_2_72992", push="4212", pop="4212", peek="4212", pushType="float", popType="float", peekType="float", codeSize="50 b", stackSize="96 b", work="3249"];
node129 -> node130;
node131 [label="WEIGHTED_ROUND_ROBIN_Joiner_72996", push="9828", pop="9828", peek="0", pushType="float", popType="float", peekType="void", codeSize="42 b", stackSize="96 b", work="0"];
node68 -> node131;
node130 -> node131;
node132 [label="WEIGHTED_ROUND_ROBIN_Splitter_73125", push="9828", pop="9828", peek="0", pushType="float", popType="float", peekType="void", codeSize="492 b", stackSize="896 b", work="0"];
node131 -> node132;
node133 [label="BlockMultiply_73127", push="156", pop="364", peek="364", pushType="float", popType="float", peekType="float", codeSize="102 b", stackSize="256 b", work="1024"];
node132 -> node133;
node134 [label="BlockMultiply_73128", push="156", pop="364", peek="364", pushType="float", popType="float", peekType="float", codeSize="102 b", stackSize="256 b", work="1024"];
node132 -> node134;
node135 [label="BlockMultiply_73129", push="156", pop="364", peek="364", pushType="float", popType="float", peekType="float", codeSize="102 b", stackSize="256 b", work="1024"];
node132 -> node135;
node136 [label="BlockMultiply_73130", push="156", pop="364", peek="364", pushType="float", popType="float", peekType="float", codeSize="102 b", stackSize="256 b", work="1024"];
node132 -> node136;
node137 [label="BlockMultiply_73131", push="156", pop="364", peek="364", pushType="float", popType="float", peekType="float", codeSize="102 b", stackSize="256 b", work="1024"];
node132 -> node137;
node138 [label="BlockMultiply_73132", push="156", pop="364", peek="364", pushType="float", popType="float", peekType="float", codeSize="102 b", stackSize="256 b", work="1024"];
node132 -> node138;
node139 [label="BlockMultiply_73133", push="156", pop="364", peek="364", pushType="float", popType="float", peekType="float", codeSize="102 b", stackSize="256 b", work="1024"];
node132 -> node139;
node140 [label="BlockMultiply_73134", push="156", pop="364", peek="364", pushType="float", popType="float", peekType="float", codeSize="102 b", stackSize="256 b", work="1024"];
node132 -> node140;
node141 [label="BlockMultiply_73135", push="156", pop="364", peek="364", pushType="float", popType="float", peekType="float", codeSize="102 b", stackSize="256 b", work="1024"];
node132 -> node141;
node142 [label="BlockMultiply_73136", push="156", pop="364", peek="364", pushType="float", popType="float", peekType="float", codeSize="102 b", stackSize="256 b", work="1024"];
node132 -> node142;
node143 [label="BlockMultiply_73137", push="156", pop="364", peek="364", pushType="float", popType="float", peekType="float", codeSize="102 b", stackSize="256 b", work="1024"];
node132 -> node143;
node144 [label="BlockMultiply_73138", push="156", pop="364", peek="364", pushType="float", popType="float", peekType="float", codeSize="102 b", stackSize="256 b", work="1024"];
node132 -> node144;
node145 [label="BlockMultiply_73139", push="156", pop="364", peek="364", pushType="float", popType="float", peekType="float", codeSize="102 b", stackSize="256 b", work="1024"];
node132 -> node145;
node146 [label="BlockMultiply_73140", push="156", pop="364", peek="364", pushType="float", popType="float", peekType="float", codeSize="102 b", stackSize="256 b", work="1024"];
node132 -> node146;
node147 [label="BlockMultiply_73141", push="156", pop="364", peek="364", pushType="float", popType="float", peekType="float", codeSize="102 b", stackSize="256 b", work="1024"];
node132 -> node147;
node148 [label="BlockMultiply_73142", push="156", pop="364", peek="364", pushType="float", popType="float", peekType="float", codeSize="102 b", stackSize="256 b", work="1024"];
node132 -> node148;
node149 [label="BlockMultiply_73143", push="156", pop="364", peek="364", pushType="float", popType="float", peekType="float", codeSize="102 b", stackSize="256 b", work="1024"];
node132 -> node149;
node150 [label="BlockMultiply_73144", push="156", pop="364", peek="364", pushType="float", popType="float", peekType="float", codeSize="102 b", stackSize="256 b", work="1024"];
node132 -> node150;
node151 [label="BlockMultiply_73145", push="156", pop="364", peek="364", pushType="float", popType="float", peekType="float", codeSize="102 b", stackSize="256 b", work="1024"];
node132 -> node151;
node152 [label="BlockMultiply_73146", push="156", pop="364", peek="364", pushType="float", popType="float", peekType="float", codeSize="102 b", stackSize="256 b", work="1024"];
node132 -> node152;
node153 [label="BlockMultiply_73147", push="156", pop="364", peek="364", pushType="float", popType="float", peekType="float", codeSize="102 b", stackSize="256 b", work="1024"];
node132 -> node153;
node154 [label="BlockMultiply_73148", push="156", pop="364", peek="364", pushType="float", popType="float", peekType="float", codeSize="102 b", stackSize="256 b", work="1024"];
node132 -> node154;
node155 [label="BlockMultiply_73149", push="156", pop="364", peek="364", pushType="float", popType="float", peekType="float", codeSize="102 b", stackSize="256 b", work="1024"];
node132 -> node155;
node156 [label="BlockMultiply_73150", push="156", pop="364", peek="364", pushType="float", popType="float", peekType="float", codeSize="102 b", stackSize="256 b", work="1024"];
node132 -> node156;
node157 [label="BlockMultiply_73151", push="156", pop="364", peek="364", pushType="float", popType="float", peekType="float", codeSize="102 b", stackSize="256 b", work="1024"];
node132 -> node157;
node158 [label="BlockMultiply_73152", push="156", pop="364", peek="364", pushType="float", popType="float", peekType="float", codeSize="102 b", stackSize="256 b", work="1024"];
node132 -> node158;
node159 [label="BlockMultiply_73153", push="156", pop="364", peek="364", pushType="float", popType="float", peekType="float", codeSize="102 b", stackSize="256 b", work="1024"];
node132 -> node159;
node160 [label="WEIGHTED_ROUND_ROBIN_Joiner_73126", push="4212", pop="4212", peek="0", pushType="float", popType="float", peekType="void", codeSize="492 b", stackSize="896 b", work="0"];
node133 -> node160;
node134 -> node160;
node135 -> node160;
node136 -> node160;
node137 -> node160;
node138 -> node160;
node139 -> node160;
node140 -> node160;
node141 -> node160;
node142 -> node160;
node143 -> node160;
node144 -> node160;
node145 -> node160;
node146 -> node160;
node147 -> node160;
node148 -> node160;
node149 -> node160;
node150 -> node160;
node151 -> node160;
node152 -> node160;
node153 -> node160;
node154 -> node160;
node155 -> node160;
node156 -> node160;
node157 -> node160;
node158 -> node160;
node159 -> node160;
node161 [label="BlockAdd_72893", push="1404", pop="4212", peek="4212", pushType="float", popType="float", peekType="float", codeSize="189 b", stackSize="96 b", work="468"];
node160 -> node161;
node162 [label="WEIGHTED_ROUND_ROBIN_Splitter_73154", push="1404", pop="1404", peek="0", pushType="float", popType="float", peekType="void", codeSize="168 b", stackSize="320 b", work="0"];
node161 -> node162;
node163 [label="Post_CollapsedDataParallel_1_73156", push="156", pop="156", peek="156", pushType="float", popType="float", peekType="float", codeSize="54 b", stackSize="96 b", work="141"];
node162 -> node163;
node164 [label="Post_CollapsedDataParallel_1_73157", push="156", pop="156", peek="156", pushType="float", popType="float", peekType="float", codeSize="54 b", stackSize="96 b", work="141"];
node162 -> node164;
node165 [label="Post_CollapsedDataParallel_1_73158", push="156", pop="156", peek="156", pushType="float", popType="float", peekType="float", codeSize="54 b", stackSize="96 b", work="141"];
node162 -> node165;
node166 [label="Post_CollapsedDataParallel_1_73159", push="156", pop="156", peek="156", pushType="float", popType="float", peekType="float", codeSize="54 b", stackSize="96 b", work="141"];
node162 -> node166;
node167 [label="Post_CollapsedDataParallel_1_73160", push="156", pop="156", peek="156", pushType="float", popType="float", peekType="float", codeSize="54 b", stackSize="96 b", work="141"];
node162 -> node167;
node168 [label="Post_CollapsedDataParallel_1_73161", push="156", pop="156", peek="156", pushType="float", popType="float", peekType="float", codeSize="54 b", stackSize="96 b", work="141"];
node162 -> node168;
node169 [label="Post_CollapsedDataParallel_1_73162", push="156", pop="156", peek="156", pushType="float", popType="float", peekType="float", codeSize="54 b", stackSize="96 b", work="141"];
node162 -> node169;
node170 [label="Post_CollapsedDataParallel_1_73163", push="156", pop="156", peek="156", pushType="float", popType="float", peekType="float", codeSize="54 b", stackSize="96 b", work="141"];
node162 -> node170;
node171 [label="Post_CollapsedDataParallel_1_73164", push="156", pop="156", peek="156", pushType="float", popType="float", peekType="float", codeSize="54 b", stackSize="96 b", work="141"];
node162 -> node171;
node172 [label="WEIGHTED_ROUND_ROBIN_Joiner_73155", push="1404", pop="1404", peek="0", pushType="float", popType="float", peekType="void", codeSize="168 b", stackSize="320 b", work="0"];
node163 -> node172;
node164 -> node172;
node165 -> node172;
node166 -> node172;
node167 -> node172;
node168 -> node172;
node169 -> node172;
node170 -> node172;
node171 -> node172;
node173 [label="Identity_72895", push="1404", pop="1404", peek="1404", pushType="float", popType="float", peekType="float", codeSize="12 b", stackSize="32 b", work="6"];
node172 -> node173;
node174 [label="WEIGHTED_ROUND_ROBIN_Splitter_73165", push="1404", pop="1404", peek="0", pushType="float", popType="float", peekType="void", codeSize="60 b", stackSize="128 b", work="0"];
node173 -> node174;
node175 [label="Pre_CollapsedDataParallel_2_73167", push="468", pop="468", peek="468", pushType="float", popType="float", peekType="float", codeSize="50 b", stackSize="96 b", work="371"];
node174 -> node175;
node176 [label="Pre_CollapsedDataParallel_2_73168", push="468", pop="468", peek="468", pushType="float", popType="float", peekType="float", codeSize="50 b", stackSize="96 b", work="371"];
node174 -> node176;
node177 [label="Pre_CollapsedDataParallel_2_73169", push="468", pop="468", peek="468", pushType="float", popType="float", peekType="float", codeSize="50 b", stackSize="96 b", work="371"];
node174 -> node177;
node178 [label="WEIGHTED_ROUND_ROBIN_Joiner_73166", push="1404", pop="1404", peek="0", pushType="float", popType="float", peekType="void", codeSize="60 b", stackSize="128 b", work="0"];
node175 -> node178;
node176 -> node178;
node177 -> node178;
node179 [label="Printer_72899", push="0", pop="1404", peek="1404", pushType="void", popType="float", peekType="float", codeSize="16 b", stackSize="0 b", work="6"];
node178 -> node179;
}
