digraph MatrixMultBlock_74151 {
node0 [label="BlockFloatSource_73840", push="9324", pop="0", peek="0", pushType="float", popType="void", peekType="void", codeSize="26 b", stackSize="0 b", work="14"];
node1 [label="WEIGHTED_ROUND_ROBIN_Splitter_73969", push="9324", pop="9324", peek="0", pushType="float", popType="float", peekType="void", codeSize="42 b", stackSize="96 b", work="0"];
node0 -> node1;
node2 [label="WEIGHTED_ROUND_ROBIN_Splitter_73977", push="5328", pop="5328", peek="0", pushType="float", popType="float", peekType="void", codeSize="222 b", stackSize="416 b", work="0"];
node1 -> node2;
node3 [label="Post_CollapsedDataParallel_1_73979", push="444", pop="444", peek="444", pushType="float", popType="float", peekType="float", codeSize="54 b", stackSize="96 b", work="143"];
node2 -> node3;
node4 [label="Post_CollapsedDataParallel_1_73980", push="444", pop="444", peek="444", pushType="float", popType="float", peekType="float", codeSize="54 b", stackSize="96 b", work="143"];
node2 -> node4;
node5 [label="Post_CollapsedDataParallel_1_73981", push="444", pop="444", peek="444", pushType="float", popType="float", peekType="float", codeSize="54 b", stackSize="96 b", work="143"];
node2 -> node5;
node6 [label="Post_CollapsedDataParallel_1_73982", push="444", pop="444", peek="444", pushType="float", popType="float", peekType="float", codeSize="54 b", stackSize="96 b", work="143"];
node2 -> node6;
node7 [label="Post_CollapsedDataParallel_1_73983", push="444", pop="444", peek="444", pushType="float", popType="float", peekType="float", codeSize="54 b", stackSize="96 b", work="143"];
node2 -> node7;
node8 [label="Post_CollapsedDataParallel_1_73984", push="444", pop="444", peek="444", pushType="float", popType="float", peekType="float", codeSize="54 b", stackSize="96 b", work="143"];
node2 -> node8;
node9 [label="Post_CollapsedDataParallel_1_73985", push="444", pop="444", peek="444", pushType="float", popType="float", peekType="float", codeSize="54 b", stackSize="96 b", work="143"];
node2 -> node9;
node10 [label="Post_CollapsedDataParallel_1_73986", push="444", pop="444", peek="444", pushType="float", popType="float", peekType="float", codeSize="54 b", stackSize="96 b", work="143"];
node2 -> node10;
node11 [label="Post_CollapsedDataParallel_1_73987", push="444", pop="444", peek="444", pushType="float", popType="float", peekType="float", codeSize="54 b", stackSize="96 b", work="143"];
node2 -> node11;
node12 [label="Post_CollapsedDataParallel_1_73988", push="444", pop="444", peek="444", pushType="float", popType="float", peekType="float", codeSize="54 b", stackSize="96 b", work="143"];
node2 -> node12;
node13 [label="Post_CollapsedDataParallel_1_73989", push="444", pop="444", peek="444", pushType="float", popType="float", peekType="float", codeSize="54 b", stackSize="96 b", work="143"];
node2 -> node13;
node14 [label="Post_CollapsedDataParallel_1_73990", push="444", pop="444", peek="444", pushType="float", popType="float", peekType="float", codeSize="54 b", stackSize="96 b", work="143"];
node2 -> node14;
node15 [label="WEIGHTED_ROUND_ROBIN_Joiner_73978", push="5328", pop="5328", peek="0", pushType="float", popType="float", peekType="void", codeSize="222 b", stackSize="416 b", work="0"];
node3 -> node15;
node4 -> node15;
node5 -> node15;
node6 -> node15;
node7 -> node15;
node8 -> node15;
node9 -> node15;
node10 -> node15;
node11 -> node15;
node12 -> node15;
node13 -> node15;
node14 -> node15;
node16 [label="Identity_73844", push="5328", pop="5328", peek="5328", pushType="float", popType="float", peekType="float", codeSize="12 b", stackSize="32 b", work="6"];
node15 -> node16;
node17 [label="WEIGHTED_ROUND_ROBIN_Splitter_73991", push="5328", pop="5328", peek="0", pushType="float", popType="float", peekType="void", codeSize="60 b", stackSize="128 b", work="0"];
node16 -> node17;
node18 [label="Pre_CollapsedDataParallel_2_73993", push="1776", pop="1776", peek="1776", pushType="float", popType="float", peekType="float", codeSize="50 b", stackSize="96 b", work="489"];
node17 -> node18;
node19 [label="Pre_CollapsedDataParallel_2_73994", push="1776", pop="1776", peek="1776", pushType="float", popType="float", peekType="float", codeSize="50 b", stackSize="96 b", work="489"];
node17 -> node19;
node20 [label="Pre_CollapsedDataParallel_2_73995", push="1776", pop="1776", peek="1776", pushType="float", popType="float", peekType="float", codeSize="50 b", stackSize="96 b", work="489"];
node17 -> node20;
node21 [label="WEIGHTED_ROUND_ROBIN_Joiner_73992", push="5328", pop="5328", peek="0", pushType="float", popType="float", peekType="void", codeSize="60 b", stackSize="128 b", work="0"];
node18 -> node21;
node19 -> node21;
node20 -> node21;
node22 [label="WEIGHTED_ROUND_ROBIN_Splitter_73996", push="5328", pop="5328", peek="0", pushType="float", popType="float", peekType="void", codeSize="450 b", stackSize="32 b", work="0"];
node21 -> node22;
node23 [label="AutoGeneratedExpander_73998", push="432", pop="144", peek="144", pushType="float", popType="float", peekType="float", codeSize="32 b", stackSize="32 b", work="27"];
node22 -> node23;
node24 [label="AutoGeneratedExpander_73999", push="432", pop="144", peek="144", pushType="float", popType="float", peekType="float", codeSize="32 b", stackSize="32 b", work="27"];
node22 -> node24;
node25 [label="AutoGeneratedExpander_74000", push="432", pop="144", peek="144", pushType="float", popType="float", peekType="float", codeSize="32 b", stackSize="32 b", work="27"];
node22 -> node25;
node26 [label="AutoGeneratedExpander_74001", push="432", pop="144", peek="144", pushType="float", popType="float", peekType="float", codeSize="32 b", stackSize="32 b", work="27"];
node22 -> node26;
node27 [label="AutoGeneratedExpander_74002", push="432", pop="144", peek="144", pushType="float", popType="float", peekType="float", codeSize="32 b", stackSize="32 b", work="27"];
node22 -> node27;
node28 [label="AutoGeneratedExpander_74003", push="432", pop="144", peek="144", pushType="float", popType="float", peekType="float", codeSize="32 b", stackSize="32 b", work="27"];
node22 -> node28;
node29 [label="AutoGeneratedExpander_74004", push="432", pop="144", peek="144", pushType="float", popType="float", peekType="float", codeSize="32 b", stackSize="32 b", work="27"];
node22 -> node29;
node30 [label="AutoGeneratedExpander_74005", push="432", pop="144", peek="144", pushType="float", popType="float", peekType="float", codeSize="32 b", stackSize="32 b", work="27"];
node22 -> node30;
node31 [label="AutoGeneratedExpander_74006", push="432", pop="144", peek="144", pushType="float", popType="float", peekType="float", codeSize="32 b", stackSize="32 b", work="27"];
node22 -> node31;
node32 [label="AutoGeneratedExpander_74007", push="432", pop="144", peek="144", pushType="float", popType="float", peekType="float", codeSize="32 b", stackSize="32 b", work="27"];
node22 -> node32;
node33 [label="AutoGeneratedExpander_74008", push="432", pop="144", peek="144", pushType="float", popType="float", peekType="float", codeSize="32 b", stackSize="32 b", work="27"];
node22 -> node33;
node34 [label="AutoGeneratedExpander_74009", push="432", pop="144", peek="144", pushType="float", popType="float", peekType="float", codeSize="32 b", stackSize="32 b", work="27"];
node22 -> node34;
node35 [label="AutoGeneratedExpander_74010", push="432", pop="144", peek="144", pushType="float", popType="float", peekType="float", codeSize="32 b", stackSize="32 b", work="27"];
node22 -> node35;
node36 [label="AutoGeneratedExpander_74011", push="432", pop="144", peek="144", pushType="float", popType="float", peekType="float", codeSize="32 b", stackSize="32 b", work="27"];
node22 -> node36;
node37 [label="AutoGeneratedExpander_74012", push="432", pop="144", peek="144", pushType="float", popType="float", peekType="float", codeSize="32 b", stackSize="32 b", work="27"];
node22 -> node37;
node38 [label="AutoGeneratedExpander_74013", push="432", pop="144", peek="144", pushType="float", popType="float", peekType="float", codeSize="32 b", stackSize="32 b", work="27"];
node22 -> node38;
node39 [label="AutoGeneratedExpander_74014", push="432", pop="144", peek="144", pushType="float", popType="float", peekType="float", codeSize="32 b", stackSize="32 b", work="27"];
node22 -> node39;
node40 [label="AutoGeneratedExpander_74015", push="432", pop="144", peek="144", pushType="float", popType="float", peekType="float", codeSize="32 b", stackSize="32 b", work="27"];
node22 -> node40;
node41 [label="AutoGeneratedExpander_74016", push="432", pop="144", peek="144", pushType="float", popType="float", peekType="float", codeSize="32 b", stackSize="32 b", work="27"];
node22 -> node41;
node42 [label="AutoGeneratedExpander_74017", push="432", pop="144", peek="144", pushType="float", popType="float", peekType="float", codeSize="32 b", stackSize="32 b", work="27"];
node22 -> node42;
node43 [label="AutoGeneratedExpander_74018", push="432", pop="144", peek="144", pushType="float", popType="float", peekType="float", codeSize="32 b", stackSize="32 b", work="27"];
node22 -> node43;
node44 [label="AutoGeneratedExpander_74019", push="432", pop="144", peek="144", pushType="float", popType="float", peekType="float", codeSize="32 b", stackSize="32 b", work="27"];
node22 -> node44;
node45 [label="AutoGeneratedExpander_74020", push="432", pop="144", peek="144", pushType="float", popType="float", peekType="float", codeSize="32 b", stackSize="32 b", work="27"];
node22 -> node45;
node46 [label="AutoGeneratedExpander_74021", push="432", pop="144", peek="144", pushType="float", popType="float", peekType="float", codeSize="32 b", stackSize="32 b", work="27"];
node22 -> node46;
node47 [label="AutoGeneratedExpander_74022", push="432", pop="144", peek="144", pushType="float", popType="float", peekType="float", codeSize="32 b", stackSize="32 b", work="27"];
node22 -> node47;
node48 [label="AutoGeneratedExpander_74023", push="432", pop="144", peek="144", pushType="float", popType="float", peekType="float", codeSize="32 b", stackSize="32 b", work="27"];
node22 -> node48;
node49 [label="AutoGeneratedExpander_74024", push="432", pop="144", peek="144", pushType="float", popType="float", peekType="float", codeSize="32 b", stackSize="32 b", work="27"];
node22 -> node49;
node50 [label="AutoGeneratedExpander_74025", push="432", pop="144", peek="144", pushType="float", popType="float", peekType="float", codeSize="32 b", stackSize="32 b", work="27"];
node22 -> node50;
node51 [label="AutoGeneratedExpander_74026", push="432", pop="144", peek="144", pushType="float", popType="float", peekType="float", codeSize="32 b", stackSize="32 b", work="27"];
node22 -> node51;
node52 [label="AutoGeneratedExpander_74027", push="432", pop="144", peek="144", pushType="float", popType="float", peekType="float", codeSize="32 b", stackSize="32 b", work="27"];
node22 -> node52;
node53 [label="AutoGeneratedExpander_74028", push="432", pop="144", peek="144", pushType="float", popType="float", peekType="float", codeSize="32 b", stackSize="32 b", work="27"];
node22 -> node53;
node54 [label="AutoGeneratedExpander_74029", push="432", pop="144", peek="144", pushType="float", popType="float", peekType="float", codeSize="32 b", stackSize="32 b", work="27"];
node22 -> node54;
node55 [label="AutoGeneratedExpander_74030", push="432", pop="144", peek="144", pushType="float", popType="float", peekType="float", codeSize="32 b", stackSize="32 b", work="27"];
node22 -> node55;
node56 [label="AutoGeneratedExpander_74031", push="432", pop="144", peek="144", pushType="float", popType="float", peekType="float", codeSize="32 b", stackSize="32 b", work="27"];
node22 -> node56;
node57 [label="AutoGeneratedExpander_74032", push="432", pop="144", peek="144", pushType="float", popType="float", peekType="float", codeSize="32 b", stackSize="32 b", work="27"];
node22 -> node57;
node58 [label="AutoGeneratedExpander_74033", push="432", pop="144", peek="144", pushType="float", popType="float", peekType="float", codeSize="32 b", stackSize="32 b", work="27"];
node22 -> node58;
node59 [label="AutoGeneratedExpander_74034", push="432", pop="144", peek="144", pushType="float", popType="float", peekType="float", codeSize="32 b", stackSize="32 b", work="27"];
node22 -> node59;
node60 [label="WEIGHTED_ROUND_ROBIN_Joiner_73997", push="15984", pop="15984", peek="0", pushType="float", popType="float", peekType="void", codeSize="672 b", stackSize="1216 b", work="0"];
node23 -> node60;
node24 -> node60;
node25 -> node60;
node26 -> node60;
node27 -> node60;
node28 -> node60;
node29 -> node60;
node30 -> node60;
node31 -> node60;
node32 -> node60;
node33 -> node60;
node34 -> node60;
node35 -> node60;
node36 -> node60;
node37 -> node60;
node38 -> node60;
node39 -> node60;
node40 -> node60;
node41 -> node60;
node42 -> node60;
node43 -> node60;
node44 -> node60;
node45 -> node60;
node46 -> node60;
node47 -> node60;
node48 -> node60;
node49 -> node60;
node50 -> node60;
node51 -> node60;
node52 -> node60;
node53 -> node60;
node54 -> node60;
node55 -> node60;
node56 -> node60;
node57 -> node60;
node58 -> node60;
node59 -> node60;
node61 [label="Identity_73847", push="15984", pop="15984", peek="15984", pushType="float", popType="float", peekType="float", codeSize="12 b", stackSize="32 b", work="6"];
node60 -> node61;
node62 [label="WEIGHTED_ROUND_ROBIN_Splitter_74035", push="15984", pop="15984", peek="0", pushType="float", popType="float", peekType="void", codeSize="60 b", stackSize="128 b", work="0"];
node61 -> node62;
node63 [label="Pre_CollapsedDataParallel_2_74037", push="5328", pop="5328", peek="5328", pushType="float", popType="float", peekType="float", codeSize="50 b", stackSize="96 b", work="1449"];
node62 -> node63;
node64 [label="Pre_CollapsedDataParallel_2_74038", push="5328", pop="5328", peek="5328", pushType="float", popType="float", peekType="float", codeSize="50 b", stackSize="96 b", work="1449"];
node62 -> node64;
node65 [label="Pre_CollapsedDataParallel_2_74039", push="5328", pop="5328", peek="5328", pushType="float", popType="float", peekType="float", codeSize="50 b", stackSize="96 b", work="1449"];
node62 -> node65;
node66 [label="WEIGHTED_ROUND_ROBIN_Joiner_74036", push="15984", pop="15984", peek="0", pushType="float", popType="float", peekType="void", codeSize="60 b", stackSize="128 b", work="0"];
node63 -> node66;
node64 -> node66;
node65 -> node66;
node67 [label="Identity_73851", push="3996", pop="3996", peek="3996", pushType="float", popType="float", peekType="float", codeSize="12 b", stackSize="32 b", work="6"];
node1 -> node67;
node68 [label="Pre_CollapsedDataParallel_2_73963", push="3996", pop="3996", peek="3996", pushType="float", popType="float", peekType="float", codeSize="50 b", stackSize="96 b", work="1101"];
node67 -> node68;
node69 [label="WEIGHTED_ROUND_ROBIN_Splitter_74040", push="3996", pop="3996", peek="0", pushType="float", popType="float", peekType="void", codeSize="168 b", stackSize="320 b", work="0"];
node68 -> node69;
node70 [label="Post_CollapsedDataParallel_1_74042", push="444", pop="444", peek="444", pushType="float", popType="float", peekType="float", codeSize="54 b", stackSize="96 b", work="143"];
node69 -> node70;
node71 [label="Post_CollapsedDataParallel_1_74043", push="444", pop="444", peek="444", pushType="float", popType="float", peekType="float", codeSize="54 b", stackSize="96 b", work="143"];
node69 -> node71;
node72 [label="Post_CollapsedDataParallel_1_74044", push="444", pop="444", peek="444", pushType="float", popType="float", peekType="float", codeSize="54 b", stackSize="96 b", work="143"];
node69 -> node72;
node73 [label="Post_CollapsedDataParallel_1_74045", push="444", pop="444", peek="444", pushType="float", popType="float", peekType="float", codeSize="54 b", stackSize="96 b", work="143"];
node69 -> node73;
node74 [label="Post_CollapsedDataParallel_1_74046", push="444", pop="444", peek="444", pushType="float", popType="float", peekType="float", codeSize="54 b", stackSize="96 b", work="143"];
node69 -> node74;
node75 [label="Post_CollapsedDataParallel_1_74047", push="444", pop="444", peek="444", pushType="float", popType="float", peekType="float", codeSize="54 b", stackSize="96 b", work="143"];
node69 -> node75;
node76 [label="Post_CollapsedDataParallel_1_74048", push="444", pop="444", peek="444", pushType="float", popType="float", peekType="float", codeSize="54 b", stackSize="96 b", work="143"];
node69 -> node76;
node77 [label="Post_CollapsedDataParallel_1_74049", push="444", pop="444", peek="444", pushType="float", popType="float", peekType="float", codeSize="54 b", stackSize="96 b", work="143"];
node69 -> node77;
node78 [label="Post_CollapsedDataParallel_1_74050", push="444", pop="444", peek="444", pushType="float", popType="float", peekType="float", codeSize="54 b", stackSize="96 b", work="143"];
node69 -> node78;
node79 [label="WEIGHTED_ROUND_ROBIN_Joiner_74041", push="3996", pop="3996", peek="0", pushType="float", popType="float", peekType="void", codeSize="168 b", stackSize="320 b", work="0"];
node70 -> node79;
node71 -> node79;
node72 -> node79;
node73 -> node79;
node74 -> node79;
node75 -> node79;
node76 -> node79;
node77 -> node79;
node78 -> node79;
node80 [label="Identity_73860", push="3996", pop="3996", peek="3996", pushType="float", popType="float", peekType="float", codeSize="12 b", stackSize="32 b", work="6"];
node79 -> node80;
node81 [label="WEIGHTED_ROUND_ROBIN_Splitter_74051", push="3996", pop="3996", peek="0", pushType="float", popType="float", peekType="void", codeSize="60 b", stackSize="128 b", work="0"];
node80 -> node81;
node82 [label="Pre_CollapsedDataParallel_2_74053", push="1332", pop="1332", peek="1332", pushType="float", popType="float", peekType="float", codeSize="50 b", stackSize="96 b", work="369"];
node81 -> node82;
node83 [label="Pre_CollapsedDataParallel_2_74054", push="1332", pop="1332", peek="1332", pushType="float", popType="float", peekType="float", codeSize="50 b", stackSize="96 b", work="369"];
node81 -> node83;
node84 [label="Pre_CollapsedDataParallel_2_74055", push="1332", pop="1332", peek="1332", pushType="float", popType="float", peekType="float", codeSize="50 b", stackSize="96 b", work="369"];
node81 -> node84;
node85 [label="WEIGHTED_ROUND_ROBIN_Joiner_74052", push="3996", pop="3996", peek="0", pushType="float", popType="float", peekType="void", codeSize="60 b", stackSize="128 b", work="0"];
node82 -> node85;
node83 -> node85;
node84 -> node85;
node86 [label="WEIGHTED_ROUND_ROBIN_Splitter_74056", push="3996", pop="3996", peek="0", pushType="float", popType="float", peekType="void", codeSize="450 b", stackSize="32 b", work="0"];
node85 -> node86;
node87 [label="AutoGeneratedExpander_74058", push="324", pop="108", peek="108", pushType="float", popType="float", peekType="float", codeSize="32 b", stackSize="32 b", work="27"];
node86 -> node87;
node88 [label="AutoGeneratedExpander_74059", push="324", pop="108", peek="108", pushType="float", popType="float", peekType="float", codeSize="32 b", stackSize="32 b", work="27"];
node86 -> node88;
node89 [label="AutoGeneratedExpander_74060", push="324", pop="108", peek="108", pushType="float", popType="float", peekType="float", codeSize="32 b", stackSize="32 b", work="27"];
node86 -> node89;
node90 [label="AutoGeneratedExpander_74061", push="324", pop="108", peek="108", pushType="float", popType="float", peekType="float", codeSize="32 b", stackSize="32 b", work="27"];
node86 -> node90;
node91 [label="AutoGeneratedExpander_74062", push="324", pop="108", peek="108", pushType="float", popType="float", peekType="float", codeSize="32 b", stackSize="32 b", work="27"];
node86 -> node91;
node92 [label="AutoGeneratedExpander_74063", push="324", pop="108", peek="108", pushType="float", popType="float", peekType="float", codeSize="32 b", stackSize="32 b", work="27"];
node86 -> node92;
node93 [label="AutoGeneratedExpander_74064", push="324", pop="108", peek="108", pushType="float", popType="float", peekType="float", codeSize="32 b", stackSize="32 b", work="27"];
node86 -> node93;
node94 [label="AutoGeneratedExpander_74065", push="324", pop="108", peek="108", pushType="float", popType="float", peekType="float", codeSize="32 b", stackSize="32 b", work="27"];
node86 -> node94;
node95 [label="AutoGeneratedExpander_74066", push="324", pop="108", peek="108", pushType="float", popType="float", peekType="float", codeSize="32 b", stackSize="32 b", work="27"];
node86 -> node95;
node96 [label="AutoGeneratedExpander_74067", push="324", pop="108", peek="108", pushType="float", popType="float", peekType="float", codeSize="32 b", stackSize="32 b", work="27"];
node86 -> node96;
node97 [label="AutoGeneratedExpander_74068", push="324", pop="108", peek="108", pushType="float", popType="float", peekType="float", codeSize="32 b", stackSize="32 b", work="27"];
node86 -> node97;
node98 [label="AutoGeneratedExpander_74069", push="324", pop="108", peek="108", pushType="float", popType="float", peekType="float", codeSize="32 b", stackSize="32 b", work="27"];
node86 -> node98;
node99 [label="AutoGeneratedExpander_74070", push="324", pop="108", peek="108", pushType="float", popType="float", peekType="float", codeSize="32 b", stackSize="32 b", work="27"];
node86 -> node99;
node100 [label="AutoGeneratedExpander_74071", push="324", pop="108", peek="108", pushType="float", popType="float", peekType="float", codeSize="32 b", stackSize="32 b", work="27"];
node86 -> node100;
node101 [label="AutoGeneratedExpander_74072", push="324", pop="108", peek="108", pushType="float", popType="float", peekType="float", codeSize="32 b", stackSize="32 b", work="27"];
node86 -> node101;
node102 [label="AutoGeneratedExpander_74073", push="324", pop="108", peek="108", pushType="float", popType="float", peekType="float", codeSize="32 b", stackSize="32 b", work="27"];
node86 -> node102;
node103 [label="AutoGeneratedExpander_74074", push="324", pop="108", peek="108", pushType="float", popType="float", peekType="float", codeSize="32 b", stackSize="32 b", work="27"];
node86 -> node103;
node104 [label="AutoGeneratedExpander_74075", push="324", pop="108", peek="108", pushType="float", popType="float", peekType="float", codeSize="32 b", stackSize="32 b", work="27"];
node86 -> node104;
node105 [label="AutoGeneratedExpander_74076", push="324", pop="108", peek="108", pushType="float", popType="float", peekType="float", codeSize="32 b", stackSize="32 b", work="27"];
node86 -> node105;
node106 [label="AutoGeneratedExpander_74077", push="324", pop="108", peek="108", pushType="float", popType="float", peekType="float", codeSize="32 b", stackSize="32 b", work="27"];
node86 -> node106;
node107 [label="AutoGeneratedExpander_74078", push="324", pop="108", peek="108", pushType="float", popType="float", peekType="float", codeSize="32 b", stackSize="32 b", work="27"];
node86 -> node107;
node108 [label="AutoGeneratedExpander_74079", push="324", pop="108", peek="108", pushType="float", popType="float", peekType="float", codeSize="32 b", stackSize="32 b", work="27"];
node86 -> node108;
node109 [label="AutoGeneratedExpander_74080", push="324", pop="108", peek="108", pushType="float", popType="float", peekType="float", codeSize="32 b", stackSize="32 b", work="27"];
node86 -> node109;
node110 [label="AutoGeneratedExpander_74081", push="324", pop="108", peek="108", pushType="float", popType="float", peekType="float", codeSize="32 b", stackSize="32 b", work="27"];
node86 -> node110;
node111 [label="AutoGeneratedExpander_74082", push="324", pop="108", peek="108", pushType="float", popType="float", peekType="float", codeSize="32 b", stackSize="32 b", work="27"];
node86 -> node111;
node112 [label="AutoGeneratedExpander_74083", push="324", pop="108", peek="108", pushType="float", popType="float", peekType="float", codeSize="32 b", stackSize="32 b", work="27"];
node86 -> node112;
node113 [label="AutoGeneratedExpander_74084", push="324", pop="108", peek="108", pushType="float", popType="float", peekType="float", codeSize="32 b", stackSize="32 b", work="27"];
node86 -> node113;
node114 [label="AutoGeneratedExpander_74085", push="324", pop="108", peek="108", pushType="float", popType="float", peekType="float", codeSize="32 b", stackSize="32 b", work="27"];
node86 -> node114;
node115 [label="AutoGeneratedExpander_74086", push="324", pop="108", peek="108", pushType="float", popType="float", peekType="float", codeSize="32 b", stackSize="32 b", work="27"];
node86 -> node115;
node116 [label="AutoGeneratedExpander_74087", push="324", pop="108", peek="108", pushType="float", popType="float", peekType="float", codeSize="32 b", stackSize="32 b", work="27"];
node86 -> node116;
node117 [label="AutoGeneratedExpander_74088", push="324", pop="108", peek="108", pushType="float", popType="float", peekType="float", codeSize="32 b", stackSize="32 b", work="27"];
node86 -> node117;
node118 [label="AutoGeneratedExpander_74089", push="324", pop="108", peek="108", pushType="float", popType="float", peekType="float", codeSize="32 b", stackSize="32 b", work="27"];
node86 -> node118;
node119 [label="AutoGeneratedExpander_74090", push="324", pop="108", peek="108", pushType="float", popType="float", peekType="float", codeSize="32 b", stackSize="32 b", work="27"];
node86 -> node119;
node120 [label="AutoGeneratedExpander_74091", push="324", pop="108", peek="108", pushType="float", popType="float", peekType="float", codeSize="32 b", stackSize="32 b", work="27"];
node86 -> node120;
node121 [label="AutoGeneratedExpander_74092", push="324", pop="108", peek="108", pushType="float", popType="float", peekType="float", codeSize="32 b", stackSize="32 b", work="27"];
node86 -> node121;
node122 [label="AutoGeneratedExpander_74093", push="324", pop="108", peek="108", pushType="float", popType="float", peekType="float", codeSize="32 b", stackSize="32 b", work="27"];
node86 -> node122;
node123 [label="AutoGeneratedExpander_74094", push="324", pop="108", peek="108", pushType="float", popType="float", peekType="float", codeSize="32 b", stackSize="32 b", work="27"];
node86 -> node123;
node124 [label="WEIGHTED_ROUND_ROBIN_Joiner_74057", push="11988", pop="11988", peek="0", pushType="float", popType="float", peekType="void", codeSize="672 b", stackSize="1216 b", work="0"];
node87 -> node124;
node88 -> node124;
node89 -> node124;
node90 -> node124;
node91 -> node124;
node92 -> node124;
node93 -> node124;
node94 -> node124;
node95 -> node124;
node96 -> node124;
node97 -> node124;
node98 -> node124;
node99 -> node124;
node100 -> node124;
node101 -> node124;
node102 -> node124;
node103 -> node124;
node104 -> node124;
node105 -> node124;
node106 -> node124;
node107 -> node124;
node108 -> node124;
node109 -> node124;
node110 -> node124;
node111 -> node124;
node112 -> node124;
node113 -> node124;
node114 -> node124;
node115 -> node124;
node116 -> node124;
node117 -> node124;
node118 -> node124;
node119 -> node124;
node120 -> node124;
node121 -> node124;
node122 -> node124;
node123 -> node124;
node125 [label="Identity_73863", push="11988", pop="11988", peek="11988", pushType="float", popType="float", peekType="float", codeSize="12 b", stackSize="32 b", work="6"];
node124 -> node125;
node126 [label="Pre_CollapsedDataParallel_2_73966", push="11988", pop="11988", peek="11988", pushType="float", popType="float", peekType="float", codeSize="50 b", stackSize="96 b", work="3249"];
node125 -> node126;
node127 [label="WEIGHTED_ROUND_ROBIN_Joiner_73970", push="27972", pop="27972", peek="0", pushType="float", popType="float", peekType="void", codeSize="42 b", stackSize="96 b", work="0"];
node66 -> node127;
node126 -> node127;
node128 [label="WEIGHTED_ROUND_ROBIN_Splitter_74095", push="27972", pop="27972", peek="0", pushType="float", popType="float", peekType="void", codeSize="492 b", stackSize="896 b", work="0"];
node127 -> node128;
node129 [label="BlockMultiply_74097", push="444", pop="1036", peek="1036", pushType="float", popType="float", peekType="float", codeSize="102 b", stackSize="256 b", work="1024"];
node128 -> node129;
node130 [label="BlockMultiply_74098", push="444", pop="1036", peek="1036", pushType="float", popType="float", peekType="float", codeSize="102 b", stackSize="256 b", work="1024"];
node128 -> node130;
node131 [label="BlockMultiply_74099", push="444", pop="1036", peek="1036", pushType="float", popType="float", peekType="float", codeSize="102 b", stackSize="256 b", work="1024"];
node128 -> node131;
node132 [label="BlockMultiply_74100", push="444", pop="1036", peek="1036", pushType="float", popType="float", peekType="float", codeSize="102 b", stackSize="256 b", work="1024"];
node128 -> node132;
node133 [label="BlockMultiply_74101", push="444", pop="1036", peek="1036", pushType="float", popType="float", peekType="float", codeSize="102 b", stackSize="256 b", work="1024"];
node128 -> node133;
node134 [label="BlockMultiply_74102", push="444", pop="1036", peek="1036", pushType="float", popType="float", peekType="float", codeSize="102 b", stackSize="256 b", work="1024"];
node128 -> node134;
node135 [label="BlockMultiply_74103", push="444", pop="1036", peek="1036", pushType="float", popType="float", peekType="float", codeSize="102 b", stackSize="256 b", work="1024"];
node128 -> node135;
node136 [label="BlockMultiply_74104", push="444", pop="1036", peek="1036", pushType="float", popType="float", peekType="float", codeSize="102 b", stackSize="256 b", work="1024"];
node128 -> node136;
node137 [label="BlockMultiply_74105", push="444", pop="1036", peek="1036", pushType="float", popType="float", peekType="float", codeSize="102 b", stackSize="256 b", work="1024"];
node128 -> node137;
node138 [label="BlockMultiply_74106", push="444", pop="1036", peek="1036", pushType="float", popType="float", peekType="float", codeSize="102 b", stackSize="256 b", work="1024"];
node128 -> node138;
node139 [label="BlockMultiply_74107", push="444", pop="1036", peek="1036", pushType="float", popType="float", peekType="float", codeSize="102 b", stackSize="256 b", work="1024"];
node128 -> node139;
node140 [label="BlockMultiply_74108", push="444", pop="1036", peek="1036", pushType="float", popType="float", peekType="float", codeSize="102 b", stackSize="256 b", work="1024"];
node128 -> node140;
node141 [label="BlockMultiply_74109", push="444", pop="1036", peek="1036", pushType="float", popType="float", peekType="float", codeSize="102 b", stackSize="256 b", work="1024"];
node128 -> node141;
node142 [label="BlockMultiply_74110", push="444", pop="1036", peek="1036", pushType="float", popType="float", peekType="float", codeSize="102 b", stackSize="256 b", work="1024"];
node128 -> node142;
node143 [label="BlockMultiply_74111", push="444", pop="1036", peek="1036", pushType="float", popType="float", peekType="float", codeSize="102 b", stackSize="256 b", work="1024"];
node128 -> node143;
node144 [label="BlockMultiply_74112", push="444", pop="1036", peek="1036", pushType="float", popType="float", peekType="float", codeSize="102 b", stackSize="256 b", work="1024"];
node128 -> node144;
node145 [label="BlockMultiply_74113", push="444", pop="1036", peek="1036", pushType="float", popType="float", peekType="float", codeSize="102 b", stackSize="256 b", work="1024"];
node128 -> node145;
node146 [label="BlockMultiply_74114", push="444", pop="1036", peek="1036", pushType="float", popType="float", peekType="float", codeSize="102 b", stackSize="256 b", work="1024"];
node128 -> node146;
node147 [label="BlockMultiply_74115", push="444", pop="1036", peek="1036", pushType="float", popType="float", peekType="float", codeSize="102 b", stackSize="256 b", work="1024"];
node128 -> node147;
node148 [label="BlockMultiply_74116", push="444", pop="1036", peek="1036", pushType="float", popType="float", peekType="float", codeSize="102 b", stackSize="256 b", work="1024"];
node128 -> node148;
node149 [label="BlockMultiply_74117", push="444", pop="1036", peek="1036", pushType="float", popType="float", peekType="float", codeSize="102 b", stackSize="256 b", work="1024"];
node128 -> node149;
node150 [label="BlockMultiply_74118", push="444", pop="1036", peek="1036", pushType="float", popType="float", peekType="float", codeSize="102 b", stackSize="256 b", work="1024"];
node128 -> node150;
node151 [label="BlockMultiply_74119", push="444", pop="1036", peek="1036", pushType="float", popType="float", peekType="float", codeSize="102 b", stackSize="256 b", work="1024"];
node128 -> node151;
node152 [label="BlockMultiply_74120", push="444", pop="1036", peek="1036", pushType="float", popType="float", peekType="float", codeSize="102 b", stackSize="256 b", work="1024"];
node128 -> node152;
node153 [label="BlockMultiply_74121", push="444", pop="1036", peek="1036", pushType="float", popType="float", peekType="float", codeSize="102 b", stackSize="256 b", work="1024"];
node128 -> node153;
node154 [label="BlockMultiply_74122", push="444", pop="1036", peek="1036", pushType="float", popType="float", peekType="float", codeSize="102 b", stackSize="256 b", work="1024"];
node128 -> node154;
node155 [label="BlockMultiply_74123", push="444", pop="1036", peek="1036", pushType="float", popType="float", peekType="float", codeSize="102 b", stackSize="256 b", work="1024"];
node128 -> node155;
node156 [label="WEIGHTED_ROUND_ROBIN_Joiner_74096", push="11988", pop="11988", peek="0", pushType="float", popType="float", peekType="void", codeSize="492 b", stackSize="896 b", work="0"];
node129 -> node156;
node130 -> node156;
node131 -> node156;
node132 -> node156;
node133 -> node156;
node134 -> node156;
node135 -> node156;
node136 -> node156;
node137 -> node156;
node138 -> node156;
node139 -> node156;
node140 -> node156;
node141 -> node156;
node142 -> node156;
node143 -> node156;
node144 -> node156;
node145 -> node156;
node146 -> node156;
node147 -> node156;
node148 -> node156;
node149 -> node156;
node150 -> node156;
node151 -> node156;
node152 -> node156;
node153 -> node156;
node154 -> node156;
node155 -> node156;
node157 [label="BlockAdd_73867", push="3996", pop="11988", peek="11988", pushType="float", popType="float", peekType="float", codeSize="189 b", stackSize="96 b", work="468"];
node156 -> node157;
node158 [label="WEIGHTED_ROUND_ROBIN_Splitter_74124", push="3996", pop="3996", peek="0", pushType="float", popType="float", peekType="void", codeSize="168 b", stackSize="320 b", work="0"];
node157 -> node158;
node159 [label="Post_CollapsedDataParallel_1_74126", push="444", pop="444", peek="444", pushType="float", popType="float", peekType="float", codeSize="54 b", stackSize="96 b", work="141"];
node158 -> node159;
node160 [label="Post_CollapsedDataParallel_1_74127", push="444", pop="444", peek="444", pushType="float", popType="float", peekType="float", codeSize="54 b", stackSize="96 b", work="141"];
node158 -> node160;
node161 [label="Post_CollapsedDataParallel_1_74128", push="444", pop="444", peek="444", pushType="float", popType="float", peekType="float", codeSize="54 b", stackSize="96 b", work="141"];
node158 -> node161;
node162 [label="Post_CollapsedDataParallel_1_74129", push="444", pop="444", peek="444", pushType="float", popType="float", peekType="float", codeSize="54 b", stackSize="96 b", work="141"];
node158 -> node162;
node163 [label="Post_CollapsedDataParallel_1_74130", push="444", pop="444", peek="444", pushType="float", popType="float", peekType="float", codeSize="54 b", stackSize="96 b", work="141"];
node158 -> node163;
node164 [label="Post_CollapsedDataParallel_1_74131", push="444", pop="444", peek="444", pushType="float", popType="float", peekType="float", codeSize="54 b", stackSize="96 b", work="141"];
node158 -> node164;
node165 [label="Post_CollapsedDataParallel_1_74132", push="444", pop="444", peek="444", pushType="float", popType="float", peekType="float", codeSize="54 b", stackSize="96 b", work="141"];
node158 -> node165;
node166 [label="Post_CollapsedDataParallel_1_74133", push="444", pop="444", peek="444", pushType="float", popType="float", peekType="float", codeSize="54 b", stackSize="96 b", work="141"];
node158 -> node166;
node167 [label="Post_CollapsedDataParallel_1_74134", push="444", pop="444", peek="444", pushType="float", popType="float", peekType="float", codeSize="54 b", stackSize="96 b", work="141"];
node158 -> node167;
node168 [label="WEIGHTED_ROUND_ROBIN_Joiner_74125", push="3996", pop="3996", peek="0", pushType="float", popType="float", peekType="void", codeSize="168 b", stackSize="320 b", work="0"];
node159 -> node168;
node160 -> node168;
node161 -> node168;
node162 -> node168;
node163 -> node168;
node164 -> node168;
node165 -> node168;
node166 -> node168;
node167 -> node168;
node169 [label="Identity_73869", push="3996", pop="3996", peek="3996", pushType="float", popType="float", peekType="float", codeSize="12 b", stackSize="32 b", work="6"];
node168 -> node169;
node170 [label="WEIGHTED_ROUND_ROBIN_Splitter_74135", push="3996", pop="3996", peek="0", pushType="float", popType="float", peekType="void", codeSize="60 b", stackSize="128 b", work="0"];
node169 -> node170;
node171 [label="Pre_CollapsedDataParallel_2_74137", push="1332", pop="1332", peek="1332", pushType="float", popType="float", peekType="float", codeSize="50 b", stackSize="96 b", work="371"];
node170 -> node171;
node172 [label="Pre_CollapsedDataParallel_2_74138", push="1332", pop="1332", peek="1332", pushType="float", popType="float", peekType="float", codeSize="50 b", stackSize="96 b", work="371"];
node170 -> node172;
node173 [label="Pre_CollapsedDataParallel_2_74139", push="1332", pop="1332", peek="1332", pushType="float", popType="float", peekType="float", codeSize="50 b", stackSize="96 b", work="371"];
node170 -> node173;
node174 [label="WEIGHTED_ROUND_ROBIN_Joiner_74136", push="3996", pop="3996", peek="0", pushType="float", popType="float", peekType="void", codeSize="60 b", stackSize="128 b", work="0"];
node171 -> node174;
node172 -> node174;
node173 -> node174;
node175 [label="Printer_73873", push="0", pop="3996", peek="3996", pushType="void", popType="float", peekType="float", codeSize="16 b", stackSize="0 b", work="6"];
node174 -> node175;
}
