digraph MatrixMultBlock_71194 {
node0 [label="BlockFloatSource_70871", push="10836", pop="0", peek="0", pushType="float", popType="void", peekType="void", codeSize="26 b", stackSize="0 b", work="14"];
node1 [label="WEIGHTED_ROUND_ROBIN_Splitter_71000", push="10836", pop="10836", peek="0", pushType="float", popType="float", peekType="void", codeSize="42 b", stackSize="96 b", work="0"];
node0 -> node1;
node2 [label="WEIGHTED_ROUND_ROBIN_Splitter_71008", push="6192", pop="6192", peek="0", pushType="float", popType="float", peekType="void", codeSize="222 b", stackSize="416 b", work="0"];
node1 -> node2;
node3 [label="Post_CollapsedDataParallel_1_71010", push="516", pop="516", peek="516", pushType="float", popType="float", peekType="float", codeSize="54 b", stackSize="96 b", work="143"];
node2 -> node3;
node4 [label="Post_CollapsedDataParallel_1_71011", push="516", pop="516", peek="516", pushType="float", popType="float", peekType="float", codeSize="54 b", stackSize="96 b", work="143"];
node2 -> node4;
node5 [label="Post_CollapsedDataParallel_1_71012", push="516", pop="516", peek="516", pushType="float", popType="float", peekType="float", codeSize="54 b", stackSize="96 b", work="143"];
node2 -> node5;
node6 [label="Post_CollapsedDataParallel_1_71013", push="516", pop="516", peek="516", pushType="float", popType="float", peekType="float", codeSize="54 b", stackSize="96 b", work="143"];
node2 -> node6;
node7 [label="Post_CollapsedDataParallel_1_71014", push="516", pop="516", peek="516", pushType="float", popType="float", peekType="float", codeSize="54 b", stackSize="96 b", work="143"];
node2 -> node7;
node8 [label="Post_CollapsedDataParallel_1_71015", push="516", pop="516", peek="516", pushType="float", popType="float", peekType="float", codeSize="54 b", stackSize="96 b", work="143"];
node2 -> node8;
node9 [label="Post_CollapsedDataParallel_1_71016", push="516", pop="516", peek="516", pushType="float", popType="float", peekType="float", codeSize="54 b", stackSize="96 b", work="143"];
node2 -> node9;
node10 [label="Post_CollapsedDataParallel_1_71017", push="516", pop="516", peek="516", pushType="float", popType="float", peekType="float", codeSize="54 b", stackSize="96 b", work="143"];
node2 -> node10;
node11 [label="Post_CollapsedDataParallel_1_71018", push="516", pop="516", peek="516", pushType="float", popType="float", peekType="float", codeSize="54 b", stackSize="96 b", work="143"];
node2 -> node11;
node12 [label="Post_CollapsedDataParallel_1_71019", push="516", pop="516", peek="516", pushType="float", popType="float", peekType="float", codeSize="54 b", stackSize="96 b", work="143"];
node2 -> node12;
node13 [label="Post_CollapsedDataParallel_1_71020", push="516", pop="516", peek="516", pushType="float", popType="float", peekType="float", codeSize="54 b", stackSize="96 b", work="143"];
node2 -> node13;
node14 [label="Post_CollapsedDataParallel_1_71021", push="516", pop="516", peek="516", pushType="float", popType="float", peekType="float", codeSize="54 b", stackSize="96 b", work="143"];
node2 -> node14;
node15 [label="WEIGHTED_ROUND_ROBIN_Joiner_71009", push="6192", pop="6192", peek="0", pushType="float", popType="float", peekType="void", codeSize="222 b", stackSize="416 b", work="0"];
node3 -> node15;
node4 -> node15;
node5 -> node15;
node6 -> node15;
node7 -> node15;
node8 -> node15;
node9 -> node15;
node10 -> node15;
node11 -> node15;
node12 -> node15;
node13 -> node15;
node14 -> node15;
node16 [label="Identity_70875", push="6192", pop="6192", peek="6192", pushType="float", popType="float", peekType="float", codeSize="12 b", stackSize="32 b", work="6"];
node15 -> node16;
node17 [label="WEIGHTED_ROUND_ROBIN_Splitter_71022", push="6192", pop="6192", peek="0", pushType="float", popType="float", peekType="void", codeSize="60 b", stackSize="128 b", work="0"];
node16 -> node17;
node18 [label="Pre_CollapsedDataParallel_2_71024", push="2064", pop="2064", peek="2064", pushType="float", popType="float", peekType="float", codeSize="50 b", stackSize="96 b", work="489"];
node17 -> node18;
node19 [label="Pre_CollapsedDataParallel_2_71025", push="2064", pop="2064", peek="2064", pushType="float", popType="float", peekType="float", codeSize="50 b", stackSize="96 b", work="489"];
node17 -> node19;
node20 [label="Pre_CollapsedDataParallel_2_71026", push="2064", pop="2064", peek="2064", pushType="float", popType="float", peekType="float", codeSize="50 b", stackSize="96 b", work="489"];
node17 -> node20;
node21 [label="WEIGHTED_ROUND_ROBIN_Joiner_71023", push="6192", pop="6192", peek="0", pushType="float", popType="float", peekType="void", codeSize="60 b", stackSize="128 b", work="0"];
node18 -> node21;
node19 -> node21;
node20 -> node21;
node22 [label="WEIGHTED_ROUND_ROBIN_Splitter_71027", push="6192", pop="6192", peek="0", pushType="float", popType="float", peekType="void", codeSize="522 b", stackSize="32 b", work="0"];
node21 -> node22;
node23 [label="AutoGeneratedExpander_71029", push="432", pop="144", peek="144", pushType="float", popType="float", peekType="float", codeSize="32 b", stackSize="32 b", work="27"];
node22 -> node23;
node24 [label="AutoGeneratedExpander_71030", push="432", pop="144", peek="144", pushType="float", popType="float", peekType="float", codeSize="32 b", stackSize="32 b", work="27"];
node22 -> node24;
node25 [label="AutoGeneratedExpander_71031", push="432", pop="144", peek="144", pushType="float", popType="float", peekType="float", codeSize="32 b", stackSize="32 b", work="27"];
node22 -> node25;
node26 [label="AutoGeneratedExpander_71032", push="432", pop="144", peek="144", pushType="float", popType="float", peekType="float", codeSize="32 b", stackSize="32 b", work="27"];
node22 -> node26;
node27 [label="AutoGeneratedExpander_71033", push="432", pop="144", peek="144", pushType="float", popType="float", peekType="float", codeSize="32 b", stackSize="32 b", work="27"];
node22 -> node27;
node28 [label="AutoGeneratedExpander_71034", push="432", pop="144", peek="144", pushType="float", popType="float", peekType="float", codeSize="32 b", stackSize="32 b", work="27"];
node22 -> node28;
node29 [label="AutoGeneratedExpander_71035", push="432", pop="144", peek="144", pushType="float", popType="float", peekType="float", codeSize="32 b", stackSize="32 b", work="27"];
node22 -> node29;
node30 [label="AutoGeneratedExpander_71036", push="432", pop="144", peek="144", pushType="float", popType="float", peekType="float", codeSize="32 b", stackSize="32 b", work="27"];
node22 -> node30;
node31 [label="AutoGeneratedExpander_71037", push="432", pop="144", peek="144", pushType="float", popType="float", peekType="float", codeSize="32 b", stackSize="32 b", work="27"];
node22 -> node31;
node32 [label="AutoGeneratedExpander_71038", push="432", pop="144", peek="144", pushType="float", popType="float", peekType="float", codeSize="32 b", stackSize="32 b", work="27"];
node22 -> node32;
node33 [label="AutoGeneratedExpander_71039", push="432", pop="144", peek="144", pushType="float", popType="float", peekType="float", codeSize="32 b", stackSize="32 b", work="27"];
node22 -> node33;
node34 [label="AutoGeneratedExpander_71040", push="432", pop="144", peek="144", pushType="float", popType="float", peekType="float", codeSize="32 b", stackSize="32 b", work="27"];
node22 -> node34;
node35 [label="AutoGeneratedExpander_71041", push="432", pop="144", peek="144", pushType="float", popType="float", peekType="float", codeSize="32 b", stackSize="32 b", work="27"];
node22 -> node35;
node36 [label="AutoGeneratedExpander_71042", push="432", pop="144", peek="144", pushType="float", popType="float", peekType="float", codeSize="32 b", stackSize="32 b", work="27"];
node22 -> node36;
node37 [label="AutoGeneratedExpander_71043", push="432", pop="144", peek="144", pushType="float", popType="float", peekType="float", codeSize="32 b", stackSize="32 b", work="27"];
node22 -> node37;
node38 [label="AutoGeneratedExpander_71044", push="432", pop="144", peek="144", pushType="float", popType="float", peekType="float", codeSize="32 b", stackSize="32 b", work="27"];
node22 -> node38;
node39 [label="AutoGeneratedExpander_71045", push="432", pop="144", peek="144", pushType="float", popType="float", peekType="float", codeSize="32 b", stackSize="32 b", work="27"];
node22 -> node39;
node40 [label="AutoGeneratedExpander_71046", push="432", pop="144", peek="144", pushType="float", popType="float", peekType="float", codeSize="32 b", stackSize="32 b", work="27"];
node22 -> node40;
node41 [label="AutoGeneratedExpander_71047", push="432", pop="144", peek="144", pushType="float", popType="float", peekType="float", codeSize="32 b", stackSize="32 b", work="27"];
node22 -> node41;
node42 [label="AutoGeneratedExpander_71048", push="432", pop="144", peek="144", pushType="float", popType="float", peekType="float", codeSize="32 b", stackSize="32 b", work="27"];
node22 -> node42;
node43 [label="AutoGeneratedExpander_71049", push="432", pop="144", peek="144", pushType="float", popType="float", peekType="float", codeSize="32 b", stackSize="32 b", work="27"];
node22 -> node43;
node44 [label="AutoGeneratedExpander_71050", push="432", pop="144", peek="144", pushType="float", popType="float", peekType="float", codeSize="32 b", stackSize="32 b", work="27"];
node22 -> node44;
node45 [label="AutoGeneratedExpander_71051", push="432", pop="144", peek="144", pushType="float", popType="float", peekType="float", codeSize="32 b", stackSize="32 b", work="27"];
node22 -> node45;
node46 [label="AutoGeneratedExpander_71052", push="432", pop="144", peek="144", pushType="float", popType="float", peekType="float", codeSize="32 b", stackSize="32 b", work="27"];
node22 -> node46;
node47 [label="AutoGeneratedExpander_71053", push="432", pop="144", peek="144", pushType="float", popType="float", peekType="float", codeSize="32 b", stackSize="32 b", work="27"];
node22 -> node47;
node48 [label="AutoGeneratedExpander_71054", push="432", pop="144", peek="144", pushType="float", popType="float", peekType="float", codeSize="32 b", stackSize="32 b", work="27"];
node22 -> node48;
node49 [label="AutoGeneratedExpander_71055", push="432", pop="144", peek="144", pushType="float", popType="float", peekType="float", codeSize="32 b", stackSize="32 b", work="27"];
node22 -> node49;
node50 [label="AutoGeneratedExpander_71056", push="432", pop="144", peek="144", pushType="float", popType="float", peekType="float", codeSize="32 b", stackSize="32 b", work="27"];
node22 -> node50;
node51 [label="AutoGeneratedExpander_71057", push="432", pop="144", peek="144", pushType="float", popType="float", peekType="float", codeSize="32 b", stackSize="32 b", work="27"];
node22 -> node51;
node52 [label="AutoGeneratedExpander_71058", push="432", pop="144", peek="144", pushType="float", popType="float", peekType="float", codeSize="32 b", stackSize="32 b", work="27"];
node22 -> node52;
node53 [label="AutoGeneratedExpander_71059", push="432", pop="144", peek="144", pushType="float", popType="float", peekType="float", codeSize="32 b", stackSize="32 b", work="27"];
node22 -> node53;
node54 [label="AutoGeneratedExpander_71060", push="432", pop="144", peek="144", pushType="float", popType="float", peekType="float", codeSize="32 b", stackSize="32 b", work="27"];
node22 -> node54;
node55 [label="AutoGeneratedExpander_71061", push="432", pop="144", peek="144", pushType="float", popType="float", peekType="float", codeSize="32 b", stackSize="32 b", work="27"];
node22 -> node55;
node56 [label="AutoGeneratedExpander_71062", push="432", pop="144", peek="144", pushType="float", popType="float", peekType="float", codeSize="32 b", stackSize="32 b", work="27"];
node22 -> node56;
node57 [label="AutoGeneratedExpander_71063", push="432", pop="144", peek="144", pushType="float", popType="float", peekType="float", codeSize="32 b", stackSize="32 b", work="27"];
node22 -> node57;
node58 [label="AutoGeneratedExpander_71064", push="432", pop="144", peek="144", pushType="float", popType="float", peekType="float", codeSize="32 b", stackSize="32 b", work="27"];
node22 -> node58;
node59 [label="AutoGeneratedExpander_71065", push="432", pop="144", peek="144", pushType="float", popType="float", peekType="float", codeSize="32 b", stackSize="32 b", work="27"];
node22 -> node59;
node60 [label="AutoGeneratedExpander_71066", push="432", pop="144", peek="144", pushType="float", popType="float", peekType="float", codeSize="32 b", stackSize="32 b", work="27"];
node22 -> node60;
node61 [label="AutoGeneratedExpander_71067", push="432", pop="144", peek="144", pushType="float", popType="float", peekType="float", codeSize="32 b", stackSize="32 b", work="27"];
node22 -> node61;
node62 [label="AutoGeneratedExpander_71068", push="432", pop="144", peek="144", pushType="float", popType="float", peekType="float", codeSize="32 b", stackSize="32 b", work="27"];
node22 -> node62;
node63 [label="AutoGeneratedExpander_71069", push="432", pop="144", peek="144", pushType="float", popType="float", peekType="float", codeSize="32 b", stackSize="32 b", work="27"];
node22 -> node63;
node64 [label="AutoGeneratedExpander_71070", push="432", pop="144", peek="144", pushType="float", popType="float", peekType="float", codeSize="32 b", stackSize="32 b", work="27"];
node22 -> node64;
node65 [label="AutoGeneratedExpander_71071", push="432", pop="144", peek="144", pushType="float", popType="float", peekType="float", codeSize="32 b", stackSize="32 b", work="27"];
node22 -> node65;
node66 [label="WEIGHTED_ROUND_ROBIN_Joiner_71028", push="18576", pop="18576", peek="0", pushType="float", popType="float", peekType="void", codeSize="780 b", stackSize="1408 b", work="0"];
node23 -> node66;
node24 -> node66;
node25 -> node66;
node26 -> node66;
node27 -> node66;
node28 -> node66;
node29 -> node66;
node30 -> node66;
node31 -> node66;
node32 -> node66;
node33 -> node66;
node34 -> node66;
node35 -> node66;
node36 -> node66;
node37 -> node66;
node38 -> node66;
node39 -> node66;
node40 -> node66;
node41 -> node66;
node42 -> node66;
node43 -> node66;
node44 -> node66;
node45 -> node66;
node46 -> node66;
node47 -> node66;
node48 -> node66;
node49 -> node66;
node50 -> node66;
node51 -> node66;
node52 -> node66;
node53 -> node66;
node54 -> node66;
node55 -> node66;
node56 -> node66;
node57 -> node66;
node58 -> node66;
node59 -> node66;
node60 -> node66;
node61 -> node66;
node62 -> node66;
node63 -> node66;
node64 -> node66;
node65 -> node66;
node67 [label="Identity_70878", push="18576", pop="18576", peek="18576", pushType="float", popType="float", peekType="float", codeSize="12 b", stackSize="32 b", work="6"];
node66 -> node67;
node68 [label="WEIGHTED_ROUND_ROBIN_Splitter_71072", push="18576", pop="18576", peek="0", pushType="float", popType="float", peekType="void", codeSize="60 b", stackSize="128 b", work="0"];
node67 -> node68;
node69 [label="Pre_CollapsedDataParallel_2_71074", push="6192", pop="6192", peek="6192", pushType="float", popType="float", peekType="float", codeSize="50 b", stackSize="96 b", work="1449"];
node68 -> node69;
node70 [label="Pre_CollapsedDataParallel_2_71075", push="6192", pop="6192", peek="6192", pushType="float", popType="float", peekType="float", codeSize="50 b", stackSize="96 b", work="1449"];
node68 -> node70;
node71 [label="Pre_CollapsedDataParallel_2_71076", push="6192", pop="6192", peek="6192", pushType="float", popType="float", peekType="float", codeSize="50 b", stackSize="96 b", work="1449"];
node68 -> node71;
node72 [label="WEIGHTED_ROUND_ROBIN_Joiner_71073", push="18576", pop="18576", peek="0", pushType="float", popType="float", peekType="void", codeSize="60 b", stackSize="128 b", work="0"];
node69 -> node72;
node70 -> node72;
node71 -> node72;
node73 [label="Identity_70882", push="4644", pop="4644", peek="4644", pushType="float", popType="float", peekType="float", codeSize="12 b", stackSize="32 b", work="6"];
node1 -> node73;
node74 [label="Pre_CollapsedDataParallel_2_70994", push="4644", pop="4644", peek="4644", pushType="float", popType="float", peekType="float", codeSize="50 b", stackSize="96 b", work="1101"];
node73 -> node74;
node75 [label="WEIGHTED_ROUND_ROBIN_Splitter_71077", push="4644", pop="4644", peek="0", pushType="float", popType="float", peekType="void", codeSize="168 b", stackSize="320 b", work="0"];
node74 -> node75;
node76 [label="Post_CollapsedDataParallel_1_71079", push="516", pop="516", peek="516", pushType="float", popType="float", peekType="float", codeSize="54 b", stackSize="96 b", work="143"];
node75 -> node76;
node77 [label="Post_CollapsedDataParallel_1_71080", push="516", pop="516", peek="516", pushType="float", popType="float", peekType="float", codeSize="54 b", stackSize="96 b", work="143"];
node75 -> node77;
node78 [label="Post_CollapsedDataParallel_1_71081", push="516", pop="516", peek="516", pushType="float", popType="float", peekType="float", codeSize="54 b", stackSize="96 b", work="143"];
node75 -> node78;
node79 [label="Post_CollapsedDataParallel_1_71082", push="516", pop="516", peek="516", pushType="float", popType="float", peekType="float", codeSize="54 b", stackSize="96 b", work="143"];
node75 -> node79;
node80 [label="Post_CollapsedDataParallel_1_71083", push="516", pop="516", peek="516", pushType="float", popType="float", peekType="float", codeSize="54 b", stackSize="96 b", work="143"];
node75 -> node80;
node81 [label="Post_CollapsedDataParallel_1_71084", push="516", pop="516", peek="516", pushType="float", popType="float", peekType="float", codeSize="54 b", stackSize="96 b", work="143"];
node75 -> node81;
node82 [label="Post_CollapsedDataParallel_1_71085", push="516", pop="516", peek="516", pushType="float", popType="float", peekType="float", codeSize="54 b", stackSize="96 b", work="143"];
node75 -> node82;
node83 [label="Post_CollapsedDataParallel_1_71086", push="516", pop="516", peek="516", pushType="float", popType="float", peekType="float", codeSize="54 b", stackSize="96 b", work="143"];
node75 -> node83;
node84 [label="Post_CollapsedDataParallel_1_71087", push="516", pop="516", peek="516", pushType="float", popType="float", peekType="float", codeSize="54 b", stackSize="96 b", work="143"];
node75 -> node84;
node85 [label="WEIGHTED_ROUND_ROBIN_Joiner_71078", push="4644", pop="4644", peek="0", pushType="float", popType="float", peekType="void", codeSize="168 b", stackSize="320 b", work="0"];
node76 -> node85;
node77 -> node85;
node78 -> node85;
node79 -> node85;
node80 -> node85;
node81 -> node85;
node82 -> node85;
node83 -> node85;
node84 -> node85;
node86 [label="Identity_70891", push="4644", pop="4644", peek="4644", pushType="float", popType="float", peekType="float", codeSize="12 b", stackSize="32 b", work="6"];
node85 -> node86;
node87 [label="WEIGHTED_ROUND_ROBIN_Splitter_71088", push="4644", pop="4644", peek="0", pushType="float", popType="float", peekType="void", codeSize="60 b", stackSize="128 b", work="0"];
node86 -> node87;
node88 [label="Pre_CollapsedDataParallel_2_71090", push="1548", pop="1548", peek="1548", pushType="float", popType="float", peekType="float", codeSize="50 b", stackSize="96 b", work="369"];
node87 -> node88;
node89 [label="Pre_CollapsedDataParallel_2_71091", push="1548", pop="1548", peek="1548", pushType="float", popType="float", peekType="float", codeSize="50 b", stackSize="96 b", work="369"];
node87 -> node89;
node90 [label="Pre_CollapsedDataParallel_2_71092", push="1548", pop="1548", peek="1548", pushType="float", popType="float", peekType="float", codeSize="50 b", stackSize="96 b", work="369"];
node87 -> node90;
node91 [label="WEIGHTED_ROUND_ROBIN_Joiner_71089", push="4644", pop="4644", peek="0", pushType="float", popType="float", peekType="void", codeSize="60 b", stackSize="128 b", work="0"];
node88 -> node91;
node89 -> node91;
node90 -> node91;
node92 [label="WEIGHTED_ROUND_ROBIN_Splitter_71093", push="4644", pop="4644", peek="0", pushType="float", popType="float", peekType="void", codeSize="522 b", stackSize="32 b", work="0"];
node91 -> node92;
node93 [label="AutoGeneratedExpander_71095", push="324", pop="108", peek="108", pushType="float", popType="float", peekType="float", codeSize="32 b", stackSize="32 b", work="27"];
node92 -> node93;
node94 [label="AutoGeneratedExpander_71096", push="324", pop="108", peek="108", pushType="float", popType="float", peekType="float", codeSize="32 b", stackSize="32 b", work="27"];
node92 -> node94;
node95 [label="AutoGeneratedExpander_71097", push="324", pop="108", peek="108", pushType="float", popType="float", peekType="float", codeSize="32 b", stackSize="32 b", work="27"];
node92 -> node95;
node96 [label="AutoGeneratedExpander_71098", push="324", pop="108", peek="108", pushType="float", popType="float", peekType="float", codeSize="32 b", stackSize="32 b", work="27"];
node92 -> node96;
node97 [label="AutoGeneratedExpander_71099", push="324", pop="108", peek="108", pushType="float", popType="float", peekType="float", codeSize="32 b", stackSize="32 b", work="27"];
node92 -> node97;
node98 [label="AutoGeneratedExpander_71100", push="324", pop="108", peek="108", pushType="float", popType="float", peekType="float", codeSize="32 b", stackSize="32 b", work="27"];
node92 -> node98;
node99 [label="AutoGeneratedExpander_71101", push="324", pop="108", peek="108", pushType="float", popType="float", peekType="float", codeSize="32 b", stackSize="32 b", work="27"];
node92 -> node99;
node100 [label="AutoGeneratedExpander_71102", push="324", pop="108", peek="108", pushType="float", popType="float", peekType="float", codeSize="32 b", stackSize="32 b", work="27"];
node92 -> node100;
node101 [label="AutoGeneratedExpander_71103", push="324", pop="108", peek="108", pushType="float", popType="float", peekType="float", codeSize="32 b", stackSize="32 b", work="27"];
node92 -> node101;
node102 [label="AutoGeneratedExpander_71104", push="324", pop="108", peek="108", pushType="float", popType="float", peekType="float", codeSize="32 b", stackSize="32 b", work="27"];
node92 -> node102;
node103 [label="AutoGeneratedExpander_71105", push="324", pop="108", peek="108", pushType="float", popType="float", peekType="float", codeSize="32 b", stackSize="32 b", work="27"];
node92 -> node103;
node104 [label="AutoGeneratedExpander_71106", push="324", pop="108", peek="108", pushType="float", popType="float", peekType="float", codeSize="32 b", stackSize="32 b", work="27"];
node92 -> node104;
node105 [label="AutoGeneratedExpander_71107", push="324", pop="108", peek="108", pushType="float", popType="float", peekType="float", codeSize="32 b", stackSize="32 b", work="27"];
node92 -> node105;
node106 [label="AutoGeneratedExpander_71108", push="324", pop="108", peek="108", pushType="float", popType="float", peekType="float", codeSize="32 b", stackSize="32 b", work="27"];
node92 -> node106;
node107 [label="AutoGeneratedExpander_71109", push="324", pop="108", peek="108", pushType="float", popType="float", peekType="float", codeSize="32 b", stackSize="32 b", work="27"];
node92 -> node107;
node108 [label="AutoGeneratedExpander_71110", push="324", pop="108", peek="108", pushType="float", popType="float", peekType="float", codeSize="32 b", stackSize="32 b", work="27"];
node92 -> node108;
node109 [label="AutoGeneratedExpander_71111", push="324", pop="108", peek="108", pushType="float", popType="float", peekType="float", codeSize="32 b", stackSize="32 b", work="27"];
node92 -> node109;
node110 [label="AutoGeneratedExpander_71112", push="324", pop="108", peek="108", pushType="float", popType="float", peekType="float", codeSize="32 b", stackSize="32 b", work="27"];
node92 -> node110;
node111 [label="AutoGeneratedExpander_71113", push="324", pop="108", peek="108", pushType="float", popType="float", peekType="float", codeSize="32 b", stackSize="32 b", work="27"];
node92 -> node111;
node112 [label="AutoGeneratedExpander_71114", push="324", pop="108", peek="108", pushType="float", popType="float", peekType="float", codeSize="32 b", stackSize="32 b", work="27"];
node92 -> node112;
node113 [label="AutoGeneratedExpander_71115", push="324", pop="108", peek="108", pushType="float", popType="float", peekType="float", codeSize="32 b", stackSize="32 b", work="27"];
node92 -> node113;
node114 [label="AutoGeneratedExpander_71116", push="324", pop="108", peek="108", pushType="float", popType="float", peekType="float", codeSize="32 b", stackSize="32 b", work="27"];
node92 -> node114;
node115 [label="AutoGeneratedExpander_71117", push="324", pop="108", peek="108", pushType="float", popType="float", peekType="float", codeSize="32 b", stackSize="32 b", work="27"];
node92 -> node115;
node116 [label="AutoGeneratedExpander_71118", push="324", pop="108", peek="108", pushType="float", popType="float", peekType="float", codeSize="32 b", stackSize="32 b", work="27"];
node92 -> node116;
node117 [label="AutoGeneratedExpander_71119", push="324", pop="108", peek="108", pushType="float", popType="float", peekType="float", codeSize="32 b", stackSize="32 b", work="27"];
node92 -> node117;
node118 [label="AutoGeneratedExpander_71120", push="324", pop="108", peek="108", pushType="float", popType="float", peekType="float", codeSize="32 b", stackSize="32 b", work="27"];
node92 -> node118;
node119 [label="AutoGeneratedExpander_71121", push="324", pop="108", peek="108", pushType="float", popType="float", peekType="float", codeSize="32 b", stackSize="32 b", work="27"];
node92 -> node119;
node120 [label="AutoGeneratedExpander_71122", push="324", pop="108", peek="108", pushType="float", popType="float", peekType="float", codeSize="32 b", stackSize="32 b", work="27"];
node92 -> node120;
node121 [label="AutoGeneratedExpander_71123", push="324", pop="108", peek="108", pushType="float", popType="float", peekType="float", codeSize="32 b", stackSize="32 b", work="27"];
node92 -> node121;
node122 [label="AutoGeneratedExpander_71124", push="324", pop="108", peek="108", pushType="float", popType="float", peekType="float", codeSize="32 b", stackSize="32 b", work="27"];
node92 -> node122;
node123 [label="AutoGeneratedExpander_71125", push="324", pop="108", peek="108", pushType="float", popType="float", peekType="float", codeSize="32 b", stackSize="32 b", work="27"];
node92 -> node123;
node124 [label="AutoGeneratedExpander_71126", push="324", pop="108", peek="108", pushType="float", popType="float", peekType="float", codeSize="32 b", stackSize="32 b", work="27"];
node92 -> node124;
node125 [label="AutoGeneratedExpander_71127", push="324", pop="108", peek="108", pushType="float", popType="float", peekType="float", codeSize="32 b", stackSize="32 b", work="27"];
node92 -> node125;
node126 [label="AutoGeneratedExpander_71128", push="324", pop="108", peek="108", pushType="float", popType="float", peekType="float", codeSize="32 b", stackSize="32 b", work="27"];
node92 -> node126;
node127 [label="AutoGeneratedExpander_71129", push="324", pop="108", peek="108", pushType="float", popType="float", peekType="float", codeSize="32 b", stackSize="32 b", work="27"];
node92 -> node127;
node128 [label="AutoGeneratedExpander_71130", push="324", pop="108", peek="108", pushType="float", popType="float", peekType="float", codeSize="32 b", stackSize="32 b", work="27"];
node92 -> node128;
node129 [label="AutoGeneratedExpander_71131", push="324", pop="108", peek="108", pushType="float", popType="float", peekType="float", codeSize="32 b", stackSize="32 b", work="27"];
node92 -> node129;
node130 [label="AutoGeneratedExpander_71132", push="324", pop="108", peek="108", pushType="float", popType="float", peekType="float", codeSize="32 b", stackSize="32 b", work="27"];
node92 -> node130;
node131 [label="AutoGeneratedExpander_71133", push="324", pop="108", peek="108", pushType="float", popType="float", peekType="float", codeSize="32 b", stackSize="32 b", work="27"];
node92 -> node131;
node132 [label="AutoGeneratedExpander_71134", push="324", pop="108", peek="108", pushType="float", popType="float", peekType="float", codeSize="32 b", stackSize="32 b", work="27"];
node92 -> node132;
node133 [label="AutoGeneratedExpander_71135", push="324", pop="108", peek="108", pushType="float", popType="float", peekType="float", codeSize="32 b", stackSize="32 b", work="27"];
node92 -> node133;
node134 [label="AutoGeneratedExpander_71136", push="324", pop="108", peek="108", pushType="float", popType="float", peekType="float", codeSize="32 b", stackSize="32 b", work="27"];
node92 -> node134;
node135 [label="AutoGeneratedExpander_71137", push="324", pop="108", peek="108", pushType="float", popType="float", peekType="float", codeSize="32 b", stackSize="32 b", work="27"];
node92 -> node135;
node136 [label="WEIGHTED_ROUND_ROBIN_Joiner_71094", push="13932", pop="13932", peek="0", pushType="float", popType="float", peekType="void", codeSize="780 b", stackSize="1408 b", work="0"];
node93 -> node136;
node94 -> node136;
node95 -> node136;
node96 -> node136;
node97 -> node136;
node98 -> node136;
node99 -> node136;
node100 -> node136;
node101 -> node136;
node102 -> node136;
node103 -> node136;
node104 -> node136;
node105 -> node136;
node106 -> node136;
node107 -> node136;
node108 -> node136;
node109 -> node136;
node110 -> node136;
node111 -> node136;
node112 -> node136;
node113 -> node136;
node114 -> node136;
node115 -> node136;
node116 -> node136;
node117 -> node136;
node118 -> node136;
node119 -> node136;
node120 -> node136;
node121 -> node136;
node122 -> node136;
node123 -> node136;
node124 -> node136;
node125 -> node136;
node126 -> node136;
node127 -> node136;
node128 -> node136;
node129 -> node136;
node130 -> node136;
node131 -> node136;
node132 -> node136;
node133 -> node136;
node134 -> node136;
node135 -> node136;
node137 [label="Identity_70894", push="13932", pop="13932", peek="13932", pushType="float", popType="float", peekType="float", codeSize="12 b", stackSize="32 b", work="6"];
node136 -> node137;
node138 [label="Pre_CollapsedDataParallel_2_70997", push="13932", pop="13932", peek="13932", pushType="float", popType="float", peekType="float", codeSize="50 b", stackSize="96 b", work="3249"];
node137 -> node138;
node139 [label="WEIGHTED_ROUND_ROBIN_Joiner_71001", push="32508", pop="32508", peek="0", pushType="float", popType="float", peekType="void", codeSize="42 b", stackSize="96 b", work="0"];
node72 -> node139;
node138 -> node139;
node140 [label="WEIGHTED_ROUND_ROBIN_Splitter_71138", push="32508", pop="32508", peek="0", pushType="float", popType="float", peekType="void", codeSize="492 b", stackSize="896 b", work="0"];
node139 -> node140;
node141 [label="BlockMultiply_71140", push="516", pop="1204", peek="1204", pushType="float", popType="float", peekType="float", codeSize="102 b", stackSize="256 b", work="1024"];
node140 -> node141;
node142 [label="BlockMultiply_71141", push="516", pop="1204", peek="1204", pushType="float", popType="float", peekType="float", codeSize="102 b", stackSize="256 b", work="1024"];
node140 -> node142;
node143 [label="BlockMultiply_71142", push="516", pop="1204", peek="1204", pushType="float", popType="float", peekType="float", codeSize="102 b", stackSize="256 b", work="1024"];
node140 -> node143;
node144 [label="BlockMultiply_71143", push="516", pop="1204", peek="1204", pushType="float", popType="float", peekType="float", codeSize="102 b", stackSize="256 b", work="1024"];
node140 -> node144;
node145 [label="BlockMultiply_71144", push="516", pop="1204", peek="1204", pushType="float", popType="float", peekType="float", codeSize="102 b", stackSize="256 b", work="1024"];
node140 -> node145;
node146 [label="BlockMultiply_71145", push="516", pop="1204", peek="1204", pushType="float", popType="float", peekType="float", codeSize="102 b", stackSize="256 b", work="1024"];
node140 -> node146;
node147 [label="BlockMultiply_71146", push="516", pop="1204", peek="1204", pushType="float", popType="float", peekType="float", codeSize="102 b", stackSize="256 b", work="1024"];
node140 -> node147;
node148 [label="BlockMultiply_71147", push="516", pop="1204", peek="1204", pushType="float", popType="float", peekType="float", codeSize="102 b", stackSize="256 b", work="1024"];
node140 -> node148;
node149 [label="BlockMultiply_71148", push="516", pop="1204", peek="1204", pushType="float", popType="float", peekType="float", codeSize="102 b", stackSize="256 b", work="1024"];
node140 -> node149;
node150 [label="BlockMultiply_71149", push="516", pop="1204", peek="1204", pushType="float", popType="float", peekType="float", codeSize="102 b", stackSize="256 b", work="1024"];
node140 -> node150;
node151 [label="BlockMultiply_71150", push="516", pop="1204", peek="1204", pushType="float", popType="float", peekType="float", codeSize="102 b", stackSize="256 b", work="1024"];
node140 -> node151;
node152 [label="BlockMultiply_71151", push="516", pop="1204", peek="1204", pushType="float", popType="float", peekType="float", codeSize="102 b", stackSize="256 b", work="1024"];
node140 -> node152;
node153 [label="BlockMultiply_71152", push="516", pop="1204", peek="1204", pushType="float", popType="float", peekType="float", codeSize="102 b", stackSize="256 b", work="1024"];
node140 -> node153;
node154 [label="BlockMultiply_71153", push="516", pop="1204", peek="1204", pushType="float", popType="float", peekType="float", codeSize="102 b", stackSize="256 b", work="1024"];
node140 -> node154;
node155 [label="BlockMultiply_71154", push="516", pop="1204", peek="1204", pushType="float", popType="float", peekType="float", codeSize="102 b", stackSize="256 b", work="1024"];
node140 -> node155;
node156 [label="BlockMultiply_71155", push="516", pop="1204", peek="1204", pushType="float", popType="float", peekType="float", codeSize="102 b", stackSize="256 b", work="1024"];
node140 -> node156;
node157 [label="BlockMultiply_71156", push="516", pop="1204", peek="1204", pushType="float", popType="float", peekType="float", codeSize="102 b", stackSize="256 b", work="1024"];
node140 -> node157;
node158 [label="BlockMultiply_71157", push="516", pop="1204", peek="1204", pushType="float", popType="float", peekType="float", codeSize="102 b", stackSize="256 b", work="1024"];
node140 -> node158;
node159 [label="BlockMultiply_71158", push="516", pop="1204", peek="1204", pushType="float", popType="float", peekType="float", codeSize="102 b", stackSize="256 b", work="1024"];
node140 -> node159;
node160 [label="BlockMultiply_71159", push="516", pop="1204", peek="1204", pushType="float", popType="float", peekType="float", codeSize="102 b", stackSize="256 b", work="1024"];
node140 -> node160;
node161 [label="BlockMultiply_71160", push="516", pop="1204", peek="1204", pushType="float", popType="float", peekType="float", codeSize="102 b", stackSize="256 b", work="1024"];
node140 -> node161;
node162 [label="BlockMultiply_71161", push="516", pop="1204", peek="1204", pushType="float", popType="float", peekType="float", codeSize="102 b", stackSize="256 b", work="1024"];
node140 -> node162;
node163 [label="BlockMultiply_71162", push="516", pop="1204", peek="1204", pushType="float", popType="float", peekType="float", codeSize="102 b", stackSize="256 b", work="1024"];
node140 -> node163;
node164 [label="BlockMultiply_71163", push="516", pop="1204", peek="1204", pushType="float", popType="float", peekType="float", codeSize="102 b", stackSize="256 b", work="1024"];
node140 -> node164;
node165 [label="BlockMultiply_71164", push="516", pop="1204", peek="1204", pushType="float", popType="float", peekType="float", codeSize="102 b", stackSize="256 b", work="1024"];
node140 -> node165;
node166 [label="BlockMultiply_71165", push="516", pop="1204", peek="1204", pushType="float", popType="float", peekType="float", codeSize="102 b", stackSize="256 b", work="1024"];
node140 -> node166;
node167 [label="BlockMultiply_71166", push="516", pop="1204", peek="1204", pushType="float", popType="float", peekType="float", codeSize="102 b", stackSize="256 b", work="1024"];
node140 -> node167;
node168 [label="WEIGHTED_ROUND_ROBIN_Joiner_71139", push="13932", pop="13932", peek="0", pushType="float", popType="float", peekType="void", codeSize="492 b", stackSize="896 b", work="0"];
node141 -> node168;
node142 -> node168;
node143 -> node168;
node144 -> node168;
node145 -> node168;
node146 -> node168;
node147 -> node168;
node148 -> node168;
node149 -> node168;
node150 -> node168;
node151 -> node168;
node152 -> node168;
node153 -> node168;
node154 -> node168;
node155 -> node168;
node156 -> node168;
node157 -> node168;
node158 -> node168;
node159 -> node168;
node160 -> node168;
node161 -> node168;
node162 -> node168;
node163 -> node168;
node164 -> node168;
node165 -> node168;
node166 -> node168;
node167 -> node168;
node169 [label="BlockAdd_70898", push="4644", pop="13932", peek="13932", pushType="float", popType="float", peekType="float", codeSize="189 b", stackSize="96 b", work="468"];
node168 -> node169;
node170 [label="WEIGHTED_ROUND_ROBIN_Splitter_71167", push="4644", pop="4644", peek="0", pushType="float", popType="float", peekType="void", codeSize="168 b", stackSize="320 b", work="0"];
node169 -> node170;
node171 [label="Post_CollapsedDataParallel_1_71169", push="516", pop="516", peek="516", pushType="float", popType="float", peekType="float", codeSize="54 b", stackSize="96 b", work="141"];
node170 -> node171;
node172 [label="Post_CollapsedDataParallel_1_71170", push="516", pop="516", peek="516", pushType="float", popType="float", peekType="float", codeSize="54 b", stackSize="96 b", work="141"];
node170 -> node172;
node173 [label="Post_CollapsedDataParallel_1_71171", push="516", pop="516", peek="516", pushType="float", popType="float", peekType="float", codeSize="54 b", stackSize="96 b", work="141"];
node170 -> node173;
node174 [label="Post_CollapsedDataParallel_1_71172", push="516", pop="516", peek="516", pushType="float", popType="float", peekType="float", codeSize="54 b", stackSize="96 b", work="141"];
node170 -> node174;
node175 [label="Post_CollapsedDataParallel_1_71173", push="516", pop="516", peek="516", pushType="float", popType="float", peekType="float", codeSize="54 b", stackSize="96 b", work="141"];
node170 -> node175;
node176 [label="Post_CollapsedDataParallel_1_71174", push="516", pop="516", peek="516", pushType="float", popType="float", peekType="float", codeSize="54 b", stackSize="96 b", work="141"];
node170 -> node176;
node177 [label="Post_CollapsedDataParallel_1_71175", push="516", pop="516", peek="516", pushType="float", popType="float", peekType="float", codeSize="54 b", stackSize="96 b", work="141"];
node170 -> node177;
node178 [label="Post_CollapsedDataParallel_1_71176", push="516", pop="516", peek="516", pushType="float", popType="float", peekType="float", codeSize="54 b", stackSize="96 b", work="141"];
node170 -> node178;
node179 [label="Post_CollapsedDataParallel_1_71177", push="516", pop="516", peek="516", pushType="float", popType="float", peekType="float", codeSize="54 b", stackSize="96 b", work="141"];
node170 -> node179;
node180 [label="WEIGHTED_ROUND_ROBIN_Joiner_71168", push="4644", pop="4644", peek="0", pushType="float", popType="float", peekType="void", codeSize="168 b", stackSize="320 b", work="0"];
node171 -> node180;
node172 -> node180;
node173 -> node180;
node174 -> node180;
node175 -> node180;
node176 -> node180;
node177 -> node180;
node178 -> node180;
node179 -> node180;
node181 [label="Identity_70900", push="4644", pop="4644", peek="4644", pushType="float", popType="float", peekType="float", codeSize="12 b", stackSize="32 b", work="6"];
node180 -> node181;
node182 [label="WEIGHTED_ROUND_ROBIN_Splitter_71178", push="4644", pop="4644", peek="0", pushType="float", popType="float", peekType="void", codeSize="60 b", stackSize="128 b", work="0"];
node181 -> node182;
node183 [label="Pre_CollapsedDataParallel_2_71180", push="1548", pop="1548", peek="1548", pushType="float", popType="float", peekType="float", codeSize="50 b", stackSize="96 b", work="371"];
node182 -> node183;
node184 [label="Pre_CollapsedDataParallel_2_71181", push="1548", pop="1548", peek="1548", pushType="float", popType="float", peekType="float", codeSize="50 b", stackSize="96 b", work="371"];
node182 -> node184;
node185 [label="Pre_CollapsedDataParallel_2_71182", push="1548", pop="1548", peek="1548", pushType="float", popType="float", peekType="float", codeSize="50 b", stackSize="96 b", work="371"];
node182 -> node185;
node186 [label="WEIGHTED_ROUND_ROBIN_Joiner_71179", push="4644", pop="4644", peek="0", pushType="float", popType="float", peekType="void", codeSize="60 b", stackSize="128 b", work="0"];
node183 -> node186;
node184 -> node186;
node185 -> node186;
node187 [label="Printer_70904", push="0", pop="4644", peek="4644", pushType="void", popType="float", peekType="float", codeSize="16 b", stackSize="0 b", work="6"];
node186 -> node187;
}
