digraph MatrixMultBlock_57319 {
node0 [label="BlockFloatSource_56946", push="4284", pop="0", peek="0", pushType="float", popType="void", peekType="void", codeSize="26 b", stackSize="0 b", work="14"];
node1 [label="WEIGHTED_ROUND_ROBIN_Splitter_57075", push="4284", pop="4284", peek="0", pushType="float", popType="float", peekType="void", codeSize="42 b", stackSize="96 b", work="0"];
node0 -> node1;
node2 [label="WEIGHTED_ROUND_ROBIN_Splitter_57083", push="2448", pop="2448", peek="0", pushType="float", popType="float", peekType="void", codeSize="222 b", stackSize="416 b", work="0"];
node1 -> node2;
node3 [label="Post_CollapsedDataParallel_1_57085", push="204", pop="204", peek="204", pushType="float", popType="float", peekType="float", codeSize="54 b", stackSize="96 b", work="143"];
node2 -> node3;
node4 [label="Post_CollapsedDataParallel_1_57086", push="204", pop="204", peek="204", pushType="float", popType="float", peekType="float", codeSize="54 b", stackSize="96 b", work="143"];
node2 -> node4;
node5 [label="Post_CollapsedDataParallel_1_57087", push="204", pop="204", peek="204", pushType="float", popType="float", peekType="float", codeSize="54 b", stackSize="96 b", work="143"];
node2 -> node5;
node6 [label="Post_CollapsedDataParallel_1_57088", push="204", pop="204", peek="204", pushType="float", popType="float", peekType="float", codeSize="54 b", stackSize="96 b", work="143"];
node2 -> node6;
node7 [label="Post_CollapsedDataParallel_1_57089", push="204", pop="204", peek="204", pushType="float", popType="float", peekType="float", codeSize="54 b", stackSize="96 b", work="143"];
node2 -> node7;
node8 [label="Post_CollapsedDataParallel_1_57090", push="204", pop="204", peek="204", pushType="float", popType="float", peekType="float", codeSize="54 b", stackSize="96 b", work="143"];
node2 -> node8;
node9 [label="Post_CollapsedDataParallel_1_57091", push="204", pop="204", peek="204", pushType="float", popType="float", peekType="float", codeSize="54 b", stackSize="96 b", work="143"];
node2 -> node9;
node10 [label="Post_CollapsedDataParallel_1_57092", push="204", pop="204", peek="204", pushType="float", popType="float", peekType="float", codeSize="54 b", stackSize="96 b", work="143"];
node2 -> node10;
node11 [label="Post_CollapsedDataParallel_1_57093", push="204", pop="204", peek="204", pushType="float", popType="float", peekType="float", codeSize="54 b", stackSize="96 b", work="143"];
node2 -> node11;
node12 [label="Post_CollapsedDataParallel_1_57094", push="204", pop="204", peek="204", pushType="float", popType="float", peekType="float", codeSize="54 b", stackSize="96 b", work="143"];
node2 -> node12;
node13 [label="Post_CollapsedDataParallel_1_57095", push="204", pop="204", peek="204", pushType="float", popType="float", peekType="float", codeSize="54 b", stackSize="96 b", work="143"];
node2 -> node13;
node14 [label="Post_CollapsedDataParallel_1_57096", push="204", pop="204", peek="204", pushType="float", popType="float", peekType="float", codeSize="54 b", stackSize="96 b", work="143"];
node2 -> node14;
node15 [label="WEIGHTED_ROUND_ROBIN_Joiner_57084", push="2448", pop="2448", peek="0", pushType="float", popType="float", peekType="void", codeSize="222 b", stackSize="416 b", work="0"];
node3 -> node15;
node4 -> node15;
node5 -> node15;
node6 -> node15;
node7 -> node15;
node8 -> node15;
node9 -> node15;
node10 -> node15;
node11 -> node15;
node12 -> node15;
node13 -> node15;
node14 -> node15;
node16 [label="Identity_56950", push="2448", pop="2448", peek="2448", pushType="float", popType="float", peekType="float", codeSize="12 b", stackSize="32 b", work="6"];
node15 -> node16;
node17 [label="WEIGHTED_ROUND_ROBIN_Splitter_57097", push="2448", pop="2448", peek="0", pushType="float", popType="float", peekType="void", codeSize="60 b", stackSize="128 b", work="0"];
node16 -> node17;
node18 [label="Pre_CollapsedDataParallel_2_57099", push="816", pop="816", peek="816", pushType="float", popType="float", peekType="float", codeSize="50 b", stackSize="96 b", work="489"];
node17 -> node18;
node19 [label="Pre_CollapsedDataParallel_2_57100", push="816", pop="816", peek="816", pushType="float", popType="float", peekType="float", codeSize="50 b", stackSize="96 b", work="489"];
node17 -> node19;
node20 [label="Pre_CollapsedDataParallel_2_57101", push="816", pop="816", peek="816", pushType="float", popType="float", peekType="float", codeSize="50 b", stackSize="96 b", work="489"];
node17 -> node20;
node21 [label="WEIGHTED_ROUND_ROBIN_Joiner_57098", push="2448", pop="2448", peek="0", pushType="float", popType="float", peekType="void", codeSize="60 b", stackSize="128 b", work="0"];
node18 -> node21;
node19 -> node21;
node20 -> node21;
node22 [label="WEIGHTED_ROUND_ROBIN_Splitter_57102", push="2448", pop="2448", peek="0", pushType="float", popType="float", peekType="void", codeSize="822 b", stackSize="32 b", work="0"];
node21 -> node22;
node23 [label="AutoGeneratedExpander_57104", push="108", pop="36", peek="36", pushType="float", popType="float", peekType="float", codeSize="32 b", stackSize="32 b", work="27"];
node22 -> node23;
node24 [label="AutoGeneratedExpander_57105", push="108", pop="36", peek="36", pushType="float", popType="float", peekType="float", codeSize="32 b", stackSize="32 b", work="27"];
node22 -> node24;
node25 [label="AutoGeneratedExpander_57106", push="108", pop="36", peek="36", pushType="float", popType="float", peekType="float", codeSize="32 b", stackSize="32 b", work="27"];
node22 -> node25;
node26 [label="AutoGeneratedExpander_57107", push="108", pop="36", peek="36", pushType="float", popType="float", peekType="float", codeSize="32 b", stackSize="32 b", work="27"];
node22 -> node26;
node27 [label="AutoGeneratedExpander_57108", push="108", pop="36", peek="36", pushType="float", popType="float", peekType="float", codeSize="32 b", stackSize="32 b", work="27"];
node22 -> node27;
node28 [label="AutoGeneratedExpander_57109", push="108", pop="36", peek="36", pushType="float", popType="float", peekType="float", codeSize="32 b", stackSize="32 b", work="27"];
node22 -> node28;
node29 [label="AutoGeneratedExpander_57110", push="108", pop="36", peek="36", pushType="float", popType="float", peekType="float", codeSize="32 b", stackSize="32 b", work="27"];
node22 -> node29;
node30 [label="AutoGeneratedExpander_57111", push="108", pop="36", peek="36", pushType="float", popType="float", peekType="float", codeSize="32 b", stackSize="32 b", work="27"];
node22 -> node30;
node31 [label="AutoGeneratedExpander_57112", push="108", pop="36", peek="36", pushType="float", popType="float", peekType="float", codeSize="32 b", stackSize="32 b", work="27"];
node22 -> node31;
node32 [label="AutoGeneratedExpander_57113", push="108", pop="36", peek="36", pushType="float", popType="float", peekType="float", codeSize="32 b", stackSize="32 b", work="27"];
node22 -> node32;
node33 [label="AutoGeneratedExpander_57114", push="108", pop="36", peek="36", pushType="float", popType="float", peekType="float", codeSize="32 b", stackSize="32 b", work="27"];
node22 -> node33;
node34 [label="AutoGeneratedExpander_57115", push="108", pop="36", peek="36", pushType="float", popType="float", peekType="float", codeSize="32 b", stackSize="32 b", work="27"];
node22 -> node34;
node35 [label="AutoGeneratedExpander_57116", push="108", pop="36", peek="36", pushType="float", popType="float", peekType="float", codeSize="32 b", stackSize="32 b", work="27"];
node22 -> node35;
node36 [label="AutoGeneratedExpander_57117", push="108", pop="36", peek="36", pushType="float", popType="float", peekType="float", codeSize="32 b", stackSize="32 b", work="27"];
node22 -> node36;
node37 [label="AutoGeneratedExpander_57118", push="108", pop="36", peek="36", pushType="float", popType="float", peekType="float", codeSize="32 b", stackSize="32 b", work="27"];
node22 -> node37;
node38 [label="AutoGeneratedExpander_57119", push="108", pop="36", peek="36", pushType="float", popType="float", peekType="float", codeSize="32 b", stackSize="32 b", work="27"];
node22 -> node38;
node39 [label="AutoGeneratedExpander_57120", push="108", pop="36", peek="36", pushType="float", popType="float", peekType="float", codeSize="32 b", stackSize="32 b", work="27"];
node22 -> node39;
node40 [label="AutoGeneratedExpander_57121", push="108", pop="36", peek="36", pushType="float", popType="float", peekType="float", codeSize="32 b", stackSize="32 b", work="27"];
node22 -> node40;
node41 [label="AutoGeneratedExpander_57122", push="108", pop="36", peek="36", pushType="float", popType="float", peekType="float", codeSize="32 b", stackSize="32 b", work="27"];
node22 -> node41;
node42 [label="AutoGeneratedExpander_57123", push="108", pop="36", peek="36", pushType="float", popType="float", peekType="float", codeSize="32 b", stackSize="32 b", work="27"];
node22 -> node42;
node43 [label="AutoGeneratedExpander_57124", push="108", pop="36", peek="36", pushType="float", popType="float", peekType="float", codeSize="32 b", stackSize="32 b", work="27"];
node22 -> node43;
node44 [label="AutoGeneratedExpander_57125", push="108", pop="36", peek="36", pushType="float", popType="float", peekType="float", codeSize="32 b", stackSize="32 b", work="27"];
node22 -> node44;
node45 [label="AutoGeneratedExpander_57126", push="108", pop="36", peek="36", pushType="float", popType="float", peekType="float", codeSize="32 b", stackSize="32 b", work="27"];
node22 -> node45;
node46 [label="AutoGeneratedExpander_57127", push="108", pop="36", peek="36", pushType="float", popType="float", peekType="float", codeSize="32 b", stackSize="32 b", work="27"];
node22 -> node46;
node47 [label="AutoGeneratedExpander_57128", push="108", pop="36", peek="36", pushType="float", popType="float", peekType="float", codeSize="32 b", stackSize="32 b", work="27"];
node22 -> node47;
node48 [label="AutoGeneratedExpander_57129", push="108", pop="36", peek="36", pushType="float", popType="float", peekType="float", codeSize="32 b", stackSize="32 b", work="27"];
node22 -> node48;
node49 [label="AutoGeneratedExpander_57130", push="108", pop="36", peek="36", pushType="float", popType="float", peekType="float", codeSize="32 b", stackSize="32 b", work="27"];
node22 -> node49;
node50 [label="AutoGeneratedExpander_57131", push="108", pop="36", peek="36", pushType="float", popType="float", peekType="float", codeSize="32 b", stackSize="32 b", work="27"];
node22 -> node50;
node51 [label="AutoGeneratedExpander_57132", push="108", pop="36", peek="36", pushType="float", popType="float", peekType="float", codeSize="32 b", stackSize="32 b", work="27"];
node22 -> node51;
node52 [label="AutoGeneratedExpander_57133", push="108", pop="36", peek="36", pushType="float", popType="float", peekType="float", codeSize="32 b", stackSize="32 b", work="27"];
node22 -> node52;
node53 [label="AutoGeneratedExpander_57134", push="108", pop="36", peek="36", pushType="float", popType="float", peekType="float", codeSize="32 b", stackSize="32 b", work="27"];
node22 -> node53;
node54 [label="AutoGeneratedExpander_57135", push="108", pop="36", peek="36", pushType="float", popType="float", peekType="float", codeSize="32 b", stackSize="32 b", work="27"];
node22 -> node54;
node55 [label="AutoGeneratedExpander_57136", push="108", pop="36", peek="36", pushType="float", popType="float", peekType="float", codeSize="32 b", stackSize="32 b", work="27"];
node22 -> node55;
node56 [label="AutoGeneratedExpander_57137", push="108", pop="36", peek="36", pushType="float", popType="float", peekType="float", codeSize="32 b", stackSize="32 b", work="27"];
node22 -> node56;
node57 [label="AutoGeneratedExpander_57138", push="108", pop="36", peek="36", pushType="float", popType="float", peekType="float", codeSize="32 b", stackSize="32 b", work="27"];
node22 -> node57;
node58 [label="AutoGeneratedExpander_57139", push="108", pop="36", peek="36", pushType="float", popType="float", peekType="float", codeSize="32 b", stackSize="32 b", work="27"];
node22 -> node58;
node59 [label="AutoGeneratedExpander_57140", push="108", pop="36", peek="36", pushType="float", popType="float", peekType="float", codeSize="32 b", stackSize="32 b", work="27"];
node22 -> node59;
node60 [label="AutoGeneratedExpander_57141", push="108", pop="36", peek="36", pushType="float", popType="float", peekType="float", codeSize="32 b", stackSize="32 b", work="27"];
node22 -> node60;
node61 [label="AutoGeneratedExpander_57142", push="108", pop="36", peek="36", pushType="float", popType="float", peekType="float", codeSize="32 b", stackSize="32 b", work="27"];
node22 -> node61;
node62 [label="AutoGeneratedExpander_57143", push="108", pop="36", peek="36", pushType="float", popType="float", peekType="float", codeSize="32 b", stackSize="32 b", work="27"];
node22 -> node62;
node63 [label="AutoGeneratedExpander_57144", push="108", pop="36", peek="36", pushType="float", popType="float", peekType="float", codeSize="32 b", stackSize="32 b", work="27"];
node22 -> node63;
node64 [label="AutoGeneratedExpander_57145", push="108", pop="36", peek="36", pushType="float", popType="float", peekType="float", codeSize="32 b", stackSize="32 b", work="27"];
node22 -> node64;
node65 [label="AutoGeneratedExpander_57146", push="108", pop="36", peek="36", pushType="float", popType="float", peekType="float", codeSize="32 b", stackSize="32 b", work="27"];
node22 -> node65;
node66 [label="AutoGeneratedExpander_57147", push="108", pop="36", peek="36", pushType="float", popType="float", peekType="float", codeSize="32 b", stackSize="32 b", work="27"];
node22 -> node66;
node67 [label="AutoGeneratedExpander_57148", push="108", pop="36", peek="36", pushType="float", popType="float", peekType="float", codeSize="32 b", stackSize="32 b", work="27"];
node22 -> node67;
node68 [label="AutoGeneratedExpander_57149", push="108", pop="36", peek="36", pushType="float", popType="float", peekType="float", codeSize="32 b", stackSize="32 b", work="27"];
node22 -> node68;
node69 [label="AutoGeneratedExpander_57150", push="108", pop="36", peek="36", pushType="float", popType="float", peekType="float", codeSize="32 b", stackSize="32 b", work="27"];
node22 -> node69;
node70 [label="AutoGeneratedExpander_57151", push="108", pop="36", peek="36", pushType="float", popType="float", peekType="float", codeSize="32 b", stackSize="32 b", work="27"];
node22 -> node70;
node71 [label="AutoGeneratedExpander_57152", push="108", pop="36", peek="36", pushType="float", popType="float", peekType="float", codeSize="32 b", stackSize="32 b", work="27"];
node22 -> node71;
node72 [label="AutoGeneratedExpander_57153", push="108", pop="36", peek="36", pushType="float", popType="float", peekType="float", codeSize="32 b", stackSize="32 b", work="27"];
node22 -> node72;
node73 [label="AutoGeneratedExpander_57154", push="108", pop="36", peek="36", pushType="float", popType="float", peekType="float", codeSize="32 b", stackSize="32 b", work="27"];
node22 -> node73;
node74 [label="AutoGeneratedExpander_57155", push="108", pop="36", peek="36", pushType="float", popType="float", peekType="float", codeSize="32 b", stackSize="32 b", work="27"];
node22 -> node74;
node75 [label="AutoGeneratedExpander_57156", push="108", pop="36", peek="36", pushType="float", popType="float", peekType="float", codeSize="32 b", stackSize="32 b", work="27"];
node22 -> node75;
node76 [label="AutoGeneratedExpander_57157", push="108", pop="36", peek="36", pushType="float", popType="float", peekType="float", codeSize="32 b", stackSize="32 b", work="27"];
node22 -> node76;
node77 [label="AutoGeneratedExpander_57158", push="108", pop="36", peek="36", pushType="float", popType="float", peekType="float", codeSize="32 b", stackSize="32 b", work="27"];
node22 -> node77;
node78 [label="AutoGeneratedExpander_57159", push="108", pop="36", peek="36", pushType="float", popType="float", peekType="float", codeSize="32 b", stackSize="32 b", work="27"];
node22 -> node78;
node79 [label="AutoGeneratedExpander_57160", push="108", pop="36", peek="36", pushType="float", popType="float", peekType="float", codeSize="32 b", stackSize="32 b", work="27"];
node22 -> node79;
node80 [label="AutoGeneratedExpander_57161", push="108", pop="36", peek="36", pushType="float", popType="float", peekType="float", codeSize="32 b", stackSize="32 b", work="27"];
node22 -> node80;
node81 [label="AutoGeneratedExpander_57162", push="108", pop="36", peek="36", pushType="float", popType="float", peekType="float", codeSize="32 b", stackSize="32 b", work="27"];
node22 -> node81;
node82 [label="AutoGeneratedExpander_57163", push="108", pop="36", peek="36", pushType="float", popType="float", peekType="float", codeSize="32 b", stackSize="32 b", work="27"];
node22 -> node82;
node83 [label="AutoGeneratedExpander_57164", push="108", pop="36", peek="36", pushType="float", popType="float", peekType="float", codeSize="32 b", stackSize="32 b", work="27"];
node22 -> node83;
node84 [label="AutoGeneratedExpander_57165", push="108", pop="36", peek="36", pushType="float", popType="float", peekType="float", codeSize="32 b", stackSize="32 b", work="27"];
node22 -> node84;
node85 [label="AutoGeneratedExpander_57166", push="108", pop="36", peek="36", pushType="float", popType="float", peekType="float", codeSize="32 b", stackSize="32 b", work="27"];
node22 -> node85;
node86 [label="AutoGeneratedExpander_57167", push="108", pop="36", peek="36", pushType="float", popType="float", peekType="float", codeSize="32 b", stackSize="32 b", work="27"];
node22 -> node86;
node87 [label="AutoGeneratedExpander_57168", push="108", pop="36", peek="36", pushType="float", popType="float", peekType="float", codeSize="32 b", stackSize="32 b", work="27"];
node22 -> node87;
node88 [label="AutoGeneratedExpander_57169", push="108", pop="36", peek="36", pushType="float", popType="float", peekType="float", codeSize="32 b", stackSize="32 b", work="27"];
node22 -> node88;
node89 [label="AutoGeneratedExpander_57170", push="108", pop="36", peek="36", pushType="float", popType="float", peekType="float", codeSize="32 b", stackSize="32 b", work="27"];
node22 -> node89;
node90 [label="AutoGeneratedExpander_57171", push="108", pop="36", peek="36", pushType="float", popType="float", peekType="float", codeSize="32 b", stackSize="32 b", work="27"];
node22 -> node90;
node91 [label="WEIGHTED_ROUND_ROBIN_Joiner_57103", push="7344", pop="7344", peek="0", pushType="float", popType="float", peekType="void", codeSize="1230 b", stackSize="2208 b", work="0"];
node23 -> node91;
node24 -> node91;
node25 -> node91;
node26 -> node91;
node27 -> node91;
node28 -> node91;
node29 -> node91;
node30 -> node91;
node31 -> node91;
node32 -> node91;
node33 -> node91;
node34 -> node91;
node35 -> node91;
node36 -> node91;
node37 -> node91;
node38 -> node91;
node39 -> node91;
node40 -> node91;
node41 -> node91;
node42 -> node91;
node43 -> node91;
node44 -> node91;
node45 -> node91;
node46 -> node91;
node47 -> node91;
node48 -> node91;
node49 -> node91;
node50 -> node91;
node51 -> node91;
node52 -> node91;
node53 -> node91;
node54 -> node91;
node55 -> node91;
node56 -> node91;
node57 -> node91;
node58 -> node91;
node59 -> node91;
node60 -> node91;
node61 -> node91;
node62 -> node91;
node63 -> node91;
node64 -> node91;
node65 -> node91;
node66 -> node91;
node67 -> node91;
node68 -> node91;
node69 -> node91;
node70 -> node91;
node71 -> node91;
node72 -> node91;
node73 -> node91;
node74 -> node91;
node75 -> node91;
node76 -> node91;
node77 -> node91;
node78 -> node91;
node79 -> node91;
node80 -> node91;
node81 -> node91;
node82 -> node91;
node83 -> node91;
node84 -> node91;
node85 -> node91;
node86 -> node91;
node87 -> node91;
node88 -> node91;
node89 -> node91;
node90 -> node91;
node92 [label="Identity_56953", push="7344", pop="7344", peek="7344", pushType="float", popType="float", peekType="float", codeSize="12 b", stackSize="32 b", work="6"];
node91 -> node92;
node93 [label="WEIGHTED_ROUND_ROBIN_Splitter_57172", push="7344", pop="7344", peek="0", pushType="float", popType="float", peekType="void", codeSize="60 b", stackSize="128 b", work="0"];
node92 -> node93;
node94 [label="Pre_CollapsedDataParallel_2_57174", push="2448", pop="2448", peek="2448", pushType="float", popType="float", peekType="float", codeSize="50 b", stackSize="96 b", work="1449"];
node93 -> node94;
node95 [label="Pre_CollapsedDataParallel_2_57175", push="2448", pop="2448", peek="2448", pushType="float", popType="float", peekType="float", codeSize="50 b", stackSize="96 b", work="1449"];
node93 -> node95;
node96 [label="Pre_CollapsedDataParallel_2_57176", push="2448", pop="2448", peek="2448", pushType="float", popType="float", peekType="float", codeSize="50 b", stackSize="96 b", work="1449"];
node93 -> node96;
node97 [label="WEIGHTED_ROUND_ROBIN_Joiner_57173", push="7344", pop="7344", peek="0", pushType="float", popType="float", peekType="void", codeSize="60 b", stackSize="128 b", work="0"];
node94 -> node97;
node95 -> node97;
node96 -> node97;
node98 [label="Identity_56957", push="1836", pop="1836", peek="1836", pushType="float", popType="float", peekType="float", codeSize="12 b", stackSize="32 b", work="6"];
node1 -> node98;
node99 [label="Pre_CollapsedDataParallel_2_57069", push="1836", pop="1836", peek="1836", pushType="float", popType="float", peekType="float", codeSize="50 b", stackSize="96 b", work="1101"];
node98 -> node99;
node100 [label="WEIGHTED_ROUND_ROBIN_Splitter_57177", push="1836", pop="1836", peek="0", pushType="float", popType="float", peekType="void", codeSize="168 b", stackSize="320 b", work="0"];
node99 -> node100;
node101 [label="Post_CollapsedDataParallel_1_57179", push="204", pop="204", peek="204", pushType="float", popType="float", peekType="float", codeSize="54 b", stackSize="96 b", work="143"];
node100 -> node101;
node102 [label="Post_CollapsedDataParallel_1_57180", push="204", pop="204", peek="204", pushType="float", popType="float", peekType="float", codeSize="54 b", stackSize="96 b", work="143"];
node100 -> node102;
node103 [label="Post_CollapsedDataParallel_1_57181", push="204", pop="204", peek="204", pushType="float", popType="float", peekType="float", codeSize="54 b", stackSize="96 b", work="143"];
node100 -> node103;
node104 [label="Post_CollapsedDataParallel_1_57182", push="204", pop="204", peek="204", pushType="float", popType="float", peekType="float", codeSize="54 b", stackSize="96 b", work="143"];
node100 -> node104;
node105 [label="Post_CollapsedDataParallel_1_57183", push="204", pop="204", peek="204", pushType="float", popType="float", peekType="float", codeSize="54 b", stackSize="96 b", work="143"];
node100 -> node105;
node106 [label="Post_CollapsedDataParallel_1_57184", push="204", pop="204", peek="204", pushType="float", popType="float", peekType="float", codeSize="54 b", stackSize="96 b", work="143"];
node100 -> node106;
node107 [label="Post_CollapsedDataParallel_1_57185", push="204", pop="204", peek="204", pushType="float", popType="float", peekType="float", codeSize="54 b", stackSize="96 b", work="143"];
node100 -> node107;
node108 [label="Post_CollapsedDataParallel_1_57186", push="204", pop="204", peek="204", pushType="float", popType="float", peekType="float", codeSize="54 b", stackSize="96 b", work="143"];
node100 -> node108;
node109 [label="Post_CollapsedDataParallel_1_57187", push="204", pop="204", peek="204", pushType="float", popType="float", peekType="float", codeSize="54 b", stackSize="96 b", work="143"];
node100 -> node109;
node110 [label="WEIGHTED_ROUND_ROBIN_Joiner_57178", push="1836", pop="1836", peek="0", pushType="float", popType="float", peekType="void", codeSize="168 b", stackSize="320 b", work="0"];
node101 -> node110;
node102 -> node110;
node103 -> node110;
node104 -> node110;
node105 -> node110;
node106 -> node110;
node107 -> node110;
node108 -> node110;
node109 -> node110;
node111 [label="Identity_56966", push="1836", pop="1836", peek="1836", pushType="float", popType="float", peekType="float", codeSize="12 b", stackSize="32 b", work="6"];
node110 -> node111;
node112 [label="WEIGHTED_ROUND_ROBIN_Splitter_57188", push="1836", pop="1836", peek="0", pushType="float", popType="float", peekType="void", codeSize="60 b", stackSize="128 b", work="0"];
node111 -> node112;
node113 [label="Pre_CollapsedDataParallel_2_57190", push="612", pop="612", peek="612", pushType="float", popType="float", peekType="float", codeSize="50 b", stackSize="96 b", work="369"];
node112 -> node113;
node114 [label="Pre_CollapsedDataParallel_2_57191", push="612", pop="612", peek="612", pushType="float", popType="float", peekType="float", codeSize="50 b", stackSize="96 b", work="369"];
node112 -> node114;
node115 [label="Pre_CollapsedDataParallel_2_57192", push="612", pop="612", peek="612", pushType="float", popType="float", peekType="float", codeSize="50 b", stackSize="96 b", work="369"];
node112 -> node115;
node116 [label="WEIGHTED_ROUND_ROBIN_Joiner_57189", push="1836", pop="1836", peek="0", pushType="float", popType="float", peekType="void", codeSize="60 b", stackSize="128 b", work="0"];
node113 -> node116;
node114 -> node116;
node115 -> node116;
node117 [label="WEIGHTED_ROUND_ROBIN_Splitter_57193", push="1836", pop="1836", peek="0", pushType="float", popType="float", peekType="void", codeSize="822 b", stackSize="32 b", work="0"];
node116 -> node117;
node118 [label="AutoGeneratedExpander_57195", push="81", pop="27", peek="27", pushType="float", popType="float", peekType="float", codeSize="32 b", stackSize="32 b", work="27"];
node117 -> node118;
node119 [label="AutoGeneratedExpander_57196", push="81", pop="27", peek="27", pushType="float", popType="float", peekType="float", codeSize="32 b", stackSize="32 b", work="27"];
node117 -> node119;
node120 [label="AutoGeneratedExpander_57197", push="81", pop="27", peek="27", pushType="float", popType="float", peekType="float", codeSize="32 b", stackSize="32 b", work="27"];
node117 -> node120;
node121 [label="AutoGeneratedExpander_57198", push="81", pop="27", peek="27", pushType="float", popType="float", peekType="float", codeSize="32 b", stackSize="32 b", work="27"];
node117 -> node121;
node122 [label="AutoGeneratedExpander_57199", push="81", pop="27", peek="27", pushType="float", popType="float", peekType="float", codeSize="32 b", stackSize="32 b", work="27"];
node117 -> node122;
node123 [label="AutoGeneratedExpander_57200", push="81", pop="27", peek="27", pushType="float", popType="float", peekType="float", codeSize="32 b", stackSize="32 b", work="27"];
node117 -> node123;
node124 [label="AutoGeneratedExpander_57201", push="81", pop="27", peek="27", pushType="float", popType="float", peekType="float", codeSize="32 b", stackSize="32 b", work="27"];
node117 -> node124;
node125 [label="AutoGeneratedExpander_57202", push="81", pop="27", peek="27", pushType="float", popType="float", peekType="float", codeSize="32 b", stackSize="32 b", work="27"];
node117 -> node125;
node126 [label="AutoGeneratedExpander_57203", push="81", pop="27", peek="27", pushType="float", popType="float", peekType="float", codeSize="32 b", stackSize="32 b", work="27"];
node117 -> node126;
node127 [label="AutoGeneratedExpander_57204", push="81", pop="27", peek="27", pushType="float", popType="float", peekType="float", codeSize="32 b", stackSize="32 b", work="27"];
node117 -> node127;
node128 [label="AutoGeneratedExpander_57205", push="81", pop="27", peek="27", pushType="float", popType="float", peekType="float", codeSize="32 b", stackSize="32 b", work="27"];
node117 -> node128;
node129 [label="AutoGeneratedExpander_57206", push="81", pop="27", peek="27", pushType="float", popType="float", peekType="float", codeSize="32 b", stackSize="32 b", work="27"];
node117 -> node129;
node130 [label="AutoGeneratedExpander_57207", push="81", pop="27", peek="27", pushType="float", popType="float", peekType="float", codeSize="32 b", stackSize="32 b", work="27"];
node117 -> node130;
node131 [label="AutoGeneratedExpander_57208", push="81", pop="27", peek="27", pushType="float", popType="float", peekType="float", codeSize="32 b", stackSize="32 b", work="27"];
node117 -> node131;
node132 [label="AutoGeneratedExpander_57209", push="81", pop="27", peek="27", pushType="float", popType="float", peekType="float", codeSize="32 b", stackSize="32 b", work="27"];
node117 -> node132;
node133 [label="AutoGeneratedExpander_57210", push="81", pop="27", peek="27", pushType="float", popType="float", peekType="float", codeSize="32 b", stackSize="32 b", work="27"];
node117 -> node133;
node134 [label="AutoGeneratedExpander_57211", push="81", pop="27", peek="27", pushType="float", popType="float", peekType="float", codeSize="32 b", stackSize="32 b", work="27"];
node117 -> node134;
node135 [label="AutoGeneratedExpander_57212", push="81", pop="27", peek="27", pushType="float", popType="float", peekType="float", codeSize="32 b", stackSize="32 b", work="27"];
node117 -> node135;
node136 [label="AutoGeneratedExpander_57213", push="81", pop="27", peek="27", pushType="float", popType="float", peekType="float", codeSize="32 b", stackSize="32 b", work="27"];
node117 -> node136;
node137 [label="AutoGeneratedExpander_57214", push="81", pop="27", peek="27", pushType="float", popType="float", peekType="float", codeSize="32 b", stackSize="32 b", work="27"];
node117 -> node137;
node138 [label="AutoGeneratedExpander_57215", push="81", pop="27", peek="27", pushType="float", popType="float", peekType="float", codeSize="32 b", stackSize="32 b", work="27"];
node117 -> node138;
node139 [label="AutoGeneratedExpander_57216", push="81", pop="27", peek="27", pushType="float", popType="float", peekType="float", codeSize="32 b", stackSize="32 b", work="27"];
node117 -> node139;
node140 [label="AutoGeneratedExpander_57217", push="81", pop="27", peek="27", pushType="float", popType="float", peekType="float", codeSize="32 b", stackSize="32 b", work="27"];
node117 -> node140;
node141 [label="AutoGeneratedExpander_57218", push="81", pop="27", peek="27", pushType="float", popType="float", peekType="float", codeSize="32 b", stackSize="32 b", work="27"];
node117 -> node141;
node142 [label="AutoGeneratedExpander_57219", push="81", pop="27", peek="27", pushType="float", popType="float", peekType="float", codeSize="32 b", stackSize="32 b", work="27"];
node117 -> node142;
node143 [label="AutoGeneratedExpander_57220", push="81", pop="27", peek="27", pushType="float", popType="float", peekType="float", codeSize="32 b", stackSize="32 b", work="27"];
node117 -> node143;
node144 [label="AutoGeneratedExpander_57221", push="81", pop="27", peek="27", pushType="float", popType="float", peekType="float", codeSize="32 b", stackSize="32 b", work="27"];
node117 -> node144;
node145 [label="AutoGeneratedExpander_57222", push="81", pop="27", peek="27", pushType="float", popType="float", peekType="float", codeSize="32 b", stackSize="32 b", work="27"];
node117 -> node145;
node146 [label="AutoGeneratedExpander_57223", push="81", pop="27", peek="27", pushType="float", popType="float", peekType="float", codeSize="32 b", stackSize="32 b", work="27"];
node117 -> node146;
node147 [label="AutoGeneratedExpander_57224", push="81", pop="27", peek="27", pushType="float", popType="float", peekType="float", codeSize="32 b", stackSize="32 b", work="27"];
node117 -> node147;
node148 [label="AutoGeneratedExpander_57225", push="81", pop="27", peek="27", pushType="float", popType="float", peekType="float", codeSize="32 b", stackSize="32 b", work="27"];
node117 -> node148;
node149 [label="AutoGeneratedExpander_57226", push="81", pop="27", peek="27", pushType="float", popType="float", peekType="float", codeSize="32 b", stackSize="32 b", work="27"];
node117 -> node149;
node150 [label="AutoGeneratedExpander_57227", push="81", pop="27", peek="27", pushType="float", popType="float", peekType="float", codeSize="32 b", stackSize="32 b", work="27"];
node117 -> node150;
node151 [label="AutoGeneratedExpander_57228", push="81", pop="27", peek="27", pushType="float", popType="float", peekType="float", codeSize="32 b", stackSize="32 b", work="27"];
node117 -> node151;
node152 [label="AutoGeneratedExpander_57229", push="81", pop="27", peek="27", pushType="float", popType="float", peekType="float", codeSize="32 b", stackSize="32 b", work="27"];
node117 -> node152;
node153 [label="AutoGeneratedExpander_57230", push="81", pop="27", peek="27", pushType="float", popType="float", peekType="float", codeSize="32 b", stackSize="32 b", work="27"];
node117 -> node153;
node154 [label="AutoGeneratedExpander_57231", push="81", pop="27", peek="27", pushType="float", popType="float", peekType="float", codeSize="32 b", stackSize="32 b", work="27"];
node117 -> node154;
node155 [label="AutoGeneratedExpander_57232", push="81", pop="27", peek="27", pushType="float", popType="float", peekType="float", codeSize="32 b", stackSize="32 b", work="27"];
node117 -> node155;
node156 [label="AutoGeneratedExpander_57233", push="81", pop="27", peek="27", pushType="float", popType="float", peekType="float", codeSize="32 b", stackSize="32 b", work="27"];
node117 -> node156;
node157 [label="AutoGeneratedExpander_57234", push="81", pop="27", peek="27", pushType="float", popType="float", peekType="float", codeSize="32 b", stackSize="32 b", work="27"];
node117 -> node157;
node158 [label="AutoGeneratedExpander_57235", push="81", pop="27", peek="27", pushType="float", popType="float", peekType="float", codeSize="32 b", stackSize="32 b", work="27"];
node117 -> node158;
node159 [label="AutoGeneratedExpander_57236", push="81", pop="27", peek="27", pushType="float", popType="float", peekType="float", codeSize="32 b", stackSize="32 b", work="27"];
node117 -> node159;
node160 [label="AutoGeneratedExpander_57237", push="81", pop="27", peek="27", pushType="float", popType="float", peekType="float", codeSize="32 b", stackSize="32 b", work="27"];
node117 -> node160;
node161 [label="AutoGeneratedExpander_57238", push="81", pop="27", peek="27", pushType="float", popType="float", peekType="float", codeSize="32 b", stackSize="32 b", work="27"];
node117 -> node161;
node162 [label="AutoGeneratedExpander_57239", push="81", pop="27", peek="27", pushType="float", popType="float", peekType="float", codeSize="32 b", stackSize="32 b", work="27"];
node117 -> node162;
node163 [label="AutoGeneratedExpander_57240", push="81", pop="27", peek="27", pushType="float", popType="float", peekType="float", codeSize="32 b", stackSize="32 b", work="27"];
node117 -> node163;
node164 [label="AutoGeneratedExpander_57241", push="81", pop="27", peek="27", pushType="float", popType="float", peekType="float", codeSize="32 b", stackSize="32 b", work="27"];
node117 -> node164;
node165 [label="AutoGeneratedExpander_57242", push="81", pop="27", peek="27", pushType="float", popType="float", peekType="float", codeSize="32 b", stackSize="32 b", work="27"];
node117 -> node165;
node166 [label="AutoGeneratedExpander_57243", push="81", pop="27", peek="27", pushType="float", popType="float", peekType="float", codeSize="32 b", stackSize="32 b", work="27"];
node117 -> node166;
node167 [label="AutoGeneratedExpander_57244", push="81", pop="27", peek="27", pushType="float", popType="float", peekType="float", codeSize="32 b", stackSize="32 b", work="27"];
node117 -> node167;
node168 [label="AutoGeneratedExpander_57245", push="81", pop="27", peek="27", pushType="float", popType="float", peekType="float", codeSize="32 b", stackSize="32 b", work="27"];
node117 -> node168;
node169 [label="AutoGeneratedExpander_57246", push="81", pop="27", peek="27", pushType="float", popType="float", peekType="float", codeSize="32 b", stackSize="32 b", work="27"];
node117 -> node169;
node170 [label="AutoGeneratedExpander_57247", push="81", pop="27", peek="27", pushType="float", popType="float", peekType="float", codeSize="32 b", stackSize="32 b", work="27"];
node117 -> node170;
node171 [label="AutoGeneratedExpander_57248", push="81", pop="27", peek="27", pushType="float", popType="float", peekType="float", codeSize="32 b", stackSize="32 b", work="27"];
node117 -> node171;
node172 [label="AutoGeneratedExpander_57249", push="81", pop="27", peek="27", pushType="float", popType="float", peekType="float", codeSize="32 b", stackSize="32 b", work="27"];
node117 -> node172;
node173 [label="AutoGeneratedExpander_57250", push="81", pop="27", peek="27", pushType="float", popType="float", peekType="float", codeSize="32 b", stackSize="32 b", work="27"];
node117 -> node173;
node174 [label="AutoGeneratedExpander_57251", push="81", pop="27", peek="27", pushType="float", popType="float", peekType="float", codeSize="32 b", stackSize="32 b", work="27"];
node117 -> node174;
node175 [label="AutoGeneratedExpander_57252", push="81", pop="27", peek="27", pushType="float", popType="float", peekType="float", codeSize="32 b", stackSize="32 b", work="27"];
node117 -> node175;
node176 [label="AutoGeneratedExpander_57253", push="81", pop="27", peek="27", pushType="float", popType="float", peekType="float", codeSize="32 b", stackSize="32 b", work="27"];
node117 -> node176;
node177 [label="AutoGeneratedExpander_57254", push="81", pop="27", peek="27", pushType="float", popType="float", peekType="float", codeSize="32 b", stackSize="32 b", work="27"];
node117 -> node177;
node178 [label="AutoGeneratedExpander_57255", push="81", pop="27", peek="27", pushType="float", popType="float", peekType="float", codeSize="32 b", stackSize="32 b", work="27"];
node117 -> node178;
node179 [label="AutoGeneratedExpander_57256", push="81", pop="27", peek="27", pushType="float", popType="float", peekType="float", codeSize="32 b", stackSize="32 b", work="27"];
node117 -> node179;
node180 [label="AutoGeneratedExpander_57257", push="81", pop="27", peek="27", pushType="float", popType="float", peekType="float", codeSize="32 b", stackSize="32 b", work="27"];
node117 -> node180;
node181 [label="AutoGeneratedExpander_57258", push="81", pop="27", peek="27", pushType="float", popType="float", peekType="float", codeSize="32 b", stackSize="32 b", work="27"];
node117 -> node181;
node182 [label="AutoGeneratedExpander_57259", push="81", pop="27", peek="27", pushType="float", popType="float", peekType="float", codeSize="32 b", stackSize="32 b", work="27"];
node117 -> node182;
node183 [label="AutoGeneratedExpander_57260", push="81", pop="27", peek="27", pushType="float", popType="float", peekType="float", codeSize="32 b", stackSize="32 b", work="27"];
node117 -> node183;
node184 [label="AutoGeneratedExpander_57261", push="81", pop="27", peek="27", pushType="float", popType="float", peekType="float", codeSize="32 b", stackSize="32 b", work="27"];
node117 -> node184;
node185 [label="AutoGeneratedExpander_57262", push="81", pop="27", peek="27", pushType="float", popType="float", peekType="float", codeSize="32 b", stackSize="32 b", work="27"];
node117 -> node185;
node186 [label="WEIGHTED_ROUND_ROBIN_Joiner_57194", push="5508", pop="5508", peek="0", pushType="float", popType="float", peekType="void", codeSize="1230 b", stackSize="2208 b", work="0"];
node118 -> node186;
node119 -> node186;
node120 -> node186;
node121 -> node186;
node122 -> node186;
node123 -> node186;
node124 -> node186;
node125 -> node186;
node126 -> node186;
node127 -> node186;
node128 -> node186;
node129 -> node186;
node130 -> node186;
node131 -> node186;
node132 -> node186;
node133 -> node186;
node134 -> node186;
node135 -> node186;
node136 -> node186;
node137 -> node186;
node138 -> node186;
node139 -> node186;
node140 -> node186;
node141 -> node186;
node142 -> node186;
node143 -> node186;
node144 -> node186;
node145 -> node186;
node146 -> node186;
node147 -> node186;
node148 -> node186;
node149 -> node186;
node150 -> node186;
node151 -> node186;
node152 -> node186;
node153 -> node186;
node154 -> node186;
node155 -> node186;
node156 -> node186;
node157 -> node186;
node158 -> node186;
node159 -> node186;
node160 -> node186;
node161 -> node186;
node162 -> node186;
node163 -> node186;
node164 -> node186;
node165 -> node186;
node166 -> node186;
node167 -> node186;
node168 -> node186;
node169 -> node186;
node170 -> node186;
node171 -> node186;
node172 -> node186;
node173 -> node186;
node174 -> node186;
node175 -> node186;
node176 -> node186;
node177 -> node186;
node178 -> node186;
node179 -> node186;
node180 -> node186;
node181 -> node186;
node182 -> node186;
node183 -> node186;
node184 -> node186;
node185 -> node186;
node187 [label="Identity_56969", push="5508", pop="5508", peek="5508", pushType="float", popType="float", peekType="float", codeSize="12 b", stackSize="32 b", work="6"];
node186 -> node187;
node188 [label="Pre_CollapsedDataParallel_2_57072", push="5508", pop="5508", peek="5508", pushType="float", popType="float", peekType="float", codeSize="50 b", stackSize="96 b", work="3249"];
node187 -> node188;
node189 [label="WEIGHTED_ROUND_ROBIN_Joiner_57076", push="12852", pop="12852", peek="0", pushType="float", popType="float", peekType="void", codeSize="42 b", stackSize="96 b", work="0"];
node97 -> node189;
node188 -> node189;
node190 [label="WEIGHTED_ROUND_ROBIN_Splitter_57263", push="12852", pop="12852", peek="0", pushType="float", popType="float", peekType="void", codeSize="492 b", stackSize="896 b", work="0"];
node189 -> node190;
node191 [label="BlockMultiply_57265", push="204", pop="476", peek="476", pushType="float", popType="float", peekType="float", codeSize="102 b", stackSize="256 b", work="1024"];
node190 -> node191;
node192 [label="BlockMultiply_57266", push="204", pop="476", peek="476", pushType="float", popType="float", peekType="float", codeSize="102 b", stackSize="256 b", work="1024"];
node190 -> node192;
node193 [label="BlockMultiply_57267", push="204", pop="476", peek="476", pushType="float", popType="float", peekType="float", codeSize="102 b", stackSize="256 b", work="1024"];
node190 -> node193;
node194 [label="BlockMultiply_57268", push="204", pop="476", peek="476", pushType="float", popType="float", peekType="float", codeSize="102 b", stackSize="256 b", work="1024"];
node190 -> node194;
node195 [label="BlockMultiply_57269", push="204", pop="476", peek="476", pushType="float", popType="float", peekType="float", codeSize="102 b", stackSize="256 b", work="1024"];
node190 -> node195;
node196 [label="BlockMultiply_57270", push="204", pop="476", peek="476", pushType="float", popType="float", peekType="float", codeSize="102 b", stackSize="256 b", work="1024"];
node190 -> node196;
node197 [label="BlockMultiply_57271", push="204", pop="476", peek="476", pushType="float", popType="float", peekType="float", codeSize="102 b", stackSize="256 b", work="1024"];
node190 -> node197;
node198 [label="BlockMultiply_57272", push="204", pop="476", peek="476", pushType="float", popType="float", peekType="float", codeSize="102 b", stackSize="256 b", work="1024"];
node190 -> node198;
node199 [label="BlockMultiply_57273", push="204", pop="476", peek="476", pushType="float", popType="float", peekType="float", codeSize="102 b", stackSize="256 b", work="1024"];
node190 -> node199;
node200 [label="BlockMultiply_57274", push="204", pop="476", peek="476", pushType="float", popType="float", peekType="float", codeSize="102 b", stackSize="256 b", work="1024"];
node190 -> node200;
node201 [label="BlockMultiply_57275", push="204", pop="476", peek="476", pushType="float", popType="float", peekType="float", codeSize="102 b", stackSize="256 b", work="1024"];
node190 -> node201;
node202 [label="BlockMultiply_57276", push="204", pop="476", peek="476", pushType="float", popType="float", peekType="float", codeSize="102 b", stackSize="256 b", work="1024"];
node190 -> node202;
node203 [label="BlockMultiply_57277", push="204", pop="476", peek="476", pushType="float", popType="float", peekType="float", codeSize="102 b", stackSize="256 b", work="1024"];
node190 -> node203;
node204 [label="BlockMultiply_57278", push="204", pop="476", peek="476", pushType="float", popType="float", peekType="float", codeSize="102 b", stackSize="256 b", work="1024"];
node190 -> node204;
node205 [label="BlockMultiply_57279", push="204", pop="476", peek="476", pushType="float", popType="float", peekType="float", codeSize="102 b", stackSize="256 b", work="1024"];
node190 -> node205;
node206 [label="BlockMultiply_57280", push="204", pop="476", peek="476", pushType="float", popType="float", peekType="float", codeSize="102 b", stackSize="256 b", work="1024"];
node190 -> node206;
node207 [label="BlockMultiply_57281", push="204", pop="476", peek="476", pushType="float", popType="float", peekType="float", codeSize="102 b", stackSize="256 b", work="1024"];
node190 -> node207;
node208 [label="BlockMultiply_57282", push="204", pop="476", peek="476", pushType="float", popType="float", peekType="float", codeSize="102 b", stackSize="256 b", work="1024"];
node190 -> node208;
node209 [label="BlockMultiply_57283", push="204", pop="476", peek="476", pushType="float", popType="float", peekType="float", codeSize="102 b", stackSize="256 b", work="1024"];
node190 -> node209;
node210 [label="BlockMultiply_57284", push="204", pop="476", peek="476", pushType="float", popType="float", peekType="float", codeSize="102 b", stackSize="256 b", work="1024"];
node190 -> node210;
node211 [label="BlockMultiply_57285", push="204", pop="476", peek="476", pushType="float", popType="float", peekType="float", codeSize="102 b", stackSize="256 b", work="1024"];
node190 -> node211;
node212 [label="BlockMultiply_57286", push="204", pop="476", peek="476", pushType="float", popType="float", peekType="float", codeSize="102 b", stackSize="256 b", work="1024"];
node190 -> node212;
node213 [label="BlockMultiply_57287", push="204", pop="476", peek="476", pushType="float", popType="float", peekType="float", codeSize="102 b", stackSize="256 b", work="1024"];
node190 -> node213;
node214 [label="BlockMultiply_57288", push="204", pop="476", peek="476", pushType="float", popType="float", peekType="float", codeSize="102 b", stackSize="256 b", work="1024"];
node190 -> node214;
node215 [label="BlockMultiply_57289", push="204", pop="476", peek="476", pushType="float", popType="float", peekType="float", codeSize="102 b", stackSize="256 b", work="1024"];
node190 -> node215;
node216 [label="BlockMultiply_57290", push="204", pop="476", peek="476", pushType="float", popType="float", peekType="float", codeSize="102 b", stackSize="256 b", work="1024"];
node190 -> node216;
node217 [label="BlockMultiply_57291", push="204", pop="476", peek="476", pushType="float", popType="float", peekType="float", codeSize="102 b", stackSize="256 b", work="1024"];
node190 -> node217;
node218 [label="WEIGHTED_ROUND_ROBIN_Joiner_57264", push="5508", pop="5508", peek="0", pushType="float", popType="float", peekType="void", codeSize="492 b", stackSize="896 b", work="0"];
node191 -> node218;
node192 -> node218;
node193 -> node218;
node194 -> node218;
node195 -> node218;
node196 -> node218;
node197 -> node218;
node198 -> node218;
node199 -> node218;
node200 -> node218;
node201 -> node218;
node202 -> node218;
node203 -> node218;
node204 -> node218;
node205 -> node218;
node206 -> node218;
node207 -> node218;
node208 -> node218;
node209 -> node218;
node210 -> node218;
node211 -> node218;
node212 -> node218;
node213 -> node218;
node214 -> node218;
node215 -> node218;
node216 -> node218;
node217 -> node218;
node219 [label="BlockAdd_56973", push="1836", pop="5508", peek="5508", pushType="float", popType="float", peekType="float", codeSize="189 b", stackSize="96 b", work="468"];
node218 -> node219;
node220 [label="WEIGHTED_ROUND_ROBIN_Splitter_57292", push="1836", pop="1836", peek="0", pushType="float", popType="float", peekType="void", codeSize="168 b", stackSize="320 b", work="0"];
node219 -> node220;
node221 [label="Post_CollapsedDataParallel_1_57294", push="204", pop="204", peek="204", pushType="float", popType="float", peekType="float", codeSize="54 b", stackSize="96 b", work="141"];
node220 -> node221;
node222 [label="Post_CollapsedDataParallel_1_57295", push="204", pop="204", peek="204", pushType="float", popType="float", peekType="float", codeSize="54 b", stackSize="96 b", work="141"];
node220 -> node222;
node223 [label="Post_CollapsedDataParallel_1_57296", push="204", pop="204", peek="204", pushType="float", popType="float", peekType="float", codeSize="54 b", stackSize="96 b", work="141"];
node220 -> node223;
node224 [label="Post_CollapsedDataParallel_1_57297", push="204", pop="204", peek="204", pushType="float", popType="float", peekType="float", codeSize="54 b", stackSize="96 b", work="141"];
node220 -> node224;
node225 [label="Post_CollapsedDataParallel_1_57298", push="204", pop="204", peek="204", pushType="float", popType="float", peekType="float", codeSize="54 b", stackSize="96 b", work="141"];
node220 -> node225;
node226 [label="Post_CollapsedDataParallel_1_57299", push="204", pop="204", peek="204", pushType="float", popType="float", peekType="float", codeSize="54 b", stackSize="96 b", work="141"];
node220 -> node226;
node227 [label="Post_CollapsedDataParallel_1_57300", push="204", pop="204", peek="204", pushType="float", popType="float", peekType="float", codeSize="54 b", stackSize="96 b", work="141"];
node220 -> node227;
node228 [label="Post_CollapsedDataParallel_1_57301", push="204", pop="204", peek="204", pushType="float", popType="float", peekType="float", codeSize="54 b", stackSize="96 b", work="141"];
node220 -> node228;
node229 [label="Post_CollapsedDataParallel_1_57302", push="204", pop="204", peek="204", pushType="float", popType="float", peekType="float", codeSize="54 b", stackSize="96 b", work="141"];
node220 -> node229;
node230 [label="WEIGHTED_ROUND_ROBIN_Joiner_57293", push="1836", pop="1836", peek="0", pushType="float", popType="float", peekType="void", codeSize="168 b", stackSize="320 b", work="0"];
node221 -> node230;
node222 -> node230;
node223 -> node230;
node224 -> node230;
node225 -> node230;
node226 -> node230;
node227 -> node230;
node228 -> node230;
node229 -> node230;
node231 [label="Identity_56975", push="1836", pop="1836", peek="1836", pushType="float", popType="float", peekType="float", codeSize="12 b", stackSize="32 b", work="6"];
node230 -> node231;
node232 [label="WEIGHTED_ROUND_ROBIN_Splitter_57303", push="1836", pop="1836", peek="0", pushType="float", popType="float", peekType="void", codeSize="60 b", stackSize="128 b", work="0"];
node231 -> node232;
node233 [label="Pre_CollapsedDataParallel_2_57305", push="612", pop="612", peek="612", pushType="float", popType="float", peekType="float", codeSize="50 b", stackSize="96 b", work="371"];
node232 -> node233;
node234 [label="Pre_CollapsedDataParallel_2_57306", push="612", pop="612", peek="612", pushType="float", popType="float", peekType="float", codeSize="50 b", stackSize="96 b", work="371"];
node232 -> node234;
node235 [label="Pre_CollapsedDataParallel_2_57307", push="612", pop="612", peek="612", pushType="float", popType="float", peekType="float", codeSize="50 b", stackSize="96 b", work="371"];
node232 -> node235;
node236 [label="WEIGHTED_ROUND_ROBIN_Joiner_57304", push="1836", pop="1836", peek="0", pushType="float", popType="float", peekType="void", codeSize="60 b", stackSize="128 b", work="0"];
node233 -> node236;
node234 -> node236;
node235 -> node236;
node237 [label="Printer_56979", push="0", pop="1836", peek="1836", pushType="void", popType="float", peekType="float", codeSize="16 b", stackSize="0 b", work="6"];
node236 -> node237;
}
