digraph MatrixMultBlock_51712 {
node0 [label="BlockFloatSource_51321", push="19404", pop="0", peek="0", pushType="float", popType="void", peekType="void", codeSize="26 b", stackSize="0 b", work="14"];
node1 [label="WEIGHTED_ROUND_ROBIN_Splitter_51450", push="19404", pop="19404", peek="0", pushType="float", popType="float", peekType="void", codeSize="42 b", stackSize="96 b", work="0"];
node0 -> node1;
node2 [label="WEIGHTED_ROUND_ROBIN_Splitter_51458", push="11088", pop="11088", peek="0", pushType="float", popType="float", peekType="void", codeSize="222 b", stackSize="416 b", work="0"];
node1 -> node2;
node3 [label="Post_CollapsedDataParallel_1_51460", push="924", pop="924", peek="924", pushType="float", popType="float", peekType="float", codeSize="54 b", stackSize="96 b", work="143"];
node2 -> node3;
node4 [label="Post_CollapsedDataParallel_1_51461", push="924", pop="924", peek="924", pushType="float", popType="float", peekType="float", codeSize="54 b", stackSize="96 b", work="143"];
node2 -> node4;
node5 [label="Post_CollapsedDataParallel_1_51462", push="924", pop="924", peek="924", pushType="float", popType="float", peekType="float", codeSize="54 b", stackSize="96 b", work="143"];
node2 -> node5;
node6 [label="Post_CollapsedDataParallel_1_51463", push="924", pop="924", peek="924", pushType="float", popType="float", peekType="float", codeSize="54 b", stackSize="96 b", work="143"];
node2 -> node6;
node7 [label="Post_CollapsedDataParallel_1_51464", push="924", pop="924", peek="924", pushType="float", popType="float", peekType="float", codeSize="54 b", stackSize="96 b", work="143"];
node2 -> node7;
node8 [label="Post_CollapsedDataParallel_1_51465", push="924", pop="924", peek="924", pushType="float", popType="float", peekType="float", codeSize="54 b", stackSize="96 b", work="143"];
node2 -> node8;
node9 [label="Post_CollapsedDataParallel_1_51466", push="924", pop="924", peek="924", pushType="float", popType="float", peekType="float", codeSize="54 b", stackSize="96 b", work="143"];
node2 -> node9;
node10 [label="Post_CollapsedDataParallel_1_51467", push="924", pop="924", peek="924", pushType="float", popType="float", peekType="float", codeSize="54 b", stackSize="96 b", work="143"];
node2 -> node10;
node11 [label="Post_CollapsedDataParallel_1_51468", push="924", pop="924", peek="924", pushType="float", popType="float", peekType="float", codeSize="54 b", stackSize="96 b", work="143"];
node2 -> node11;
node12 [label="Post_CollapsedDataParallel_1_51469", push="924", pop="924", peek="924", pushType="float", popType="float", peekType="float", codeSize="54 b", stackSize="96 b", work="143"];
node2 -> node12;
node13 [label="Post_CollapsedDataParallel_1_51470", push="924", pop="924", peek="924", pushType="float", popType="float", peekType="float", codeSize="54 b", stackSize="96 b", work="143"];
node2 -> node13;
node14 [label="Post_CollapsedDataParallel_1_51471", push="924", pop="924", peek="924", pushType="float", popType="float", peekType="float", codeSize="54 b", stackSize="96 b", work="143"];
node2 -> node14;
node15 [label="WEIGHTED_ROUND_ROBIN_Joiner_51459", push="11088", pop="11088", peek="0", pushType="float", popType="float", peekType="void", codeSize="222 b", stackSize="416 b", work="0"];
node3 -> node15;
node4 -> node15;
node5 -> node15;
node6 -> node15;
node7 -> node15;
node8 -> node15;
node9 -> node15;
node10 -> node15;
node11 -> node15;
node12 -> node15;
node13 -> node15;
node14 -> node15;
node16 [label="Identity_51325", push="11088", pop="11088", peek="11088", pushType="float", popType="float", peekType="float", codeSize="12 b", stackSize="32 b", work="6"];
node15 -> node16;
node17 [label="WEIGHTED_ROUND_ROBIN_Splitter_51472", push="11088", pop="11088", peek="0", pushType="float", popType="float", peekType="void", codeSize="60 b", stackSize="128 b", work="0"];
node16 -> node17;
node18 [label="Pre_CollapsedDataParallel_2_51474", push="3696", pop="3696", peek="3696", pushType="float", popType="float", peekType="float", codeSize="50 b", stackSize="96 b", work="489"];
node17 -> node18;
node19 [label="Pre_CollapsedDataParallel_2_51475", push="3696", pop="3696", peek="3696", pushType="float", popType="float", peekType="float", codeSize="50 b", stackSize="96 b", work="489"];
node17 -> node19;
node20 [label="Pre_CollapsedDataParallel_2_51476", push="3696", pop="3696", peek="3696", pushType="float", popType="float", peekType="float", codeSize="50 b", stackSize="96 b", work="489"];
node17 -> node20;
node21 [label="WEIGHTED_ROUND_ROBIN_Joiner_51473", push="11088", pop="11088", peek="0", pushType="float", popType="float", peekType="void", codeSize="60 b", stackSize="128 b", work="0"];
node18 -> node21;
node19 -> node21;
node20 -> node21;
node22 [label="WEIGHTED_ROUND_ROBIN_Splitter_51477", push="11088", pop="11088", peek="0", pushType="float", popType="float", peekType="void", codeSize="930 b", stackSize="32 b", work="0"];
node21 -> node22;
node23 [label="AutoGeneratedExpander_51479", push="432", pop="144", peek="144", pushType="float", popType="float", peekType="float", codeSize="32 b", stackSize="32 b", work="27"];
node22 -> node23;
node24 [label="AutoGeneratedExpander_51480", push="432", pop="144", peek="144", pushType="float", popType="float", peekType="float", codeSize="32 b", stackSize="32 b", work="27"];
node22 -> node24;
node25 [label="AutoGeneratedExpander_51481", push="432", pop="144", peek="144", pushType="float", popType="float", peekType="float", codeSize="32 b", stackSize="32 b", work="27"];
node22 -> node25;
node26 [label="AutoGeneratedExpander_51482", push="432", pop="144", peek="144", pushType="float", popType="float", peekType="float", codeSize="32 b", stackSize="32 b", work="27"];
node22 -> node26;
node27 [label="AutoGeneratedExpander_51483", push="432", pop="144", peek="144", pushType="float", popType="float", peekType="float", codeSize="32 b", stackSize="32 b", work="27"];
node22 -> node27;
node28 [label="AutoGeneratedExpander_51484", push="432", pop="144", peek="144", pushType="float", popType="float", peekType="float", codeSize="32 b", stackSize="32 b", work="27"];
node22 -> node28;
node29 [label="AutoGeneratedExpander_51485", push="432", pop="144", peek="144", pushType="float", popType="float", peekType="float", codeSize="32 b", stackSize="32 b", work="27"];
node22 -> node29;
node30 [label="AutoGeneratedExpander_51486", push="432", pop="144", peek="144", pushType="float", popType="float", peekType="float", codeSize="32 b", stackSize="32 b", work="27"];
node22 -> node30;
node31 [label="AutoGeneratedExpander_51487", push="432", pop="144", peek="144", pushType="float", popType="float", peekType="float", codeSize="32 b", stackSize="32 b", work="27"];
node22 -> node31;
node32 [label="AutoGeneratedExpander_51488", push="432", pop="144", peek="144", pushType="float", popType="float", peekType="float", codeSize="32 b", stackSize="32 b", work="27"];
node22 -> node32;
node33 [label="AutoGeneratedExpander_51489", push="432", pop="144", peek="144", pushType="float", popType="float", peekType="float", codeSize="32 b", stackSize="32 b", work="27"];
node22 -> node33;
node34 [label="AutoGeneratedExpander_51490", push="432", pop="144", peek="144", pushType="float", popType="float", peekType="float", codeSize="32 b", stackSize="32 b", work="27"];
node22 -> node34;
node35 [label="AutoGeneratedExpander_51491", push="432", pop="144", peek="144", pushType="float", popType="float", peekType="float", codeSize="32 b", stackSize="32 b", work="27"];
node22 -> node35;
node36 [label="AutoGeneratedExpander_51492", push="432", pop="144", peek="144", pushType="float", popType="float", peekType="float", codeSize="32 b", stackSize="32 b", work="27"];
node22 -> node36;
node37 [label="AutoGeneratedExpander_51493", push="432", pop="144", peek="144", pushType="float", popType="float", peekType="float", codeSize="32 b", stackSize="32 b", work="27"];
node22 -> node37;
node38 [label="AutoGeneratedExpander_51494", push="432", pop="144", peek="144", pushType="float", popType="float", peekType="float", codeSize="32 b", stackSize="32 b", work="27"];
node22 -> node38;
node39 [label="AutoGeneratedExpander_51495", push="432", pop="144", peek="144", pushType="float", popType="float", peekType="float", codeSize="32 b", stackSize="32 b", work="27"];
node22 -> node39;
node40 [label="AutoGeneratedExpander_51496", push="432", pop="144", peek="144", pushType="float", popType="float", peekType="float", codeSize="32 b", stackSize="32 b", work="27"];
node22 -> node40;
node41 [label="AutoGeneratedExpander_51497", push="432", pop="144", peek="144", pushType="float", popType="float", peekType="float", codeSize="32 b", stackSize="32 b", work="27"];
node22 -> node41;
node42 [label="AutoGeneratedExpander_51498", push="432", pop="144", peek="144", pushType="float", popType="float", peekType="float", codeSize="32 b", stackSize="32 b", work="27"];
node22 -> node42;
node43 [label="AutoGeneratedExpander_51499", push="432", pop="144", peek="144", pushType="float", popType="float", peekType="float", codeSize="32 b", stackSize="32 b", work="27"];
node22 -> node43;
node44 [label="AutoGeneratedExpander_51500", push="432", pop="144", peek="144", pushType="float", popType="float", peekType="float", codeSize="32 b", stackSize="32 b", work="27"];
node22 -> node44;
node45 [label="AutoGeneratedExpander_51501", push="432", pop="144", peek="144", pushType="float", popType="float", peekType="float", codeSize="32 b", stackSize="32 b", work="27"];
node22 -> node45;
node46 [label="AutoGeneratedExpander_51502", push="432", pop="144", peek="144", pushType="float", popType="float", peekType="float", codeSize="32 b", stackSize="32 b", work="27"];
node22 -> node46;
node47 [label="AutoGeneratedExpander_51503", push="432", pop="144", peek="144", pushType="float", popType="float", peekType="float", codeSize="32 b", stackSize="32 b", work="27"];
node22 -> node47;
node48 [label="AutoGeneratedExpander_51504", push="432", pop="144", peek="144", pushType="float", popType="float", peekType="float", codeSize="32 b", stackSize="32 b", work="27"];
node22 -> node48;
node49 [label="AutoGeneratedExpander_51505", push="432", pop="144", peek="144", pushType="float", popType="float", peekType="float", codeSize="32 b", stackSize="32 b", work="27"];
node22 -> node49;
node50 [label="AutoGeneratedExpander_51506", push="432", pop="144", peek="144", pushType="float", popType="float", peekType="float", codeSize="32 b", stackSize="32 b", work="27"];
node22 -> node50;
node51 [label="AutoGeneratedExpander_51507", push="432", pop="144", peek="144", pushType="float", popType="float", peekType="float", codeSize="32 b", stackSize="32 b", work="27"];
node22 -> node51;
node52 [label="AutoGeneratedExpander_51508", push="432", pop="144", peek="144", pushType="float", popType="float", peekType="float", codeSize="32 b", stackSize="32 b", work="27"];
node22 -> node52;
node53 [label="AutoGeneratedExpander_51509", push="432", pop="144", peek="144", pushType="float", popType="float", peekType="float", codeSize="32 b", stackSize="32 b", work="27"];
node22 -> node53;
node54 [label="AutoGeneratedExpander_51510", push="432", pop="144", peek="144", pushType="float", popType="float", peekType="float", codeSize="32 b", stackSize="32 b", work="27"];
node22 -> node54;
node55 [label="AutoGeneratedExpander_51511", push="432", pop="144", peek="144", pushType="float", popType="float", peekType="float", codeSize="32 b", stackSize="32 b", work="27"];
node22 -> node55;
node56 [label="AutoGeneratedExpander_51512", push="432", pop="144", peek="144", pushType="float", popType="float", peekType="float", codeSize="32 b", stackSize="32 b", work="27"];
node22 -> node56;
node57 [label="AutoGeneratedExpander_51513", push="432", pop="144", peek="144", pushType="float", popType="float", peekType="float", codeSize="32 b", stackSize="32 b", work="27"];
node22 -> node57;
node58 [label="AutoGeneratedExpander_51514", push="432", pop="144", peek="144", pushType="float", popType="float", peekType="float", codeSize="32 b", stackSize="32 b", work="27"];
node22 -> node58;
node59 [label="AutoGeneratedExpander_51515", push="432", pop="144", peek="144", pushType="float", popType="float", peekType="float", codeSize="32 b", stackSize="32 b", work="27"];
node22 -> node59;
node60 [label="AutoGeneratedExpander_51516", push="432", pop="144", peek="144", pushType="float", popType="float", peekType="float", codeSize="32 b", stackSize="32 b", work="27"];
node22 -> node60;
node61 [label="AutoGeneratedExpander_51517", push="432", pop="144", peek="144", pushType="float", popType="float", peekType="float", codeSize="32 b", stackSize="32 b", work="27"];
node22 -> node61;
node62 [label="AutoGeneratedExpander_51518", push="432", pop="144", peek="144", pushType="float", popType="float", peekType="float", codeSize="32 b", stackSize="32 b", work="27"];
node22 -> node62;
node63 [label="AutoGeneratedExpander_51519", push="432", pop="144", peek="144", pushType="float", popType="float", peekType="float", codeSize="32 b", stackSize="32 b", work="27"];
node22 -> node63;
node64 [label="AutoGeneratedExpander_51520", push="432", pop="144", peek="144", pushType="float", popType="float", peekType="float", codeSize="32 b", stackSize="32 b", work="27"];
node22 -> node64;
node65 [label="AutoGeneratedExpander_51521", push="432", pop="144", peek="144", pushType="float", popType="float", peekType="float", codeSize="32 b", stackSize="32 b", work="27"];
node22 -> node65;
node66 [label="AutoGeneratedExpander_51522", push="432", pop="144", peek="144", pushType="float", popType="float", peekType="float", codeSize="32 b", stackSize="32 b", work="27"];
node22 -> node66;
node67 [label="AutoGeneratedExpander_51523", push="432", pop="144", peek="144", pushType="float", popType="float", peekType="float", codeSize="32 b", stackSize="32 b", work="27"];
node22 -> node67;
node68 [label="AutoGeneratedExpander_51524", push="432", pop="144", peek="144", pushType="float", popType="float", peekType="float", codeSize="32 b", stackSize="32 b", work="27"];
node22 -> node68;
node69 [label="AutoGeneratedExpander_51525", push="432", pop="144", peek="144", pushType="float", popType="float", peekType="float", codeSize="32 b", stackSize="32 b", work="27"];
node22 -> node69;
node70 [label="AutoGeneratedExpander_51526", push="432", pop="144", peek="144", pushType="float", popType="float", peekType="float", codeSize="32 b", stackSize="32 b", work="27"];
node22 -> node70;
node71 [label="AutoGeneratedExpander_51527", push="432", pop="144", peek="144", pushType="float", popType="float", peekType="float", codeSize="32 b", stackSize="32 b", work="27"];
node22 -> node71;
node72 [label="AutoGeneratedExpander_51528", push="432", pop="144", peek="144", pushType="float", popType="float", peekType="float", codeSize="32 b", stackSize="32 b", work="27"];
node22 -> node72;
node73 [label="AutoGeneratedExpander_51529", push="432", pop="144", peek="144", pushType="float", popType="float", peekType="float", codeSize="32 b", stackSize="32 b", work="27"];
node22 -> node73;
node74 [label="AutoGeneratedExpander_51530", push="432", pop="144", peek="144", pushType="float", popType="float", peekType="float", codeSize="32 b", stackSize="32 b", work="27"];
node22 -> node74;
node75 [label="AutoGeneratedExpander_51531", push="432", pop="144", peek="144", pushType="float", popType="float", peekType="float", codeSize="32 b", stackSize="32 b", work="27"];
node22 -> node75;
node76 [label="AutoGeneratedExpander_51532", push="432", pop="144", peek="144", pushType="float", popType="float", peekType="float", codeSize="32 b", stackSize="32 b", work="27"];
node22 -> node76;
node77 [label="AutoGeneratedExpander_51533", push="432", pop="144", peek="144", pushType="float", popType="float", peekType="float", codeSize="32 b", stackSize="32 b", work="27"];
node22 -> node77;
node78 [label="AutoGeneratedExpander_51534", push="432", pop="144", peek="144", pushType="float", popType="float", peekType="float", codeSize="32 b", stackSize="32 b", work="27"];
node22 -> node78;
node79 [label="AutoGeneratedExpander_51535", push="432", pop="144", peek="144", pushType="float", popType="float", peekType="float", codeSize="32 b", stackSize="32 b", work="27"];
node22 -> node79;
node80 [label="AutoGeneratedExpander_51536", push="432", pop="144", peek="144", pushType="float", popType="float", peekType="float", codeSize="32 b", stackSize="32 b", work="27"];
node22 -> node80;
node81 [label="AutoGeneratedExpander_51537", push="432", pop="144", peek="144", pushType="float", popType="float", peekType="float", codeSize="32 b", stackSize="32 b", work="27"];
node22 -> node81;
node82 [label="AutoGeneratedExpander_51538", push="432", pop="144", peek="144", pushType="float", popType="float", peekType="float", codeSize="32 b", stackSize="32 b", work="27"];
node22 -> node82;
node83 [label="AutoGeneratedExpander_51539", push="432", pop="144", peek="144", pushType="float", popType="float", peekType="float", codeSize="32 b", stackSize="32 b", work="27"];
node22 -> node83;
node84 [label="AutoGeneratedExpander_51540", push="432", pop="144", peek="144", pushType="float", popType="float", peekType="float", codeSize="32 b", stackSize="32 b", work="27"];
node22 -> node84;
node85 [label="AutoGeneratedExpander_51541", push="432", pop="144", peek="144", pushType="float", popType="float", peekType="float", codeSize="32 b", stackSize="32 b", work="27"];
node22 -> node85;
node86 [label="AutoGeneratedExpander_51542", push="432", pop="144", peek="144", pushType="float", popType="float", peekType="float", codeSize="32 b", stackSize="32 b", work="27"];
node22 -> node86;
node87 [label="AutoGeneratedExpander_51543", push="432", pop="144", peek="144", pushType="float", popType="float", peekType="float", codeSize="32 b", stackSize="32 b", work="27"];
node22 -> node87;
node88 [label="AutoGeneratedExpander_51544", push="432", pop="144", peek="144", pushType="float", popType="float", peekType="float", codeSize="32 b", stackSize="32 b", work="27"];
node22 -> node88;
node89 [label="AutoGeneratedExpander_51545", push="432", pop="144", peek="144", pushType="float", popType="float", peekType="float", codeSize="32 b", stackSize="32 b", work="27"];
node22 -> node89;
node90 [label="AutoGeneratedExpander_51546", push="432", pop="144", peek="144", pushType="float", popType="float", peekType="float", codeSize="32 b", stackSize="32 b", work="27"];
node22 -> node90;
node91 [label="AutoGeneratedExpander_51547", push="432", pop="144", peek="144", pushType="float", popType="float", peekType="float", codeSize="32 b", stackSize="32 b", work="27"];
node22 -> node91;
node92 [label="AutoGeneratedExpander_51548", push="432", pop="144", peek="144", pushType="float", popType="float", peekType="float", codeSize="32 b", stackSize="32 b", work="27"];
node22 -> node92;
node93 [label="AutoGeneratedExpander_51549", push="432", pop="144", peek="144", pushType="float", popType="float", peekType="float", codeSize="32 b", stackSize="32 b", work="27"];
node22 -> node93;
node94 [label="AutoGeneratedExpander_51550", push="432", pop="144", peek="144", pushType="float", popType="float", peekType="float", codeSize="32 b", stackSize="32 b", work="27"];
node22 -> node94;
node95 [label="AutoGeneratedExpander_51551", push="432", pop="144", peek="144", pushType="float", popType="float", peekType="float", codeSize="32 b", stackSize="32 b", work="27"];
node22 -> node95;
node96 [label="AutoGeneratedExpander_51552", push="432", pop="144", peek="144", pushType="float", popType="float", peekType="float", codeSize="32 b", stackSize="32 b", work="27"];
node22 -> node96;
node97 [label="AutoGeneratedExpander_51553", push="432", pop="144", peek="144", pushType="float", popType="float", peekType="float", codeSize="32 b", stackSize="32 b", work="27"];
node22 -> node97;
node98 [label="AutoGeneratedExpander_51554", push="432", pop="144", peek="144", pushType="float", popType="float", peekType="float", codeSize="32 b", stackSize="32 b", work="27"];
node22 -> node98;
node99 [label="AutoGeneratedExpander_51555", push="432", pop="144", peek="144", pushType="float", popType="float", peekType="float", codeSize="32 b", stackSize="32 b", work="27"];
node22 -> node99;
node100 [label="WEIGHTED_ROUND_ROBIN_Joiner_51478", push="33264", pop="33264", peek="0", pushType="float", popType="float", peekType="void", codeSize="1392 b", stackSize="2496 b", work="0"];
node23 -> node100;
node24 -> node100;
node25 -> node100;
node26 -> node100;
node27 -> node100;
node28 -> node100;
node29 -> node100;
node30 -> node100;
node31 -> node100;
node32 -> node100;
node33 -> node100;
node34 -> node100;
node35 -> node100;
node36 -> node100;
node37 -> node100;
node38 -> node100;
node39 -> node100;
node40 -> node100;
node41 -> node100;
node42 -> node100;
node43 -> node100;
node44 -> node100;
node45 -> node100;
node46 -> node100;
node47 -> node100;
node48 -> node100;
node49 -> node100;
node50 -> node100;
node51 -> node100;
node52 -> node100;
node53 -> node100;
node54 -> node100;
node55 -> node100;
node56 -> node100;
node57 -> node100;
node58 -> node100;
node59 -> node100;
node60 -> node100;
node61 -> node100;
node62 -> node100;
node63 -> node100;
node64 -> node100;
node65 -> node100;
node66 -> node100;
node67 -> node100;
node68 -> node100;
node69 -> node100;
node70 -> node100;
node71 -> node100;
node72 -> node100;
node73 -> node100;
node74 -> node100;
node75 -> node100;
node76 -> node100;
node77 -> node100;
node78 -> node100;
node79 -> node100;
node80 -> node100;
node81 -> node100;
node82 -> node100;
node83 -> node100;
node84 -> node100;
node85 -> node100;
node86 -> node100;
node87 -> node100;
node88 -> node100;
node89 -> node100;
node90 -> node100;
node91 -> node100;
node92 -> node100;
node93 -> node100;
node94 -> node100;
node95 -> node100;
node96 -> node100;
node97 -> node100;
node98 -> node100;
node99 -> node100;
node101 [label="Identity_51328", push="33264", pop="33264", peek="33264", pushType="float", popType="float", peekType="float", codeSize="12 b", stackSize="32 b", work="6"];
node100 -> node101;
node102 [label="WEIGHTED_ROUND_ROBIN_Splitter_51556", push="33264", pop="33264", peek="0", pushType="float", popType="float", peekType="void", codeSize="60 b", stackSize="128 b", work="0"];
node101 -> node102;
node103 [label="Pre_CollapsedDataParallel_2_51558", push="11088", pop="11088", peek="11088", pushType="float", popType="float", peekType="float", codeSize="50 b", stackSize="96 b", work="1449"];
node102 -> node103;
node104 [label="Pre_CollapsedDataParallel_2_51559", push="11088", pop="11088", peek="11088", pushType="float", popType="float", peekType="float", codeSize="50 b", stackSize="96 b", work="1449"];
node102 -> node104;
node105 [label="Pre_CollapsedDataParallel_2_51560", push="11088", pop="11088", peek="11088", pushType="float", popType="float", peekType="float", codeSize="50 b", stackSize="96 b", work="1449"];
node102 -> node105;
node106 [label="WEIGHTED_ROUND_ROBIN_Joiner_51557", push="33264", pop="33264", peek="0", pushType="float", popType="float", peekType="void", codeSize="60 b", stackSize="128 b", work="0"];
node103 -> node106;
node104 -> node106;
node105 -> node106;
node107 [label="Identity_51332", push="8316", pop="8316", peek="8316", pushType="float", popType="float", peekType="float", codeSize="12 b", stackSize="32 b", work="6"];
node1 -> node107;
node108 [label="Pre_CollapsedDataParallel_2_51444", push="8316", pop="8316", peek="8316", pushType="float", popType="float", peekType="float", codeSize="50 b", stackSize="96 b", work="1101"];
node107 -> node108;
node109 [label="WEIGHTED_ROUND_ROBIN_Splitter_51561", push="8316", pop="8316", peek="0", pushType="float", popType="float", peekType="void", codeSize="168 b", stackSize="320 b", work="0"];
node108 -> node109;
node110 [label="Post_CollapsedDataParallel_1_51563", push="924", pop="924", peek="924", pushType="float", popType="float", peekType="float", codeSize="54 b", stackSize="96 b", work="143"];
node109 -> node110;
node111 [label="Post_CollapsedDataParallel_1_51564", push="924", pop="924", peek="924", pushType="float", popType="float", peekType="float", codeSize="54 b", stackSize="96 b", work="143"];
node109 -> node111;
node112 [label="Post_CollapsedDataParallel_1_51565", push="924", pop="924", peek="924", pushType="float", popType="float", peekType="float", codeSize="54 b", stackSize="96 b", work="143"];
node109 -> node112;
node113 [label="Post_CollapsedDataParallel_1_51566", push="924", pop="924", peek="924", pushType="float", popType="float", peekType="float", codeSize="54 b", stackSize="96 b", work="143"];
node109 -> node113;
node114 [label="Post_CollapsedDataParallel_1_51567", push="924", pop="924", peek="924", pushType="float", popType="float", peekType="float", codeSize="54 b", stackSize="96 b", work="143"];
node109 -> node114;
node115 [label="Post_CollapsedDataParallel_1_51568", push="924", pop="924", peek="924", pushType="float", popType="float", peekType="float", codeSize="54 b", stackSize="96 b", work="143"];
node109 -> node115;
node116 [label="Post_CollapsedDataParallel_1_51569", push="924", pop="924", peek="924", pushType="float", popType="float", peekType="float", codeSize="54 b", stackSize="96 b", work="143"];
node109 -> node116;
node117 [label="Post_CollapsedDataParallel_1_51570", push="924", pop="924", peek="924", pushType="float", popType="float", peekType="float", codeSize="54 b", stackSize="96 b", work="143"];
node109 -> node117;
node118 [label="Post_CollapsedDataParallel_1_51571", push="924", pop="924", peek="924", pushType="float", popType="float", peekType="float", codeSize="54 b", stackSize="96 b", work="143"];
node109 -> node118;
node119 [label="WEIGHTED_ROUND_ROBIN_Joiner_51562", push="8316", pop="8316", peek="0", pushType="float", popType="float", peekType="void", codeSize="168 b", stackSize="320 b", work="0"];
node110 -> node119;
node111 -> node119;
node112 -> node119;
node113 -> node119;
node114 -> node119;
node115 -> node119;
node116 -> node119;
node117 -> node119;
node118 -> node119;
node120 [label="Identity_51341", push="8316", pop="8316", peek="8316", pushType="float", popType="float", peekType="float", codeSize="12 b", stackSize="32 b", work="6"];
node119 -> node120;
node121 [label="WEIGHTED_ROUND_ROBIN_Splitter_51572", push="8316", pop="8316", peek="0", pushType="float", popType="float", peekType="void", codeSize="60 b", stackSize="128 b", work="0"];
node120 -> node121;
node122 [label="Pre_CollapsedDataParallel_2_51574", push="2772", pop="2772", peek="2772", pushType="float", popType="float", peekType="float", codeSize="50 b", stackSize="96 b", work="369"];
node121 -> node122;
node123 [label="Pre_CollapsedDataParallel_2_51575", push="2772", pop="2772", peek="2772", pushType="float", popType="float", peekType="float", codeSize="50 b", stackSize="96 b", work="369"];
node121 -> node123;
node124 [label="Pre_CollapsedDataParallel_2_51576", push="2772", pop="2772", peek="2772", pushType="float", popType="float", peekType="float", codeSize="50 b", stackSize="96 b", work="369"];
node121 -> node124;
node125 [label="WEIGHTED_ROUND_ROBIN_Joiner_51573", push="8316", pop="8316", peek="0", pushType="float", popType="float", peekType="void", codeSize="60 b", stackSize="128 b", work="0"];
node122 -> node125;
node123 -> node125;
node124 -> node125;
node126 [label="WEIGHTED_ROUND_ROBIN_Splitter_51577", push="8316", pop="8316", peek="0", pushType="float", popType="float", peekType="void", codeSize="930 b", stackSize="32 b", work="0"];
node125 -> node126;
node127 [label="AutoGeneratedExpander_51579", push="324", pop="108", peek="108", pushType="float", popType="float", peekType="float", codeSize="32 b", stackSize="32 b", work="27"];
node126 -> node127;
node128 [label="AutoGeneratedExpander_51580", push="324", pop="108", peek="108", pushType="float", popType="float", peekType="float", codeSize="32 b", stackSize="32 b", work="27"];
node126 -> node128;
node129 [label="AutoGeneratedExpander_51581", push="324", pop="108", peek="108", pushType="float", popType="float", peekType="float", codeSize="32 b", stackSize="32 b", work="27"];
node126 -> node129;
node130 [label="AutoGeneratedExpander_51582", push="324", pop="108", peek="108", pushType="float", popType="float", peekType="float", codeSize="32 b", stackSize="32 b", work="27"];
node126 -> node130;
node131 [label="AutoGeneratedExpander_51583", push="324", pop="108", peek="108", pushType="float", popType="float", peekType="float", codeSize="32 b", stackSize="32 b", work="27"];
node126 -> node131;
node132 [label="AutoGeneratedExpander_51584", push="324", pop="108", peek="108", pushType="float", popType="float", peekType="float", codeSize="32 b", stackSize="32 b", work="27"];
node126 -> node132;
node133 [label="AutoGeneratedExpander_51585", push="324", pop="108", peek="108", pushType="float", popType="float", peekType="float", codeSize="32 b", stackSize="32 b", work="27"];
node126 -> node133;
node134 [label="AutoGeneratedExpander_51586", push="324", pop="108", peek="108", pushType="float", popType="float", peekType="float", codeSize="32 b", stackSize="32 b", work="27"];
node126 -> node134;
node135 [label="AutoGeneratedExpander_51587", push="324", pop="108", peek="108", pushType="float", popType="float", peekType="float", codeSize="32 b", stackSize="32 b", work="27"];
node126 -> node135;
node136 [label="AutoGeneratedExpander_51588", push="324", pop="108", peek="108", pushType="float", popType="float", peekType="float", codeSize="32 b", stackSize="32 b", work="27"];
node126 -> node136;
node137 [label="AutoGeneratedExpander_51589", push="324", pop="108", peek="108", pushType="float", popType="float", peekType="float", codeSize="32 b", stackSize="32 b", work="27"];
node126 -> node137;
node138 [label="AutoGeneratedExpander_51590", push="324", pop="108", peek="108", pushType="float", popType="float", peekType="float", codeSize="32 b", stackSize="32 b", work="27"];
node126 -> node138;
node139 [label="AutoGeneratedExpander_51591", push="324", pop="108", peek="108", pushType="float", popType="float", peekType="float", codeSize="32 b", stackSize="32 b", work="27"];
node126 -> node139;
node140 [label="AutoGeneratedExpander_51592", push="324", pop="108", peek="108", pushType="float", popType="float", peekType="float", codeSize="32 b", stackSize="32 b", work="27"];
node126 -> node140;
node141 [label="AutoGeneratedExpander_51593", push="324", pop="108", peek="108", pushType="float", popType="float", peekType="float", codeSize="32 b", stackSize="32 b", work="27"];
node126 -> node141;
node142 [label="AutoGeneratedExpander_51594", push="324", pop="108", peek="108", pushType="float", popType="float", peekType="float", codeSize="32 b", stackSize="32 b", work="27"];
node126 -> node142;
node143 [label="AutoGeneratedExpander_51595", push="324", pop="108", peek="108", pushType="float", popType="float", peekType="float", codeSize="32 b", stackSize="32 b", work="27"];
node126 -> node143;
node144 [label="AutoGeneratedExpander_51596", push="324", pop="108", peek="108", pushType="float", popType="float", peekType="float", codeSize="32 b", stackSize="32 b", work="27"];
node126 -> node144;
node145 [label="AutoGeneratedExpander_51597", push="324", pop="108", peek="108", pushType="float", popType="float", peekType="float", codeSize="32 b", stackSize="32 b", work="27"];
node126 -> node145;
node146 [label="AutoGeneratedExpander_51598", push="324", pop="108", peek="108", pushType="float", popType="float", peekType="float", codeSize="32 b", stackSize="32 b", work="27"];
node126 -> node146;
node147 [label="AutoGeneratedExpander_51599", push="324", pop="108", peek="108", pushType="float", popType="float", peekType="float", codeSize="32 b", stackSize="32 b", work="27"];
node126 -> node147;
node148 [label="AutoGeneratedExpander_51600", push="324", pop="108", peek="108", pushType="float", popType="float", peekType="float", codeSize="32 b", stackSize="32 b", work="27"];
node126 -> node148;
node149 [label="AutoGeneratedExpander_51601", push="324", pop="108", peek="108", pushType="float", popType="float", peekType="float", codeSize="32 b", stackSize="32 b", work="27"];
node126 -> node149;
node150 [label="AutoGeneratedExpander_51602", push="324", pop="108", peek="108", pushType="float", popType="float", peekType="float", codeSize="32 b", stackSize="32 b", work="27"];
node126 -> node150;
node151 [label="AutoGeneratedExpander_51603", push="324", pop="108", peek="108", pushType="float", popType="float", peekType="float", codeSize="32 b", stackSize="32 b", work="27"];
node126 -> node151;
node152 [label="AutoGeneratedExpander_51604", push="324", pop="108", peek="108", pushType="float", popType="float", peekType="float", codeSize="32 b", stackSize="32 b", work="27"];
node126 -> node152;
node153 [label="AutoGeneratedExpander_51605", push="324", pop="108", peek="108", pushType="float", popType="float", peekType="float", codeSize="32 b", stackSize="32 b", work="27"];
node126 -> node153;
node154 [label="AutoGeneratedExpander_51606", push="324", pop="108", peek="108", pushType="float", popType="float", peekType="float", codeSize="32 b", stackSize="32 b", work="27"];
node126 -> node154;
node155 [label="AutoGeneratedExpander_51607", push="324", pop="108", peek="108", pushType="float", popType="float", peekType="float", codeSize="32 b", stackSize="32 b", work="27"];
node126 -> node155;
node156 [label="AutoGeneratedExpander_51608", push="324", pop="108", peek="108", pushType="float", popType="float", peekType="float", codeSize="32 b", stackSize="32 b", work="27"];
node126 -> node156;
node157 [label="AutoGeneratedExpander_51609", push="324", pop="108", peek="108", pushType="float", popType="float", peekType="float", codeSize="32 b", stackSize="32 b", work="27"];
node126 -> node157;
node158 [label="AutoGeneratedExpander_51610", push="324", pop="108", peek="108", pushType="float", popType="float", peekType="float", codeSize="32 b", stackSize="32 b", work="27"];
node126 -> node158;
node159 [label="AutoGeneratedExpander_51611", push="324", pop="108", peek="108", pushType="float", popType="float", peekType="float", codeSize="32 b", stackSize="32 b", work="27"];
node126 -> node159;
node160 [label="AutoGeneratedExpander_51612", push="324", pop="108", peek="108", pushType="float", popType="float", peekType="float", codeSize="32 b", stackSize="32 b", work="27"];
node126 -> node160;
node161 [label="AutoGeneratedExpander_51613", push="324", pop="108", peek="108", pushType="float", popType="float", peekType="float", codeSize="32 b", stackSize="32 b", work="27"];
node126 -> node161;
node162 [label="AutoGeneratedExpander_51614", push="324", pop="108", peek="108", pushType="float", popType="float", peekType="float", codeSize="32 b", stackSize="32 b", work="27"];
node126 -> node162;
node163 [label="AutoGeneratedExpander_51615", push="324", pop="108", peek="108", pushType="float", popType="float", peekType="float", codeSize="32 b", stackSize="32 b", work="27"];
node126 -> node163;
node164 [label="AutoGeneratedExpander_51616", push="324", pop="108", peek="108", pushType="float", popType="float", peekType="float", codeSize="32 b", stackSize="32 b", work="27"];
node126 -> node164;
node165 [label="AutoGeneratedExpander_51617", push="324", pop="108", peek="108", pushType="float", popType="float", peekType="float", codeSize="32 b", stackSize="32 b", work="27"];
node126 -> node165;
node166 [label="AutoGeneratedExpander_51618", push="324", pop="108", peek="108", pushType="float", popType="float", peekType="float", codeSize="32 b", stackSize="32 b", work="27"];
node126 -> node166;
node167 [label="AutoGeneratedExpander_51619", push="324", pop="108", peek="108", pushType="float", popType="float", peekType="float", codeSize="32 b", stackSize="32 b", work="27"];
node126 -> node167;
node168 [label="AutoGeneratedExpander_51620", push="324", pop="108", peek="108", pushType="float", popType="float", peekType="float", codeSize="32 b", stackSize="32 b", work="27"];
node126 -> node168;
node169 [label="AutoGeneratedExpander_51621", push="324", pop="108", peek="108", pushType="float", popType="float", peekType="float", codeSize="32 b", stackSize="32 b", work="27"];
node126 -> node169;
node170 [label="AutoGeneratedExpander_51622", push="324", pop="108", peek="108", pushType="float", popType="float", peekType="float", codeSize="32 b", stackSize="32 b", work="27"];
node126 -> node170;
node171 [label="AutoGeneratedExpander_51623", push="324", pop="108", peek="108", pushType="float", popType="float", peekType="float", codeSize="32 b", stackSize="32 b", work="27"];
node126 -> node171;
node172 [label="AutoGeneratedExpander_51624", push="324", pop="108", peek="108", pushType="float", popType="float", peekType="float", codeSize="32 b", stackSize="32 b", work="27"];
node126 -> node172;
node173 [label="AutoGeneratedExpander_51625", push="324", pop="108", peek="108", pushType="float", popType="float", peekType="float", codeSize="32 b", stackSize="32 b", work="27"];
node126 -> node173;
node174 [label="AutoGeneratedExpander_51626", push="324", pop="108", peek="108", pushType="float", popType="float", peekType="float", codeSize="32 b", stackSize="32 b", work="27"];
node126 -> node174;
node175 [label="AutoGeneratedExpander_51627", push="324", pop="108", peek="108", pushType="float", popType="float", peekType="float", codeSize="32 b", stackSize="32 b", work="27"];
node126 -> node175;
node176 [label="AutoGeneratedExpander_51628", push="324", pop="108", peek="108", pushType="float", popType="float", peekType="float", codeSize="32 b", stackSize="32 b", work="27"];
node126 -> node176;
node177 [label="AutoGeneratedExpander_51629", push="324", pop="108", peek="108", pushType="float", popType="float", peekType="float", codeSize="32 b", stackSize="32 b", work="27"];
node126 -> node177;
node178 [label="AutoGeneratedExpander_51630", push="324", pop="108", peek="108", pushType="float", popType="float", peekType="float", codeSize="32 b", stackSize="32 b", work="27"];
node126 -> node178;
node179 [label="AutoGeneratedExpander_51631", push="324", pop="108", peek="108", pushType="float", popType="float", peekType="float", codeSize="32 b", stackSize="32 b", work="27"];
node126 -> node179;
node180 [label="AutoGeneratedExpander_51632", push="324", pop="108", peek="108", pushType="float", popType="float", peekType="float", codeSize="32 b", stackSize="32 b", work="27"];
node126 -> node180;
node181 [label="AutoGeneratedExpander_51633", push="324", pop="108", peek="108", pushType="float", popType="float", peekType="float", codeSize="32 b", stackSize="32 b", work="27"];
node126 -> node181;
node182 [label="AutoGeneratedExpander_51634", push="324", pop="108", peek="108", pushType="float", popType="float", peekType="float", codeSize="32 b", stackSize="32 b", work="27"];
node126 -> node182;
node183 [label="AutoGeneratedExpander_51635", push="324", pop="108", peek="108", pushType="float", popType="float", peekType="float", codeSize="32 b", stackSize="32 b", work="27"];
node126 -> node183;
node184 [label="AutoGeneratedExpander_51636", push="324", pop="108", peek="108", pushType="float", popType="float", peekType="float", codeSize="32 b", stackSize="32 b", work="27"];
node126 -> node184;
node185 [label="AutoGeneratedExpander_51637", push="324", pop="108", peek="108", pushType="float", popType="float", peekType="float", codeSize="32 b", stackSize="32 b", work="27"];
node126 -> node185;
node186 [label="AutoGeneratedExpander_51638", push="324", pop="108", peek="108", pushType="float", popType="float", peekType="float", codeSize="32 b", stackSize="32 b", work="27"];
node126 -> node186;
node187 [label="AutoGeneratedExpander_51639", push="324", pop="108", peek="108", pushType="float", popType="float", peekType="float", codeSize="32 b", stackSize="32 b", work="27"];
node126 -> node187;
node188 [label="AutoGeneratedExpander_51640", push="324", pop="108", peek="108", pushType="float", popType="float", peekType="float", codeSize="32 b", stackSize="32 b", work="27"];
node126 -> node188;
node189 [label="AutoGeneratedExpander_51641", push="324", pop="108", peek="108", pushType="float", popType="float", peekType="float", codeSize="32 b", stackSize="32 b", work="27"];
node126 -> node189;
node190 [label="AutoGeneratedExpander_51642", push="324", pop="108", peek="108", pushType="float", popType="float", peekType="float", codeSize="32 b", stackSize="32 b", work="27"];
node126 -> node190;
node191 [label="AutoGeneratedExpander_51643", push="324", pop="108", peek="108", pushType="float", popType="float", peekType="float", codeSize="32 b", stackSize="32 b", work="27"];
node126 -> node191;
node192 [label="AutoGeneratedExpander_51644", push="324", pop="108", peek="108", pushType="float", popType="float", peekType="float", codeSize="32 b", stackSize="32 b", work="27"];
node126 -> node192;
node193 [label="AutoGeneratedExpander_51645", push="324", pop="108", peek="108", pushType="float", popType="float", peekType="float", codeSize="32 b", stackSize="32 b", work="27"];
node126 -> node193;
node194 [label="AutoGeneratedExpander_51646", push="324", pop="108", peek="108", pushType="float", popType="float", peekType="float", codeSize="32 b", stackSize="32 b", work="27"];
node126 -> node194;
node195 [label="AutoGeneratedExpander_51647", push="324", pop="108", peek="108", pushType="float", popType="float", peekType="float", codeSize="32 b", stackSize="32 b", work="27"];
node126 -> node195;
node196 [label="AutoGeneratedExpander_51648", push="324", pop="108", peek="108", pushType="float", popType="float", peekType="float", codeSize="32 b", stackSize="32 b", work="27"];
node126 -> node196;
node197 [label="AutoGeneratedExpander_51649", push="324", pop="108", peek="108", pushType="float", popType="float", peekType="float", codeSize="32 b", stackSize="32 b", work="27"];
node126 -> node197;
node198 [label="AutoGeneratedExpander_51650", push="324", pop="108", peek="108", pushType="float", popType="float", peekType="float", codeSize="32 b", stackSize="32 b", work="27"];
node126 -> node198;
node199 [label="AutoGeneratedExpander_51651", push="324", pop="108", peek="108", pushType="float", popType="float", peekType="float", codeSize="32 b", stackSize="32 b", work="27"];
node126 -> node199;
node200 [label="AutoGeneratedExpander_51652", push="324", pop="108", peek="108", pushType="float", popType="float", peekType="float", codeSize="32 b", stackSize="32 b", work="27"];
node126 -> node200;
node201 [label="AutoGeneratedExpander_51653", push="324", pop="108", peek="108", pushType="float", popType="float", peekType="float", codeSize="32 b", stackSize="32 b", work="27"];
node126 -> node201;
node202 [label="AutoGeneratedExpander_51654", push="324", pop="108", peek="108", pushType="float", popType="float", peekType="float", codeSize="32 b", stackSize="32 b", work="27"];
node126 -> node202;
node203 [label="AutoGeneratedExpander_51655", push="324", pop="108", peek="108", pushType="float", popType="float", peekType="float", codeSize="32 b", stackSize="32 b", work="27"];
node126 -> node203;
node204 [label="WEIGHTED_ROUND_ROBIN_Joiner_51578", push="24948", pop="24948", peek="0", pushType="float", popType="float", peekType="void", codeSize="1392 b", stackSize="2496 b", work="0"];
node127 -> node204;
node128 -> node204;
node129 -> node204;
node130 -> node204;
node131 -> node204;
node132 -> node204;
node133 -> node204;
node134 -> node204;
node135 -> node204;
node136 -> node204;
node137 -> node204;
node138 -> node204;
node139 -> node204;
node140 -> node204;
node141 -> node204;
node142 -> node204;
node143 -> node204;
node144 -> node204;
node145 -> node204;
node146 -> node204;
node147 -> node204;
node148 -> node204;
node149 -> node204;
node150 -> node204;
node151 -> node204;
node152 -> node204;
node153 -> node204;
node154 -> node204;
node155 -> node204;
node156 -> node204;
node157 -> node204;
node158 -> node204;
node159 -> node204;
node160 -> node204;
node161 -> node204;
node162 -> node204;
node163 -> node204;
node164 -> node204;
node165 -> node204;
node166 -> node204;
node167 -> node204;
node168 -> node204;
node169 -> node204;
node170 -> node204;
node171 -> node204;
node172 -> node204;
node173 -> node204;
node174 -> node204;
node175 -> node204;
node176 -> node204;
node177 -> node204;
node178 -> node204;
node179 -> node204;
node180 -> node204;
node181 -> node204;
node182 -> node204;
node183 -> node204;
node184 -> node204;
node185 -> node204;
node186 -> node204;
node187 -> node204;
node188 -> node204;
node189 -> node204;
node190 -> node204;
node191 -> node204;
node192 -> node204;
node193 -> node204;
node194 -> node204;
node195 -> node204;
node196 -> node204;
node197 -> node204;
node198 -> node204;
node199 -> node204;
node200 -> node204;
node201 -> node204;
node202 -> node204;
node203 -> node204;
node205 [label="Identity_51344", push="24948", pop="24948", peek="24948", pushType="float", popType="float", peekType="float", codeSize="12 b", stackSize="32 b", work="6"];
node204 -> node205;
node206 [label="Pre_CollapsedDataParallel_2_51447", push="24948", pop="24948", peek="24948", pushType="float", popType="float", peekType="float", codeSize="50 b", stackSize="96 b", work="3249"];
node205 -> node206;
node207 [label="WEIGHTED_ROUND_ROBIN_Joiner_51451", push="58212", pop="58212", peek="0", pushType="float", popType="float", peekType="void", codeSize="42 b", stackSize="96 b", work="0"];
node106 -> node207;
node206 -> node207;
node208 [label="WEIGHTED_ROUND_ROBIN_Splitter_51656", push="58212", pop="58212", peek="0", pushType="float", popType="float", peekType="void", codeSize="492 b", stackSize="896 b", work="0"];
node207 -> node208;
node209 [label="BlockMultiply_51658", push="924", pop="2156", peek="2156", pushType="float", popType="float", peekType="float", codeSize="102 b", stackSize="256 b", work="1024"];
node208 -> node209;
node210 [label="BlockMultiply_51659", push="924", pop="2156", peek="2156", pushType="float", popType="float", peekType="float", codeSize="102 b", stackSize="256 b", work="1024"];
node208 -> node210;
node211 [label="BlockMultiply_51660", push="924", pop="2156", peek="2156", pushType="float", popType="float", peekType="float", codeSize="102 b", stackSize="256 b", work="1024"];
node208 -> node211;
node212 [label="BlockMultiply_51661", push="924", pop="2156", peek="2156", pushType="float", popType="float", peekType="float", codeSize="102 b", stackSize="256 b", work="1024"];
node208 -> node212;
node213 [label="BlockMultiply_51662", push="924", pop="2156", peek="2156", pushType="float", popType="float", peekType="float", codeSize="102 b", stackSize="256 b", work="1024"];
node208 -> node213;
node214 [label="BlockMultiply_51663", push="924", pop="2156", peek="2156", pushType="float", popType="float", peekType="float", codeSize="102 b", stackSize="256 b", work="1024"];
node208 -> node214;
node215 [label="BlockMultiply_51664", push="924", pop="2156", peek="2156", pushType="float", popType="float", peekType="float", codeSize="102 b", stackSize="256 b", work="1024"];
node208 -> node215;
node216 [label="BlockMultiply_51665", push="924", pop="2156", peek="2156", pushType="float", popType="float", peekType="float", codeSize="102 b", stackSize="256 b", work="1024"];
node208 -> node216;
node217 [label="BlockMultiply_51666", push="924", pop="2156", peek="2156", pushType="float", popType="float", peekType="float", codeSize="102 b", stackSize="256 b", work="1024"];
node208 -> node217;
node218 [label="BlockMultiply_51667", push="924", pop="2156", peek="2156", pushType="float", popType="float", peekType="float", codeSize="102 b", stackSize="256 b", work="1024"];
node208 -> node218;
node219 [label="BlockMultiply_51668", push="924", pop="2156", peek="2156", pushType="float", popType="float", peekType="float", codeSize="102 b", stackSize="256 b", work="1024"];
node208 -> node219;
node220 [label="BlockMultiply_51669", push="924", pop="2156", peek="2156", pushType="float", popType="float", peekType="float", codeSize="102 b", stackSize="256 b", work="1024"];
node208 -> node220;
node221 [label="BlockMultiply_51670", push="924", pop="2156", peek="2156", pushType="float", popType="float", peekType="float", codeSize="102 b", stackSize="256 b", work="1024"];
node208 -> node221;
node222 [label="BlockMultiply_51671", push="924", pop="2156", peek="2156", pushType="float", popType="float", peekType="float", codeSize="102 b", stackSize="256 b", work="1024"];
node208 -> node222;
node223 [label="BlockMultiply_51672", push="924", pop="2156", peek="2156", pushType="float", popType="float", peekType="float", codeSize="102 b", stackSize="256 b", work="1024"];
node208 -> node223;
node224 [label="BlockMultiply_51673", push="924", pop="2156", peek="2156", pushType="float", popType="float", peekType="float", codeSize="102 b", stackSize="256 b", work="1024"];
node208 -> node224;
node225 [label="BlockMultiply_51674", push="924", pop="2156", peek="2156", pushType="float", popType="float", peekType="float", codeSize="102 b", stackSize="256 b", work="1024"];
node208 -> node225;
node226 [label="BlockMultiply_51675", push="924", pop="2156", peek="2156", pushType="float", popType="float", peekType="float", codeSize="102 b", stackSize="256 b", work="1024"];
node208 -> node226;
node227 [label="BlockMultiply_51676", push="924", pop="2156", peek="2156", pushType="float", popType="float", peekType="float", codeSize="102 b", stackSize="256 b", work="1024"];
node208 -> node227;
node228 [label="BlockMultiply_51677", push="924", pop="2156", peek="2156", pushType="float", popType="float", peekType="float", codeSize="102 b", stackSize="256 b", work="1024"];
node208 -> node228;
node229 [label="BlockMultiply_51678", push="924", pop="2156", peek="2156", pushType="float", popType="float", peekType="float", codeSize="102 b", stackSize="256 b", work="1024"];
node208 -> node229;
node230 [label="BlockMultiply_51679", push="924", pop="2156", peek="2156", pushType="float", popType="float", peekType="float", codeSize="102 b", stackSize="256 b", work="1024"];
node208 -> node230;
node231 [label="BlockMultiply_51680", push="924", pop="2156", peek="2156", pushType="float", popType="float", peekType="float", codeSize="102 b", stackSize="256 b", work="1024"];
node208 -> node231;
node232 [label="BlockMultiply_51681", push="924", pop="2156", peek="2156", pushType="float", popType="float", peekType="float", codeSize="102 b", stackSize="256 b", work="1024"];
node208 -> node232;
node233 [label="BlockMultiply_51682", push="924", pop="2156", peek="2156", pushType="float", popType="float", peekType="float", codeSize="102 b", stackSize="256 b", work="1024"];
node208 -> node233;
node234 [label="BlockMultiply_51683", push="924", pop="2156", peek="2156", pushType="float", popType="float", peekType="float", codeSize="102 b", stackSize="256 b", work="1024"];
node208 -> node234;
node235 [label="BlockMultiply_51684", push="924", pop="2156", peek="2156", pushType="float", popType="float", peekType="float", codeSize="102 b", stackSize="256 b", work="1024"];
node208 -> node235;
node236 [label="WEIGHTED_ROUND_ROBIN_Joiner_51657", push="24948", pop="24948", peek="0", pushType="float", popType="float", peekType="void", codeSize="492 b", stackSize="896 b", work="0"];
node209 -> node236;
node210 -> node236;
node211 -> node236;
node212 -> node236;
node213 -> node236;
node214 -> node236;
node215 -> node236;
node216 -> node236;
node217 -> node236;
node218 -> node236;
node219 -> node236;
node220 -> node236;
node221 -> node236;
node222 -> node236;
node223 -> node236;
node224 -> node236;
node225 -> node236;
node226 -> node236;
node227 -> node236;
node228 -> node236;
node229 -> node236;
node230 -> node236;
node231 -> node236;
node232 -> node236;
node233 -> node236;
node234 -> node236;
node235 -> node236;
node237 [label="BlockAdd_51348", push="8316", pop="24948", peek="24948", pushType="float", popType="float", peekType="float", codeSize="189 b", stackSize="96 b", work="468"];
node236 -> node237;
node238 [label="WEIGHTED_ROUND_ROBIN_Splitter_51685", push="8316", pop="8316", peek="0", pushType="float", popType="float", peekType="void", codeSize="168 b", stackSize="320 b", work="0"];
node237 -> node238;
node239 [label="Post_CollapsedDataParallel_1_51687", push="924", pop="924", peek="924", pushType="float", popType="float", peekType="float", codeSize="54 b", stackSize="96 b", work="141"];
node238 -> node239;
node240 [label="Post_CollapsedDataParallel_1_51688", push="924", pop="924", peek="924", pushType="float", popType="float", peekType="float", codeSize="54 b", stackSize="96 b", work="141"];
node238 -> node240;
node241 [label="Post_CollapsedDataParallel_1_51689", push="924", pop="924", peek="924", pushType="float", popType="float", peekType="float", codeSize="54 b", stackSize="96 b", work="141"];
node238 -> node241;
node242 [label="Post_CollapsedDataParallel_1_51690", push="924", pop="924", peek="924", pushType="float", popType="float", peekType="float", codeSize="54 b", stackSize="96 b", work="141"];
node238 -> node242;
node243 [label="Post_CollapsedDataParallel_1_51691", push="924", pop="924", peek="924", pushType="float", popType="float", peekType="float", codeSize="54 b", stackSize="96 b", work="141"];
node238 -> node243;
node244 [label="Post_CollapsedDataParallel_1_51692", push="924", pop="924", peek="924", pushType="float", popType="float", peekType="float", codeSize="54 b", stackSize="96 b", work="141"];
node238 -> node244;
node245 [label="Post_CollapsedDataParallel_1_51693", push="924", pop="924", peek="924", pushType="float", popType="float", peekType="float", codeSize="54 b", stackSize="96 b", work="141"];
node238 -> node245;
node246 [label="Post_CollapsedDataParallel_1_51694", push="924", pop="924", peek="924", pushType="float", popType="float", peekType="float", codeSize="54 b", stackSize="96 b", work="141"];
node238 -> node246;
node247 [label="Post_CollapsedDataParallel_1_51695", push="924", pop="924", peek="924", pushType="float", popType="float", peekType="float", codeSize="54 b", stackSize="96 b", work="141"];
node238 -> node247;
node248 [label="WEIGHTED_ROUND_ROBIN_Joiner_51686", push="8316", pop="8316", peek="0", pushType="float", popType="float", peekType="void", codeSize="168 b", stackSize="320 b", work="0"];
node239 -> node248;
node240 -> node248;
node241 -> node248;
node242 -> node248;
node243 -> node248;
node244 -> node248;
node245 -> node248;
node246 -> node248;
node247 -> node248;
node249 [label="Identity_51350", push="8316", pop="8316", peek="8316", pushType="float", popType="float", peekType="float", codeSize="12 b", stackSize="32 b", work="6"];
node248 -> node249;
node250 [label="WEIGHTED_ROUND_ROBIN_Splitter_51696", push="8316", pop="8316", peek="0", pushType="float", popType="float", peekType="void", codeSize="60 b", stackSize="128 b", work="0"];
node249 -> node250;
node251 [label="Pre_CollapsedDataParallel_2_51698", push="2772", pop="2772", peek="2772", pushType="float", popType="float", peekType="float", codeSize="50 b", stackSize="96 b", work="371"];
node250 -> node251;
node252 [label="Pre_CollapsedDataParallel_2_51699", push="2772", pop="2772", peek="2772", pushType="float", popType="float", peekType="float", codeSize="50 b", stackSize="96 b", work="371"];
node250 -> node252;
node253 [label="Pre_CollapsedDataParallel_2_51700", push="2772", pop="2772", peek="2772", pushType="float", popType="float", peekType="float", codeSize="50 b", stackSize="96 b", work="371"];
node250 -> node253;
node254 [label="WEIGHTED_ROUND_ROBIN_Joiner_51697", push="8316", pop="8316", peek="0", pushType="float", popType="float", peekType="void", codeSize="60 b", stackSize="128 b", work="0"];
node251 -> node254;
node252 -> node254;
node253 -> node254;
node255 [label="Printer_51354", push="0", pop="8316", peek="8316", pushType="void", popType="float", peekType="float", codeSize="16 b", stackSize="0 b", work="6"];
node254 -> node255;
}
