digraph MatrixMultBlock_85717 {
node0 [label="BlockFloatSource_85483", push="756", pop="0", peek="0", pushType="float", popType="void", peekType="void", codeSize="26 b", stackSize="0 b", work="14"];
node1 [label="WEIGHTED_ROUND_ROBIN_Splitter_85612", push="756", pop="756", peek="0", pushType="float", popType="float", peekType="void", codeSize="42 b", stackSize="96 b", work="0"];
node0 -> node1;
node2 [label="WEIGHTED_ROUND_ROBIN_Splitter_85620", push="432", pop="432", peek="0", pushType="float", popType="float", peekType="void", codeSize="168 b", stackSize="320 b", work="0"];
node1 -> node2;
node3 [label="Post_CollapsedDataParallel_1_85622", push="48", pop="48", peek="48", pushType="float", popType="float", peekType="float", codeSize="54 b", stackSize="96 b", work="143"];
node2 -> node3;
node4 [label="Post_CollapsedDataParallel_1_85623", push="48", pop="48", peek="48", pushType="float", popType="float", peekType="float", codeSize="54 b", stackSize="96 b", work="143"];
node2 -> node4;
node5 [label="Post_CollapsedDataParallel_1_85624", push="48", pop="48", peek="48", pushType="float", popType="float", peekType="float", codeSize="54 b", stackSize="96 b", work="143"];
node2 -> node5;
node6 [label="Post_CollapsedDataParallel_1_85625", push="48", pop="48", peek="48", pushType="float", popType="float", peekType="float", codeSize="54 b", stackSize="96 b", work="143"];
node2 -> node6;
node7 [label="Post_CollapsedDataParallel_1_85626", push="48", pop="48", peek="48", pushType="float", popType="float", peekType="float", codeSize="54 b", stackSize="96 b", work="143"];
node2 -> node7;
node8 [label="Post_CollapsedDataParallel_1_85627", push="48", pop="48", peek="48", pushType="float", popType="float", peekType="float", codeSize="54 b", stackSize="96 b", work="143"];
node2 -> node8;
node9 [label="Post_CollapsedDataParallel_1_85628", push="48", pop="48", peek="48", pushType="float", popType="float", peekType="float", codeSize="54 b", stackSize="96 b", work="143"];
node2 -> node9;
node10 [label="Post_CollapsedDataParallel_1_85629", push="48", pop="48", peek="48", pushType="float", popType="float", peekType="float", codeSize="54 b", stackSize="96 b", work="143"];
node2 -> node10;
node11 [label="Post_CollapsedDataParallel_1_85630", push="48", pop="48", peek="48", pushType="float", popType="float", peekType="float", codeSize="54 b", stackSize="96 b", work="143"];
node2 -> node11;
node12 [label="WEIGHTED_ROUND_ROBIN_Joiner_85621", push="432", pop="432", peek="0", pushType="float", popType="float", peekType="void", codeSize="168 b", stackSize="320 b", work="0"];
node3 -> node12;
node4 -> node12;
node5 -> node12;
node6 -> node12;
node7 -> node12;
node8 -> node12;
node9 -> node12;
node10 -> node12;
node11 -> node12;
node13 [label="Identity_85487", push="432", pop="432", peek="432", pushType="float", popType="float", peekType="float", codeSize="12 b", stackSize="32 b", work="6"];
node12 -> node13;
node14 [label="WEIGHTED_ROUND_ROBIN_Splitter_85631", push="432", pop="432", peek="0", pushType="float", popType="float", peekType="void", codeSize="60 b", stackSize="128 b", work="0"];
node13 -> node14;
node15 [label="Pre_CollapsedDataParallel_2_85633", push="144", pop="144", peek="144", pushType="float", popType="float", peekType="float", codeSize="50 b", stackSize="96 b", work="489"];
node14 -> node15;
node16 [label="Pre_CollapsedDataParallel_2_85634", push="144", pop="144", peek="144", pushType="float", popType="float", peekType="float", codeSize="50 b", stackSize="96 b", work="489"];
node14 -> node16;
node17 [label="Pre_CollapsedDataParallel_2_85635", push="144", pop="144", peek="144", pushType="float", popType="float", peekType="float", codeSize="50 b", stackSize="96 b", work="489"];
node14 -> node17;
node18 [label="WEIGHTED_ROUND_ROBIN_Joiner_85632", push="432", pop="432", peek="0", pushType="float", popType="float", peekType="void", codeSize="60 b", stackSize="128 b", work="0"];
node15 -> node18;
node16 -> node18;
node17 -> node18;
node19 [label="WEIGHTED_ROUND_ROBIN_Splitter_85636", push="432", pop="432", peek="0", pushType="float", popType="float", peekType="void", codeSize="114 b", stackSize="32 b", work="0"];
node18 -> node19;
node20 [label="AutoGeneratedExpander_85638", push="144", pop="48", peek="48", pushType="float", popType="float", peekType="float", codeSize="32 b", stackSize="32 b", work="27"];
node19 -> node20;
node21 [label="AutoGeneratedExpander_85639", push="144", pop="48", peek="48", pushType="float", popType="float", peekType="float", codeSize="32 b", stackSize="32 b", work="27"];
node19 -> node21;
node22 [label="AutoGeneratedExpander_85640", push="144", pop="48", peek="48", pushType="float", popType="float", peekType="float", codeSize="32 b", stackSize="32 b", work="27"];
node19 -> node22;
node23 [label="AutoGeneratedExpander_85641", push="144", pop="48", peek="48", pushType="float", popType="float", peekType="float", codeSize="32 b", stackSize="32 b", work="27"];
node19 -> node23;
node24 [label="AutoGeneratedExpander_85642", push="144", pop="48", peek="48", pushType="float", popType="float", peekType="float", codeSize="32 b", stackSize="32 b", work="27"];
node19 -> node24;
node25 [label="AutoGeneratedExpander_85643", push="144", pop="48", peek="48", pushType="float", popType="float", peekType="float", codeSize="32 b", stackSize="32 b", work="27"];
node19 -> node25;
node26 [label="AutoGeneratedExpander_85644", push="144", pop="48", peek="48", pushType="float", popType="float", peekType="float", codeSize="32 b", stackSize="32 b", work="27"];
node19 -> node26;
node27 [label="AutoGeneratedExpander_85645", push="144", pop="48", peek="48", pushType="float", popType="float", peekType="float", codeSize="32 b", stackSize="32 b", work="27"];
node19 -> node27;
node28 [label="AutoGeneratedExpander_85646", push="144", pop="48", peek="48", pushType="float", popType="float", peekType="float", codeSize="32 b", stackSize="32 b", work="27"];
node19 -> node28;
node29 [label="WEIGHTED_ROUND_ROBIN_Joiner_85637", push="1296", pop="1296", peek="0", pushType="float", popType="float", peekType="void", codeSize="168 b", stackSize="320 b", work="0"];
node20 -> node29;
node21 -> node29;
node22 -> node29;
node23 -> node29;
node24 -> node29;
node25 -> node29;
node26 -> node29;
node27 -> node29;
node28 -> node29;
node30 [label="Identity_85490", push="1296", pop="1296", peek="1296", pushType="float", popType="float", peekType="float", codeSize="12 b", stackSize="32 b", work="6"];
node29 -> node30;
node31 [label="WEIGHTED_ROUND_ROBIN_Splitter_85647", push="1296", pop="1296", peek="0", pushType="float", popType="float", peekType="void", codeSize="60 b", stackSize="128 b", work="0"];
node30 -> node31;
node32 [label="Pre_CollapsedDataParallel_2_85649", push="432", pop="432", peek="432", pushType="float", popType="float", peekType="float", codeSize="50 b", stackSize="96 b", work="1449"];
node31 -> node32;
node33 [label="Pre_CollapsedDataParallel_2_85650", push="432", pop="432", peek="432", pushType="float", popType="float", peekType="float", codeSize="50 b", stackSize="96 b", work="1449"];
node31 -> node33;
node34 [label="Pre_CollapsedDataParallel_2_85651", push="432", pop="432", peek="432", pushType="float", popType="float", peekType="float", codeSize="50 b", stackSize="96 b", work="1449"];
node31 -> node34;
node35 [label="WEIGHTED_ROUND_ROBIN_Joiner_85648", push="1296", pop="1296", peek="0", pushType="float", popType="float", peekType="void", codeSize="60 b", stackSize="128 b", work="0"];
node32 -> node35;
node33 -> node35;
node34 -> node35;
node36 [label="Identity_85494", push="324", pop="324", peek="324", pushType="float", popType="float", peekType="float", codeSize="12 b", stackSize="32 b", work="6"];
node1 -> node36;
node37 [label="Pre_CollapsedDataParallel_2_85606", push="324", pop="324", peek="324", pushType="float", popType="float", peekType="float", codeSize="50 b", stackSize="96 b", work="1101"];
node36 -> node37;
node38 [label="WEIGHTED_ROUND_ROBIN_Splitter_85652", push="324", pop="324", peek="0", pushType="float", popType="float", peekType="void", codeSize="168 b", stackSize="320 b", work="0"];
node37 -> node38;
node39 [label="Post_CollapsedDataParallel_1_85654", push="36", pop="36", peek="36", pushType="float", popType="float", peekType="float", codeSize="54 b", stackSize="96 b", work="143"];
node38 -> node39;
node40 [label="Post_CollapsedDataParallel_1_85655", push="36", pop="36", peek="36", pushType="float", popType="float", peekType="float", codeSize="54 b", stackSize="96 b", work="143"];
node38 -> node40;
node41 [label="Post_CollapsedDataParallel_1_85656", push="36", pop="36", peek="36", pushType="float", popType="float", peekType="float", codeSize="54 b", stackSize="96 b", work="143"];
node38 -> node41;
node42 [label="Post_CollapsedDataParallel_1_85657", push="36", pop="36", peek="36", pushType="float", popType="float", peekType="float", codeSize="54 b", stackSize="96 b", work="143"];
node38 -> node42;
node43 [label="Post_CollapsedDataParallel_1_85658", push="36", pop="36", peek="36", pushType="float", popType="float", peekType="float", codeSize="54 b", stackSize="96 b", work="143"];
node38 -> node43;
node44 [label="Post_CollapsedDataParallel_1_85659", push="36", pop="36", peek="36", pushType="float", popType="float", peekType="float", codeSize="54 b", stackSize="96 b", work="143"];
node38 -> node44;
node45 [label="Post_CollapsedDataParallel_1_85660", push="36", pop="36", peek="36", pushType="float", popType="float", peekType="float", codeSize="54 b", stackSize="96 b", work="143"];
node38 -> node45;
node46 [label="Post_CollapsedDataParallel_1_85661", push="36", pop="36", peek="36", pushType="float", popType="float", peekType="float", codeSize="54 b", stackSize="96 b", work="143"];
node38 -> node46;
node47 [label="Post_CollapsedDataParallel_1_85662", push="36", pop="36", peek="36", pushType="float", popType="float", peekType="float", codeSize="54 b", stackSize="96 b", work="143"];
node38 -> node47;
node48 [label="WEIGHTED_ROUND_ROBIN_Joiner_85653", push="324", pop="324", peek="0", pushType="float", popType="float", peekType="void", codeSize="168 b", stackSize="320 b", work="0"];
node39 -> node48;
node40 -> node48;
node41 -> node48;
node42 -> node48;
node43 -> node48;
node44 -> node48;
node45 -> node48;
node46 -> node48;
node47 -> node48;
node49 [label="Identity_85503", push="324", pop="324", peek="324", pushType="float", popType="float", peekType="float", codeSize="12 b", stackSize="32 b", work="6"];
node48 -> node49;
node50 [label="WEIGHTED_ROUND_ROBIN_Splitter_85663", push="324", pop="324", peek="0", pushType="float", popType="float", peekType="void", codeSize="60 b", stackSize="128 b", work="0"];
node49 -> node50;
node51 [label="Pre_CollapsedDataParallel_2_85665", push="108", pop="108", peek="108", pushType="float", popType="float", peekType="float", codeSize="50 b", stackSize="96 b", work="369"];
node50 -> node51;
node52 [label="Pre_CollapsedDataParallel_2_85666", push="108", pop="108", peek="108", pushType="float", popType="float", peekType="float", codeSize="50 b", stackSize="96 b", work="369"];
node50 -> node52;
node53 [label="Pre_CollapsedDataParallel_2_85667", push="108", pop="108", peek="108", pushType="float", popType="float", peekType="float", codeSize="50 b", stackSize="96 b", work="369"];
node50 -> node53;
node54 [label="WEIGHTED_ROUND_ROBIN_Joiner_85664", push="324", pop="324", peek="0", pushType="float", popType="float", peekType="void", codeSize="60 b", stackSize="128 b", work="0"];
node51 -> node54;
node52 -> node54;
node53 -> node54;
node55 [label="WEIGHTED_ROUND_ROBIN_Splitter_85668", push="324", pop="324", peek="0", pushType="float", popType="float", peekType="void", codeSize="114 b", stackSize="32 b", work="0"];
node54 -> node55;
node56 [label="AutoGeneratedExpander_85670", push="108", pop="36", peek="36", pushType="float", popType="float", peekType="float", codeSize="32 b", stackSize="32 b", work="27"];
node55 -> node56;
node57 [label="AutoGeneratedExpander_85671", push="108", pop="36", peek="36", pushType="float", popType="float", peekType="float", codeSize="32 b", stackSize="32 b", work="27"];
node55 -> node57;
node58 [label="AutoGeneratedExpander_85672", push="108", pop="36", peek="36", pushType="float", popType="float", peekType="float", codeSize="32 b", stackSize="32 b", work="27"];
node55 -> node58;
node59 [label="AutoGeneratedExpander_85673", push="108", pop="36", peek="36", pushType="float", popType="float", peekType="float", codeSize="32 b", stackSize="32 b", work="27"];
node55 -> node59;
node60 [label="AutoGeneratedExpander_85674", push="108", pop="36", peek="36", pushType="float", popType="float", peekType="float", codeSize="32 b", stackSize="32 b", work="27"];
node55 -> node60;
node61 [label="AutoGeneratedExpander_85675", push="108", pop="36", peek="36", pushType="float", popType="float", peekType="float", codeSize="32 b", stackSize="32 b", work="27"];
node55 -> node61;
node62 [label="AutoGeneratedExpander_85676", push="108", pop="36", peek="36", pushType="float", popType="float", peekType="float", codeSize="32 b", stackSize="32 b", work="27"];
node55 -> node62;
node63 [label="AutoGeneratedExpander_85677", push="108", pop="36", peek="36", pushType="float", popType="float", peekType="float", codeSize="32 b", stackSize="32 b", work="27"];
node55 -> node63;
node64 [label="AutoGeneratedExpander_85678", push="108", pop="36", peek="36", pushType="float", popType="float", peekType="float", codeSize="32 b", stackSize="32 b", work="27"];
node55 -> node64;
node65 [label="WEIGHTED_ROUND_ROBIN_Joiner_85669", push="972", pop="972", peek="0", pushType="float", popType="float", peekType="void", codeSize="168 b", stackSize="320 b", work="0"];
node56 -> node65;
node57 -> node65;
node58 -> node65;
node59 -> node65;
node60 -> node65;
node61 -> node65;
node62 -> node65;
node63 -> node65;
node64 -> node65;
node66 [label="Identity_85506", push="972", pop="972", peek="972", pushType="float", popType="float", peekType="float", codeSize="12 b", stackSize="32 b", work="6"];
node65 -> node66;
node67 [label="Pre_CollapsedDataParallel_2_85609", push="972", pop="972", peek="972", pushType="float", popType="float", peekType="float", codeSize="50 b", stackSize="96 b", work="3249"];
node66 -> node67;
node68 [label="WEIGHTED_ROUND_ROBIN_Joiner_85613", push="2268", pop="2268", peek="0", pushType="float", popType="float", peekType="void", codeSize="42 b", stackSize="96 b", work="0"];
node35 -> node68;
node67 -> node68;
node69 [label="WEIGHTED_ROUND_ROBIN_Splitter_85679", push="2268", pop="2268", peek="0", pushType="float", popType="float", peekType="void", codeSize="168 b", stackSize="320 b", work="0"];
node68 -> node69;
node70 [label="BlockMultiply_85681", push="108", pop="252", peek="252", pushType="float", popType="float", peekType="float", codeSize="102 b", stackSize="256 b", work="1024"];
node69 -> node70;
node71 [label="BlockMultiply_85682", push="108", pop="252", peek="252", pushType="float", popType="float", peekType="float", codeSize="102 b", stackSize="256 b", work="1024"];
node69 -> node71;
node72 [label="BlockMultiply_85683", push="108", pop="252", peek="252", pushType="float", popType="float", peekType="float", codeSize="102 b", stackSize="256 b", work="1024"];
node69 -> node72;
node73 [label="BlockMultiply_85684", push="108", pop="252", peek="252", pushType="float", popType="float", peekType="float", codeSize="102 b", stackSize="256 b", work="1024"];
node69 -> node73;
node74 [label="BlockMultiply_85685", push="108", pop="252", peek="252", pushType="float", popType="float", peekType="float", codeSize="102 b", stackSize="256 b", work="1024"];
node69 -> node74;
node75 [label="BlockMultiply_85686", push="108", pop="252", peek="252", pushType="float", popType="float", peekType="float", codeSize="102 b", stackSize="256 b", work="1024"];
node69 -> node75;
node76 [label="BlockMultiply_85687", push="108", pop="252", peek="252", pushType="float", popType="float", peekType="float", codeSize="102 b", stackSize="256 b", work="1024"];
node69 -> node76;
node77 [label="BlockMultiply_85688", push="108", pop="252", peek="252", pushType="float", popType="float", peekType="float", codeSize="102 b", stackSize="256 b", work="1024"];
node69 -> node77;
node78 [label="BlockMultiply_85689", push="108", pop="252", peek="252", pushType="float", popType="float", peekType="float", codeSize="102 b", stackSize="256 b", work="1024"];
node69 -> node78;
node79 [label="WEIGHTED_ROUND_ROBIN_Joiner_85680", push="972", pop="972", peek="0", pushType="float", popType="float", peekType="void", codeSize="168 b", stackSize="320 b", work="0"];
node70 -> node79;
node71 -> node79;
node72 -> node79;
node73 -> node79;
node74 -> node79;
node75 -> node79;
node76 -> node79;
node77 -> node79;
node78 -> node79;
node80 [label="BlockAdd_85510", push="324", pop="972", peek="972", pushType="float", popType="float", peekType="float", codeSize="189 b", stackSize="96 b", work="468"];
node79 -> node80;
node81 [label="WEIGHTED_ROUND_ROBIN_Splitter_85690", push="324", pop="324", peek="0", pushType="float", popType="float", peekType="void", codeSize="168 b", stackSize="320 b", work="0"];
node80 -> node81;
node82 [label="Post_CollapsedDataParallel_1_85692", push="36", pop="36", peek="36", pushType="float", popType="float", peekType="float", codeSize="54 b", stackSize="96 b", work="141"];
node81 -> node82;
node83 [label="Post_CollapsedDataParallel_1_85693", push="36", pop="36", peek="36", pushType="float", popType="float", peekType="float", codeSize="54 b", stackSize="96 b", work="141"];
node81 -> node83;
node84 [label="Post_CollapsedDataParallel_1_85694", push="36", pop="36", peek="36", pushType="float", popType="float", peekType="float", codeSize="54 b", stackSize="96 b", work="141"];
node81 -> node84;
node85 [label="Post_CollapsedDataParallel_1_85695", push="36", pop="36", peek="36", pushType="float", popType="float", peekType="float", codeSize="54 b", stackSize="96 b", work="141"];
node81 -> node85;
node86 [label="Post_CollapsedDataParallel_1_85696", push="36", pop="36", peek="36", pushType="float", popType="float", peekType="float", codeSize="54 b", stackSize="96 b", work="141"];
node81 -> node86;
node87 [label="Post_CollapsedDataParallel_1_85697", push="36", pop="36", peek="36", pushType="float", popType="float", peekType="float", codeSize="54 b", stackSize="96 b", work="141"];
node81 -> node87;
node88 [label="Post_CollapsedDataParallel_1_85698", push="36", pop="36", peek="36", pushType="float", popType="float", peekType="float", codeSize="54 b", stackSize="96 b", work="141"];
node81 -> node88;
node89 [label="Post_CollapsedDataParallel_1_85699", push="36", pop="36", peek="36", pushType="float", popType="float", peekType="float", codeSize="54 b", stackSize="96 b", work="141"];
node81 -> node89;
node90 [label="Post_CollapsedDataParallel_1_85700", push="36", pop="36", peek="36", pushType="float", popType="float", peekType="float", codeSize="54 b", stackSize="96 b", work="141"];
node81 -> node90;
node91 [label="WEIGHTED_ROUND_ROBIN_Joiner_85691", push="324", pop="324", peek="0", pushType="float", popType="float", peekType="void", codeSize="168 b", stackSize="320 b", work="0"];
node82 -> node91;
node83 -> node91;
node84 -> node91;
node85 -> node91;
node86 -> node91;
node87 -> node91;
node88 -> node91;
node89 -> node91;
node90 -> node91;
node92 [label="Identity_85512", push="324", pop="324", peek="324", pushType="float", popType="float", peekType="float", codeSize="12 b", stackSize="32 b", work="6"];
node91 -> node92;
node93 [label="WEIGHTED_ROUND_ROBIN_Splitter_85701", push="324", pop="324", peek="0", pushType="float", popType="float", peekType="void", codeSize="60 b", stackSize="128 b", work="0"];
node92 -> node93;
node94 [label="Pre_CollapsedDataParallel_2_85703", push="108", pop="108", peek="108", pushType="float", popType="float", peekType="float", codeSize="50 b", stackSize="96 b", work="371"];
node93 -> node94;
node95 [label="Pre_CollapsedDataParallel_2_85704", push="108", pop="108", peek="108", pushType="float", popType="float", peekType="float", codeSize="50 b", stackSize="96 b", work="371"];
node93 -> node95;
node96 [label="Pre_CollapsedDataParallel_2_85705", push="108", pop="108", peek="108", pushType="float", popType="float", peekType="float", codeSize="50 b", stackSize="96 b", work="371"];
node93 -> node96;
node97 [label="WEIGHTED_ROUND_ROBIN_Joiner_85702", push="324", pop="324", peek="0", pushType="float", popType="float", peekType="void", codeSize="60 b", stackSize="128 b", work="0"];
node94 -> node97;
node95 -> node97;
node96 -> node97;
node98 [label="Printer_85516", push="0", pop="324", peek="324", pushType="void", popType="float", peekType="float", codeSize="16 b", stackSize="0 b", work="6"];
node97 -> node98;
}
