digraph CFARtest_4645 {
node0 [label="ComplexSource_4623", push="832", pop="0", peek="0", pushType="complex", popType="void", peekType="void", codeSize="309 b", stackSize="544 b", work="61760"];
node1 [label="WEIGHTED_ROUND_ROBIN_Splitter_4629", push="832", pop="832", peek="0", pushType="complex", popType="complex", peekType="void", codeSize="162 b", stackSize="32 b", work="0"];
node0 -> node1;
node2 [label="SquareAndScale_4631", push="64", pop="64", peek="64", pushType="float", popType="complex", peekType="complex", codeSize="73 b", stackSize="544 b", work="361"];
node1 -> node2;
node3 [label="SquareAndScale_4632", push="64", pop="64", peek="64", pushType="float", popType="complex", peekType="complex", codeSize="73 b", stackSize="544 b", work="361"];
node1 -> node3;
node4 [label="SquareAndScale_4633", push="64", pop="64", peek="64", pushType="float", popType="complex", peekType="complex", codeSize="73 b", stackSize="544 b", work="361"];
node1 -> node4;
node5 [label="SquareAndScale_4634", push="64", pop="64", peek="64", pushType="float", popType="complex", peekType="complex", codeSize="73 b", stackSize="544 b", work="361"];
node1 -> node5;
node6 [label="SquareAndScale_4635", push="64", pop="64", peek="64", pushType="float", popType="complex", peekType="complex", codeSize="73 b", stackSize="544 b", work="361"];
node1 -> node6;
node7 [label="SquareAndScale_4636", push="64", pop="64", peek="64", pushType="float", popType="complex", peekType="complex", codeSize="73 b", stackSize="544 b", work="361"];
node1 -> node7;
node8 [label="SquareAndScale_4637", push="64", pop="64", peek="64", pushType="float", popType="complex", peekType="complex", codeSize="73 b", stackSize="544 b", work="361"];
node1 -> node8;
node9 [label="SquareAndScale_4638", push="64", pop="64", peek="64", pushType="float", popType="complex", peekType="complex", codeSize="73 b", stackSize="544 b", work="361"];
node1 -> node9;
node10 [label="SquareAndScale_4639", push="64", pop="64", peek="64", pushType="float", popType="complex", peekType="complex", codeSize="73 b", stackSize="544 b", work="361"];
node1 -> node10;
node11 [label="SquareAndScale_4640", push="64", pop="64", peek="64", pushType="float", popType="complex", peekType="complex", codeSize="73 b", stackSize="544 b", work="361"];
node1 -> node11;
node12 [label="SquareAndScale_4641", push="64", pop="64", peek="64", pushType="float", popType="complex", peekType="complex", codeSize="73 b", stackSize="544 b", work="361"];
node1 -> node12;
node13 [label="SquareAndScale_4642", push="64", pop="64", peek="64", pushType="float", popType="complex", peekType="complex", codeSize="73 b", stackSize="544 b", work="361"];
node1 -> node13;
node14 [label="SquareAndScale_4643", push="64", pop="64", peek="64", pushType="float", popType="complex", peekType="complex", codeSize="73 b", stackSize="544 b", work="361"];
node1 -> node14;
node15 [label="WEIGHTED_ROUND_ROBIN_Joiner_4630", push="832", pop="832", peek="0", pushType="float", popType="float", peekType="void", codeSize="162 b", stackSize="32 b", work="0"];
node2 -> node15;
node3 -> node15;
node4 -> node15;
node5 -> node15;
node6 -> node15;
node7 -> node15;
node8 -> node15;
node9 -> node15;
node10 -> node15;
node11 -> node15;
node12 -> node15;
node13 -> node15;
node14 -> node15;
node16 [label="CFAR_gather_4626", push="832", pop="832", peek="8320", pushType="float", popType="float", peekType="float", codeSize="354 b", stackSize="128 b", work="202"];
node15 -> node16;
node17 [label="AnonFilter_a0_4627", push="0", pop="832", peek="832", pushType="void", popType="float", peekType="float", codeSize="16 b", stackSize="0 b", work="6"];
node16 -> node17;
}
