digraph CFARtest_4330 {
node0 [label="ComplexSource_4301", push="320", pop="0", peek="0", pushType="complex", popType="void", peekType="void", codeSize="309 b", stackSize="544 b", work="61760"];
node1 [label="WEIGHTED_ROUND_ROBIN_Splitter_4307", push="320", pop="320", peek="0", pushType="complex", popType="complex", peekType="void", codeSize="246 b", stackSize="32 b", work="0"];
node0 -> node1;
node2 [label="SquareAndScale_4309", push="16", pop="16", peek="16", pushType="float", popType="complex", peekType="complex", codeSize="73 b", stackSize="544 b", work="361"];
node1 -> node2;
node3 [label="SquareAndScale_4310", push="16", pop="16", peek="16", pushType="float", popType="complex", peekType="complex", codeSize="73 b", stackSize="544 b", work="361"];
node1 -> node3;
node4 [label="SquareAndScale_4311", push="16", pop="16", peek="16", pushType="float", popType="complex", peekType="complex", codeSize="73 b", stackSize="544 b", work="361"];
node1 -> node4;
node5 [label="SquareAndScale_4312", push="16", pop="16", peek="16", pushType="float", popType="complex", peekType="complex", codeSize="73 b", stackSize="544 b", work="361"];
node1 -> node5;
node6 [label="SquareAndScale_4313", push="16", pop="16", peek="16", pushType="float", popType="complex", peekType="complex", codeSize="73 b", stackSize="544 b", work="361"];
node1 -> node6;
node7 [label="SquareAndScale_4314", push="16", pop="16", peek="16", pushType="float", popType="complex", peekType="complex", codeSize="73 b", stackSize="544 b", work="361"];
node1 -> node7;
node8 [label="SquareAndScale_4315", push="16", pop="16", peek="16", pushType="float", popType="complex", peekType="complex", codeSize="73 b", stackSize="544 b", work="361"];
node1 -> node8;
node9 [label="SquareAndScale_4316", push="16", pop="16", peek="16", pushType="float", popType="complex", peekType="complex", codeSize="73 b", stackSize="544 b", work="361"];
node1 -> node9;
node10 [label="SquareAndScale_4317", push="16", pop="16", peek="16", pushType="float", popType="complex", peekType="complex", codeSize="73 b", stackSize="544 b", work="361"];
node1 -> node10;
node11 [label="SquareAndScale_4318", push="16", pop="16", peek="16", pushType="float", popType="complex", peekType="complex", codeSize="73 b", stackSize="544 b", work="361"];
node1 -> node11;
node12 [label="SquareAndScale_4319", push="16", pop="16", peek="16", pushType="float", popType="complex", peekType="complex", codeSize="73 b", stackSize="544 b", work="361"];
node1 -> node12;
node13 [label="SquareAndScale_4320", push="16", pop="16", peek="16", pushType="float", popType="complex", peekType="complex", codeSize="73 b", stackSize="544 b", work="361"];
node1 -> node13;
node14 [label="SquareAndScale_4321", push="16", pop="16", peek="16", pushType="float", popType="complex", peekType="complex", codeSize="73 b", stackSize="544 b", work="361"];
node1 -> node14;
node15 [label="SquareAndScale_4322", push="16", pop="16", peek="16", pushType="float", popType="complex", peekType="complex", codeSize="73 b", stackSize="544 b", work="361"];
node1 -> node15;
node16 [label="SquareAndScale_4323", push="16", pop="16", peek="16", pushType="float", popType="complex", peekType="complex", codeSize="73 b", stackSize="544 b", work="361"];
node1 -> node16;
node17 [label="SquareAndScale_4324", push="16", pop="16", peek="16", pushType="float", popType="complex", peekType="complex", codeSize="73 b", stackSize="544 b", work="361"];
node1 -> node17;
node18 [label="SquareAndScale_4325", push="16", pop="16", peek="16", pushType="float", popType="complex", peekType="complex", codeSize="73 b", stackSize="544 b", work="361"];
node1 -> node18;
node19 [label="SquareAndScale_4326", push="16", pop="16", peek="16", pushType="float", popType="complex", peekType="complex", codeSize="73 b", stackSize="544 b", work="361"];
node1 -> node19;
node20 [label="SquareAndScale_4327", push="16", pop="16", peek="16", pushType="float", popType="complex", peekType="complex", codeSize="73 b", stackSize="544 b", work="361"];
node1 -> node20;
node21 [label="SquareAndScale_4328", push="16", pop="16", peek="16", pushType="float", popType="complex", peekType="complex", codeSize="73 b", stackSize="544 b", work="361"];
node1 -> node21;
node22 [label="WEIGHTED_ROUND_ROBIN_Joiner_4308", push="320", pop="320", peek="0", pushType="float", popType="float", peekType="void", codeSize="246 b", stackSize="32 b", work="0"];
node2 -> node22;
node3 -> node22;
node4 -> node22;
node5 -> node22;
node6 -> node22;
node7 -> node22;
node8 -> node22;
node9 -> node22;
node10 -> node22;
node11 -> node22;
node12 -> node22;
node13 -> node22;
node14 -> node22;
node15 -> node22;
node16 -> node22;
node17 -> node22;
node18 -> node22;
node19 -> node22;
node20 -> node22;
node21 -> node22;
node23 [label="CFAR_gather_4304", push="320", pop="320", peek="3200", pushType="float", popType="float", peekType="float", codeSize="354 b", stackSize="128 b", work="202"];
node22 -> node23;
node24 [label="AnonFilter_a0_4305", push="0", pop="320", peek="320", pushType="void", popType="float", peekType="float", codeSize="16 b", stackSize="0 b", work="6"];
node23 -> node24;
}
