digraph CFARtest_4942 {
node0 [label="ComplexSource_4931", push="64", pop="0", peek="0", pushType="complex", popType="void", peekType="void", codeSize="309 b", stackSize="544 b", work="61760"];
node1 [label="WEIGHTED_ROUND_ROBIN_Splitter_4937", push="64", pop="64", peek="0", pushType="complex", popType="complex", peekType="void", codeSize="30 b", stackSize="32 b", work="0"];
node0 -> node1;
node2 [label="SquareAndScale_4939", push="32", pop="32", peek="32", pushType="float", popType="complex", peekType="complex", codeSize="73 b", stackSize="544 b", work="361"];
node1 -> node2;
node3 [label="SquareAndScale_4940", push="32", pop="32", peek="32", pushType="float", popType="complex", peekType="complex", codeSize="73 b", stackSize="544 b", work="361"];
node1 -> node3;
node4 [label="WEIGHTED_ROUND_ROBIN_Joiner_4938", push="64", pop="64", peek="0", pushType="float", popType="float", peekType="void", codeSize="30 b", stackSize="32 b", work="0"];
node2 -> node4;
node3 -> node4;
node5 [label="CFAR_gather_4934", push="64", pop="64", peek="640", pushType="float", popType="float", peekType="float", codeSize="354 b", stackSize="128 b", work="202"];
node4 -> node5;
node6 [label="AnonFilter_a0_4935", push="0", pop="64", peek="64", pushType="void", popType="float", peekType="float", codeSize="16 b", stackSize="0 b", work="6"];
node5 -> node6;
}
