digraph CFARtest_3325 {
node0 [label="ComplexSource_3281", push="2240", pop="0", peek="0", pushType="complex", popType="void", peekType="void", codeSize="309 b", stackSize="544 b", work="61760"];
node1 [label="WEIGHTED_ROUND_ROBIN_Splitter_3287", push="2240", pop="2240", peek="0", pushType="complex", popType="complex", peekType="void", codeSize="426 b", stackSize="32 b", work="0"];
node0 -> node1;
node2 [label="SquareAndScale_3289", push="64", pop="64", peek="64", pushType="float", popType="complex", peekType="complex", codeSize="73 b", stackSize="544 b", work="361"];
node1 -> node2;
node3 [label="SquareAndScale_3290", push="64", pop="64", peek="64", pushType="float", popType="complex", peekType="complex", codeSize="73 b", stackSize="544 b", work="361"];
node1 -> node3;
node4 [label="SquareAndScale_3291", push="64", pop="64", peek="64", pushType="float", popType="complex", peekType="complex", codeSize="73 b", stackSize="544 b", work="361"];
node1 -> node4;
node5 [label="SquareAndScale_3292", push="64", pop="64", peek="64", pushType="float", popType="complex", peekType="complex", codeSize="73 b", stackSize="544 b", work="361"];
node1 -> node5;
node6 [label="SquareAndScale_3293", push="64", pop="64", peek="64", pushType="float", popType="complex", peekType="complex", codeSize="73 b", stackSize="544 b", work="361"];
node1 -> node6;
node7 [label="SquareAndScale_3294", push="64", pop="64", peek="64", pushType="float", popType="complex", peekType="complex", codeSize="73 b", stackSize="544 b", work="361"];
node1 -> node7;
node8 [label="SquareAndScale_3295", push="64", pop="64", peek="64", pushType="float", popType="complex", peekType="complex", codeSize="73 b", stackSize="544 b", work="361"];
node1 -> node8;
node9 [label="SquareAndScale_3296", push="64", pop="64", peek="64", pushType="float", popType="complex", peekType="complex", codeSize="73 b", stackSize="544 b", work="361"];
node1 -> node9;
node10 [label="SquareAndScale_3297", push="64", pop="64", peek="64", pushType="float", popType="complex", peekType="complex", codeSize="73 b", stackSize="544 b", work="361"];
node1 -> node10;
node11 [label="SquareAndScale_3298", push="64", pop="64", peek="64", pushType="float", popType="complex", peekType="complex", codeSize="73 b", stackSize="544 b", work="361"];
node1 -> node11;
node12 [label="SquareAndScale_3299", push="64", pop="64", peek="64", pushType="float", popType="complex", peekType="complex", codeSize="73 b", stackSize="544 b", work="361"];
node1 -> node12;
node13 [label="SquareAndScale_3300", push="64", pop="64", peek="64", pushType="float", popType="complex", peekType="complex", codeSize="73 b", stackSize="544 b", work="361"];
node1 -> node13;
node14 [label="SquareAndScale_3301", push="64", pop="64", peek="64", pushType="float", popType="complex", peekType="complex", codeSize="73 b", stackSize="544 b", work="361"];
node1 -> node14;
node15 [label="SquareAndScale_3302", push="64", pop="64", peek="64", pushType="float", popType="complex", peekType="complex", codeSize="73 b", stackSize="544 b", work="361"];
node1 -> node15;
node16 [label="SquareAndScale_3303", push="64", pop="64", peek="64", pushType="float", popType="complex", peekType="complex", codeSize="73 b", stackSize="544 b", work="361"];
node1 -> node16;
node17 [label="SquareAndScale_3304", push="64", pop="64", peek="64", pushType="float", popType="complex", peekType="complex", codeSize="73 b", stackSize="544 b", work="361"];
node1 -> node17;
node18 [label="SquareAndScale_3305", push="64", pop="64", peek="64", pushType="float", popType="complex", peekType="complex", codeSize="73 b", stackSize="544 b", work="361"];
node1 -> node18;
node19 [label="SquareAndScale_3306", push="64", pop="64", peek="64", pushType="float", popType="complex", peekType="complex", codeSize="73 b", stackSize="544 b", work="361"];
node1 -> node19;
node20 [label="SquareAndScale_3307", push="64", pop="64", peek="64", pushType="float", popType="complex", peekType="complex", codeSize="73 b", stackSize="544 b", work="361"];
node1 -> node20;
node21 [label="SquareAndScale_3308", push="64", pop="64", peek="64", pushType="float", popType="complex", peekType="complex", codeSize="73 b", stackSize="544 b", work="361"];
node1 -> node21;
node22 [label="SquareAndScale_3309", push="64", pop="64", peek="64", pushType="float", popType="complex", peekType="complex", codeSize="73 b", stackSize="544 b", work="361"];
node1 -> node22;
node23 [label="SquareAndScale_3310", push="64", pop="64", peek="64", pushType="float", popType="complex", peekType="complex", codeSize="73 b", stackSize="544 b", work="361"];
node1 -> node23;
node24 [label="SquareAndScale_3311", push="64", pop="64", peek="64", pushType="float", popType="complex", peekType="complex", codeSize="73 b", stackSize="544 b", work="361"];
node1 -> node24;
node25 [label="SquareAndScale_3312", push="64", pop="64", peek="64", pushType="float", popType="complex", peekType="complex", codeSize="73 b", stackSize="544 b", work="361"];
node1 -> node25;
node26 [label="SquareAndScale_3313", push="64", pop="64", peek="64", pushType="float", popType="complex", peekType="complex", codeSize="73 b", stackSize="544 b", work="361"];
node1 -> node26;
node27 [label="SquareAndScale_3314", push="64", pop="64", peek="64", pushType="float", popType="complex", peekType="complex", codeSize="73 b", stackSize="544 b", work="361"];
node1 -> node27;
node28 [label="SquareAndScale_3315", push="64", pop="64", peek="64", pushType="float", popType="complex", peekType="complex", codeSize="73 b", stackSize="544 b", work="361"];
node1 -> node28;
node29 [label="SquareAndScale_3316", push="64", pop="64", peek="64", pushType="float", popType="complex", peekType="complex", codeSize="73 b", stackSize="544 b", work="361"];
node1 -> node29;
node30 [label="SquareAndScale_3317", push="64", pop="64", peek="64", pushType="float", popType="complex", peekType="complex", codeSize="73 b", stackSize="544 b", work="361"];
node1 -> node30;
node31 [label="SquareAndScale_3318", push="64", pop="64", peek="64", pushType="float", popType="complex", peekType="complex", codeSize="73 b", stackSize="544 b", work="361"];
node1 -> node31;
node32 [label="SquareAndScale_3319", push="64", pop="64", peek="64", pushType="float", popType="complex", peekType="complex", codeSize="73 b", stackSize="544 b", work="361"];
node1 -> node32;
node33 [label="SquareAndScale_3320", push="64", pop="64", peek="64", pushType="float", popType="complex", peekType="complex", codeSize="73 b", stackSize="544 b", work="361"];
node1 -> node33;
node34 [label="SquareAndScale_3321", push="64", pop="64", peek="64", pushType="float", popType="complex", peekType="complex", codeSize="73 b", stackSize="544 b", work="361"];
node1 -> node34;
node35 [label="SquareAndScale_3322", push="64", pop="64", peek="64", pushType="float", popType="complex", peekType="complex", codeSize="73 b", stackSize="544 b", work="361"];
node1 -> node35;
node36 [label="SquareAndScale_3323", push="64", pop="64", peek="64", pushType="float", popType="complex", peekType="complex", codeSize="73 b", stackSize="544 b", work="361"];
node1 -> node36;
node37 [label="WEIGHTED_ROUND_ROBIN_Joiner_3288", push="2240", pop="2240", peek="0", pushType="float", popType="float", peekType="void", codeSize="426 b", stackSize="32 b", work="0"];
node2 -> node37;
node3 -> node37;
node4 -> node37;
node5 -> node37;
node6 -> node37;
node7 -> node37;
node8 -> node37;
node9 -> node37;
node10 -> node37;
node11 -> node37;
node12 -> node37;
node13 -> node37;
node14 -> node37;
node15 -> node37;
node16 -> node37;
node17 -> node37;
node18 -> node37;
node19 -> node37;
node20 -> node37;
node21 -> node37;
node22 -> node37;
node23 -> node37;
node24 -> node37;
node25 -> node37;
node26 -> node37;
node27 -> node37;
node28 -> node37;
node29 -> node37;
node30 -> node37;
node31 -> node37;
node32 -> node37;
node33 -> node37;
node34 -> node37;
node35 -> node37;
node36 -> node37;
node38 [label="CFAR_gather_3284", push="2240", pop="2240", peek="22400", pushType="float", popType="float", peekType="float", codeSize="354 b", stackSize="128 b", work="202"];
node37 -> node38;
node39 [label="AnonFilter_a0_3285", push="0", pop="2240", peek="2240", pushType="void", popType="float", peekType="float", codeSize="16 b", stackSize="0 b", work="6"];
node38 -> node39;
}
