digraph CFARtest_3070 {
node0 [label="ComplexSource_3023", push="1216", pop="0", peek="0", pushType="complex", popType="void", peekType="void", codeSize="309 b", stackSize="544 b", work="61760"];
node1 [label="WEIGHTED_ROUND_ROBIN_Splitter_3029", push="1216", pop="1216", peek="0", pushType="complex", popType="complex", peekType="void", codeSize="462 b", stackSize="32 b", work="0"];
node0 -> node1;
node2 [label="SquareAndScale_3031", push="32", pop="32", peek="32", pushType="float", popType="complex", peekType="complex", codeSize="73 b", stackSize="544 b", work="361"];
node1 -> node2;
node3 [label="SquareAndScale_3032", push="32", pop="32", peek="32", pushType="float", popType="complex", peekType="complex", codeSize="73 b", stackSize="544 b", work="361"];
node1 -> node3;
node4 [label="SquareAndScale_3033", push="32", pop="32", peek="32", pushType="float", popType="complex", peekType="complex", codeSize="73 b", stackSize="544 b", work="361"];
node1 -> node4;
node5 [label="SquareAndScale_3034", push="32", pop="32", peek="32", pushType="float", popType="complex", peekType="complex", codeSize="73 b", stackSize="544 b", work="361"];
node1 -> node5;
node6 [label="SquareAndScale_3035", push="32", pop="32", peek="32", pushType="float", popType="complex", peekType="complex", codeSize="73 b", stackSize="544 b", work="361"];
node1 -> node6;
node7 [label="SquareAndScale_3036", push="32", pop="32", peek="32", pushType="float", popType="complex", peekType="complex", codeSize="73 b", stackSize="544 b", work="361"];
node1 -> node7;
node8 [label="SquareAndScale_3037", push="32", pop="32", peek="32", pushType="float", popType="complex", peekType="complex", codeSize="73 b", stackSize="544 b", work="361"];
node1 -> node8;
node9 [label="SquareAndScale_3038", push="32", pop="32", peek="32", pushType="float", popType="complex", peekType="complex", codeSize="73 b", stackSize="544 b", work="361"];
node1 -> node9;
node10 [label="SquareAndScale_3039", push="32", pop="32", peek="32", pushType="float", popType="complex", peekType="complex", codeSize="73 b", stackSize="544 b", work="361"];
node1 -> node10;
node11 [label="SquareAndScale_3040", push="32", pop="32", peek="32", pushType="float", popType="complex", peekType="complex", codeSize="73 b", stackSize="544 b", work="361"];
node1 -> node11;
node12 [label="SquareAndScale_3041", push="32", pop="32", peek="32", pushType="float", popType="complex", peekType="complex", codeSize="73 b", stackSize="544 b", work="361"];
node1 -> node12;
node13 [label="SquareAndScale_3042", push="32", pop="32", peek="32", pushType="float", popType="complex", peekType="complex", codeSize="73 b", stackSize="544 b", work="361"];
node1 -> node13;
node14 [label="SquareAndScale_3043", push="32", pop="32", peek="32", pushType="float", popType="complex", peekType="complex", codeSize="73 b", stackSize="544 b", work="361"];
node1 -> node14;
node15 [label="SquareAndScale_3044", push="32", pop="32", peek="32", pushType="float", popType="complex", peekType="complex", codeSize="73 b", stackSize="544 b", work="361"];
node1 -> node15;
node16 [label="SquareAndScale_3045", push="32", pop="32", peek="32", pushType="float", popType="complex", peekType="complex", codeSize="73 b", stackSize="544 b", work="361"];
node1 -> node16;
node17 [label="SquareAndScale_3046", push="32", pop="32", peek="32", pushType="float", popType="complex", peekType="complex", codeSize="73 b", stackSize="544 b", work="361"];
node1 -> node17;
node18 [label="SquareAndScale_3047", push="32", pop="32", peek="32", pushType="float", popType="complex", peekType="complex", codeSize="73 b", stackSize="544 b", work="361"];
node1 -> node18;
node19 [label="SquareAndScale_3048", push="32", pop="32", peek="32", pushType="float", popType="complex", peekType="complex", codeSize="73 b", stackSize="544 b", work="361"];
node1 -> node19;
node20 [label="SquareAndScale_3049", push="32", pop="32", peek="32", pushType="float", popType="complex", peekType="complex", codeSize="73 b", stackSize="544 b", work="361"];
node1 -> node20;
node21 [label="SquareAndScale_3050", push="32", pop="32", peek="32", pushType="float", popType="complex", peekType="complex", codeSize="73 b", stackSize="544 b", work="361"];
node1 -> node21;
node22 [label="SquareAndScale_3051", push="32", pop="32", peek="32", pushType="float", popType="complex", peekType="complex", codeSize="73 b", stackSize="544 b", work="361"];
node1 -> node22;
node23 [label="SquareAndScale_3052", push="32", pop="32", peek="32", pushType="float", popType="complex", peekType="complex", codeSize="73 b", stackSize="544 b", work="361"];
node1 -> node23;
node24 [label="SquareAndScale_3053", push="32", pop="32", peek="32", pushType="float", popType="complex", peekType="complex", codeSize="73 b", stackSize="544 b", work="361"];
node1 -> node24;
node25 [label="SquareAndScale_3054", push="32", pop="32", peek="32", pushType="float", popType="complex", peekType="complex", codeSize="73 b", stackSize="544 b", work="361"];
node1 -> node25;
node26 [label="SquareAndScale_3055", push="32", pop="32", peek="32", pushType="float", popType="complex", peekType="complex", codeSize="73 b", stackSize="544 b", work="361"];
node1 -> node26;
node27 [label="SquareAndScale_3056", push="32", pop="32", peek="32", pushType="float", popType="complex", peekType="complex", codeSize="73 b", stackSize="544 b", work="361"];
node1 -> node27;
node28 [label="SquareAndScale_3057", push="32", pop="32", peek="32", pushType="float", popType="complex", peekType="complex", codeSize="73 b", stackSize="544 b", work="361"];
node1 -> node28;
node29 [label="SquareAndScale_3058", push="32", pop="32", peek="32", pushType="float", popType="complex", peekType="complex", codeSize="73 b", stackSize="544 b", work="361"];
node1 -> node29;
node30 [label="SquareAndScale_3059", push="32", pop="32", peek="32", pushType="float", popType="complex", peekType="complex", codeSize="73 b", stackSize="544 b", work="361"];
node1 -> node30;
node31 [label="SquareAndScale_3060", push="32", pop="32", peek="32", pushType="float", popType="complex", peekType="complex", codeSize="73 b", stackSize="544 b", work="361"];
node1 -> node31;
node32 [label="SquareAndScale_3061", push="32", pop="32", peek="32", pushType="float", popType="complex", peekType="complex", codeSize="73 b", stackSize="544 b", work="361"];
node1 -> node32;
node33 [label="SquareAndScale_3062", push="32", pop="32", peek="32", pushType="float", popType="complex", peekType="complex", codeSize="73 b", stackSize="544 b", work="361"];
node1 -> node33;
node34 [label="SquareAndScale_3063", push="32", pop="32", peek="32", pushType="float", popType="complex", peekType="complex", codeSize="73 b", stackSize="544 b", work="361"];
node1 -> node34;
node35 [label="SquareAndScale_3064", push="32", pop="32", peek="32", pushType="float", popType="complex", peekType="complex", codeSize="73 b", stackSize="544 b", work="361"];
node1 -> node35;
node36 [label="SquareAndScale_3065", push="32", pop="32", peek="32", pushType="float", popType="complex", peekType="complex", codeSize="73 b", stackSize="544 b", work="361"];
node1 -> node36;
node37 [label="SquareAndScale_3066", push="32", pop="32", peek="32", pushType="float", popType="complex", peekType="complex", codeSize="73 b", stackSize="544 b", work="361"];
node1 -> node37;
node38 [label="SquareAndScale_3067", push="32", pop="32", peek="32", pushType="float", popType="complex", peekType="complex", codeSize="73 b", stackSize="544 b", work="361"];
node1 -> node38;
node39 [label="SquareAndScale_3068", push="32", pop="32", peek="32", pushType="float", popType="complex", peekType="complex", codeSize="73 b", stackSize="544 b", work="361"];
node1 -> node39;
node40 [label="WEIGHTED_ROUND_ROBIN_Joiner_3030", push="1216", pop="1216", peek="0", pushType="float", popType="float", peekType="void", codeSize="462 b", stackSize="32 b", work="0"];
node2 -> node40;
node3 -> node40;
node4 -> node40;
node5 -> node40;
node6 -> node40;
node7 -> node40;
node8 -> node40;
node9 -> node40;
node10 -> node40;
node11 -> node40;
node12 -> node40;
node13 -> node40;
node14 -> node40;
node15 -> node40;
node16 -> node40;
node17 -> node40;
node18 -> node40;
node19 -> node40;
node20 -> node40;
node21 -> node40;
node22 -> node40;
node23 -> node40;
node24 -> node40;
node25 -> node40;
node26 -> node40;
node27 -> node40;
node28 -> node40;
node29 -> node40;
node30 -> node40;
node31 -> node40;
node32 -> node40;
node33 -> node40;
node34 -> node40;
node35 -> node40;
node36 -> node40;
node37 -> node40;
node38 -> node40;
node39 -> node40;
node41 [label="CFAR_gather_3026", push="1216", pop="1216", peek="12160", pushType="float", popType="float", peekType="float", codeSize="354 b", stackSize="128 b", work="202"];
node40 -> node41;
node42 [label="AnonFilter_a0_3027", push="0", pop="1216", peek="1216", pushType="void", popType="float", peekType="float", codeSize="16 b", stackSize="0 b", work="6"];
node41 -> node42;
}
