digraph CFARtest_4925 {
node0 [label="ComplexSource_4913", push="192", pop="0", peek="0", pushType="complex", popType="void", peekType="void", codeSize="309 b", stackSize="544 b", work="61760"];
node1 [label="WEIGHTED_ROUND_ROBIN_Splitter_4919", push="192", pop="192", peek="0", pushType="complex", popType="complex", peekType="void", codeSize="42 b", stackSize="32 b", work="0"];
node0 -> node1;
node2 [label="SquareAndScale_4921", push="64", pop="64", peek="64", pushType="float", popType="complex", peekType="complex", codeSize="73 b", stackSize="544 b", work="361"];
node1 -> node2;
node3 [label="SquareAndScale_4922", push="64", pop="64", peek="64", pushType="float", popType="complex", peekType="complex", codeSize="73 b", stackSize="544 b", work="361"];
node1 -> node3;
node4 [label="SquareAndScale_4923", push="64", pop="64", peek="64", pushType="float", popType="complex", peekType="complex", codeSize="73 b", stackSize="544 b", work="361"];
node1 -> node4;
node5 [label="WEIGHTED_ROUND_ROBIN_Joiner_4920", push="192", pop="192", peek="0", pushType="float", popType="float", peekType="void", codeSize="42 b", stackSize="32 b", work="0"];
node2 -> node5;
node3 -> node5;
node4 -> node5;
node6 [label="CFAR_gather_4916", push="192", pop="192", peek="1920", pushType="float", popType="float", peekType="float", codeSize="354 b", stackSize="128 b", work="202"];
node5 -> node6;
node7 [label="AnonFilter_a0_4917", push="0", pop="192", peek="192", pushType="void", popType="float", peekType="float", codeSize="16 b", stackSize="0 b", work="6"];
node6 -> node7;
}
