digraph CFARtest_2090 {
node0 [label="ComplexSource_2033", push="192", pop="0", peek="0", pushType="complex", popType="void", peekType="void", codeSize="309 b", stackSize="544 b", work="61760"];
node1 [label="WEIGHTED_ROUND_ROBIN_Splitter_2039", push="192", pop="192", peek="0", pushType="complex", popType="complex", peekType="void", codeSize="582 b", stackSize="32 b", work="0"];
node0 -> node1;
node2 [label="SquareAndScale_2041", push="4", pop="4", peek="4", pushType="float", popType="complex", peekType="complex", codeSize="73 b", stackSize="544 b", work="361"];
node1 -> node2;
node3 [label="SquareAndScale_2042", push="4", pop="4", peek="4", pushType="float", popType="complex", peekType="complex", codeSize="73 b", stackSize="544 b", work="361"];
node1 -> node3;
node4 [label="SquareAndScale_2043", push="4", pop="4", peek="4", pushType="float", popType="complex", peekType="complex", codeSize="73 b", stackSize="544 b", work="361"];
node1 -> node4;
node5 [label="SquareAndScale_2044", push="4", pop="4", peek="4", pushType="float", popType="complex", peekType="complex", codeSize="73 b", stackSize="544 b", work="361"];
node1 -> node5;
node6 [label="SquareAndScale_2045", push="4", pop="4", peek="4", pushType="float", popType="complex", peekType="complex", codeSize="73 b", stackSize="544 b", work="361"];
node1 -> node6;
node7 [label="SquareAndScale_2046", push="4", pop="4", peek="4", pushType="float", popType="complex", peekType="complex", codeSize="73 b", stackSize="544 b", work="361"];
node1 -> node7;
node8 [label="SquareAndScale_2047", push="4", pop="4", peek="4", pushType="float", popType="complex", peekType="complex", codeSize="73 b", stackSize="544 b", work="361"];
node1 -> node8;
node9 [label="SquareAndScale_2048", push="4", pop="4", peek="4", pushType="float", popType="complex", peekType="complex", codeSize="73 b", stackSize="544 b", work="361"];
node1 -> node9;
node10 [label="SquareAndScale_2049", push="4", pop="4", peek="4", pushType="float", popType="complex", peekType="complex", codeSize="73 b", stackSize="544 b", work="361"];
node1 -> node10;
node11 [label="SquareAndScale_2050", push="4", pop="4", peek="4", pushType="float", popType="complex", peekType="complex", codeSize="73 b", stackSize="544 b", work="361"];
node1 -> node11;
node12 [label="SquareAndScale_2051", push="4", pop="4", peek="4", pushType="float", popType="complex", peekType="complex", codeSize="73 b", stackSize="544 b", work="361"];
node1 -> node12;
node13 [label="SquareAndScale_2052", push="4", pop="4", peek="4", pushType="float", popType="complex", peekType="complex", codeSize="73 b", stackSize="544 b", work="361"];
node1 -> node13;
node14 [label="SquareAndScale_2053", push="4", pop="4", peek="4", pushType="float", popType="complex", peekType="complex", codeSize="73 b", stackSize="544 b", work="361"];
node1 -> node14;
node15 [label="SquareAndScale_2054", push="4", pop="4", peek="4", pushType="float", popType="complex", peekType="complex", codeSize="73 b", stackSize="544 b", work="361"];
node1 -> node15;
node16 [label="SquareAndScale_2055", push="4", pop="4", peek="4", pushType="float", popType="complex", peekType="complex", codeSize="73 b", stackSize="544 b", work="361"];
node1 -> node16;
node17 [label="SquareAndScale_2056", push="4", pop="4", peek="4", pushType="float", popType="complex", peekType="complex", codeSize="73 b", stackSize="544 b", work="361"];
node1 -> node17;
node18 [label="SquareAndScale_2057", push="4", pop="4", peek="4", pushType="float", popType="complex", peekType="complex", codeSize="73 b", stackSize="544 b", work="361"];
node1 -> node18;
node19 [label="SquareAndScale_2058", push="4", pop="4", peek="4", pushType="float", popType="complex", peekType="complex", codeSize="73 b", stackSize="544 b", work="361"];
node1 -> node19;
node20 [label="SquareAndScale_2059", push="4", pop="4", peek="4", pushType="float", popType="complex", peekType="complex", codeSize="73 b", stackSize="544 b", work="361"];
node1 -> node20;
node21 [label="SquareAndScale_2060", push="4", pop="4", peek="4", pushType="float", popType="complex", peekType="complex", codeSize="73 b", stackSize="544 b", work="361"];
node1 -> node21;
node22 [label="SquareAndScale_2061", push="4", pop="4", peek="4", pushType="float", popType="complex", peekType="complex", codeSize="73 b", stackSize="544 b", work="361"];
node1 -> node22;
node23 [label="SquareAndScale_2062", push="4", pop="4", peek="4", pushType="float", popType="complex", peekType="complex", codeSize="73 b", stackSize="544 b", work="361"];
node1 -> node23;
node24 [label="SquareAndScale_2063", push="4", pop="4", peek="4", pushType="float", popType="complex", peekType="complex", codeSize="73 b", stackSize="544 b", work="361"];
node1 -> node24;
node25 [label="SquareAndScale_2064", push="4", pop="4", peek="4", pushType="float", popType="complex", peekType="complex", codeSize="73 b", stackSize="544 b", work="361"];
node1 -> node25;
node26 [label="SquareAndScale_2065", push="4", pop="4", peek="4", pushType="float", popType="complex", peekType="complex", codeSize="73 b", stackSize="544 b", work="361"];
node1 -> node26;
node27 [label="SquareAndScale_2066", push="4", pop="4", peek="4", pushType="float", popType="complex", peekType="complex", codeSize="73 b", stackSize="544 b", work="361"];
node1 -> node27;
node28 [label="SquareAndScale_2067", push="4", pop="4", peek="4", pushType="float", popType="complex", peekType="complex", codeSize="73 b", stackSize="544 b", work="361"];
node1 -> node28;
node29 [label="SquareAndScale_2068", push="4", pop="4", peek="4", pushType="float", popType="complex", peekType="complex", codeSize="73 b", stackSize="544 b", work="361"];
node1 -> node29;
node30 [label="SquareAndScale_2069", push="4", pop="4", peek="4", pushType="float", popType="complex", peekType="complex", codeSize="73 b", stackSize="544 b", work="361"];
node1 -> node30;
node31 [label="SquareAndScale_2070", push="4", pop="4", peek="4", pushType="float", popType="complex", peekType="complex", codeSize="73 b", stackSize="544 b", work="361"];
node1 -> node31;
node32 [label="SquareAndScale_2071", push="4", pop="4", peek="4", pushType="float", popType="complex", peekType="complex", codeSize="73 b", stackSize="544 b", work="361"];
node1 -> node32;
node33 [label="SquareAndScale_2072", push="4", pop="4", peek="4", pushType="float", popType="complex", peekType="complex", codeSize="73 b", stackSize="544 b", work="361"];
node1 -> node33;
node34 [label="SquareAndScale_2073", push="4", pop="4", peek="4", pushType="float", popType="complex", peekType="complex", codeSize="73 b", stackSize="544 b", work="361"];
node1 -> node34;
node35 [label="SquareAndScale_2074", push="4", pop="4", peek="4", pushType="float", popType="complex", peekType="complex", codeSize="73 b", stackSize="544 b", work="361"];
node1 -> node35;
node36 [label="SquareAndScale_2075", push="4", pop="4", peek="4", pushType="float", popType="complex", peekType="complex", codeSize="73 b", stackSize="544 b", work="361"];
node1 -> node36;
node37 [label="SquareAndScale_2076", push="4", pop="4", peek="4", pushType="float", popType="complex", peekType="complex", codeSize="73 b", stackSize="544 b", work="361"];
node1 -> node37;
node38 [label="SquareAndScale_2077", push="4", pop="4", peek="4", pushType="float", popType="complex", peekType="complex", codeSize="73 b", stackSize="544 b", work="361"];
node1 -> node38;
node39 [label="SquareAndScale_2078", push="4", pop="4", peek="4", pushType="float", popType="complex", peekType="complex", codeSize="73 b", stackSize="544 b", work="361"];
node1 -> node39;
node40 [label="SquareAndScale_2079", push="4", pop="4", peek="4", pushType="float", popType="complex", peekType="complex", codeSize="73 b", stackSize="544 b", work="361"];
node1 -> node40;
node41 [label="SquareAndScale_2080", push="4", pop="4", peek="4", pushType="float", popType="complex", peekType="complex", codeSize="73 b", stackSize="544 b", work="361"];
node1 -> node41;
node42 [label="SquareAndScale_2081", push="4", pop="4", peek="4", pushType="float", popType="complex", peekType="complex", codeSize="73 b", stackSize="544 b", work="361"];
node1 -> node42;
node43 [label="SquareAndScale_2082", push="4", pop="4", peek="4", pushType="float", popType="complex", peekType="complex", codeSize="73 b", stackSize="544 b", work="361"];
node1 -> node43;
node44 [label="SquareAndScale_2083", push="4", pop="4", peek="4", pushType="float", popType="complex", peekType="complex", codeSize="73 b", stackSize="544 b", work="361"];
node1 -> node44;
node45 [label="SquareAndScale_2084", push="4", pop="4", peek="4", pushType="float", popType="complex", peekType="complex", codeSize="73 b", stackSize="544 b", work="361"];
node1 -> node45;
node46 [label="SquareAndScale_2085", push="4", pop="4", peek="4", pushType="float", popType="complex", peekType="complex", codeSize="73 b", stackSize="544 b", work="361"];
node1 -> node46;
node47 [label="SquareAndScale_2086", push="4", pop="4", peek="4", pushType="float", popType="complex", peekType="complex", codeSize="73 b", stackSize="544 b", work="361"];
node1 -> node47;
node48 [label="SquareAndScale_2087", push="4", pop="4", peek="4", pushType="float", popType="complex", peekType="complex", codeSize="73 b", stackSize="544 b", work="361"];
node1 -> node48;
node49 [label="SquareAndScale_2088", push="4", pop="4", peek="4", pushType="float", popType="complex", peekType="complex", codeSize="73 b", stackSize="544 b", work="361"];
node1 -> node49;
node50 [label="WEIGHTED_ROUND_ROBIN_Joiner_2040", push="192", pop="192", peek="0", pushType="float", popType="float", peekType="void", codeSize="582 b", stackSize="32 b", work="0"];
node2 -> node50;
node3 -> node50;
node4 -> node50;
node5 -> node50;
node6 -> node50;
node7 -> node50;
node8 -> node50;
node9 -> node50;
node10 -> node50;
node11 -> node50;
node12 -> node50;
node13 -> node50;
node14 -> node50;
node15 -> node50;
node16 -> node50;
node17 -> node50;
node18 -> node50;
node19 -> node50;
node20 -> node50;
node21 -> node50;
node22 -> node50;
node23 -> node50;
node24 -> node50;
node25 -> node50;
node26 -> node50;
node27 -> node50;
node28 -> node50;
node29 -> node50;
node30 -> node50;
node31 -> node50;
node32 -> node50;
node33 -> node50;
node34 -> node50;
node35 -> node50;
node36 -> node50;
node37 -> node50;
node38 -> node50;
node39 -> node50;
node40 -> node50;
node41 -> node50;
node42 -> node50;
node43 -> node50;
node44 -> node50;
node45 -> node50;
node46 -> node50;
node47 -> node50;
node48 -> node50;
node49 -> node50;
node51 [label="CFAR_gather_2036", push="192", pop="192", peek="1920", pushType="float", popType="float", peekType="float", codeSize="354 b", stackSize="128 b", work="202"];
node50 -> node51;
node52 [label="AnonFilter_a0_2037", push="0", pop="192", peek="192", pushType="void", popType="float", peekType="float", codeSize="16 b", stackSize="0 b", work="6"];
node51 -> node52;
}
