digraph CFARtest_2797 {
node0 [label="ComplexSource_2747", push="2624", pop="0", peek="0", pushType="complex", popType="void", peekType="void", codeSize="309 b", stackSize="544 b", work="61760"];
node1 [label="WEIGHTED_ROUND_ROBIN_Splitter_2753", push="2624", pop="2624", peek="0", pushType="complex", popType="complex", peekType="void", codeSize="498 b", stackSize="32 b", work="0"];
node0 -> node1;
node2 [label="SquareAndScale_2755", push="64", pop="64", peek="64", pushType="float", popType="complex", peekType="complex", codeSize="73 b", stackSize="544 b", work="361"];
node1 -> node2;
node3 [label="SquareAndScale_2756", push="64", pop="64", peek="64", pushType="float", popType="complex", peekType="complex", codeSize="73 b", stackSize="544 b", work="361"];
node1 -> node3;
node4 [label="SquareAndScale_2757", push="64", pop="64", peek="64", pushType="float", popType="complex", peekType="complex", codeSize="73 b", stackSize="544 b", work="361"];
node1 -> node4;
node5 [label="SquareAndScale_2758", push="64", pop="64", peek="64", pushType="float", popType="complex", peekType="complex", codeSize="73 b", stackSize="544 b", work="361"];
node1 -> node5;
node6 [label="SquareAndScale_2759", push="64", pop="64", peek="64", pushType="float", popType="complex", peekType="complex", codeSize="73 b", stackSize="544 b", work="361"];
node1 -> node6;
node7 [label="SquareAndScale_2760", push="64", pop="64", peek="64", pushType="float", popType="complex", peekType="complex", codeSize="73 b", stackSize="544 b", work="361"];
node1 -> node7;
node8 [label="SquareAndScale_2761", push="64", pop="64", peek="64", pushType="float", popType="complex", peekType="complex", codeSize="73 b", stackSize="544 b", work="361"];
node1 -> node8;
node9 [label="SquareAndScale_2762", push="64", pop="64", peek="64", pushType="float", popType="complex", peekType="complex", codeSize="73 b", stackSize="544 b", work="361"];
node1 -> node9;
node10 [label="SquareAndScale_2763", push="64", pop="64", peek="64", pushType="float", popType="complex", peekType="complex", codeSize="73 b", stackSize="544 b", work="361"];
node1 -> node10;
node11 [label="SquareAndScale_2764", push="64", pop="64", peek="64", pushType="float", popType="complex", peekType="complex", codeSize="73 b", stackSize="544 b", work="361"];
node1 -> node11;
node12 [label="SquareAndScale_2765", push="64", pop="64", peek="64", pushType="float", popType="complex", peekType="complex", codeSize="73 b", stackSize="544 b", work="361"];
node1 -> node12;
node13 [label="SquareAndScale_2766", push="64", pop="64", peek="64", pushType="float", popType="complex", peekType="complex", codeSize="73 b", stackSize="544 b", work="361"];
node1 -> node13;
node14 [label="SquareAndScale_2767", push="64", pop="64", peek="64", pushType="float", popType="complex", peekType="complex", codeSize="73 b", stackSize="544 b", work="361"];
node1 -> node14;
node15 [label="SquareAndScale_2768", push="64", pop="64", peek="64", pushType="float", popType="complex", peekType="complex", codeSize="73 b", stackSize="544 b", work="361"];
node1 -> node15;
node16 [label="SquareAndScale_2769", push="64", pop="64", peek="64", pushType="float", popType="complex", peekType="complex", codeSize="73 b", stackSize="544 b", work="361"];
node1 -> node16;
node17 [label="SquareAndScale_2770", push="64", pop="64", peek="64", pushType="float", popType="complex", peekType="complex", codeSize="73 b", stackSize="544 b", work="361"];
node1 -> node17;
node18 [label="SquareAndScale_2771", push="64", pop="64", peek="64", pushType="float", popType="complex", peekType="complex", codeSize="73 b", stackSize="544 b", work="361"];
node1 -> node18;
node19 [label="SquareAndScale_2772", push="64", pop="64", peek="64", pushType="float", popType="complex", peekType="complex", codeSize="73 b", stackSize="544 b", work="361"];
node1 -> node19;
node20 [label="SquareAndScale_2773", push="64", pop="64", peek="64", pushType="float", popType="complex", peekType="complex", codeSize="73 b", stackSize="544 b", work="361"];
node1 -> node20;
node21 [label="SquareAndScale_2774", push="64", pop="64", peek="64", pushType="float", popType="complex", peekType="complex", codeSize="73 b", stackSize="544 b", work="361"];
node1 -> node21;
node22 [label="SquareAndScale_2775", push="64", pop="64", peek="64", pushType="float", popType="complex", peekType="complex", codeSize="73 b", stackSize="544 b", work="361"];
node1 -> node22;
node23 [label="SquareAndScale_2776", push="64", pop="64", peek="64", pushType="float", popType="complex", peekType="complex", codeSize="73 b", stackSize="544 b", work="361"];
node1 -> node23;
node24 [label="SquareAndScale_2777", push="64", pop="64", peek="64", pushType="float", popType="complex", peekType="complex", codeSize="73 b", stackSize="544 b", work="361"];
node1 -> node24;
node25 [label="SquareAndScale_2778", push="64", pop="64", peek="64", pushType="float", popType="complex", peekType="complex", codeSize="73 b", stackSize="544 b", work="361"];
node1 -> node25;
node26 [label="SquareAndScale_2779", push="64", pop="64", peek="64", pushType="float", popType="complex", peekType="complex", codeSize="73 b", stackSize="544 b", work="361"];
node1 -> node26;
node27 [label="SquareAndScale_2780", push="64", pop="64", peek="64", pushType="float", popType="complex", peekType="complex", codeSize="73 b", stackSize="544 b", work="361"];
node1 -> node27;
node28 [label="SquareAndScale_2781", push="64", pop="64", peek="64", pushType="float", popType="complex", peekType="complex", codeSize="73 b", stackSize="544 b", work="361"];
node1 -> node28;
node29 [label="SquareAndScale_2782", push="64", pop="64", peek="64", pushType="float", popType="complex", peekType="complex", codeSize="73 b", stackSize="544 b", work="361"];
node1 -> node29;
node30 [label="SquareAndScale_2783", push="64", pop="64", peek="64", pushType="float", popType="complex", peekType="complex", codeSize="73 b", stackSize="544 b", work="361"];
node1 -> node30;
node31 [label="SquareAndScale_2784", push="64", pop="64", peek="64", pushType="float", popType="complex", peekType="complex", codeSize="73 b", stackSize="544 b", work="361"];
node1 -> node31;
node32 [label="SquareAndScale_2785", push="64", pop="64", peek="64", pushType="float", popType="complex", peekType="complex", codeSize="73 b", stackSize="544 b", work="361"];
node1 -> node32;
node33 [label="SquareAndScale_2786", push="64", pop="64", peek="64", pushType="float", popType="complex", peekType="complex", codeSize="73 b", stackSize="544 b", work="361"];
node1 -> node33;
node34 [label="SquareAndScale_2787", push="64", pop="64", peek="64", pushType="float", popType="complex", peekType="complex", codeSize="73 b", stackSize="544 b", work="361"];
node1 -> node34;
node35 [label="SquareAndScale_2788", push="64", pop="64", peek="64", pushType="float", popType="complex", peekType="complex", codeSize="73 b", stackSize="544 b", work="361"];
node1 -> node35;
node36 [label="SquareAndScale_2789", push="64", pop="64", peek="64", pushType="float", popType="complex", peekType="complex", codeSize="73 b", stackSize="544 b", work="361"];
node1 -> node36;
node37 [label="SquareAndScale_2790", push="64", pop="64", peek="64", pushType="float", popType="complex", peekType="complex", codeSize="73 b", stackSize="544 b", work="361"];
node1 -> node37;
node38 [label="SquareAndScale_2791", push="64", pop="64", peek="64", pushType="float", popType="complex", peekType="complex", codeSize="73 b", stackSize="544 b", work="361"];
node1 -> node38;
node39 [label="SquareAndScale_2792", push="64", pop="64", peek="64", pushType="float", popType="complex", peekType="complex", codeSize="73 b", stackSize="544 b", work="361"];
node1 -> node39;
node40 [label="SquareAndScale_2793", push="64", pop="64", peek="64", pushType="float", popType="complex", peekType="complex", codeSize="73 b", stackSize="544 b", work="361"];
node1 -> node40;
node41 [label="SquareAndScale_2794", push="64", pop="64", peek="64", pushType="float", popType="complex", peekType="complex", codeSize="73 b", stackSize="544 b", work="361"];
node1 -> node41;
node42 [label="SquareAndScale_2795", push="64", pop="64", peek="64", pushType="float", popType="complex", peekType="complex", codeSize="73 b", stackSize="544 b", work="361"];
node1 -> node42;
node43 [label="WEIGHTED_ROUND_ROBIN_Joiner_2754", push="2624", pop="2624", peek="0", pushType="float", popType="float", peekType="void", codeSize="498 b", stackSize="32 b", work="0"];
node2 -> node43;
node3 -> node43;
node4 -> node43;
node5 -> node43;
node6 -> node43;
node7 -> node43;
node8 -> node43;
node9 -> node43;
node10 -> node43;
node11 -> node43;
node12 -> node43;
node13 -> node43;
node14 -> node43;
node15 -> node43;
node16 -> node43;
node17 -> node43;
node18 -> node43;
node19 -> node43;
node20 -> node43;
node21 -> node43;
node22 -> node43;
node23 -> node43;
node24 -> node43;
node25 -> node43;
node26 -> node43;
node27 -> node43;
node28 -> node43;
node29 -> node43;
node30 -> node43;
node31 -> node43;
node32 -> node43;
node33 -> node43;
node34 -> node43;
node35 -> node43;
node36 -> node43;
node37 -> node43;
node38 -> node43;
node39 -> node43;
node40 -> node43;
node41 -> node43;
node42 -> node43;
node44 [label="CFAR_gather_2750", push="2624", pop="2624", peek="26240", pushType="float", popType="float", peekType="float", codeSize="354 b", stackSize="128 b", work="202"];
node43 -> node44;
node45 [label="AnonFilter_a0_2751", push="0", pop="2624", peek="2624", pushType="void", popType="float", peekType="float", codeSize="16 b", stackSize="0 b", work="6"];
node44 -> node45;
}
