digraph CFARtest_910 {
node0 [label="ComplexSource_843", push="1856", pop="0", peek="0", pushType="complex", popType="void", peekType="void", codeSize="309 b", stackSize="544 b", work="61760"];
node1 [label="WEIGHTED_ROUND_ROBIN_Splitter_849", push="1856", pop="1856", peek="0", pushType="complex", popType="complex", peekType="void", codeSize="702 b", stackSize="32 b", work="0"];
node0 -> node1;
node2 [label="SquareAndScale_851", push="32", pop="32", peek="32", pushType="float", popType="complex", peekType="complex", codeSize="73 b", stackSize="544 b", work="361"];
node1 -> node2;
node3 [label="SquareAndScale_852", push="32", pop="32", peek="32", pushType="float", popType="complex", peekType="complex", codeSize="73 b", stackSize="544 b", work="361"];
node1 -> node3;
node4 [label="SquareAndScale_853", push="32", pop="32", peek="32", pushType="float", popType="complex", peekType="complex", codeSize="73 b", stackSize="544 b", work="361"];
node1 -> node4;
node5 [label="SquareAndScale_854", push="32", pop="32", peek="32", pushType="float", popType="complex", peekType="complex", codeSize="73 b", stackSize="544 b", work="361"];
node1 -> node5;
node6 [label="SquareAndScale_855", push="32", pop="32", peek="32", pushType="float", popType="complex", peekType="complex", codeSize="73 b", stackSize="544 b", work="361"];
node1 -> node6;
node7 [label="SquareAndScale_856", push="32", pop="32", peek="32", pushType="float", popType="complex", peekType="complex", codeSize="73 b", stackSize="544 b", work="361"];
node1 -> node7;
node8 [label="SquareAndScale_857", push="32", pop="32", peek="32", pushType="float", popType="complex", peekType="complex", codeSize="73 b", stackSize="544 b", work="361"];
node1 -> node8;
node9 [label="SquareAndScale_858", push="32", pop="32", peek="32", pushType="float", popType="complex", peekType="complex", codeSize="73 b", stackSize="544 b", work="361"];
node1 -> node9;
node10 [label="SquareAndScale_859", push="32", pop="32", peek="32", pushType="float", popType="complex", peekType="complex", codeSize="73 b", stackSize="544 b", work="361"];
node1 -> node10;
node11 [label="SquareAndScale_860", push="32", pop="32", peek="32", pushType="float", popType="complex", peekType="complex", codeSize="73 b", stackSize="544 b", work="361"];
node1 -> node11;
node12 [label="SquareAndScale_861", push="32", pop="32", peek="32", pushType="float", popType="complex", peekType="complex", codeSize="73 b", stackSize="544 b", work="361"];
node1 -> node12;
node13 [label="SquareAndScale_862", push="32", pop="32", peek="32", pushType="float", popType="complex", peekType="complex", codeSize="73 b", stackSize="544 b", work="361"];
node1 -> node13;
node14 [label="SquareAndScale_863", push="32", pop="32", peek="32", pushType="float", popType="complex", peekType="complex", codeSize="73 b", stackSize="544 b", work="361"];
node1 -> node14;
node15 [label="SquareAndScale_864", push="32", pop="32", peek="32", pushType="float", popType="complex", peekType="complex", codeSize="73 b", stackSize="544 b", work="361"];
node1 -> node15;
node16 [label="SquareAndScale_865", push="32", pop="32", peek="32", pushType="float", popType="complex", peekType="complex", codeSize="73 b", stackSize="544 b", work="361"];
node1 -> node16;
node17 [label="SquareAndScale_866", push="32", pop="32", peek="32", pushType="float", popType="complex", peekType="complex", codeSize="73 b", stackSize="544 b", work="361"];
node1 -> node17;
node18 [label="SquareAndScale_867", push="32", pop="32", peek="32", pushType="float", popType="complex", peekType="complex", codeSize="73 b", stackSize="544 b", work="361"];
node1 -> node18;
node19 [label="SquareAndScale_868", push="32", pop="32", peek="32", pushType="float", popType="complex", peekType="complex", codeSize="73 b", stackSize="544 b", work="361"];
node1 -> node19;
node20 [label="SquareAndScale_869", push="32", pop="32", peek="32", pushType="float", popType="complex", peekType="complex", codeSize="73 b", stackSize="544 b", work="361"];
node1 -> node20;
node21 [label="SquareAndScale_870", push="32", pop="32", peek="32", pushType="float", popType="complex", peekType="complex", codeSize="73 b", stackSize="544 b", work="361"];
node1 -> node21;
node22 [label="SquareAndScale_871", push="32", pop="32", peek="32", pushType="float", popType="complex", peekType="complex", codeSize="73 b", stackSize="544 b", work="361"];
node1 -> node22;
node23 [label="SquareAndScale_872", push="32", pop="32", peek="32", pushType="float", popType="complex", peekType="complex", codeSize="73 b", stackSize="544 b", work="361"];
node1 -> node23;
node24 [label="SquareAndScale_873", push="32", pop="32", peek="32", pushType="float", popType="complex", peekType="complex", codeSize="73 b", stackSize="544 b", work="361"];
node1 -> node24;
node25 [label="SquareAndScale_874", push="32", pop="32", peek="32", pushType="float", popType="complex", peekType="complex", codeSize="73 b", stackSize="544 b", work="361"];
node1 -> node25;
node26 [label="SquareAndScale_875", push="32", pop="32", peek="32", pushType="float", popType="complex", peekType="complex", codeSize="73 b", stackSize="544 b", work="361"];
node1 -> node26;
node27 [label="SquareAndScale_876", push="32", pop="32", peek="32", pushType="float", popType="complex", peekType="complex", codeSize="73 b", stackSize="544 b", work="361"];
node1 -> node27;
node28 [label="SquareAndScale_877", push="32", pop="32", peek="32", pushType="float", popType="complex", peekType="complex", codeSize="73 b", stackSize="544 b", work="361"];
node1 -> node28;
node29 [label="SquareAndScale_878", push="32", pop="32", peek="32", pushType="float", popType="complex", peekType="complex", codeSize="73 b", stackSize="544 b", work="361"];
node1 -> node29;
node30 [label="SquareAndScale_879", push="32", pop="32", peek="32", pushType="float", popType="complex", peekType="complex", codeSize="73 b", stackSize="544 b", work="361"];
node1 -> node30;
node31 [label="SquareAndScale_880", push="32", pop="32", peek="32", pushType="float", popType="complex", peekType="complex", codeSize="73 b", stackSize="544 b", work="361"];
node1 -> node31;
node32 [label="SquareAndScale_881", push="32", pop="32", peek="32", pushType="float", popType="complex", peekType="complex", codeSize="73 b", stackSize="544 b", work="361"];
node1 -> node32;
node33 [label="SquareAndScale_882", push="32", pop="32", peek="32", pushType="float", popType="complex", peekType="complex", codeSize="73 b", stackSize="544 b", work="361"];
node1 -> node33;
node34 [label="SquareAndScale_883", push="32", pop="32", peek="32", pushType="float", popType="complex", peekType="complex", codeSize="73 b", stackSize="544 b", work="361"];
node1 -> node34;
node35 [label="SquareAndScale_884", push="32", pop="32", peek="32", pushType="float", popType="complex", peekType="complex", codeSize="73 b", stackSize="544 b", work="361"];
node1 -> node35;
node36 [label="SquareAndScale_885", push="32", pop="32", peek="32", pushType="float", popType="complex", peekType="complex", codeSize="73 b", stackSize="544 b", work="361"];
node1 -> node36;
node37 [label="SquareAndScale_886", push="32", pop="32", peek="32", pushType="float", popType="complex", peekType="complex", codeSize="73 b", stackSize="544 b", work="361"];
node1 -> node37;
node38 [label="SquareAndScale_887", push="32", pop="32", peek="32", pushType="float", popType="complex", peekType="complex", codeSize="73 b", stackSize="544 b", work="361"];
node1 -> node38;
node39 [label="SquareAndScale_888", push="32", pop="32", peek="32", pushType="float", popType="complex", peekType="complex", codeSize="73 b", stackSize="544 b", work="361"];
node1 -> node39;
node40 [label="SquareAndScale_889", push="32", pop="32", peek="32", pushType="float", popType="complex", peekType="complex", codeSize="73 b", stackSize="544 b", work="361"];
node1 -> node40;
node41 [label="SquareAndScale_890", push="32", pop="32", peek="32", pushType="float", popType="complex", peekType="complex", codeSize="73 b", stackSize="544 b", work="361"];
node1 -> node41;
node42 [label="SquareAndScale_891", push="32", pop="32", peek="32", pushType="float", popType="complex", peekType="complex", codeSize="73 b", stackSize="544 b", work="361"];
node1 -> node42;
node43 [label="SquareAndScale_892", push="32", pop="32", peek="32", pushType="float", popType="complex", peekType="complex", codeSize="73 b", stackSize="544 b", work="361"];
node1 -> node43;
node44 [label="SquareAndScale_893", push="32", pop="32", peek="32", pushType="float", popType="complex", peekType="complex", codeSize="73 b", stackSize="544 b", work="361"];
node1 -> node44;
node45 [label="SquareAndScale_894", push="32", pop="32", peek="32", pushType="float", popType="complex", peekType="complex", codeSize="73 b", stackSize="544 b", work="361"];
node1 -> node45;
node46 [label="SquareAndScale_895", push="32", pop="32", peek="32", pushType="float", popType="complex", peekType="complex", codeSize="73 b", stackSize="544 b", work="361"];
node1 -> node46;
node47 [label="SquareAndScale_896", push="32", pop="32", peek="32", pushType="float", popType="complex", peekType="complex", codeSize="73 b", stackSize="544 b", work="361"];
node1 -> node47;
node48 [label="SquareAndScale_897", push="32", pop="32", peek="32", pushType="float", popType="complex", peekType="complex", codeSize="73 b", stackSize="544 b", work="361"];
node1 -> node48;
node49 [label="SquareAndScale_898", push="32", pop="32", peek="32", pushType="float", popType="complex", peekType="complex", codeSize="73 b", stackSize="544 b", work="361"];
node1 -> node49;
node50 [label="SquareAndScale_899", push="32", pop="32", peek="32", pushType="float", popType="complex", peekType="complex", codeSize="73 b", stackSize="544 b", work="361"];
node1 -> node50;
node51 [label="SquareAndScale_900", push="32", pop="32", peek="32", pushType="float", popType="complex", peekType="complex", codeSize="73 b", stackSize="544 b", work="361"];
node1 -> node51;
node52 [label="SquareAndScale_901", push="32", pop="32", peek="32", pushType="float", popType="complex", peekType="complex", codeSize="73 b", stackSize="544 b", work="361"];
node1 -> node52;
node53 [label="SquareAndScale_902", push="32", pop="32", peek="32", pushType="float", popType="complex", peekType="complex", codeSize="73 b", stackSize="544 b", work="361"];
node1 -> node53;
node54 [label="SquareAndScale_903", push="32", pop="32", peek="32", pushType="float", popType="complex", peekType="complex", codeSize="73 b", stackSize="544 b", work="361"];
node1 -> node54;
node55 [label="SquareAndScale_904", push="32", pop="32", peek="32", pushType="float", popType="complex", peekType="complex", codeSize="73 b", stackSize="544 b", work="361"];
node1 -> node55;
node56 [label="SquareAndScale_905", push="32", pop="32", peek="32", pushType="float", popType="complex", peekType="complex", codeSize="73 b", stackSize="544 b", work="361"];
node1 -> node56;
node57 [label="SquareAndScale_906", push="32", pop="32", peek="32", pushType="float", popType="complex", peekType="complex", codeSize="73 b", stackSize="544 b", work="361"];
node1 -> node57;
node58 [label="SquareAndScale_907", push="32", pop="32", peek="32", pushType="float", popType="complex", peekType="complex", codeSize="73 b", stackSize="544 b", work="361"];
node1 -> node58;
node59 [label="SquareAndScale_908", push="32", pop="32", peek="32", pushType="float", popType="complex", peekType="complex", codeSize="73 b", stackSize="544 b", work="361"];
node1 -> node59;
node60 [label="WEIGHTED_ROUND_ROBIN_Joiner_850", push="1856", pop="1856", peek="0", pushType="float", popType="float", peekType="void", codeSize="702 b", stackSize="32 b", work="0"];
node2 -> node60;
node3 -> node60;
node4 -> node60;
node5 -> node60;
node6 -> node60;
node7 -> node60;
node8 -> node60;
node9 -> node60;
node10 -> node60;
node11 -> node60;
node12 -> node60;
node13 -> node60;
node14 -> node60;
node15 -> node60;
node16 -> node60;
node17 -> node60;
node18 -> node60;
node19 -> node60;
node20 -> node60;
node21 -> node60;
node22 -> node60;
node23 -> node60;
node24 -> node60;
node25 -> node60;
node26 -> node60;
node27 -> node60;
node28 -> node60;
node29 -> node60;
node30 -> node60;
node31 -> node60;
node32 -> node60;
node33 -> node60;
node34 -> node60;
node35 -> node60;
node36 -> node60;
node37 -> node60;
node38 -> node60;
node39 -> node60;
node40 -> node60;
node41 -> node60;
node42 -> node60;
node43 -> node60;
node44 -> node60;
node45 -> node60;
node46 -> node60;
node47 -> node60;
node48 -> node60;
node49 -> node60;
node50 -> node60;
node51 -> node60;
node52 -> node60;
node53 -> node60;
node54 -> node60;
node55 -> node60;
node56 -> node60;
node57 -> node60;
node58 -> node60;
node59 -> node60;
node61 [label="CFAR_gather_846", push="1856", pop="1856", peek="18560", pushType="float", popType="float", peekType="float", codeSize="354 b", stackSize="128 b", work="202"];
node60 -> node61;
node62 [label="AnonFilter_a0_847", push="0", pop="1856", peek="1856", pushType="void", popType="float", peekType="float", codeSize="16 b", stackSize="0 b", work="6"];
node61 -> node62;
}
