digraph CFARtest_1642 {
node0 [label="ComplexSource_1581", push="832", pop="0", peek="0", pushType="complex", popType="void", peekType="void", codeSize="309 b", stackSize="544 b", work="61760"];
node1 [label="WEIGHTED_ROUND_ROBIN_Splitter_1587", push="832", pop="832", peek="0", pushType="complex", popType="complex", peekType="void", codeSize="630 b", stackSize="32 b", work="0"];
node0 -> node1;
node2 [label="SquareAndScale_1589", push="16", pop="16", peek="16", pushType="float", popType="complex", peekType="complex", codeSize="73 b", stackSize="544 b", work="361"];
node1 -> node2;
node3 [label="SquareAndScale_1590", push="16", pop="16", peek="16", pushType="float", popType="complex", peekType="complex", codeSize="73 b", stackSize="544 b", work="361"];
node1 -> node3;
node4 [label="SquareAndScale_1591", push="16", pop="16", peek="16", pushType="float", popType="complex", peekType="complex", codeSize="73 b", stackSize="544 b", work="361"];
node1 -> node4;
node5 [label="SquareAndScale_1592", push="16", pop="16", peek="16", pushType="float", popType="complex", peekType="complex", codeSize="73 b", stackSize="544 b", work="361"];
node1 -> node5;
node6 [label="SquareAndScale_1593", push="16", pop="16", peek="16", pushType="float", popType="complex", peekType="complex", codeSize="73 b", stackSize="544 b", work="361"];
node1 -> node6;
node7 [label="SquareAndScale_1594", push="16", pop="16", peek="16", pushType="float", popType="complex", peekType="complex", codeSize="73 b", stackSize="544 b", work="361"];
node1 -> node7;
node8 [label="SquareAndScale_1595", push="16", pop="16", peek="16", pushType="float", popType="complex", peekType="complex", codeSize="73 b", stackSize="544 b", work="361"];
node1 -> node8;
node9 [label="SquareAndScale_1596", push="16", pop="16", peek="16", pushType="float", popType="complex", peekType="complex", codeSize="73 b", stackSize="544 b", work="361"];
node1 -> node9;
node10 [label="SquareAndScale_1597", push="16", pop="16", peek="16", pushType="float", popType="complex", peekType="complex", codeSize="73 b", stackSize="544 b", work="361"];
node1 -> node10;
node11 [label="SquareAndScale_1598", push="16", pop="16", peek="16", pushType="float", popType="complex", peekType="complex", codeSize="73 b", stackSize="544 b", work="361"];
node1 -> node11;
node12 [label="SquareAndScale_1599", push="16", pop="16", peek="16", pushType="float", popType="complex", peekType="complex", codeSize="73 b", stackSize="544 b", work="361"];
node1 -> node12;
node13 [label="SquareAndScale_1600", push="16", pop="16", peek="16", pushType="float", popType="complex", peekType="complex", codeSize="73 b", stackSize="544 b", work="361"];
node1 -> node13;
node14 [label="SquareAndScale_1601", push="16", pop="16", peek="16", pushType="float", popType="complex", peekType="complex", codeSize="73 b", stackSize="544 b", work="361"];
node1 -> node14;
node15 [label="SquareAndScale_1602", push="16", pop="16", peek="16", pushType="float", popType="complex", peekType="complex", codeSize="73 b", stackSize="544 b", work="361"];
node1 -> node15;
node16 [label="SquareAndScale_1603", push="16", pop="16", peek="16", pushType="float", popType="complex", peekType="complex", codeSize="73 b", stackSize="544 b", work="361"];
node1 -> node16;
node17 [label="SquareAndScale_1604", push="16", pop="16", peek="16", pushType="float", popType="complex", peekType="complex", codeSize="73 b", stackSize="544 b", work="361"];
node1 -> node17;
node18 [label="SquareAndScale_1605", push="16", pop="16", peek="16", pushType="float", popType="complex", peekType="complex", codeSize="73 b", stackSize="544 b", work="361"];
node1 -> node18;
node19 [label="SquareAndScale_1606", push="16", pop="16", peek="16", pushType="float", popType="complex", peekType="complex", codeSize="73 b", stackSize="544 b", work="361"];
node1 -> node19;
node20 [label="SquareAndScale_1607", push="16", pop="16", peek="16", pushType="float", popType="complex", peekType="complex", codeSize="73 b", stackSize="544 b", work="361"];
node1 -> node20;
node21 [label="SquareAndScale_1608", push="16", pop="16", peek="16", pushType="float", popType="complex", peekType="complex", codeSize="73 b", stackSize="544 b", work="361"];
node1 -> node21;
node22 [label="SquareAndScale_1609", push="16", pop="16", peek="16", pushType="float", popType="complex", peekType="complex", codeSize="73 b", stackSize="544 b", work="361"];
node1 -> node22;
node23 [label="SquareAndScale_1610", push="16", pop="16", peek="16", pushType="float", popType="complex", peekType="complex", codeSize="73 b", stackSize="544 b", work="361"];
node1 -> node23;
node24 [label="SquareAndScale_1611", push="16", pop="16", peek="16", pushType="float", popType="complex", peekType="complex", codeSize="73 b", stackSize="544 b", work="361"];
node1 -> node24;
node25 [label="SquareAndScale_1612", push="16", pop="16", peek="16", pushType="float", popType="complex", peekType="complex", codeSize="73 b", stackSize="544 b", work="361"];
node1 -> node25;
node26 [label="SquareAndScale_1613", push="16", pop="16", peek="16", pushType="float", popType="complex", peekType="complex", codeSize="73 b", stackSize="544 b", work="361"];
node1 -> node26;
node27 [label="SquareAndScale_1614", push="16", pop="16", peek="16", pushType="float", popType="complex", peekType="complex", codeSize="73 b", stackSize="544 b", work="361"];
node1 -> node27;
node28 [label="SquareAndScale_1615", push="16", pop="16", peek="16", pushType="float", popType="complex", peekType="complex", codeSize="73 b", stackSize="544 b", work="361"];
node1 -> node28;
node29 [label="SquareAndScale_1616", push="16", pop="16", peek="16", pushType="float", popType="complex", peekType="complex", codeSize="73 b", stackSize="544 b", work="361"];
node1 -> node29;
node30 [label="SquareAndScale_1617", push="16", pop="16", peek="16", pushType="float", popType="complex", peekType="complex", codeSize="73 b", stackSize="544 b", work="361"];
node1 -> node30;
node31 [label="SquareAndScale_1618", push="16", pop="16", peek="16", pushType="float", popType="complex", peekType="complex", codeSize="73 b", stackSize="544 b", work="361"];
node1 -> node31;
node32 [label="SquareAndScale_1619", push="16", pop="16", peek="16", pushType="float", popType="complex", peekType="complex", codeSize="73 b", stackSize="544 b", work="361"];
node1 -> node32;
node33 [label="SquareAndScale_1620", push="16", pop="16", peek="16", pushType="float", popType="complex", peekType="complex", codeSize="73 b", stackSize="544 b", work="361"];
node1 -> node33;
node34 [label="SquareAndScale_1621", push="16", pop="16", peek="16", pushType="float", popType="complex", peekType="complex", codeSize="73 b", stackSize="544 b", work="361"];
node1 -> node34;
node35 [label="SquareAndScale_1622", push="16", pop="16", peek="16", pushType="float", popType="complex", peekType="complex", codeSize="73 b", stackSize="544 b", work="361"];
node1 -> node35;
node36 [label="SquareAndScale_1623", push="16", pop="16", peek="16", pushType="float", popType="complex", peekType="complex", codeSize="73 b", stackSize="544 b", work="361"];
node1 -> node36;
node37 [label="SquareAndScale_1624", push="16", pop="16", peek="16", pushType="float", popType="complex", peekType="complex", codeSize="73 b", stackSize="544 b", work="361"];
node1 -> node37;
node38 [label="SquareAndScale_1625", push="16", pop="16", peek="16", pushType="float", popType="complex", peekType="complex", codeSize="73 b", stackSize="544 b", work="361"];
node1 -> node38;
node39 [label="SquareAndScale_1626", push="16", pop="16", peek="16", pushType="float", popType="complex", peekType="complex", codeSize="73 b", stackSize="544 b", work="361"];
node1 -> node39;
node40 [label="SquareAndScale_1627", push="16", pop="16", peek="16", pushType="float", popType="complex", peekType="complex", codeSize="73 b", stackSize="544 b", work="361"];
node1 -> node40;
node41 [label="SquareAndScale_1628", push="16", pop="16", peek="16", pushType="float", popType="complex", peekType="complex", codeSize="73 b", stackSize="544 b", work="361"];
node1 -> node41;
node42 [label="SquareAndScale_1629", push="16", pop="16", peek="16", pushType="float", popType="complex", peekType="complex", codeSize="73 b", stackSize="544 b", work="361"];
node1 -> node42;
node43 [label="SquareAndScale_1630", push="16", pop="16", peek="16", pushType="float", popType="complex", peekType="complex", codeSize="73 b", stackSize="544 b", work="361"];
node1 -> node43;
node44 [label="SquareAndScale_1631", push="16", pop="16", peek="16", pushType="float", popType="complex", peekType="complex", codeSize="73 b", stackSize="544 b", work="361"];
node1 -> node44;
node45 [label="SquareAndScale_1632", push="16", pop="16", peek="16", pushType="float", popType="complex", peekType="complex", codeSize="73 b", stackSize="544 b", work="361"];
node1 -> node45;
node46 [label="SquareAndScale_1633", push="16", pop="16", peek="16", pushType="float", popType="complex", peekType="complex", codeSize="73 b", stackSize="544 b", work="361"];
node1 -> node46;
node47 [label="SquareAndScale_1634", push="16", pop="16", peek="16", pushType="float", popType="complex", peekType="complex", codeSize="73 b", stackSize="544 b", work="361"];
node1 -> node47;
node48 [label="SquareAndScale_1635", push="16", pop="16", peek="16", pushType="float", popType="complex", peekType="complex", codeSize="73 b", stackSize="544 b", work="361"];
node1 -> node48;
node49 [label="SquareAndScale_1636", push="16", pop="16", peek="16", pushType="float", popType="complex", peekType="complex", codeSize="73 b", stackSize="544 b", work="361"];
node1 -> node49;
node50 [label="SquareAndScale_1637", push="16", pop="16", peek="16", pushType="float", popType="complex", peekType="complex", codeSize="73 b", stackSize="544 b", work="361"];
node1 -> node50;
node51 [label="SquareAndScale_1638", push="16", pop="16", peek="16", pushType="float", popType="complex", peekType="complex", codeSize="73 b", stackSize="544 b", work="361"];
node1 -> node51;
node52 [label="SquareAndScale_1639", push="16", pop="16", peek="16", pushType="float", popType="complex", peekType="complex", codeSize="73 b", stackSize="544 b", work="361"];
node1 -> node52;
node53 [label="SquareAndScale_1640", push="16", pop="16", peek="16", pushType="float", popType="complex", peekType="complex", codeSize="73 b", stackSize="544 b", work="361"];
node1 -> node53;
node54 [label="WEIGHTED_ROUND_ROBIN_Joiner_1588", push="832", pop="832", peek="0", pushType="float", popType="float", peekType="void", codeSize="630 b", stackSize="32 b", work="0"];
node2 -> node54;
node3 -> node54;
node4 -> node54;
node5 -> node54;
node6 -> node54;
node7 -> node54;
node8 -> node54;
node9 -> node54;
node10 -> node54;
node11 -> node54;
node12 -> node54;
node13 -> node54;
node14 -> node54;
node15 -> node54;
node16 -> node54;
node17 -> node54;
node18 -> node54;
node19 -> node54;
node20 -> node54;
node21 -> node54;
node22 -> node54;
node23 -> node54;
node24 -> node54;
node25 -> node54;
node26 -> node54;
node27 -> node54;
node28 -> node54;
node29 -> node54;
node30 -> node54;
node31 -> node54;
node32 -> node54;
node33 -> node54;
node34 -> node54;
node35 -> node54;
node36 -> node54;
node37 -> node54;
node38 -> node54;
node39 -> node54;
node40 -> node54;
node41 -> node54;
node42 -> node54;
node43 -> node54;
node44 -> node54;
node45 -> node54;
node46 -> node54;
node47 -> node54;
node48 -> node54;
node49 -> node54;
node50 -> node54;
node51 -> node54;
node52 -> node54;
node53 -> node54;
node55 [label="CFAR_gather_1584", push="832", pop="832", peek="8320", pushType="float", popType="float", peekType="float", codeSize="354 b", stackSize="128 b", work="202"];
node54 -> node55;
node56 [label="AnonFilter_a0_1585", push="0", pop="832", peek="832", pushType="void", popType="float", peekType="float", codeSize="16 b", stackSize="0 b", work="6"];
node55 -> node56;
}
