digraph CFARtest_1162 {
node0 [label="ComplexSource_1097", push="448", pop="0", peek="0", pushType="complex", popType="void", peekType="void", codeSize="309 b", stackSize="544 b", work="61760"];
node1 [label="WEIGHTED_ROUND_ROBIN_Splitter_1103", push="448", pop="448", peek="0", pushType="complex", popType="complex", peekType="void", codeSize="678 b", stackSize="32 b", work="0"];
node0 -> node1;
node2 [label="SquareAndScale_1105", push="8", pop="8", peek="8", pushType="float", popType="complex", peekType="complex", codeSize="73 b", stackSize="544 b", work="361"];
node1 -> node2;
node3 [label="SquareAndScale_1106", push="8", pop="8", peek="8", pushType="float", popType="complex", peekType="complex", codeSize="73 b", stackSize="544 b", work="361"];
node1 -> node3;
node4 [label="SquareAndScale_1107", push="8", pop="8", peek="8", pushType="float", popType="complex", peekType="complex", codeSize="73 b", stackSize="544 b", work="361"];
node1 -> node4;
node5 [label="SquareAndScale_1108", push="8", pop="8", peek="8", pushType="float", popType="complex", peekType="complex", codeSize="73 b", stackSize="544 b", work="361"];
node1 -> node5;
node6 [label="SquareAndScale_1109", push="8", pop="8", peek="8", pushType="float", popType="complex", peekType="complex", codeSize="73 b", stackSize="544 b", work="361"];
node1 -> node6;
node7 [label="SquareAndScale_1110", push="8", pop="8", peek="8", pushType="float", popType="complex", peekType="complex", codeSize="73 b", stackSize="544 b", work="361"];
node1 -> node7;
node8 [label="SquareAndScale_1111", push="8", pop="8", peek="8", pushType="float", popType="complex", peekType="complex", codeSize="73 b", stackSize="544 b", work="361"];
node1 -> node8;
node9 [label="SquareAndScale_1112", push="8", pop="8", peek="8", pushType="float", popType="complex", peekType="complex", codeSize="73 b", stackSize="544 b", work="361"];
node1 -> node9;
node10 [label="SquareAndScale_1113", push="8", pop="8", peek="8", pushType="float", popType="complex", peekType="complex", codeSize="73 b", stackSize="544 b", work="361"];
node1 -> node10;
node11 [label="SquareAndScale_1114", push="8", pop="8", peek="8", pushType="float", popType="complex", peekType="complex", codeSize="73 b", stackSize="544 b", work="361"];
node1 -> node11;
node12 [label="SquareAndScale_1115", push="8", pop="8", peek="8", pushType="float", popType="complex", peekType="complex", codeSize="73 b", stackSize="544 b", work="361"];
node1 -> node12;
node13 [label="SquareAndScale_1116", push="8", pop="8", peek="8", pushType="float", popType="complex", peekType="complex", codeSize="73 b", stackSize="544 b", work="361"];
node1 -> node13;
node14 [label="SquareAndScale_1117", push="8", pop="8", peek="8", pushType="float", popType="complex", peekType="complex", codeSize="73 b", stackSize="544 b", work="361"];
node1 -> node14;
node15 [label="SquareAndScale_1118", push="8", pop="8", peek="8", pushType="float", popType="complex", peekType="complex", codeSize="73 b", stackSize="544 b", work="361"];
node1 -> node15;
node16 [label="SquareAndScale_1119", push="8", pop="8", peek="8", pushType="float", popType="complex", peekType="complex", codeSize="73 b", stackSize="544 b", work="361"];
node1 -> node16;
node17 [label="SquareAndScale_1120", push="8", pop="8", peek="8", pushType="float", popType="complex", peekType="complex", codeSize="73 b", stackSize="544 b", work="361"];
node1 -> node17;
node18 [label="SquareAndScale_1121", push="8", pop="8", peek="8", pushType="float", popType="complex", peekType="complex", codeSize="73 b", stackSize="544 b", work="361"];
node1 -> node18;
node19 [label="SquareAndScale_1122", push="8", pop="8", peek="8", pushType="float", popType="complex", peekType="complex", codeSize="73 b", stackSize="544 b", work="361"];
node1 -> node19;
node20 [label="SquareAndScale_1123", push="8", pop="8", peek="8", pushType="float", popType="complex", peekType="complex", codeSize="73 b", stackSize="544 b", work="361"];
node1 -> node20;
node21 [label="SquareAndScale_1124", push="8", pop="8", peek="8", pushType="float", popType="complex", peekType="complex", codeSize="73 b", stackSize="544 b", work="361"];
node1 -> node21;
node22 [label="SquareAndScale_1125", push="8", pop="8", peek="8", pushType="float", popType="complex", peekType="complex", codeSize="73 b", stackSize="544 b", work="361"];
node1 -> node22;
node23 [label="SquareAndScale_1126", push="8", pop="8", peek="8", pushType="float", popType="complex", peekType="complex", codeSize="73 b", stackSize="544 b", work="361"];
node1 -> node23;
node24 [label="SquareAndScale_1127", push="8", pop="8", peek="8", pushType="float", popType="complex", peekType="complex", codeSize="73 b", stackSize="544 b", work="361"];
node1 -> node24;
node25 [label="SquareAndScale_1128", push="8", pop="8", peek="8", pushType="float", popType="complex", peekType="complex", codeSize="73 b", stackSize="544 b", work="361"];
node1 -> node25;
node26 [label="SquareAndScale_1129", push="8", pop="8", peek="8", pushType="float", popType="complex", peekType="complex", codeSize="73 b", stackSize="544 b", work="361"];
node1 -> node26;
node27 [label="SquareAndScale_1130", push="8", pop="8", peek="8", pushType="float", popType="complex", peekType="complex", codeSize="73 b", stackSize="544 b", work="361"];
node1 -> node27;
node28 [label="SquareAndScale_1131", push="8", pop="8", peek="8", pushType="float", popType="complex", peekType="complex", codeSize="73 b", stackSize="544 b", work="361"];
node1 -> node28;
node29 [label="SquareAndScale_1132", push="8", pop="8", peek="8", pushType="float", popType="complex", peekType="complex", codeSize="73 b", stackSize="544 b", work="361"];
node1 -> node29;
node30 [label="SquareAndScale_1133", push="8", pop="8", peek="8", pushType="float", popType="complex", peekType="complex", codeSize="73 b", stackSize="544 b", work="361"];
node1 -> node30;
node31 [label="SquareAndScale_1134", push="8", pop="8", peek="8", pushType="float", popType="complex", peekType="complex", codeSize="73 b", stackSize="544 b", work="361"];
node1 -> node31;
node32 [label="SquareAndScale_1135", push="8", pop="8", peek="8", pushType="float", popType="complex", peekType="complex", codeSize="73 b", stackSize="544 b", work="361"];
node1 -> node32;
node33 [label="SquareAndScale_1136", push="8", pop="8", peek="8", pushType="float", popType="complex", peekType="complex", codeSize="73 b", stackSize="544 b", work="361"];
node1 -> node33;
node34 [label="SquareAndScale_1137", push="8", pop="8", peek="8", pushType="float", popType="complex", peekType="complex", codeSize="73 b", stackSize="544 b", work="361"];
node1 -> node34;
node35 [label="SquareAndScale_1138", push="8", pop="8", peek="8", pushType="float", popType="complex", peekType="complex", codeSize="73 b", stackSize="544 b", work="361"];
node1 -> node35;
node36 [label="SquareAndScale_1139", push="8", pop="8", peek="8", pushType="float", popType="complex", peekType="complex", codeSize="73 b", stackSize="544 b", work="361"];
node1 -> node36;
node37 [label="SquareAndScale_1140", push="8", pop="8", peek="8", pushType="float", popType="complex", peekType="complex", codeSize="73 b", stackSize="544 b", work="361"];
node1 -> node37;
node38 [label="SquareAndScale_1141", push="8", pop="8", peek="8", pushType="float", popType="complex", peekType="complex", codeSize="73 b", stackSize="544 b", work="361"];
node1 -> node38;
node39 [label="SquareAndScale_1142", push="8", pop="8", peek="8", pushType="float", popType="complex", peekType="complex", codeSize="73 b", stackSize="544 b", work="361"];
node1 -> node39;
node40 [label="SquareAndScale_1143", push="8", pop="8", peek="8", pushType="float", popType="complex", peekType="complex", codeSize="73 b", stackSize="544 b", work="361"];
node1 -> node40;
node41 [label="SquareAndScale_1144", push="8", pop="8", peek="8", pushType="float", popType="complex", peekType="complex", codeSize="73 b", stackSize="544 b", work="361"];
node1 -> node41;
node42 [label="SquareAndScale_1145", push="8", pop="8", peek="8", pushType="float", popType="complex", peekType="complex", codeSize="73 b", stackSize="544 b", work="361"];
node1 -> node42;
node43 [label="SquareAndScale_1146", push="8", pop="8", peek="8", pushType="float", popType="complex", peekType="complex", codeSize="73 b", stackSize="544 b", work="361"];
node1 -> node43;
node44 [label="SquareAndScale_1147", push="8", pop="8", peek="8", pushType="float", popType="complex", peekType="complex", codeSize="73 b", stackSize="544 b", work="361"];
node1 -> node44;
node45 [label="SquareAndScale_1148", push="8", pop="8", peek="8", pushType="float", popType="complex", peekType="complex", codeSize="73 b", stackSize="544 b", work="361"];
node1 -> node45;
node46 [label="SquareAndScale_1149", push="8", pop="8", peek="8", pushType="float", popType="complex", peekType="complex", codeSize="73 b", stackSize="544 b", work="361"];
node1 -> node46;
node47 [label="SquareAndScale_1150", push="8", pop="8", peek="8", pushType="float", popType="complex", peekType="complex", codeSize="73 b", stackSize="544 b", work="361"];
node1 -> node47;
node48 [label="SquareAndScale_1151", push="8", pop="8", peek="8", pushType="float", popType="complex", peekType="complex", codeSize="73 b", stackSize="544 b", work="361"];
node1 -> node48;
node49 [label="SquareAndScale_1152", push="8", pop="8", peek="8", pushType="float", popType="complex", peekType="complex", codeSize="73 b", stackSize="544 b", work="361"];
node1 -> node49;
node50 [label="SquareAndScale_1153", push="8", pop="8", peek="8", pushType="float", popType="complex", peekType="complex", codeSize="73 b", stackSize="544 b", work="361"];
node1 -> node50;
node51 [label="SquareAndScale_1154", push="8", pop="8", peek="8", pushType="float", popType="complex", peekType="complex", codeSize="73 b", stackSize="544 b", work="361"];
node1 -> node51;
node52 [label="SquareAndScale_1155", push="8", pop="8", peek="8", pushType="float", popType="complex", peekType="complex", codeSize="73 b", stackSize="544 b", work="361"];
node1 -> node52;
node53 [label="SquareAndScale_1156", push="8", pop="8", peek="8", pushType="float", popType="complex", peekType="complex", codeSize="73 b", stackSize="544 b", work="361"];
node1 -> node53;
node54 [label="SquareAndScale_1157", push="8", pop="8", peek="8", pushType="float", popType="complex", peekType="complex", codeSize="73 b", stackSize="544 b", work="361"];
node1 -> node54;
node55 [label="SquareAndScale_1158", push="8", pop="8", peek="8", pushType="float", popType="complex", peekType="complex", codeSize="73 b", stackSize="544 b", work="361"];
node1 -> node55;
node56 [label="SquareAndScale_1159", push="8", pop="8", peek="8", pushType="float", popType="complex", peekType="complex", codeSize="73 b", stackSize="544 b", work="361"];
node1 -> node56;
node57 [label="SquareAndScale_1160", push="8", pop="8", peek="8", pushType="float", popType="complex", peekType="complex", codeSize="73 b", stackSize="544 b", work="361"];
node1 -> node57;
node58 [label="WEIGHTED_ROUND_ROBIN_Joiner_1104", push="448", pop="448", peek="0", pushType="float", popType="float", peekType="void", codeSize="678 b", stackSize="32 b", work="0"];
node2 -> node58;
node3 -> node58;
node4 -> node58;
node5 -> node58;
node6 -> node58;
node7 -> node58;
node8 -> node58;
node9 -> node58;
node10 -> node58;
node11 -> node58;
node12 -> node58;
node13 -> node58;
node14 -> node58;
node15 -> node58;
node16 -> node58;
node17 -> node58;
node18 -> node58;
node19 -> node58;
node20 -> node58;
node21 -> node58;
node22 -> node58;
node23 -> node58;
node24 -> node58;
node25 -> node58;
node26 -> node58;
node27 -> node58;
node28 -> node58;
node29 -> node58;
node30 -> node58;
node31 -> node58;
node32 -> node58;
node33 -> node58;
node34 -> node58;
node35 -> node58;
node36 -> node58;
node37 -> node58;
node38 -> node58;
node39 -> node58;
node40 -> node58;
node41 -> node58;
node42 -> node58;
node43 -> node58;
node44 -> node58;
node45 -> node58;
node46 -> node58;
node47 -> node58;
node48 -> node58;
node49 -> node58;
node50 -> node58;
node51 -> node58;
node52 -> node58;
node53 -> node58;
node54 -> node58;
node55 -> node58;
node56 -> node58;
node57 -> node58;
node59 [label="CFAR_gather_1100", push="448", pop="448", peek="4480", pushType="float", popType="float", peekType="float", codeSize="354 b", stackSize="128 b", work="202"];
node58 -> node59;
node60 [label="AnonFilter_a0_1101", push="0", pop="448", peek="448", pushType="void", popType="float", peekType="float", codeSize="16 b", stackSize="0 b", work="6"];
node59 -> node60;
}
