digraph CFARtest_382 {
node0 [label="ComplexSource_311", push="1984", pop="0", peek="0", pushType="complex", popType="void", peekType="void", codeSize="309 b", stackSize="544 b", work="61760"];
node1 [label="WEIGHTED_ROUND_ROBIN_Splitter_317", push="1984", pop="1984", peek="0", pushType="complex", popType="complex", peekType="void", codeSize="750 b", stackSize="32 b", work="0"];
node0 -> node1;
node2 [label="SquareAndScale_319", push="32", pop="32", peek="32", pushType="float", popType="complex", peekType="complex", codeSize="73 b", stackSize="544 b", work="361"];
node1 -> node2;
node3 [label="SquareAndScale_320", push="32", pop="32", peek="32", pushType="float", popType="complex", peekType="complex", codeSize="73 b", stackSize="544 b", work="361"];
node1 -> node3;
node4 [label="SquareAndScale_321", push="32", pop="32", peek="32", pushType="float", popType="complex", peekType="complex", codeSize="73 b", stackSize="544 b", work="361"];
node1 -> node4;
node5 [label="SquareAndScale_322", push="32", pop="32", peek="32", pushType="float", popType="complex", peekType="complex", codeSize="73 b", stackSize="544 b", work="361"];
node1 -> node5;
node6 [label="SquareAndScale_323", push="32", pop="32", peek="32", pushType="float", popType="complex", peekType="complex", codeSize="73 b", stackSize="544 b", work="361"];
node1 -> node6;
node7 [label="SquareAndScale_324", push="32", pop="32", peek="32", pushType="float", popType="complex", peekType="complex", codeSize="73 b", stackSize="544 b", work="361"];
node1 -> node7;
node8 [label="SquareAndScale_325", push="32", pop="32", peek="32", pushType="float", popType="complex", peekType="complex", codeSize="73 b", stackSize="544 b", work="361"];
node1 -> node8;
node9 [label="SquareAndScale_326", push="32", pop="32", peek="32", pushType="float", popType="complex", peekType="complex", codeSize="73 b", stackSize="544 b", work="361"];
node1 -> node9;
node10 [label="SquareAndScale_327", push="32", pop="32", peek="32", pushType="float", popType="complex", peekType="complex", codeSize="73 b", stackSize="544 b", work="361"];
node1 -> node10;
node11 [label="SquareAndScale_328", push="32", pop="32", peek="32", pushType="float", popType="complex", peekType="complex", codeSize="73 b", stackSize="544 b", work="361"];
node1 -> node11;
node12 [label="SquareAndScale_329", push="32", pop="32", peek="32", pushType="float", popType="complex", peekType="complex", codeSize="73 b", stackSize="544 b", work="361"];
node1 -> node12;
node13 [label="SquareAndScale_330", push="32", pop="32", peek="32", pushType="float", popType="complex", peekType="complex", codeSize="73 b", stackSize="544 b", work="361"];
node1 -> node13;
node14 [label="SquareAndScale_331", push="32", pop="32", peek="32", pushType="float", popType="complex", peekType="complex", codeSize="73 b", stackSize="544 b", work="361"];
node1 -> node14;
node15 [label="SquareAndScale_332", push="32", pop="32", peek="32", pushType="float", popType="complex", peekType="complex", codeSize="73 b", stackSize="544 b", work="361"];
node1 -> node15;
node16 [label="SquareAndScale_333", push="32", pop="32", peek="32", pushType="float", popType="complex", peekType="complex", codeSize="73 b", stackSize="544 b", work="361"];
node1 -> node16;
node17 [label="SquareAndScale_334", push="32", pop="32", peek="32", pushType="float", popType="complex", peekType="complex", codeSize="73 b", stackSize="544 b", work="361"];
node1 -> node17;
node18 [label="SquareAndScale_335", push="32", pop="32", peek="32", pushType="float", popType="complex", peekType="complex", codeSize="73 b", stackSize="544 b", work="361"];
node1 -> node18;
node19 [label="SquareAndScale_336", push="32", pop="32", peek="32", pushType="float", popType="complex", peekType="complex", codeSize="73 b", stackSize="544 b", work="361"];
node1 -> node19;
node20 [label="SquareAndScale_337", push="32", pop="32", peek="32", pushType="float", popType="complex", peekType="complex", codeSize="73 b", stackSize="544 b", work="361"];
node1 -> node20;
node21 [label="SquareAndScale_338", push="32", pop="32", peek="32", pushType="float", popType="complex", peekType="complex", codeSize="73 b", stackSize="544 b", work="361"];
node1 -> node21;
node22 [label="SquareAndScale_339", push="32", pop="32", peek="32", pushType="float", popType="complex", peekType="complex", codeSize="73 b", stackSize="544 b", work="361"];
node1 -> node22;
node23 [label="SquareAndScale_340", push="32", pop="32", peek="32", pushType="float", popType="complex", peekType="complex", codeSize="73 b", stackSize="544 b", work="361"];
node1 -> node23;
node24 [label="SquareAndScale_341", push="32", pop="32", peek="32", pushType="float", popType="complex", peekType="complex", codeSize="73 b", stackSize="544 b", work="361"];
node1 -> node24;
node25 [label="SquareAndScale_342", push="32", pop="32", peek="32", pushType="float", popType="complex", peekType="complex", codeSize="73 b", stackSize="544 b", work="361"];
node1 -> node25;
node26 [label="SquareAndScale_343", push="32", pop="32", peek="32", pushType="float", popType="complex", peekType="complex", codeSize="73 b", stackSize="544 b", work="361"];
node1 -> node26;
node27 [label="SquareAndScale_344", push="32", pop="32", peek="32", pushType="float", popType="complex", peekType="complex", codeSize="73 b", stackSize="544 b", work="361"];
node1 -> node27;
node28 [label="SquareAndScale_345", push="32", pop="32", peek="32", pushType="float", popType="complex", peekType="complex", codeSize="73 b", stackSize="544 b", work="361"];
node1 -> node28;
node29 [label="SquareAndScale_346", push="32", pop="32", peek="32", pushType="float", popType="complex", peekType="complex", codeSize="73 b", stackSize="544 b", work="361"];
node1 -> node29;
node30 [label="SquareAndScale_347", push="32", pop="32", peek="32", pushType="float", popType="complex", peekType="complex", codeSize="73 b", stackSize="544 b", work="361"];
node1 -> node30;
node31 [label="SquareAndScale_348", push="32", pop="32", peek="32", pushType="float", popType="complex", peekType="complex", codeSize="73 b", stackSize="544 b", work="361"];
node1 -> node31;
node32 [label="SquareAndScale_349", push="32", pop="32", peek="32", pushType="float", popType="complex", peekType="complex", codeSize="73 b", stackSize="544 b", work="361"];
node1 -> node32;
node33 [label="SquareAndScale_350", push="32", pop="32", peek="32", pushType="float", popType="complex", peekType="complex", codeSize="73 b", stackSize="544 b", work="361"];
node1 -> node33;
node34 [label="SquareAndScale_351", push="32", pop="32", peek="32", pushType="float", popType="complex", peekType="complex", codeSize="73 b", stackSize="544 b", work="361"];
node1 -> node34;
node35 [label="SquareAndScale_352", push="32", pop="32", peek="32", pushType="float", popType="complex", peekType="complex", codeSize="73 b", stackSize="544 b", work="361"];
node1 -> node35;
node36 [label="SquareAndScale_353", push="32", pop="32", peek="32", pushType="float", popType="complex", peekType="complex", codeSize="73 b", stackSize="544 b", work="361"];
node1 -> node36;
node37 [label="SquareAndScale_354", push="32", pop="32", peek="32", pushType="float", popType="complex", peekType="complex", codeSize="73 b", stackSize="544 b", work="361"];
node1 -> node37;
node38 [label="SquareAndScale_355", push="32", pop="32", peek="32", pushType="float", popType="complex", peekType="complex", codeSize="73 b", stackSize="544 b", work="361"];
node1 -> node38;
node39 [label="SquareAndScale_356", push="32", pop="32", peek="32", pushType="float", popType="complex", peekType="complex", codeSize="73 b", stackSize="544 b", work="361"];
node1 -> node39;
node40 [label="SquareAndScale_357", push="32", pop="32", peek="32", pushType="float", popType="complex", peekType="complex", codeSize="73 b", stackSize="544 b", work="361"];
node1 -> node40;
node41 [label="SquareAndScale_358", push="32", pop="32", peek="32", pushType="float", popType="complex", peekType="complex", codeSize="73 b", stackSize="544 b", work="361"];
node1 -> node41;
node42 [label="SquareAndScale_359", push="32", pop="32", peek="32", pushType="float", popType="complex", peekType="complex", codeSize="73 b", stackSize="544 b", work="361"];
node1 -> node42;
node43 [label="SquareAndScale_360", push="32", pop="32", peek="32", pushType="float", popType="complex", peekType="complex", codeSize="73 b", stackSize="544 b", work="361"];
node1 -> node43;
node44 [label="SquareAndScale_361", push="32", pop="32", peek="32", pushType="float", popType="complex", peekType="complex", codeSize="73 b", stackSize="544 b", work="361"];
node1 -> node44;
node45 [label="SquareAndScale_362", push="32", pop="32", peek="32", pushType="float", popType="complex", peekType="complex", codeSize="73 b", stackSize="544 b", work="361"];
node1 -> node45;
node46 [label="SquareAndScale_363", push="32", pop="32", peek="32", pushType="float", popType="complex", peekType="complex", codeSize="73 b", stackSize="544 b", work="361"];
node1 -> node46;
node47 [label="SquareAndScale_364", push="32", pop="32", peek="32", pushType="float", popType="complex", peekType="complex", codeSize="73 b", stackSize="544 b", work="361"];
node1 -> node47;
node48 [label="SquareAndScale_365", push="32", pop="32", peek="32", pushType="float", popType="complex", peekType="complex", codeSize="73 b", stackSize="544 b", work="361"];
node1 -> node48;
node49 [label="SquareAndScale_366", push="32", pop="32", peek="32", pushType="float", popType="complex", peekType="complex", codeSize="73 b", stackSize="544 b", work="361"];
node1 -> node49;
node50 [label="SquareAndScale_367", push="32", pop="32", peek="32", pushType="float", popType="complex", peekType="complex", codeSize="73 b", stackSize="544 b", work="361"];
node1 -> node50;
node51 [label="SquareAndScale_368", push="32", pop="32", peek="32", pushType="float", popType="complex", peekType="complex", codeSize="73 b", stackSize="544 b", work="361"];
node1 -> node51;
node52 [label="SquareAndScale_369", push="32", pop="32", peek="32", pushType="float", popType="complex", peekType="complex", codeSize="73 b", stackSize="544 b", work="361"];
node1 -> node52;
node53 [label="SquareAndScale_370", push="32", pop="32", peek="32", pushType="float", popType="complex", peekType="complex", codeSize="73 b", stackSize="544 b", work="361"];
node1 -> node53;
node54 [label="SquareAndScale_371", push="32", pop="32", peek="32", pushType="float", popType="complex", peekType="complex", codeSize="73 b", stackSize="544 b", work="361"];
node1 -> node54;
node55 [label="SquareAndScale_372", push="32", pop="32", peek="32", pushType="float", popType="complex", peekType="complex", codeSize="73 b", stackSize="544 b", work="361"];
node1 -> node55;
node56 [label="SquareAndScale_373", push="32", pop="32", peek="32", pushType="float", popType="complex", peekType="complex", codeSize="73 b", stackSize="544 b", work="361"];
node1 -> node56;
node57 [label="SquareAndScale_374", push="32", pop="32", peek="32", pushType="float", popType="complex", peekType="complex", codeSize="73 b", stackSize="544 b", work="361"];
node1 -> node57;
node58 [label="SquareAndScale_375", push="32", pop="32", peek="32", pushType="float", popType="complex", peekType="complex", codeSize="73 b", stackSize="544 b", work="361"];
node1 -> node58;
node59 [label="SquareAndScale_376", push="32", pop="32", peek="32", pushType="float", popType="complex", peekType="complex", codeSize="73 b", stackSize="544 b", work="361"];
node1 -> node59;
node60 [label="SquareAndScale_377", push="32", pop="32", peek="32", pushType="float", popType="complex", peekType="complex", codeSize="73 b", stackSize="544 b", work="361"];
node1 -> node60;
node61 [label="SquareAndScale_378", push="32", pop="32", peek="32", pushType="float", popType="complex", peekType="complex", codeSize="73 b", stackSize="544 b", work="361"];
node1 -> node61;
node62 [label="SquareAndScale_379", push="32", pop="32", peek="32", pushType="float", popType="complex", peekType="complex", codeSize="73 b", stackSize="544 b", work="361"];
node1 -> node62;
node63 [label="SquareAndScale_380", push="32", pop="32", peek="32", pushType="float", popType="complex", peekType="complex", codeSize="73 b", stackSize="544 b", work="361"];
node1 -> node63;
node64 [label="WEIGHTED_ROUND_ROBIN_Joiner_318", push="1984", pop="1984", peek="0", pushType="float", popType="float", peekType="void", codeSize="750 b", stackSize="32 b", work="0"];
node2 -> node64;
node3 -> node64;
node4 -> node64;
node5 -> node64;
node6 -> node64;
node7 -> node64;
node8 -> node64;
node9 -> node64;
node10 -> node64;
node11 -> node64;
node12 -> node64;
node13 -> node64;
node14 -> node64;
node15 -> node64;
node16 -> node64;
node17 -> node64;
node18 -> node64;
node19 -> node64;
node20 -> node64;
node21 -> node64;
node22 -> node64;
node23 -> node64;
node24 -> node64;
node25 -> node64;
node26 -> node64;
node27 -> node64;
node28 -> node64;
node29 -> node64;
node30 -> node64;
node31 -> node64;
node32 -> node64;
node33 -> node64;
node34 -> node64;
node35 -> node64;
node36 -> node64;
node37 -> node64;
node38 -> node64;
node39 -> node64;
node40 -> node64;
node41 -> node64;
node42 -> node64;
node43 -> node64;
node44 -> node64;
node45 -> node64;
node46 -> node64;
node47 -> node64;
node48 -> node64;
node49 -> node64;
node50 -> node64;
node51 -> node64;
node52 -> node64;
node53 -> node64;
node54 -> node64;
node55 -> node64;
node56 -> node64;
node57 -> node64;
node58 -> node64;
node59 -> node64;
node60 -> node64;
node61 -> node64;
node62 -> node64;
node63 -> node64;
node65 [label="CFAR_gather_314", push="1984", pop="1984", peek="19840", pushType="float", popType="float", peekType="float", codeSize="354 b", stackSize="128 b", work="202"];
node64 -> node65;
node66 [label="AnonFilter_a0_315", push="0", pop="1984", peek="1984", pushType="void", popType="float", peekType="float", codeSize="16 b", stackSize="0 b", work="6"];
node65 -> node66;
}
