digraph CFARtest_4862 {
node0 [label="ComplexSource_4847", push="192", pop="0", peek="0", pushType="complex", popType="void", peekType="void", codeSize="309 b", stackSize="544 b", work="61760"];
node1 [label="WEIGHTED_ROUND_ROBIN_Splitter_4853", push="192", pop="192", peek="0", pushType="complex", popType="complex", peekType="void", codeSize="78 b", stackSize="32 b", work="0"];
node0 -> node1;
node2 [label="SquareAndScale_4855", push="32", pop="32", peek="32", pushType="float", popType="complex", peekType="complex", codeSize="73 b", stackSize="544 b", work="361"];
node1 -> node2;
node3 [label="SquareAndScale_4856", push="32", pop="32", peek="32", pushType="float", popType="complex", peekType="complex", codeSize="73 b", stackSize="544 b", work="361"];
node1 -> node3;
node4 [label="SquareAndScale_4857", push="32", pop="32", peek="32", pushType="float", popType="complex", peekType="complex", codeSize="73 b", stackSize="544 b", work="361"];
node1 -> node4;
node5 [label="SquareAndScale_4858", push="32", pop="32", peek="32", pushType="float", popType="complex", peekType="complex", codeSize="73 b", stackSize="544 b", work="361"];
node1 -> node5;
node6 [label="SquareAndScale_4859", push="32", pop="32", peek="32", pushType="float", popType="complex", peekType="complex", codeSize="73 b", stackSize="544 b", work="361"];
node1 -> node6;
node7 [label="SquareAndScale_4860", push="32", pop="32", peek="32", pushType="float", popType="complex", peekType="complex", codeSize="73 b", stackSize="544 b", work="361"];
node1 -> node7;
node8 [label="WEIGHTED_ROUND_ROBIN_Joiner_4854", push="192", pop="192", peek="0", pushType="float", popType="float", peekType="void", codeSize="78 b", stackSize="32 b", work="0"];
node2 -> node8;
node3 -> node8;
node4 -> node8;
node5 -> node8;
node6 -> node8;
node7 -> node8;
node9 [label="CFAR_gather_4850", push="192", pop="192", peek="1920", pushType="float", popType="float", peekType="float", codeSize="354 b", stackSize="128 b", work="202"];
node8 -> node9;
node10 [label="AnonFilter_a0_4851", push="0", pop="192", peek="192", pushType="void", popType="float", peekType="float", codeSize="16 b", stackSize="0 b", work="6"];
node9 -> node10;
}
