digraph CFARtest_4810 {
node0 [label="ComplexSource_4793", push="64", pop="0", peek="0", pushType="complex", popType="void", peekType="void", codeSize="309 b", stackSize="544 b", work="61760"];
node1 [label="WEIGHTED_ROUND_ROBIN_Splitter_4799", push="64", pop="64", peek="0", pushType="complex", popType="complex", peekType="void", codeSize="102 b", stackSize="32 b", work="0"];
node0 -> node1;
node2 [label="SquareAndScale_4801", push="8", pop="8", peek="8", pushType="float", popType="complex", peekType="complex", codeSize="73 b", stackSize="544 b", work="361"];
node1 -> node2;
node3 [label="SquareAndScale_4802", push="8", pop="8", peek="8", pushType="float", popType="complex", peekType="complex", codeSize="73 b", stackSize="544 b", work="361"];
node1 -> node3;
node4 [label="SquareAndScale_4803", push="8", pop="8", peek="8", pushType="float", popType="complex", peekType="complex", codeSize="73 b", stackSize="544 b", work="361"];
node1 -> node4;
node5 [label="SquareAndScale_4804", push="8", pop="8", peek="8", pushType="float", popType="complex", peekType="complex", codeSize="73 b", stackSize="544 b", work="361"];
node1 -> node5;
node6 [label="SquareAndScale_4805", push="8", pop="8", peek="8", pushType="float", popType="complex", peekType="complex", codeSize="73 b", stackSize="544 b", work="361"];
node1 -> node6;
node7 [label="SquareAndScale_4806", push="8", pop="8", peek="8", pushType="float", popType="complex", peekType="complex", codeSize="73 b", stackSize="544 b", work="361"];
node1 -> node7;
node8 [label="SquareAndScale_4807", push="8", pop="8", peek="8", pushType="float", popType="complex", peekType="complex", codeSize="73 b", stackSize="544 b", work="361"];
node1 -> node8;
node9 [label="SquareAndScale_4808", push="8", pop="8", peek="8", pushType="float", popType="complex", peekType="complex", codeSize="73 b", stackSize="544 b", work="361"];
node1 -> node9;
node10 [label="WEIGHTED_ROUND_ROBIN_Joiner_4800", push="64", pop="64", peek="0", pushType="float", popType="float", peekType="void", codeSize="102 b", stackSize="32 b", work="0"];
node2 -> node10;
node3 -> node10;
node4 -> node10;
node5 -> node10;
node6 -> node10;
node7 -> node10;
node8 -> node10;
node9 -> node10;
node11 [label="CFAR_gather_4796", push="64", pop="64", peek="640", pushType="float", popType="float", peekType="float", codeSize="354 b", stackSize="128 b", work="202"];
node10 -> node11;
node12 [label="AnonFilter_a0_4797", push="0", pop="64", peek="64", pushType="void", popType="float", peekType="float", codeSize="16 b", stackSize="0 b", work="6"];
node11 -> node12;
}
